<?xml version="1.0" encoding="utf-8"?>
<!-- Generator: Adobe Illustrator 21.0.2, SVG Export Plug-In . SVG Version: 6.00 Build 0)  -->
<svg version="1.1" id="Layer_1" xmlns="http://www.w3.org/2000/svg" xmlns:xlink="http://www.w3.org/1999/xlink" x="0px" y="0px"
	 viewBox="0 0 30 26.9" style="enable-background:new 0 0 30 26.9;" xml:space="preserve">
<title>Arrow</title>
<desc>Created with Sketch.</desc>
<g id="Page-1">
	<g id="Arrow">
		<polygon id="Shape" points="30,11.5 6.9,11.5 14.5,2.6 11.6,0 0,13.4 11.6,26.9 14.5,24.3 6.9,15.4 30,15.4 		"/>
	</g>
</g>
</svg>
