<?xml version="1.0" encoding="utf-8"?>
<!-- Generator: Adobe Illustrator 21.0.2, SVG Export Plug-In . SVG Version: 6.00 Build 0)  -->
<svg version="1.1" id="Layer_1" xmlns="http://www.w3.org/2000/svg" xmlns:xlink="http://www.w3.org/1999/xlink" x="0px" y="0px"
	 viewBox="0 0 30 26.9" style="enable-background:new 0 0 30 26.9;" xml:space="preserve">
<title>Arrow</title>
<desc>Created with Sketch.</desc>
<g id="Page-1">
	<g id="Arrow">
		<polygon id="Shape" points="0,15.4 23.1,15.4 15.5,24.3 18.4,26.9 30,13.4 18.4,0 15.5,2.6 23.1,11.5 0,11.5 		"/>
	</g>
</g>
</svg>
