<svg width="13" height="10" viewBox="0 0 13 10" version="1.1" xmlns="http://www.w3.org/2000/svg" xmlns:xlink="http://www.w3.org/1999/xlink">
<title>Arrow_Forward Copy</title>
<desc>Created using Figma</desc>
<g id="Canvas" transform="translate(-7576 1406)">
<g id="Arrow_Forward Copy" opacity="0.248245">
<use xlink:href="#path0_fill" transform="translate(7576 -1406)" fill="#121313"/>
</g>
</g>
<defs>
<path id="path0_fill" fill-rule="evenodd" d="M 13 4.66681C 13 4.55362 12.9553 4.44552 12.881 4.36413L 8.8595 0.125425C 8.70066 -0.0420203 8.4435 -0.0415964 8.28506 0.125425C 8.12622 0.292447 8.12622 0.563751 8.28506 0.730773L 11.6135 4.23865L 0.40625 4.23865C 0.182 4.23865 0 4.43026 0 4.66681C 0 4.90335 0.182 5.09496 0.40625 5.09496L 11.6131 5.09496L 8.28506 8.60284C 8.12622 8.76986 8.12663 9.04116 8.28506 9.20819C 8.44391 9.37521 8.70106 9.37521 8.8595 9.20819L 12.881 4.96948C 12.9569 4.88936 12.9988 4.77914 13 4.66681Z"/>
</defs>
</svg>
