<?xml version="1.0" encoding="utf-8"?>
<!-- Generator: Adobe Illustrator 19.0.0, SVG Export Plug-In . SVG Version: 6.00 Build 0)  -->
<svg version="1.1" id="Layer_1" xmlns="http://www.w3.org/2000/svg" xmlns:xlink="http://www.w3.org/1999/xlink" x="0px" y="0px"
	 width="320px" height="384px" viewBox="47 205 320 384" style="enable-background:new 47 205 320 384;" xml:space="preserve">
<style type="text/css">
	.st0{fill:#FFFFFF;}
</style>
<path class="st0" d="M356.2,373.9L77.8,208.2c-3.4-2-6.9-3.2-10.9-3.2c-10.9,0-19.8,9-19.8,20H47v344h0.1c0,11,8.9,20,19.8,20
	c4.1,0,7.5-1.4,11.2-3.4l278.1-165.5c6.6-5.5,10.8-13.8,10.8-23.1C367,387.7,362.8,379.5,356.2,373.9z"/>
</svg>
