<?xml version="1.0" encoding="utf-8"?>
<!-- Generator: Adobe Illustrator 19.0.0, SVG Export Plug-In . SVG Version: 6.00 Build 0)  -->
<svg version="1.1" id="Layer_1" xmlns="http://www.w3.org/2000/svg" xmlns:xlink="http://www.w3.org/1999/xlink" x="0px" y="0px"
	 width="17px" height="19px" viewBox="0 0 17 19" style="enable-background:new 0 0 17 19;" xml:space="preserve">
<style type="text/css">
	.st0{fill:#FFFFFF;}
</style>
<path id="Arrow_Download" class="st0" d="M14.9,12.1c-0.2-0.2-0.6-0.2-0.8,0L9.1,17V0.6C9.1,0.3,8.8,0,8.5,0C8.2,0,7.9,0.3,7.9,0.6
	V17L3,12.1c-0.2-0.2-0.6-0.2-0.8,0c-0.2,0.2-0.2,0.6,0,0.8l5.9,5.9c0.2,0.2,0.6,0.2,0.8,0l5.9-5.9C15.1,12.7,15.1,12.3,14.9,12.1
	C14.6,11.9,15.1,12.3,14.9,12.1z"/>
</svg>
