<?xml version="1.0" encoding="utf-8"?>
<!-- Generator: Adobe Illustrator 19.0.0, SVG Export Plug-In . SVG Version: 6.00 Build 0)  -->
<svg version="1.1" id="Layer_1" xmlns="http://www.w3.org/2000/svg" xmlns:xlink="http://www.w3.org/1999/xlink" x="0px" y="0px"
	 width="51.9px" height="37.9px" viewBox="0 0 51.9 37.9" style="enable-background:new 0 0 51.9 37.9;" xml:space="preserve">
<style type="text/css">
	.st0{clip-path:url(#SVGID_2_);fill:#d7d7d7;}
	.st1{clip-path:url(#SVGID_4_);fill:#d7d7d7;}
	.st2{clip-path:url(#SVGID_6_);fill:#d7d7d7;}
	.st3{clip-path:url(#SVGID_8_);fill:#d7d7d7;}
	.st4{clip-path:url(#SVGID_10_);fill:#d7d7d7;}
	.st5{clip-path:url(#SVGID_12_);fill:#d7d7d7;}
	.st6{clip-path:url(#SVGID_14_);fill:#d7d7d7;}
	.st7{clip-path:url(#SVGID_16_);fill:#d7d7d7;}
	.st8{clip-path:url(#SVGID_18_);fill:#d7d7d7;}
	.st9{clip-path:url(#SVGID_20_);fill:#d7d7d7;}
	.st10{clip-path:url(#SVGID_22_);fill:#d7d7d7;}
	.st11{clip-path:url(#SVGID_24_);fill:#d7d7d7;}
	.st12{clip-path:url(#SVGID_26_);fill:#d7d7d7;}
	.st13{clip-path:url(#SVGID_28_);fill:#d7d7d7;}
	.st14{clip-path:url(#SVGID_30_);fill:#d7d7d7;}
	.st15{clip-path:url(#SVGID_32_);fill:#d7d7d7;}
	.st16{clip-path:url(#SVGID_34_);fill:#d7d7d7;}
	.st17{clip-path:url(#SVGID_36_);fill:#d7d7d7;}
	.st18{clip-path:url(#SVGID_38_);fill:#d7d7d7;}
	.st19{clip-path:url(#SVGID_40_);fill:#d7d7d7;}
	.st20{clip-path:url(#SVGID_42_);fill:#d7d7d7;}
	.st21{clip-path:url(#SVGID_44_);fill:#d7d7d7;}
	.st22{clip-path:url(#SVGID_46_);fill:#d7d7d7;}
	.st23{clip-path:url(#SVGID_48_);fill:#d7d7d7;}
	.st24{clip-path:url(#SVGID_50_);fill:#d7d7d7;}
	.st25{clip-path:url(#SVGID_52_);fill:#d7d7d7;}
	.st26{clip-path:url(#SVGID_54_);fill:#d7d7d7;}
	.st27{clip-path:url(#SVGID_56_);fill:#d7d7d7;}
	.st28{clip-path:url(#SVGID_58_);fill:#d7d7d7;}
	.st29{clip-path:url(#SVGID_60_);fill:#d7d7d7;}
	.st30{clip-path:url(#SVGID_62_);fill:#d7d7d7;}
	.st31{clip-path:url(#SVGID_64_);fill:#d7d7d7;}
	.st32{clip-path:url(#SVGID_66_);fill:#d7d7d7;}
	.st33{clip-path:url(#SVGID_68_);fill:#d7d7d7;}
	.st34{clip-path:url(#SVGID_70_);fill:#d7d7d7;}
	.st35{clip-path:url(#SVGID_72_);fill:#d7d7d7;}
	.st36{clip-path:url(#SVGID_74_);fill:#d7d7d7;}
</style>
<g>
	<defs>
		<polygon id="SVGID_1_" points="5.8,0 5.8,25.3 24.4,25.3 24.4,24.5 6.5,24.5 6.5,0.7 38.9,0.7 38.9,10.3 39.6,10.3 39.6,0 		"/>
	</defs>
	<use xlink:href="#SVGID_1_"  style="overflow:visible;fill:#d7d7d7;"/>
	<clipPath id="SVGID_2_">
		<use xlink:href="#SVGID_1_"  style="overflow:visible;"/>
	</clipPath>
	<rect x="6.9" y="-6.4" transform="matrix(0.202 -0.9794 0.9794 0.202 5.7543 32.3122)" class="st0" width="31.5" height="38.1"/>
</g>
<g>
	<defs>
		<path id="SVGID_3_" d="M6.5,0.7h32.3v5.6H6.5V0.7z M5.8,7h33.7V0H5.8V7z"/>
	</defs>
	<use xlink:href="#SVGID_3_"  style="overflow:visible;fill:#d7d7d7;"/>
	<clipPath id="SVGID_4_">
		<use xlink:href="#SVGID_3_"  style="overflow:visible;"/>
	</clipPath>
	
		<rect x="15.9" y="-13.7" transform="matrix(0.202 -0.9794 0.9794 0.202 14.6843 25.0361)" class="st1" width="13.7" height="34.5"/>
</g>
<g>
	<defs>
		<path id="SVGID_5_" d="M29.1,3.5c0-0.5,0.4-0.8,0.8-0.8c0.4,0,0.8,0.4,0.8,0.8s-0.4,0.8-0.8,0.8C29.5,4.3,29.1,3.9,29.1,3.5
			 M28.4,3.5c0,0.8,0.7,1.5,1.5,1.5c0.8,0,1.5-0.7,1.5-1.5c0-0.8-0.7-1.5-1.5-1.5C29.1,2,28.4,2.6,28.4,3.5"/>
	</defs>
	<use xlink:href="#SVGID_5_"  style="overflow:visible;fill:#d7d7d7;"/>
	<clipPath id="SVGID_6_">
		<use xlink:href="#SVGID_5_"  style="overflow:visible;"/>
	</clipPath>
	<rect x="28.1" y="1.7" transform="matrix(0.202 -0.9794 0.9794 0.202 20.4644 32.084)" class="st2" width="3.6" height="3.6"/>
</g>
<g>
	<defs>
		<path id="SVGID_7_" d="M34.3,3.5c0-0.5,0.4-0.8,0.8-0.8s0.8,0.4,0.8,0.8s-0.4,0.8-0.8,0.8S34.3,3.9,34.3,3.5 M33.6,3.5
			c0,0.8,0.7,1.5,1.5,1.5c0.8,0,1.5-0.7,1.5-1.5c0-0.8-0.7-1.5-1.5-1.5C34.2,2,33.6,2.6,33.6,3.5"/>
	</defs>
	<use xlink:href="#SVGID_7_"  style="overflow:visible;fill:#d7d7d7;"/>
	<clipPath id="SVGID_8_">
		<use xlink:href="#SVGID_7_"  style="overflow:visible;"/>
	</clipPath>
	<rect x="33.3" y="1.7" transform="matrix(0.202 -0.9794 0.9794 0.202 24.5925 37.1503)" class="st3" width="3.6" height="3.6"/>
</g>
<g>
	<defs>
		<path id="SVGID_9_" d="M23.9,3.5c0-0.5,0.4-0.8,0.8-0.8s0.8,0.4,0.8,0.8s-0.4,0.8-0.8,0.8S23.9,3.9,23.9,3.5 M23.2,3.5
			c0,0.8,0.7,1.5,1.5,1.5c0.8,0,1.5-0.7,1.5-1.5c0-0.8-0.7-1.5-1.5-1.5C23.9,2,23.2,2.6,23.2,3.5"/>
	</defs>
	<use xlink:href="#SVGID_9_"  style="overflow:visible;fill:#d7d7d7;"/>
	<clipPath id="SVGID_10_">
		<use xlink:href="#SVGID_9_"  style="overflow:visible;"/>
	</clipPath>
	<rect x="22.9" y="1.7" transform="matrix(0.202 -0.9794 0.9794 0.202 16.3355 27.0166)" class="st4" width="3.6" height="3.6"/>
</g>
<g>
	<defs>
		<rect id="SVGID_11_" x="29.1" y="34.2" width="0.7" height="0.6"/>
	</defs>
	<use xlink:href="#SVGID_11_"  style="overflow:visible;fill:#d7d7d7;"/>
	<clipPath id="SVGID_12_">
		<use xlink:href="#SVGID_11_"  style="overflow:visible;"/>
	</clipPath>
	<rect x="29.1" y="34.1" transform="matrix(0.202 -0.9794 0.9794 0.202 -10.2733 56.3477)" class="st5" width="0.8" height="0.8"/>
</g>
<g>
	<defs>
		<rect id="SVGID_13_" x="29.1" y="35.5" width="0.7" height="0.7"/>
	</defs>
	<use xlink:href="#SVGID_13_"  style="overflow:visible;fill:#d7d7d7;"/>
	<clipPath id="SVGID_14_">
		<use xlink:href="#SVGID_13_"  style="overflow:visible;"/>
	</clipPath>
	<rect x="29" y="35.5" transform="matrix(0.202 -0.9794 0.9794 0.202 -11.643 57.4636)" class="st6" width="0.9" height="0.8"/>
</g>
<g>
	<defs>
		<polygon id="SVGID_15_" points="29.1,37 29.1,37.2 28.8,37.2 28.8,37.9 29.8,37.9 29.8,37 		"/>
	</defs>
	<use xlink:href="#SVGID_15_"  style="overflow:visible;fill:#d7d7d7;"/>
	<clipPath id="SVGID_16_">
		<use xlink:href="#SVGID_15_"  style="overflow:visible;"/>
	</clipPath>
	<rect x="28.7" y="36.9" transform="matrix(0.202 -0.9794 0.9794 0.202 -13.295 58.5931)" class="st7" width="1.2" height="1.2"/>
</g>
<g>
	<defs>
		<path id="SVGID_17_" d="M14.1,37.9h1.2v-0.7h-1.2V37.9z M16.6,37.9h1.2v-0.7h-1.2V37.9z M19,37.9h1.2v-0.7H19V37.9z M21.5,37.9
			h1.2v-0.7h-1.2V37.9z M23.9,37.9h1.2v-0.7h-1.2V37.9z M26.4,37.9h1.2v-0.7h-1.2V37.9z"/>
	</defs>
	<use xlink:href="#SVGID_17_"  style="overflow:visible;fill:#d7d7d7;"/>
	<clipPath id="SVGID_18_">
		<use xlink:href="#SVGID_17_"  style="overflow:visible;"/>
	</clipPath>
	<rect x="19.2" y="30.9" transform="matrix(0.202 -0.9794 0.9794 0.202 -20.1598 50.435)" class="st8" width="3.4" height="13.3"/>
</g>
<g>
	<defs>
		<polygon id="SVGID_19_" points="11.9,37 11.9,37.9 12.9,37.9 12.9,37.2 12.7,37.2 12.7,37 		"/>
	</defs>
	<use xlink:href="#SVGID_19_"  style="overflow:visible;fill:#d7d7d7;"/>
	<clipPath id="SVGID_20_">
		<use xlink:href="#SVGID_19_"  style="overflow:visible;"/>
	</clipPath>
	<rect x="11.9" y="36.9" transform="matrix(0.202 -0.9794 0.9794 0.202 -26.7626 42.0644)" class="st9" width="1.2" height="1.2"/>
</g>
<g>
	<defs>
		<path id="SVGID_21_" d="M11.9,35.7h0.7v-1.3h-0.7V35.7z M11.9,33.1h0.7v-1.3h-0.7V33.1z M11.9,30.6h0.7v-1.3h-0.7V30.6z
			 M11.9,28.1h0.7v-1.3h-0.7V28.1z"/>
	</defs>
	<use xlink:href="#SVGID_21_"  style="overflow:visible;fill:#d7d7d7;"/>
	<clipPath id="SVGID_22_">
		<use xlink:href="#SVGID_21_"  style="overflow:visible;"/>
	</clipPath>
	<rect x="7.9" y="30" transform="matrix(0.202 -0.9794 0.9794 0.202 -20.7823 36.975)" class="st10" width="8.9" height="2.5"/>
</g>
<g>
	<defs>
		<rect id="SVGID_23_" x="11.9" y="24.9" width="0.7" height="0.6"/>
	</defs>
	<use xlink:href="#SVGID_23_"  style="overflow:visible;fill:#d7d7d7;"/>
	<clipPath id="SVGID_24_">
		<use xlink:href="#SVGID_23_"  style="overflow:visible;"/>
	</clipPath>
	<rect x="11.9" y="24.8" transform="matrix(0.202 -0.9794 0.9794 0.202 -14.8707 32.1583)" class="st11" width="0.8" height="0.8"/>
</g>
<g>
	<defs>
		<polygon id="SVGID_25_" points="29,24.6 34.5,28.5 34.9,27.9 30.2,24.6 34.9,21.3 34.5,20.7 		"/>
	</defs>
	<use xlink:href="#SVGID_25_"  style="overflow:visible;fill:#d7d7d7;"/>
	<clipPath id="SVGID_26_">
		<use xlink:href="#SVGID_25_"  style="overflow:visible;"/>
	</clipPath>
	<rect x="27.5" y="20.9" transform="matrix(0.202 -0.9794 0.9794 0.202 1.3769 50.9478)" class="st12" width="8.8" height="7.4"/>
</g>
<g>
	<defs>
		<polygon id="SVGID_27_" points="41,21.3 45.8,24.6 41,27.9 41.5,28.5 47,24.6 41.5,20.7 		"/>
	</defs>
	<use xlink:href="#SVGID_27_"  style="overflow:visible;fill:#d7d7d7;"/>
	<clipPath id="SVGID_28_">
		<use xlink:href="#SVGID_27_"  style="overflow:visible;"/>
	</clipPath>
	<rect x="39.6" y="20.9" transform="matrix(0.202 -0.9794 0.9794 0.202 11.0075 62.7676)" class="st13" width="8.8" height="7.4"/>
</g>
<g>
	<defs>
		
			<rect id="SVGID_29_" x="37.6" y="20.5" transform="matrix(-0.9005 -0.4348 0.4348 -0.9005 61.4835 63.3252)" width="0.7" height="8.2"/>
	</defs>
	<use xlink:href="#SVGID_29_"  style="overflow:visible;fill:#d7d7d7;"/>
	<clipPath id="SVGID_30_">
		<use xlink:href="#SVGID_29_"  style="overflow:visible;"/>
	</clipPath>
	<rect x="33.8" y="21.8" transform="matrix(0.202 -0.9794 0.9794 0.202 6.1916 56.857)" class="st14" width="8.4" height="5.7"/>
</g>
<g>
	<defs>
		<rect id="SVGID_31_" x="9.3" y="8.5" width="9" height="0.7"/>
	</defs>
	<use xlink:href="#SVGID_31_"  style="overflow:visible;fill:#d7d7d7;"/>
	<clipPath id="SVGID_32_">
		<use xlink:href="#SVGID_31_"  style="overflow:visible;"/>
	</clipPath>
	<rect x="12.5" y="4.4" transform="matrix(0.202 -0.9794 0.9794 0.202 2.2844 20.5807)" class="st15" width="2.5" height="8.9"/>
</g>
<g>
	<defs>
		<rect id="SVGID_33_" x="26.7" y="8.5" width="6.7" height="0.7"/>
	</defs>
	<use xlink:href="#SVGID_33_"  style="overflow:visible;fill:#d7d7d7;"/>
	<clipPath id="SVGID_34_">
		<use xlink:href="#SVGID_33_"  style="overflow:visible;"/>
	</clipPath>
	<rect x="29" y="5.6" transform="matrix(0.202 -0.9794 0.9794 0.202 15.2631 36.5094)" class="st16" width="2" height="6.7"/>
</g>
<g>
	<defs>
		<rect id="SVGID_35_" x="20.7" y="8.5" width="2.5" height="0.7"/>
	</defs>
	<use xlink:href="#SVGID_35_"  style="overflow:visible;fill:#d7d7d7;"/>
	<clipPath id="SVGID_36_">
		<use xlink:href="#SVGID_35_"  style="overflow:visible;"/>
	</clipPath>
	<rect x="21.3" y="7.6" transform="matrix(0.202 -0.9794 0.9794 0.202 8.8013 28.5788)" class="st17" width="1.2" height="2.5"/>
</g>
<g>
	<defs>
		<rect id="SVGID_37_" x="9.3" y="11.2" width="15.1" height="0.7"/>
	</defs>
	<use xlink:href="#SVGID_37_"  style="overflow:visible;fill:#d7d7d7;"/>
	<clipPath id="SVGID_38_">
		<use xlink:href="#SVGID_37_"  style="overflow:visible;"/>
	</clipPath>
	<rect x="15" y="4.1" transform="matrix(0.202 -0.9794 0.9794 0.202 2.0907 25.743)" class="st18" width="3.8" height="15"/>
</g>
<g>
	<defs>
		<rect id="SVGID_39_" x="9.3" y="16.6" width="8.9" height="0.7"/>
	</defs>
	<use xlink:href="#SVGID_39_"  style="overflow:visible;fill:#d7d7d7;"/>
	<clipPath id="SVGID_40_">
		<use xlink:href="#SVGID_39_"  style="overflow:visible;"/>
	</clipPath>
	<rect x="12.5" y="12.5" transform="matrix(0.202 -0.9794 0.9794 0.202 -5.6699 27.0203)" class="st19" width="2.5" height="8.9"/>
</g>
<g>
	<defs>
		<rect id="SVGID_41_" x="19.9" y="16.6" width="2.5" height="0.7"/>
	</defs>
	<use xlink:href="#SVGID_41_"  style="overflow:visible;fill:#d7d7d7;"/>
	<clipPath id="SVGID_42_">
		<use xlink:href="#SVGID_41_"  style="overflow:visible;"/>
	</clipPath>
	<rect x="20.6" y="15.7" transform="matrix(0.202 -0.9794 0.9794 0.202 0.2417 34.2756)" class="st20" width="1.2" height="2.6"/>
</g>
<g>
	<defs>
		<rect id="SVGID_43_" x="9.3" y="13.9" width="4.5" height="0.7"/>
	</defs>
	<use xlink:href="#SVGID_43_"  style="overflow:visible;fill:#d7d7d7;"/>
	<clipPath id="SVGID_44_">
		<use xlink:href="#SVGID_43_"  style="overflow:visible;"/>
	</clipPath>
	<rect x="10.7" y="12" transform="matrix(0.202 -0.9794 0.9794 0.202 -4.7803 22.7112)" class="st21" width="1.6" height="4.6"/>
</g>
<g>
	<defs>
		<rect id="SVGID_45_" x="16" y="13.9" width="8.2" height="0.7"/>
	</defs>
	<use xlink:href="#SVGID_45_"  style="overflow:visible;fill:#d7d7d7;"/>
	<clipPath id="SVGID_46_">
		<use xlink:href="#SVGID_45_"  style="overflow:visible;"/>
	</clipPath>
	<rect x="18.9" y="10.2" transform="matrix(0.202 -0.9794 0.9794 0.202 2.0386 31.08)" class="st22" width="2.4" height="8.2"/>
</g>
<g>
	<defs>
		<rect id="SVGID_47_" x="9.3" y="19.3" width="4.5" height="0.7"/>
	</defs>
	<use xlink:href="#SVGID_47_"  style="overflow:visible;fill:#d7d7d7;"/>
	<clipPath id="SVGID_48_">
		<use xlink:href="#SVGID_47_"  style="overflow:visible;"/>
	</clipPath>
	<rect x="10.7" y="17.4" transform="matrix(0.202 -0.9794 0.9794 0.202 -10.0805 27.0093)" class="st23" width="1.6" height="4.6"/>
</g>
<g>
	<defs>
		<rect id="SVGID_49_" x="15.5" y="19.3" width="8.9" height="0.7"/>
	</defs>
	<use xlink:href="#SVGID_49_"  style="overflow:visible;fill:#d7d7d7;"/>
	<clipPath id="SVGID_50_">
		<use xlink:href="#SVGID_49_"  style="overflow:visible;"/>
	</clipPath>
	<rect x="18.7" y="15.3" transform="matrix(0.202 -0.9794 0.9794 0.202 -3.3529 35.266)" class="st24" width="2.5" height="8.8"/>
</g>
<g>
	<defs>
		<rect id="SVGID_51_" x="9.3" y="22" width="8.2" height="0.7"/>
	</defs>
	<use xlink:href="#SVGID_51_"  style="overflow:visible;fill:#d7d7d7;"/>
	<clipPath id="SVGID_52_">
		<use xlink:href="#SVGID_51_"  style="overflow:visible;"/>
	</clipPath>
	<rect x="12.2" y="18.3" transform="matrix(0.202 -0.9794 0.9794 0.202 -11.2698 30.9516)" class="st25" width="2.3" height="8.1"/>
</g>
<g>
	<defs>
		<rect id="SVGID_53_" x="19.6" y="22" width="2.7" height="0.7"/>
	</defs>
	<use xlink:href="#SVGID_53_"  style="overflow:visible;fill:#d7d7d7;"/>
	<clipPath id="SVGID_54_">
		<use xlink:href="#SVGID_53_"  style="overflow:visible;"/>
	</clipPath>
	<rect x="20.3" y="21" transform="matrix(0.202 -0.9794 0.9794 0.202 -5.1974 38.4042)" class="st26" width="1.2" height="2.8"/>
</g>
<g>
	<defs>
		<path id="SVGID_55_" d="M24.8,10.7h26.4v23.1H24.8V10.7z M24,34.5h27.8V10H24V34.5z"/>
	</defs>
	<use xlink:href="#SVGID_55_"  style="overflow:visible;fill:#d7d7d7;"/>
	<clipPath id="SVGID_56_">
		<use xlink:href="#SVGID_55_"  style="overflow:visible;"/>
	</clipPath>
	<rect x="23.1" y="6.1" transform="matrix(0.202 -0.9794 0.9794 0.202 8.5151 54.9296)" class="st27" width="29.7" height="32.2"/>
</g>
<g>
	<defs>
		<rect id="SVGID_57_" x="27.6" y="15.7" width="23.9" height="0.7"/>
	</defs>
	<use xlink:href="#SVGID_57_"  style="overflow:visible;fill:#d7d7d7;"/>
	<clipPath id="SVGID_58_">
		<use xlink:href="#SVGID_57_"  style="overflow:visible;"/>
	</clipPath>
	<rect x="36.8" y="4.3" transform="matrix(0.202 -0.9794 0.9794 0.202 15.8251 51.5971)" class="st28" width="5.5" height="23.5"/>
</g>
<g>
	<defs>
		<path id="SVGID_59_" d="M43.8,13.2c0,0.3,0.3,0.6,0.6,0.6c0.3,0,0.6-0.3,0.6-0.6c0-0.3-0.3-0.6-0.6-0.6
			C44.1,12.6,43.8,12.9,43.8,13.2"/>
	</defs>
	<use xlink:href="#SVGID_59_"  style="overflow:visible;fill:#d7d7d7;"/>
	<clipPath id="SVGID_60_">
		<use xlink:href="#SVGID_59_"  style="overflow:visible;"/>
	</clipPath>
	<rect x="43.7" y="12.5" transform="matrix(0.202 -0.9794 0.9794 0.202 22.4867 54.0589)" class="st29" width="1.4" height="1.4"/>
</g>
<g>
	<defs>
		<path id="SVGID_61_" d="M47.7,13.2c0,0.3,0.3,0.6,0.6,0.6c0.3,0,0.6-0.3,0.6-0.6c0-0.3-0.3-0.6-0.6-0.6
			C47.9,12.6,47.7,12.9,47.7,13.2"/>
	</defs>
	<use xlink:href="#SVGID_61_"  style="overflow:visible;fill:#d7d7d7;"/>
	<clipPath id="SVGID_62_">
		<use xlink:href="#SVGID_61_"  style="overflow:visible;"/>
	</clipPath>
	<rect x="47.6" y="12.5" transform="matrix(0.202 -0.9794 0.9794 0.202 25.5654 57.8374)" class="st30" width="1.4" height="1.4"/>
</g>
<g>
	<defs>
		<path id="SVGID_63_" d="M39.9,13.2c0,0.3,0.3,0.6,0.6,0.6c0.3,0,0.6-0.3,0.6-0.6c0-0.3-0.3-0.6-0.6-0.6
			C40.2,12.6,39.9,12.9,39.9,13.2"/>
	</defs>
	<use xlink:href="#SVGID_63_"  style="overflow:visible;fill:#d7d7d7;"/>
	<clipPath id="SVGID_64_">
		<use xlink:href="#SVGID_63_"  style="overflow:visible;"/>
	</clipPath>
	<rect x="39.8" y="12.5" transform="matrix(0.202 -0.9794 0.9794 0.202 19.4076 50.2799)" class="st31" width="1.4" height="1.4"/>
</g>
<g>
	<defs>
		<rect id="SVGID_65_" x="0.4" y="33.4" width="2.7" height="0.7"/>
	</defs>
	<use xlink:href="#SVGID_65_"  style="overflow:visible;fill:#d7d7d7;"/>
	<clipPath id="SVGID_66_">
		<use xlink:href="#SVGID_65_"  style="overflow:visible;"/>
	</clipPath>
	<rect x="1.1" y="32.3" transform="matrix(0.202 -0.9794 0.9794 0.202 -31.6773 28.5695)" class="st32" width="1.2" height="2.8"/>
</g>
<g>
	<defs>
		<rect id="SVGID_67_" x="0.4" y="29.9" width="2.7" height="0.7"/>
	</defs>
	<use xlink:href="#SVGID_67_"  style="overflow:visible;fill:#d7d7d7;"/>
	<clipPath id="SVGID_68_">
		<use xlink:href="#SVGID_67_"  style="overflow:visible;"/>
	</clipPath>
	<rect x="1.1" y="28.9" transform="matrix(0.202 -0.9794 0.9794 0.202 -28.273 25.7957)" class="st33" width="1.2" height="2.8"/>
</g>
<g>
	<defs>
		<path id="SVGID_69_" d="M0.7,7.2l1-2.4l1,2.4v29.2h-2V7.2z M0,7.1v30h3.4v-30L1.7,2.9L0,7.1z"/>
	</defs>
	<use xlink:href="#SVGID_69_"  style="overflow:visible;fill:#d7d7d7;"/>
	<clipPath id="SVGID_70_">
		<use xlink:href="#SVGID_69_"  style="overflow:visible;"/>
	</clipPath>
	
		<rect x="-15.4" y="14.9" transform="matrix(0.202 -0.9794 0.9794 0.202 -18.2515 17.631)" class="st34" width="34.2" height="10.2"/>
</g>
<g>
	<defs>
		<rect id="SVGID_71_" x="0.4" y="7.6" width="2.7" height="0.7"/>
	</defs>
	<use xlink:href="#SVGID_71_"  style="overflow:visible;fill:#d7d7d7;"/>
	<clipPath id="SVGID_72_">
		<use xlink:href="#SVGID_71_"  style="overflow:visible;"/>
	</clipPath>
	<rect x="1.1" y="6.6" transform="matrix(0.202 -0.9794 0.9794 0.202 -6.4356 8.0026)" class="st35" width="1.2" height="2.8"/>
</g>
<g>
	<defs>
		<rect id="SVGID_73_" x="1.2" y="32.1" width="0.7" height="0.6"/>
	</defs>
	<use xlink:href="#SVGID_73_"  style="overflow:visible;fill:#d7d7d7;"/>
	<clipPath id="SVGID_74_">
		<use xlink:href="#SVGID_73_"  style="overflow:visible;"/>
	</clipPath>
	<rect x="1.2" y="32" transform="matrix(0.202 -0.9794 0.9794 0.202 -30.462 27.422)" class="st36" width="0.7" height="0.8"/>
</g>
</svg>
