<?xml version="1.0" encoding="utf-8"?>
<!-- Generator: Adobe Illustrator 21.0.2, SVG Export Plug-In . SVG Version: 6.00 Build 0)  -->
<svg version="1.1" id="Layer_1" xmlns="http://www.w3.org/2000/svg" xmlns:xlink="http://www.w3.org/1999/xlink" x="0px" y="0px"
	 width="141px" height="38px" viewBox="0 0 141 38" style="enable-background:new 0 0 141 38;" xml:space="preserve">
<style type="text/css">
	.st0{fill:#F3333E;}
</style>
<g>
	<g>
		<path id="XMLID_17_" class="st0" d="M27.6,34.4l-11.1-15c-0.1-0.1-0.1-0.2-0.2-0.3c-0.4-0.5-0.9-1.2-0.9-1.7s0.3-1,0.9-1.7
			l-0.2-0.1L11,21.3l-0.1,0.1l9.7,13.3c0.4,0.5,0.5,0.8,0.5,1.3c0,0.3-0.3,0.7-0.8,0.7h-1.9V37h13.3v-0.6h-1.2
			C29.1,36.5,28.6,35.9,27.6,34.4z"/>
		<path id="XMLID_16_" class="st0" d="M9.9,35.3V4.8H0.2v0.6h2.3c0.7,0,0.9,0.3,0.9,1v29c0,0.7-0.2,1-0.9,1H0V37h13.4v-0.6h-2.5
			C10.1,36.5,9.9,36.2,9.9,35.3z"/>
		<path id="XMLID_15_" class="st0" d="M24.2,6.5c0,0.6-0.3,1-1.2,2l-0.1,0.1L23,8.8c2-2.3,3.4-3.4,6.2-3.4h1.3V4.8h-9.8v0.6H22
			C23.5,5.4,24.2,5.8,24.2,6.5z"/>
		<path id="XMLID_14_" class="st0" d="M38.8,32.3V22.1c0-3.3,0.4-5.2,2.7-5.5h0.1v-0.2h-0.1l0,0c-4.3,0.5-8.9,3.5-8.9,10.6
			c0,7.2,4.9,10.2,9.1,10.6v-0.2C39.7,37.1,38.8,36.6,38.8,32.3z"/>
		<path id="XMLID_13_" class="st0" d="M44.7,16.4L44.7,16.4L44.7,16.4l-0.1,0.2h0.1c2.3,0.3,2.7,2.2,2.7,5.5v10.2
			c0,4.2-0.9,4.8-2.8,5.1v0.2c4.2-0.4,9.1-3.4,9.1-10.6C53.7,19.9,49.1,16.9,44.7,16.4z"/>
		<path id="XMLID_12_" class="st0" d="M64.7,35.6V17h-8.5v0.5h2.1c0.7,0,0.9,0.2,0.9,0.9v17.1c0,0.7-0.2,0.9-0.9,0.9H56V37h12.1
			v-0.5h-2.6C65,36.5,64.7,36.3,64.7,35.6z"/>
		<path id="XMLID_11_" class="st0" d="M74.8,21.1c0-3-1.8-4.8-4.8-4.8c-1.3,0-2.1,0.4-2.5,0.7l0.1,0.2c0.4-0.2,0.8-0.3,1.1-0.3
			c0.4,0,0.8,0.4,0.8,1.6v5.8h0.1c0,0,0.2,0,0.5,0c0.6,0,1.8-0.1,2.8-0.5C74.1,23.2,74.8,22.3,74.8,21.1z"/>
		<path id="XMLID_10_" class="st0" d="M93.2,36.6C93.2,36.6,93.1,36.6,93.2,36.6c-0.3,0.2-0.5,0.3-0.7,0.3s-0.3-0.1-0.4-0.1
			c0,0,0,0-0.1,0c-0.4-0.3-0.4-0.9-0.4-1.3V22.7c0-3.5-2.7-5.8-7.1-6.2v0.2c1.2,0.2,1.6,0.5,1.6,2.2v14.5c0,2.9,1.5,4.4,4.3,4.4
			c1,0,1.8-0.3,2.2-0.5c0.4-0.2,0.8-0.5,0.8-0.6L93.2,36.6L93.2,36.6z"/>
		<path id="XMLID_9_" class="st0" d="M84,36.6c-0.7,0.4-1,0.5-1.9,0.5c-0.8,0-2.1-0.4-2.1-2.7v-4.5c0-3.4,1.2-4.2,3.8-4.8v-0.2
			c-5,0.8-10.4,2.1-10.4,7.4c0,3.5,2.5,5.5,6.9,5.5c1.9,0,2.8-0.4,3.7-0.9V36.6L84,36.6z"/>
		<path class="st0" d="M140.7,33c0-0.1,0-0.1,0-0.2c0.1-0.4,0.2-0.9,0.2-1.4c0-2.5-1.2-4.2-4-5.5l-5.5-2.6c-2.3-1.1-3.3-1.8-3.3-3.5
			s1.3-3,3.4-3.3v-0.2c-4.2,0.3-6.7,2.6-6.7,6c0,2.3,1.3,4.3,3.5,5.4l5.8,2.8c2.1,0.9,3.1,2,3.1,3.4c0,2-0.9,3.1-2.8,3.4
			c-0.2,0-0.4,0-0.5,0.1v0.2c0.2,0,0.4,0,0.5-0.1c1.8-0.2,3.1-0.7,4.2-1.4c0.1,0,0.1-0.1,0.2-0.1C139.7,35.2,140.4,34.2,140.7,33z
			 M136.5,36.2c-0.1,0.1-0.1,0.2-0.2,0.2C136.3,36.3,136.4,36.3,136.5,36.2z M137,35.2L137,35.2L137,35.2z"/>
		<path id="XMLID_5_" class="st0" d="M125.2,30.4L125.2,30.4l-0.5-0.1V37h0.4l0,0c0.5-0.7,1-1,1.5-1c0.6,0,1.6,0.5,2.6,0.9
			c0.5,0.2,0.9,0.4,1.3,0.6l0.1-0.2C128,36.2,125.2,33.9,125.2,30.4z"/>
		<path id="XMLID_4_" class="st0" d="M139,22.3L139,22.3l0.5,0.1v-5.8H139l0,0c-0.4,0.3-0.8,0.5-1.3,0.5c-0.6,0-1.3-0.2-2.1-0.3
			c-0.4-0.1-0.7-0.2-1.1-0.2v0.2C136.6,17.3,138.8,19.2,139,22.3z"/>
		<path id="XMLID_3_" class="st0" d="M104.5,35.6V0h-8.6v0.5h2.3c0.7,0,0.9,0.2,0.9,0.9v34.1c0,0.7-0.2,0.9-0.9,0.9h-2.3V37H108
			v-0.5h-2.6C104.7,36.5,104.5,36.3,104.5,35.6z"/>
		<path id="XMLID_2_" class="st0" d="M115.9,13.9c1.7,0,3.2-1.5,3.2-3.2c0-1.8-1.5-3.3-3.2-3.3c-1.6,0-3,1.5-3,3.3
			S114.3,13.9,115.9,13.9z"/>
		<path id="XMLID_1_" class="st0" d="M118.7,35.6V17H110v0.5h2.3c0.7,0,0.9,0.2,0.9,0.9v17.1c0,0.7-0.2,0.9-0.9,0.9H110V37h12.1
			v-0.5h-2.6C118.9,36.5,118.7,36.3,118.7,35.6z"/>
	</g>
</g>
</svg>
