<?xml version="1.0" encoding="utf-8"?>
<!-- Generator: Adobe Illustrator 19.0.0, SVG Export Plug-In . SVG Version: 6.00 Build 0)  -->
<svg version="1.1" id="Layer_1" xmlns="http://www.w3.org/2000/svg" xmlns:xlink="http://www.w3.org/1999/xlink" x="0px" y="0px"
	 width="20px" height="20px" viewBox="0 0 20 20" style="enable-background:new 0 0 20 20;" xml:space="preserve">
<style type="text/css">
	.st0{fill:#CFCFCF;}
</style>
<path class="st0" d="M14.5,10c0,0.3-0.2,0.5-0.5,0.5h-3.5V14c0,0.3-0.2,0.5-0.5,0.5c-0.3,0-0.5-0.2-0.5-0.5v-3.5H6
	c-0.3,0-0.5-0.2-0.5-0.5S5.8,9.5,6,9.5h3.5V6c0-0.3,0.2-0.5,0.5-0.5c0.3,0,0.5,0.2,0.5,0.5v3.5H14C14.2,9.5,14.5,9.7,14.5,10z
	 M20,10c0-5.5-4.5-10-10-10S0,4.5,0,10s4.5,10,10,10S20,15.5,20,10z M19,10c0,5-4,9-9,9c-5,0-9-4-9-9c0-5,4-9,9-9C15,1,19,5,19,10z"
	/>
</svg>
