<?xml version="1.0" encoding="utf-8"?>
<!-- Generator: Adobe Illustrator 21.0.2, SVG Export Plug-In . SVG Version: 6.00 Build 0)  -->
<svg version="1.1" id="Layer_1" xmlns="http://www.w3.org/2000/svg" xmlns:xlink="http://www.w3.org/1999/xlink" x="0px" y="0px"
	 width="40px" height="40px" viewBox="0 0 40 40" style="enable-background:new 0 0 40 40;" xml:space="preserve">
<style type="text/css">
	.st0{fill:#F3333E;}
</style>
<title>Technology</title>
<desc>Created with Sketch.</desc>
<g id="Page-1">
	<g id="Technology">
		<polygon id="Shape" class="st0" points="36.7,0 40,3.3 40,0 		"/>
		<polygon id="Shape_1_" class="st0" points="30.6,6.1 33.9,9.4 33.9,6.1 		"/>
		<polygon id="Shape_2_" class="st0" points="18.3,6.1 21.7,9.4 21.7,6.1 		"/>
		<polygon id="Shape_3_" class="st0" points="6.1,6.1 9.4,9.4 9.4,6.1 		"/>
		<polygon id="Shape_4_" class="st0" points="30.6,18.3 33.9,21.7 33.9,18.3 		"/>
		<polygon id="Shape_5_" class="st0" points="18.3,18.3 21.7,21.7 21.7,18.3 		"/>
		<polygon id="Shape_6_" class="st0" points="6.1,18.3 9.4,21.7 9.4,18.3 		"/>
		<polygon id="Shape_7_" class="st0" points="30.6,30.6 33.9,33.9 33.9,30.6 		"/>
		<polygon id="Shape_8_" class="st0" points="18.3,30.6 21.7,33.9 21.7,30.6 		"/>
		<polygon id="Shape_9_" class="st0" points="6.1,30.6 9.4,33.9 9.4,30.6 		"/>
		<polygon id="Shape_10_" class="st0" points="24.4,0 27.8,3.3 27.8,0 		"/>
		<polygon id="Shape_11_" class="st0" points="12.2,0 15.6,3.3 15.6,0 		"/>
		<polygon id="Shape_12_" class="st0" points="0,0 3.3,3.3 3.3,0 		"/>
		<polygon id="Shape_13_" class="st0" points="36.7,12.2 40,15.6 40,12.2 		"/>
		<polygon id="Shape_14_" class="st0" points="24.4,12.2 27.8,15.6 27.8,12.2 		"/>
		<polygon id="Shape_15_" class="st0" points="12.2,12.2 15.6,15.6 15.6,12.2 		"/>
		<polygon id="Shape_16_" class="st0" points="0,12.2 3.3,15.6 3.3,12.2 		"/>
		<polygon id="Shape_17_" class="st0" points="36.7,24.4 40,27.8 40,24.4 		"/>
		<polygon id="Shape_18_" class="st0" points="24.4,24.4 27.8,27.8 27.8,24.4 		"/>
		<polygon id="Shape_19_" class="st0" points="12.2,24.4 15.6,27.8 15.6,24.4 		"/>
		<polygon id="Shape_20_" class="st0" points="0,24.4 3.3,27.8 3.3,24.4 		"/>
		<polygon id="Shape_21_" class="st0" points="36.7,36.7 40,40 40,36.7 		"/>
		<polygon id="Shape_22_" class="st0" points="24.4,36.7 27.8,40 27.8,36.7 		"/>
		<polygon id="Shape_23_" class="st0" points="12.2,36.7 15.6,40 15.6,36.7 		"/>
		<polygon id="Shape_24_" class="st0" points="0,36.7 3.3,40 3.3,36.7 		"/>
	</g>
</g>
</svg>
