<?xml version="1.0" encoding="utf-8"?>
<!-- Generator: Adobe Illustrator 21.0.2, SVG Export Plug-In . SVG Version: 6.00 Build 0)  -->
<svg version="1.1" id="Layer_1" xmlns="http://www.w3.org/2000/svg" xmlns:xlink="http://www.w3.org/1999/xlink" x="0px" y="0px"
	 width="38px" height="40px" viewBox="0 0 38 40" style="enable-background:new 0 0 38 40;" xml:space="preserve">
<style type="text/css">
	.st0{fill:#F3333E;}
</style>
<path class="st0" d="M32.1,24l5.9-7.8l-8.5-3.3L32,4.5l-8.6,3.1L19.3,0l-4.1,7.4L6.9,4.2l2.3,8.4L0,15.9l6.1,8l-3.9,7h9.2l6.8,9
	l-2.5-9h6.9L19.9,40l6.9-9.2h8.9L32.1,24z M35.8,16.8l-4.4,5.8l-3.1-5.8l0.8-2.6L35.8,16.8z M30.5,23.8l-4.3,5.7h-1.7l3.2-10.8
	L30.5,23.8z M27.4,15.1l-1.1-2l1.5,0.6L27.4,15.1z M29.9,6.7l-1.7,5.6l-2.9-1.1L24,8.8L29.9,6.7z M23.4,10.5l-2-0.8l1.3-0.5
	L23.4,10.5z M19.3,2.9L22,8.1L19.4,9l-2.9-1.1L19.3,2.9z M17.4,9.7L15,10.5l0.8-1.4L17.4,9.7z M8.9,6.5l5.6,2.2L13,11.3l-2.5,0.9
	L8.9,6.5z M10.9,13.5l1.2-0.4l-0.9,1.5L10.9,13.5z M2.2,16.5l7.4-2.6l0.7,2.4l-3.4,6.2L2.2,16.5z M10.8,18.2l3.1,11.3h-1.8l-4.4-5.7
	L10.8,18.2z M4.5,29.5L7,25.1l3.4,4.4H4.5z M15,33.3l-1.9-2.4h1.2L15,33.3z M15.4,29.5l-3.6-13l2.3-4.1l5.3-1.9l5,1.9l2.5,4.6
	l-3.7,12.5H15.4L15.4,29.5z M23.4,33.1l0.7-2.3h1L23.4,33.1z M31.2,25.2l2.3,4.3h-5.6L31.2,25.2z"/>
</svg>
