<?xml version="1.0" encoding="utf-8"?>
<!-- Generator: Adobe Illustrator 21.0.2, SVG Export Plug-In . SVG Version: 6.00 Build 0)  -->
<svg version="1.1" id="Layer_1" xmlns="http://www.w3.org/2000/svg" xmlns:xlink="http://www.w3.org/1999/xlink" x="0px" y="0px"
	 viewBox="0 0 82 41" style="enable-background:new 0 0 82 41;" xml:space="preserve">
<style type="text/css">
	.st0{fill:#FFFFFF;}
	.st1{fill:#DEDEDE;}
</style>
<g id="Layer_2">
</g>
<g>
	<rect class="st0" width="82" height="41"/>
	<g>
		<path class="st1" d="M26.3,24.1h0.2v0.5c-0.6,0.1-1.2,0.2-1.8,0.2s-1.1-0.2-1.4-0.5C23,23.9,23,23.3,23,22.4
			c0-1.6,0.6-2.4,1.9-2.4c0.5,0,1,0.2,1.4,0.5c0.3,0.3,0.5,0.9,0.5,1.6l-0.1,0.5h-3c0,0.4,0.1,0.8,0.3,1.1c0.2,0.2,0.5,0.4,0.9,0.4
			C25.4,24.2,25.9,24.2,26.3,24.1z M26.1,22.1c0-0.4-0.1-0.9-0.2-1.2c-0.2-0.2-0.5-0.4-0.9-0.3c-0.3,0-0.7,0.1-0.9,0.4
			c-0.2,0.3-0.3,0.8-0.3,1.2L26.1,22.1L26.1,22.1z"/>
		<path class="st1" d="M27.9,24.7v-6.6h0.7v6.6H27.9z"/>
		<path class="st1" d="M33.2,21.5v2.3c0,0.2,0.2,0.3,0.5,0.4v0.5c-0.4,0-0.8-0.1-1.1-0.4c-0.5,0.2-1.1,0.4-1.6,0.4
			c-0.4,0-0.7-0.1-0.9-0.3c-0.2-0.3-0.3-0.6-0.3-1c0-0.4,0.1-0.7,0.3-0.9c0.3-0.2,0.7-0.4,1.1-0.4l1.4-0.2v-0.4
			c0-0.2-0.1-0.5-0.2-0.6c-0.2-0.2-0.3-0.2-0.5-0.2c-0.5,0-1,0-1.5,0.1H30v-0.5c0.5-0.2,1.2-0.2,1.8-0.2c0.4-0.1,0.8,0.1,1.1,0.3
			C33.1,20.6,33.2,21.1,33.2,21.5z M30.4,23.4c0,0.5,0.2,0.9,0.7,0.9c0.4,0,0.9-0.1,1.3-0.2l0.2-0.1v-1.5l-1.3,0.1
			c-0.2,0-0.4,0.1-0.6,0.2C30.5,22.9,30.4,23.2,30.4,23.4z"/>
		<path class="st1" d="M36,20.6c-0.6,0-1,0.2-1,0.7c0,0.2,0.1,0.4,0.2,0.5c0.3,0.2,0.7,0.2,1,0.3c0.4,0.1,0.8,0.2,1.2,0.4
			c0.2,0.2,0.4,0.6,0.3,0.9c0,0.4-0.2,0.8-0.5,1c-0.4,0.2-0.9,0.4-1.3,0.3c-0.5,0-0.9,0-1.3-0.1l-0.3-0.1V24c0.5,0.1,1,0.2,1.6,0.2
			c0.3,0,0.5-0.1,0.8-0.2c0.2-0.2,0.3-0.3,0.3-0.5s-0.1-0.4-0.2-0.5c-0.3-0.2-0.7-0.2-1-0.2c-0.4,0-0.8-0.2-1.2-0.4
			c-0.2-0.2-0.4-0.5-0.3-0.9c-0.1-0.4,0.2-0.8,0.5-1c0.4-0.2,0.8-0.3,1.2-0.3c0.5,0,0.9,0.1,1.4,0.1l0.2,0.1v0.5
			C36.9,20.6,36.3,20.6,36,20.6z"/>
		<path class="st1" d="M41.1,20.7h-1.4v2.2c0,0.3,0,0.7,0.1,1c0.1,0.2,0.3,0.3,0.5,0.2l0.8-0.1l0.1,0.5c-0.3,0.1-0.6,0.1-0.9,0.1
			c-0.5,0-0.8-0.1-0.9-0.3c-0.2-0.2-0.3-0.6-0.3-1.3v-2.4h-0.6V20H39v-1.5h0.6v1.4H41L41.1,20.7L41.1,20.7z"/>
		<path class="st1" d="M42,19.1v-0.8h0.7v0.8H42z M42,24.7v-4.5h0.7v4.5H42z"/>
		<path class="st1" d="M45.7,20c0.3,0,0.7,0.1,1,0.1H47v0.5c-0.4-0.1-0.7-0.1-1.1-0.1c-0.5,0-0.9,0.1-1.1,0.4
			c-0.2,0.4-0.3,0.9-0.3,1.4c0,0.7,0.1,1.1,0.2,1.4c0.2,0.2,0.5,0.4,1.1,0.4l1.1-0.1v0.5c-0.4,0.1-0.9,0.1-1.3,0.1
			c-0.7,0-1.2-0.2-1.5-0.5c-0.2-0.4-0.4-0.9-0.4-1.9c0-0.9,0.2-1.5,0.5-1.8C44.6,20.3,45,20,45.7,20z"/>
		<path class="st1" d="M49.4,20.6c-0.6,0-1,0.2-1,0.7c0,0.2,0.1,0.4,0.2,0.5c0.3,0.2,0.7,0.2,1,0.3c0.4,0.1,0.8,0.2,1.2,0.4
			c0.2,0.2,0.4,0.6,0.3,0.9c0,0.4-0.2,0.8-0.5,1c-0.4,0.2-0.9,0.4-1.3,0.3c-0.5,0-0.9,0-1.3-0.1l-0.3-0.1V24c0.5,0.1,1,0.2,1.6,0.2
			c0.3,0,0.5-0.1,0.8-0.2c0.2-0.2,0.3-0.3,0.3-0.5s-0.1-0.4-0.2-0.5c-0.3-0.2-0.7-0.2-1-0.2c-0.4,0-0.8-0.2-1.2-0.4
			c-0.2-0.2-0.4-0.6-0.3-0.9c0-0.4,0.2-0.8,0.5-0.9c0.4-0.2,0.8-0.3,1.2-0.3c0.5,0,0.9,0.1,1.4,0.1l0.2,0.1v0.5
			C50.4,20.6,49.8,20.6,49.4,20.6z"/>
		<path class="st1" d="M55.4,24.1h0.2v0.5c-0.6,0.1-1.2,0.2-1.8,0.2c-0.6,0-1.1-0.2-1.4-0.5c-0.3-0.4-0.4-0.9-0.4-1.8
			c0-1.6,0.6-2.4,1.9-2.4c0.5,0,1,0.2,1.4,0.5c0.3,0.3,0.5,0.9,0.5,1.6v0.5h-3.1c0,0.4,0.1,0.8,0.3,1.1c0.2,0.2,0.6,0.4,0.9,0.4
			C54.4,24.2,54.9,24.2,55.4,24.1z M55.1,22.1c0-0.4-0.1-0.9-0.2-1.2c-0.2-0.2-0.5-0.4-0.9-0.3c-0.3,0-0.7,0.1-0.9,0.4
			c-0.2,0.3-0.3,0.8-0.3,1.2L55.1,22.1L55.1,22.1z"/>
		<path class="st1" d="M60.1,21.5v2.3c0,0.2,0.2,0.3,0.5,0.4v0.5c-0.4,0-0.8-0.1-1.1-0.4c-0.5,0.2-1.1,0.4-1.6,0.4
			c-0.4,0-0.7-0.1-0.9-0.3c-0.2-0.3-0.3-0.6-0.3-1c0-0.4,0.1-0.7,0.3-0.9c0.3-0.2,0.7-0.4,1.1-0.4l1.4-0.2v-0.4
			c0-0.2-0.1-0.5-0.2-0.6c-0.2-0.2-0.3-0.2-0.5-0.2c-0.5,0-1,0-1.5,0.1h-0.3v-0.5c0.5-0.2,1.2-0.2,1.8-0.2c0.4,0,0.8,0.1,1.1,0.3
			C60,20.6,60.1,21.1,60.1,21.5z M57.2,23.4c0,0.5,0.2,0.9,0.7,0.9c0.4,0,0.9-0.1,1.3-0.2l0.2-0.1v-1.5l-1.3,0.1
			c-0.2,0-0.4,0.1-0.6,0.2C57.3,22.9,57.2,23.2,57.2,23.4z"/>
		<path class="st1" d="M61.5,24.7v-4.5h0.6v0.6c0.5-0.4,1.1-0.6,1.6-0.7v0.7c-0.3,0.1-0.5,0.2-0.8,0.2c-0.2,0.1-0.4,0.2-0.6,0.3
			l-0.2,0v3.4H61.5L61.5,24.7z"/>
		<path class="st1" d="M66.2,20c0.3,0,0.7,0.1,1,0.1h0.2v0.5c-0.4-0.1-0.7-0.1-1.1-0.1c-0.5,0-0.9,0.1-1.1,0.4
			c-0.2,0.4-0.3,0.9-0.3,1.4c0,0.7,0.1,1.1,0.2,1.4c0.2,0.2,0.5,0.4,1.1,0.4l1.1-0.1v0.5c-0.4,0.1-0.9,0.1-1.3,0.1
			c-0.7,0-1.2-0.2-1.5-0.5c-0.2-0.4-0.4-0.9-0.4-1.9c0-0.9,0.2-1.5,0.5-1.8C65.1,20.3,65.5,20,66.2,20z"/>
		<path class="st1" d="M69.1,24.7h-0.7v-6.6h0.7v2.3c0.5-0.2,0.9-0.3,1.4-0.3c0.6,0,1,0.2,1.3,0.5c0.2,0.3,0.3,0.9,0.3,1.7v2.4h-0.7
			v-2.3c0-0.6-0.1-1.1-0.2-1.3c-0.2-0.2-0.4-0.3-0.8-0.3c-0.4,0-0.8,0.1-1.1,0.2L69.1,21V24.7L69.1,24.7z"/>
		<path class="st1" d="M20.1,18.6c-1-1.4-2.7-2.3-4.5-2.3c-2.3,0-4.1,1.3-5.1,3.2h7.9C19.1,19.5,19.7,19.1,20.1,18.6z"/>
		<path class="st1" d="M20,25.3c-0.5-0.5-1.2-0.9-2-0.9h-7.6c0.9,1.9,2.8,3.1,5.1,3.1C17.3,27.5,19,26.7,20,25.3z"/>
		<g>
			<path class="st1" d="M18.9,21.9c0-0.9-0.7-1.6-1.6-1.6h-7.2c-0.2,0.5-0.2,1-0.2,1.6s0.1,1.1,0.2,1.6h7.2
				C18.2,23.5,18.9,22.8,18.9,21.9z"/>
		</g>
	</g>
</g>
</svg>
