<?xml version="1.0" encoding="utf-8"?>
<!-- Generator: Adobe Illustrator 21.0.2, SVG Export Plug-In . SVG Version: 6.00 Build 0)  -->
<svg version="1.1" id="Layer_1" xmlns="http://www.w3.org/2000/svg" xmlns:xlink="http://www.w3.org/1999/xlink" x="0px" y="0px"
	 viewBox="0 0 82 41" style="enable-background:new 0 0 82 41;" xml:space="preserve">
<style type="text/css">
	.st0{fill:#FFFFFF;}
	.st1{fill:#DEDEDE;}
</style>
<g id="Layer_2">
</g>
<rect class="st0" width="82" height="41"/>
<path class="st1" d="M48.5,10.1V9h1.7V7.8h-3v3.5h2.9v-1.1H48.5z M53.1,9h1.1V7.8h-2.9V9c0.4,0.4,0.6,0.5,1.1,1.1
	c-0.3,0-1.1,0-1.1,0v1.1h2.9v-1.1L53.1,9L53.1,9z M57.2,9h1.1V7.8h-2.9V9c0.4,0.4,0.6,0.5,1.1,1.1c-0.3,0-1.1,0-1.1,0v1.1h2.9v-1.1
	L57.2,9L57.2,9z"/>
<g>
	<polygon class="st1" points="52.8,21.5 52.8,21.5 52.8,21.5 52.8,21.5 	"/>
	<path class="st1" d="M43.4,12.9l1.8,19l7.6,2l7.6-2l1.8-19C62.2,12.9,43.4,12.9,43.4,12.9z M59,30.7l-6.1,1.7l0,0V30L48,28.6
		l-0.3-3.6H50l0.1,1.9l2.6,0.7l0,0v-3.8h-5.3l0,0l0,0l-0.2-2.2l5.5-2.3l0,0l0,0v-0.1h-5.7l-0.3-2.3h5.9v-2.4l0,0h7.6L59,30.7z"/>
</g>
<polygon class="st1" points="52.8,16.8 52.8,19.1 53.2,19.1 52.8,19.2 52.8,19.2 52.8,19.2 52.8,23.8 55.7,23.8 55.5,26.8 
	52.8,27.6 52.8,27.6 52.8,30 52.8,30 57.6,28.6 58.2,21.5 52.8,21.5 52.8,21.5 52.8,21.5 58.4,19.1 58.4,19.1 58.6,16.8 "/>
<g>
	<polygon class="st1" points="25.3,21.5 28.3,21.5 28.3,19.2 25,19.2 	"/>
	<path class="st1" d="M19,12.9l1.7,19l7.6,2.2l7.6-2.1l1.7-19L19,12.9L19,12.9z M34.5,30.7l-6.2,1.8v-4.9V30l0,0l-4.8-1.4l-0.3-3.6
		h2.4l0.1,1.9l2.6,0.7l0,0v-3.7h-5.2l-0.6-6.4l-0.1-0.6h5.9v-2.4h7.6L34.5,30.7z"/>
</g>
<path class="st1" d="M20.8,7.8H22v1.1h1.1V7.8h1.2v3.6H23v-1.2H22v1.2h-1.2L20.8,7.8L20.8,7.8z M25.8,8.9h-1V7.8H28v1.1H27v2.4h-1.2
	V8.9z M28.5,7.8h1.2L30.5,9l0.7-1.2h1.2v3.6h-1.2V9.5l-0.8,1.3l0,0l-0.7-1.3v1.8h-1.1V7.8L28.5,7.8z M33.1,7.8h1.2v2.4H36v1.1h-2.8
	L33.1,7.8L33.1,7.8z"/>
<g>
	<path class="st1" d="M28.3,21.5v2.4h2.9l-0.3,3l-2.6,0.7V30l4.8-1.4l0.1-0.4l0.5-6.1l0.1-0.6h-0.6L28.3,21.5z M28.3,16.8v2.4H34
		l0.1-0.5l0.1-1.2l0.1-0.6H28.3z"/>
</g>
</svg>
