<?xml version="1.0" encoding="utf-8"?>
<!-- Generator: Adobe Illustrator 21.0.2, SVG Export Plug-In . SVG Version: 6.00 Build 0)  -->
<svg version="1.1" id="Layer_1" xmlns="http://www.w3.org/2000/svg" xmlns:xlink="http://www.w3.org/1999/xlink" x="0px" y="0px"
	 viewBox="0 0 82 41" style="enable-background:new 0 0 82 41;" xml:space="preserve">
<style type="text/css">
	.st0{fill:#FFFFFF;}
	.st1{fill:#DEDEDE;}
</style>
<g id="Layer_2">
</g>
<rect class="st0" width="82" height="41"/>
<g>
	<path class="st1" d="M39.9,8c0.6-0.4,1.5-0.4,2.1,0c3.2,1.8,6.4,3.6,9.5,5.4c0.6,0.3,1,1,1,1.7v10.8c0,0.7-0.4,1.4-1.1,1.7
		c-3.2,1.8-6.3,3.6-9.5,5.4c-0.6,0.4-1.5,0.3-2.1-0.1c-1-0.6-1.9-1.1-2.9-1.7c-0.2-0.1-0.4-0.2-0.6-0.4c0.1-0.2,0.3-0.2,0.5-0.3
		c0.4-0.1,0.8-0.3,1.2-0.5c0.1-0.1,0.2-0.1,0.3,0c0.8,0.4,1.6,1,2.4,1.4c0.2,0.1,0.3-0.1,0.5-0.1c3.1-1.8,6.3-3.5,9.4-5.3
		c0.1-0.1,0.2-0.2,0.2-0.3c0-3.6,0-7.2,0-10.8c0-0.1-0.1-0.3-0.2-0.3c-3.2-1.6-6.3-3.4-9.5-5.2c-0.1-0.1-0.3-0.1-0.4,0
		c-3.1,1.8-6.3,3.6-9.5,5.4c-0.1,0.1-0.2,0.2-0.2,0.3c0,3.6,0,7.2,0,10.8c0,0.1,0.1,0.3,0.2,0.3c0.8,0.4,1.7,1,2.6,1.4
		c0.4,0.3,1.1,0.4,1.6,0.2c0.4-0.2,0.8-0.6,0.8-1.2c0-3.6,0-7.1,0-10.7c0-0.1,0.1-0.3,0.3-0.3c0.4,0,0.8,0,1.2,0
		c0.2,0,0.3,0.2,0.3,0.3c0,3.6,0,7.2,0,10.8c0,1-0.4,2-1.3,2.4c-1.1,0.6-2.4,0.4-3.5-0.1c-1-0.4-1.8-1-2.8-1.5
		c-0.6-0.3-1.1-1-1.1-1.7V15.1c0-0.7,0.4-1.4,1-1.7C33.6,11.6,36.8,9.8,39.9,8z"/>
	<path class="st1" d="M42.7,15.6c1.4-0.1,2.9-0.1,4.1,0.6c1,0.5,1.5,1.6,1.5,2.7c0,0.1-0.2,0.3-0.3,0.2c-0.4,0-0.8,0-1.2,0
		c-0.2,0-0.3-0.1-0.3-0.3c-0.1-0.5-0.4-1-0.9-1.3c-0.8-0.4-1.6-0.4-2.4-0.3c-0.6,0-1.2,0.1-1.7,0.4c-0.4,0.3-0.5,0.8-0.4,1.2
		c0.1,0.3,0.5,0.4,0.8,0.5c1.7,0.4,3.5,0.4,5.1,1c0.7,0.3,1.3,0.7,1.6,1.4c0.3,1,0.2,2.1-0.5,2.9c-0.6,0.6-1.3,1-2.2,1.2
		c-1.1,0.3-2.2,0.3-3.3,0.1c-1-0.1-2.1-0.4-2.9-1.1c-0.6-0.6-1-1.5-1-2.4c0-0.1,0.1-0.3,0.3-0.3c0.4,0,0.8,0,1.2,0
		c0.2,0,0.3,0.1,0.3,0.3c0.1,0.5,0.3,1,0.7,1.3c0.8,0.5,1.9,0.5,2.8,0.5c0.8-0.1,1.7-0.1,2.3-0.6c0.3-0.3,0.4-0.8,0.3-1.2
		c-0.1-0.4-0.4-0.5-0.8-0.6c-1.7-0.5-3.5-0.3-5.1-0.9c-0.6-0.3-1.3-0.7-1.5-1.3c-0.4-1-0.2-2.2,0.6-2.9C40.7,16,41.7,15.6,42.7,15.6
		L42.7,15.6z"/>
</g>
</svg>
