<?xml version="1.0" encoding="UTF-8"?>
<svg width="61px" height="56px" viewBox="0 0 61 56" version="1.1" xmlns="http://www.w3.org/2000/svg" xmlns:xlink="http://www.w3.org/1999/xlink">
    <!-- Generator: Sketch 44 (41411) - http://www.bohemiancoding.com/sketch -->
    <title>Arrow</title>
    <desc>Created with Sketch.</desc>
    <defs></defs>
    <g id="Page-1" stroke="none" stroke-width="1" fill="none" fill-rule="evenodd">
        <g id="Arrow" fill-rule="nonzero" fill="#000000">
            <polygon id="Shape" points="60.6 24 14.1 24 29.4 6.1 23.4 0.9 0.1 28 23.4 55.1 29.4 49.9 14.1 32 60.6 32"></polygon>
        </g>
    </g>
</svg>