<svg width="778" height="938" viewBox="0 0 778 938" version="1.1" xmlns="http://www.w3.org/2000/svg" xmlns:xlink="http://www.w3.org/1999/xlink">
<title>Group 19</title>
<desc>Created using Figma</desc>
<g id="Canvas" transform="translate(-4335 2539)">
<g id="Group 19">
<g id="Rounded Rectangle 3" opacity="0.616961">
<use xlink:href="#path0_fill" transform="matrix(-1 0 0 1 5242.54 -2544.58)" fill="#FFFFFF" fill-opacity="0.01"/>
<mask id="mask0_outline_ins">
<use xlink:href="#path0_fill" fill="white" transform="matrix(-1 0 0 1 5242.54 -2544.58)"/>
</mask>
<g mask="url(#mask0_outline_ins)">
<use xlink:href="#path1_stroke_2x" transform="matrix(-1 0 0 1 5242.54 -2544.58)" fill="#D0D1CE"/>
</g>
</g>
<g id="Rounded Rectangle 3 copy" opacity="0.616961">
<use xlink:href="#path2_fill" transform="matrix(-1 0 0 1 5130.18 -2493.15)" fill="#FFFFFF" fill-opacity="0.01"/>
<mask id="mask1_outline_ins">
<use xlink:href="#path2_fill" fill="white" transform="matrix(-1 0 0 1 5130.18 -2493.15)"/>
</mask>
<g mask="url(#mask1_outline_ins)">
<use xlink:href="#path3_stroke_2x" transform="matrix(-1 0 0 1 5130.18 -2493.15)" fill="#D0D1CE"/>
</g>
</g>
</g>
</g>
<defs>
<path id="path0_fill" fill-rule="evenodd" d="M 34.694 177.491L 670.661 6.92692C 691.641 1.30129 713.203 13.7618 718.824 34.759L 903.189 723.453C 908.81 744.453 896.361 766.035 875.382 771.662L 239.416 942.225C 218.438 947.852 196.874 935.39 191.253 914.394L 6.88837 225.698C 1.26774 204.701 13.7158 183.117 34.694 177.491Z"/>
<path id="path1_stroke_2x" d="M 34.694 177.491L 34.4349 176.525L 34.4349 176.525L 34.694 177.491ZM 670.661 6.92692L 670.402 5.96104L 670.401 5.96106L 670.661 6.92692ZM 718.824 34.759L 717.858 35.0175L 717.858 35.0176L 718.824 34.759ZM 903.189 723.453L 904.155 723.195L 903.189 723.453ZM 875.382 771.662L 875.641 772.628L 875.382 771.662ZM 239.416 942.225L 239.157 941.259L 239.157 941.259L 239.416 942.225ZM 191.253 914.394L 190.287 914.652L 190.287 914.652L 191.253 914.394ZM 6.88837 225.698L 5.92239 225.957L 5.92239 225.957L 6.88837 225.698ZM 34.953 178.457L 670.92 7.89279L 670.401 5.96106L 34.4349 176.525L 34.953 178.457ZM 670.919 7.8928C 691.365 2.41043 712.38 14.5534 717.858 35.0175L 719.79 34.5004C 714.026 12.9702 691.916 0.192154 670.402 5.96104L 670.919 7.8928ZM 717.858 35.0176L 902.223 723.712L 904.155 723.195L 719.79 34.5004L 717.858 35.0176ZM 902.223 723.712C 907.702 744.18 895.568 765.213 875.123 770.696L 875.641 772.628C 897.154 766.858 909.919 744.728 904.155 723.195L 902.223 723.712ZM 875.123 770.696L 239.157 941.259L 239.675 943.191L 875.641 772.628L 875.123 770.696ZM 239.157 941.259C 218.713 946.743 197.698 934.598 192.219 914.135L 190.287 914.652C 196.051 936.181 218.162 948.962 239.675 943.191L 239.157 941.259ZM 192.219 914.135L 7.85436 225.44L 5.92239 225.957L 190.287 914.652L 192.219 914.135ZM 7.85436 225.44C 2.37628 204.975 14.5089 183.94 34.953 178.457L 34.4349 176.525C 12.9227 182.295 0.159199 204.427 5.92239 225.957L 7.85436 225.44Z"/>
<path id="path2_fill" fill-rule="evenodd" d="M 102.075 3.27567L 758.938 55.3924C 780.606 57.1116 796.776 76.0581 795.057 97.7126L 738.636 807.93C 736.917 829.584 717.957 845.746 696.29 844.025L 39.424 791.91C 17.7572 790.191 1.58635 771.243 3.30762 749.589L 59.7264 39.3716C 61.4468 17.7171 80.4056 1.55819 102.075 3.27567Z"/>
<path id="path3_stroke_2x" d="M 102.075 3.27567L 102.154 2.2788L 102.154 2.2788L 102.075 3.27567ZM 758.938 55.3924L 758.859 56.3893L 758.938 55.3924ZM 795.057 97.7126L 796.054 97.7918L 796.054 97.7918L 795.057 97.7126ZM 738.636 807.93L 737.639 807.851L 737.639 807.851L 738.636 807.93ZM 696.29 844.025L 696.369 843.028L 696.369 843.028L 696.29 844.025ZM 39.424 791.91L 39.3449 792.907L 39.3449 792.907L 39.424 791.91ZM 3.30762 749.589L 4.30448 749.668L 4.30448 749.668L 3.30762 749.589ZM 59.7264 39.3716L 58.7295 39.2924L 58.7295 39.2924L 59.7264 39.3716ZM 101.996 4.27254L 758.859 56.3893L 759.017 54.3955L 102.154 2.2788L 101.996 4.27254ZM 758.859 56.3893C 779.977 58.0648 795.736 76.5301 794.06 97.6334L 796.054 97.7918C 797.817 75.5861 781.235 56.1583 759.017 54.3955L 758.859 56.3893ZM 794.06 97.6334L 737.639 807.851L 739.633 808.009L 796.054 97.7918L 794.06 97.6334ZM 737.639 807.851C 735.964 828.954 717.486 844.705 696.369 843.028L 696.211 845.022C 718.428 846.786 737.871 830.215 739.633 808.009L 737.639 807.851ZM 696.369 843.028L 39.5031 790.913L 39.3449 792.907L 696.211 845.022L 696.369 843.028ZM 39.5031 790.913C 18.3863 789.237 2.62702 770.771 4.30448 749.668L 2.31076 749.51C 0.545678 771.715 17.1281 791.144 39.3449 792.907L 39.5031 790.913ZM 4.30448 749.668L 60.7232 39.4508L 58.7295 39.2924L 2.31076 749.51L 4.30448 749.668ZM 60.7232 39.4508C 62.3999 18.3474 80.8764 2.59864 101.996 4.27254L 102.154 2.2788C 79.9348 0.517737 60.4938 17.0867 58.7295 39.2924L 60.7232 39.4508Z"/>
</defs>
</svg>
