<?xml version="1.0" encoding="UTF-8"?>
<svg width="1429px" height="1429px" viewBox="0 0 1429 1429" version="1.1" xmlns="http://www.w3.org/2000/svg" xmlns:xlink="http://www.w3.org/1999/xlink">
    <!-- Generator: Sketch 49.3 (51167) - http://www.bohemiancoding.com/sketch -->
    <title>Shape Copy 2</title>
    <desc>Created with Sketch.</desc>
    <defs></defs>
    <g id="Naujas" stroke="none" stroke-width="1" fill="none" fill-rule="evenodd" opacity="0.0500000007">
        <g id="Career" transform="translate(-246.000000, -2971.000000)" fill="#000000" fill-rule="nonzero">
            <path d="M1675,3793.28367 C1674.64444,3755.60826 1650.82185,3725.75227 1650.46629,3688.07686 C1650.2885,3650.40144 1673.75554,3604.9066 1673.39998,3567.23119 C1661.48868,3531.51063 1629.48818,3510.54036 1617.57688,3474.8198 C1605.66559,3439.09924 1613.84349,3388.45069 1602.10998,3352.73013 C1579.70963,3322.341 1542.73128,3312.38901 1520.50871,3282.17759 C1498.10836,3251.78846 1490.28602,3201.13991 1468.06345,3170.92849 C1437.4852,3149.06964 1399.26238,3150.84679 1368.50634,3128.98794 C1337.92809,3107.12909 1314.81662,3061.27882 1284.06059,3039.41997 C1248.14892,3028.04626 1212.41503,3041.73026 1176.50336,3030.17883 C1140.59169,3018.80512 1104.50224,2982.37371 1068.59057,2971 C1030.90109,2971.35543 1001.03396,2995.16913 963.344489,2995.52456 C925.655014,2995.70228 880.143195,2972.244 842.45372,2972.59943 C806.719831,2984.50628 785.741727,3016.49484 750.007838,3028.40169 C714.273949,3040.30854 663.606494,3032.13369 627.872605,3044.04054 C597.472132,3066.43253 587.516422,3103.39709 557.29373,3125.61137 C526.893257,3148.00336 476.225802,3155.82278 446.00311,3178.21477 C424.136104,3208.78162 425.913909,3246.99018 404.046902,3277.73473 C382.179895,3308.30158 336.312516,3331.40443 314.445509,3362.14899 C303.067554,3398.04726 316.578875,3433.76781 305.200921,3469.66609 C293.822966,3505.56436 257.377955,3541.64034 246,3577.53861 C246.177781,3615.21403 270.178154,3645.07002 270.533715,3682.74543 C270.711495,3720.42084 247.244464,3765.91568 247.600025,3803.5911 C259.511321,3839.31165 291.511819,3860.28193 303.423115,3896.00249 C315.334412,3931.72304 307.156507,3982.3716 319.067803,4018.09215 C341.468151,4048.48128 378.446504,4058.43328 400.669072,4088.82241 C423.06942,4119.21154 430.891764,4169.86009 453.114332,4200.07151 C483.692585,4221.93036 521.915402,4220.15321 552.671436,4242.01206 C583.249689,4263.87091 606.361159,4309.72118 637.117193,4331.58003 C673.028863,4342.95374 708.762752,4329.44746 744.674421,4340.82117 C780.586091,4352.19488 816.675541,4388.62629 852.587211,4400 C890.276686,4399.64457 920.143817,4375.83087 957.833292,4375.47544 C995.522767,4375.29772 1041.03459,4398.756 1078.72406,4398.40057 C1114.45795,4386.49372 1135.43605,4354.50516 1171.16994,4342.59831 C1206.90383,4330.69146 1257.57129,4338.86631 1293.30518,4326.95946 C1323.70565,4304.56747 1333.66136,4267.60291 1364.06183,4245.38863 C1394.4623,4222.99664 1445.12976,4215.17722 1475.35245,4192.96294 C1497.21946,4162.3961 1495.44165,4124.18754 1517.30866,4093.44298 C1539.17567,4062.87613 1585.04305,4039.77329 1606.91005,4009.02873 C1618.28801,3973.13046 1604.77669,3937.4099 1616.15464,3901.51163 C1627.17703,3865.25793 1663.62205,3829.18194 1675,3793.28367 Z M1613.38911,3898.24653 C1597.20609,3930.07907 1557.5488,3958.35489 1541.18795,3990.18743 C1525.00493,4022.01996 1532.11834,4057.58704 1515.93532,4089.41957 C1490.6827,4114.6722 1444.26766,4129.2547 1418.8372,4154.50732 C1393.58458,4179.75995 1389.49436,4215.86053 1364.0639,4241.11316 C1332.23137,4257.29618 1283.50447,4256.76267 1251.67194,4273.12353 C1219.8394,4289.30655 1204.7234,4322.38393 1172.89086,4338.56695 C1137.50162,4344.07984 1091.44226,4328.60817 1056.05301,4334.12106 C1020.66377,4339.63396 996.122489,4366.4871 960.911082,4372 C925.521841,4366.4871 886.575891,4337.3221 851.186649,4331.8092 C815.797408,4326.11847 784.320544,4344.07984 748.931303,4338.38911 C717.098769,4322.20609 688.822942,4282.37097 656.990408,4266.18795 C625.157874,4250.00493 589.590797,4257.11834 557.580428,4240.93532 C532.327803,4215.6827 517.745301,4169.26766 492.492677,4143.8372 C467.240052,4118.58458 431.139469,4114.31653 405.886844,4089.0639 C389.703824,4057.23137 390.23733,4008.50447 373.876474,3976.67194 C357.693454,3944.8394 324.616073,3929.7234 308.433052,3897.89086 C302.920156,3862.50162 318.391834,3816.44226 312.878937,3781.05301 C307.188205,3745.66377 280.512897,3721.12249 275,3685.91108 C280.690732,3650.52184 309.6779,3611.57589 315.190797,3576.18665 C320.703694,3540.79741 302.920156,3509.32054 308.610888,3473.9313 C324.793908,3442.09877 364.629034,3413.82294 380.812054,3381.99041 C396.995075,3350.15787 389.881659,3314.5908 406.064679,3282.58043 C431.317304,3257.3278 477.73234,3242.7453 503.1628,3217.49268 C528.415424,3192.24005 532.683474,3156.13947 557.936099,3130.88684 C589.768633,3114.70382 638.495528,3115.23733 670.328062,3098.87647 C702.160596,3082.69345 717.276604,3049.61607 749.109138,3033.43305 C784.49838,3027.92016 830.557745,3043.39183 865.946986,3037.87894 C901.336228,3032.36604 925.877511,3005.5129 961.088918,3000 C996.478159,3005.5129 1035.42411,3034.6779 1070.81335,3040.1908 C1106.20259,3045.88153 1137.67946,3027.92016 1173.0687,3033.61089 C1204.90123,3049.79391 1233.17706,3089.62903 1265.00959,3105.81205 C1296.84213,3121.99507 1332.4092,3114.88166 1364.41957,3131.06468 C1389.6722,3156.3173 1404.2547,3202.73234 1429.50732,3228.1628 C1454.75995,3253.41542 1490.86053,3257.68347 1516.11316,3282.9361 C1532.29618,3314.76863 1531.76267,3363.49553 1548.12353,3395.32806 C1564.30655,3427.1606 1597.38393,3442.2766 1613.56695,3474.10914 C1619.25768,3509.49838 1603.60817,3555.55774 1609.12106,3590.94699 C1614.63396,3626.33623 1641.4871,3650.87751 1647,3686.08892 C1641.4871,3721.47816 1612.3221,3760.42411 1606.8092,3795.81335 C1601.29631,3831.20259 1619.07984,3862.85729 1613.38911,3898.24653 Z" id="Shape-Copy-2"></path>
        </g>
    </g>
</svg>