<?xml version="1.0" encoding="utf-8"?>
<!-- Generator: Adobe Illustrator 19.0.0, SVG Export Plug-In . SVG Version: 6.00 Build 0)  -->
<svg version="1.1" id="Layer_1" xmlns="http://www.w3.org/2000/svg" xmlns:xlink="http://www.w3.org/1999/xlink" x="0px" y="0px"
	 width="34px" height="30.7px" viewBox="0 0 34 30.7" style="enable-background:new 0 0 34 30.7;" xml:space="preserve">
<style type="text/css">
	.st0{clip-path:url(#SVGID_2_);fill:#FFFFFF;}
	.st1{clip-path:url(#SVGID_4_);fill:#FFFFFF;}
	.st2{clip-path:url(#SVGID_6_);fill:#FFFFFF;}
	.st3{clip-path:url(#SVGID_8_);fill:#FFFFFF;}
	.st4{clip-path:url(#SVGID_10_);fill:#FFFFFF;}
	.st5{clip-path:url(#SVGID_12_);fill:#FFFFFF;}
	.st6{clip-path:url(#SVGID_14_);fill:#FFFFFF;}
	.st7{clip-path:url(#SVGID_16_);fill:#FFFFFF;}
	.st8{clip-path:url(#SVGID_18_);fill:#FFFFFF;}
	.st9{clip-path:url(#SVGID_20_);fill:#FFFFFF;}
	.st10{clip-path:url(#SVGID_22_);fill:#FFFFFF;}
	.st11{clip-path:url(#SVGID_24_);fill:#FFFFFF;}
	.st12{clip-path:url(#SVGID_26_);fill:#FFFFFF;}
	.st13{clip-path:url(#SVGID_28_);fill:#FFFFFF;}
	.st14{clip-path:url(#SVGID_30_);fill:#FFFFFF;}
	.st15{clip-path:url(#SVGID_32_);fill:#FFFFFF;}
	.st16{clip-path:url(#SVGID_34_);fill:#FFFFFF;}
	.st17{clip-path:url(#SVGID_36_);fill:#FFFFFF;}
	.st18{clip-path:url(#SVGID_38_);fill:#FFFFFF;}
	.st19{clip-path:url(#SVGID_40_);fill:#FFFFFF;}
	.st20{clip-path:url(#SVGID_42_);fill:#FFFFFF;}
	.st21{clip-path:url(#SVGID_44_);fill:#FFFFFF;}
	.st22{clip-path:url(#SVGID_46_);fill:#FFFFFF;}
	.st23{clip-path:url(#SVGID_48_);fill:#FFFFFF;}
	.st24{clip-path:url(#SVGID_50_);fill:#FFFFFF;}
	.st25{clip-path:url(#SVGID_52_);fill:#FFFFFF;}
	.st26{clip-path:url(#SVGID_54_);fill:#FFFFFF;}
	.st27{clip-path:url(#SVGID_56_);fill:#FFFFFF;}
	.st28{clip-path:url(#SVGID_58_);fill:#FFFFFF;}
	.st29{clip-path:url(#SVGID_60_);fill:#FFFFFF;}
	.st30{clip-path:url(#SVGID_62_);fill:#FFFFFF;}
	.st31{clip-path:url(#SVGID_64_);fill:#FFFFFF;}
</style>
<g>
	<defs>
		<rect id="SVGID_1_" x="11" y="9.3" width="0.7" height="19.8"/>
	</defs>
	<use xlink:href="#SVGID_1_"  style="overflow:visible;fill:#FFFFFF;"/>
	<clipPath id="SVGID_2_">
		<use xlink:href="#SVGID_1_"  style="overflow:visible;"/>
	</clipPath>
	<rect x="1.5" y="17.1" transform="matrix(0.1724 -0.985 0.985 0.1724 -9.4841 27.0209)" class="st0" width="19.6" height="4.1"/>
</g>
<g>
	<defs>
		<rect id="SVGID_3_" x="13.2" y="24.2" width="0.7" height="4.9"/>
	</defs>
	<use xlink:href="#SVGID_3_"  style="overflow:visible;fill:#FFFFFF;"/>
	<clipPath id="SVGID_4_">
		<use xlink:href="#SVGID_3_"  style="overflow:visible;"/>
	</clipPath>
	<rect x="11.1" y="25.8" transform="matrix(0.1724 -0.985 0.985 0.1724 -14.9524 35.4265)" class="st1" width="4.9" height="1.6"/>
</g>
<g>
	<defs>
		<rect id="SVGID_5_" x="15.3" y="21.6" width="0.7" height="7.5"/>
	</defs>
	<use xlink:href="#SVGID_5_"  style="overflow:visible;fill:#FFFFFF;"/>
	<clipPath id="SVGID_6_">
		<use xlink:href="#SVGID_5_"  style="overflow:visible;"/>
	</clipPath>
	<rect x="11.9" y="24.3" transform="matrix(0.1724 -0.985 0.985 0.1724 -12.0168 36.3425)" class="st2" width="7.5" height="2"/>
</g>
<g>
	<defs>
		<rect id="SVGID_7_" x="17.3" y="23.8" width="0.7" height="5.3"/>
	</defs>
	<use xlink:href="#SVGID_7_"  style="overflow:visible;fill:#FFFFFF;"/>
	<clipPath id="SVGID_8_">
		<use xlink:href="#SVGID_7_"  style="overflow:visible;"/>
	</clipPath>
	<rect x="15" y="25.6" transform="matrix(0.1724 -0.985 0.985 0.1724 -11.4348 39.2371)" class="st3" width="5.3" height="1.6"/>
</g>
<g>
	<defs>
		<rect id="SVGID_9_" x="19.3" y="19.1" width="0.7" height="10"/>
	</defs>
	<use xlink:href="#SVGID_9_"  style="overflow:visible;fill:#FFFFFF;"/>
	<clipPath id="SVGID_10_">
		<use xlink:href="#SVGID_9_"  style="overflow:visible;"/>
	</clipPath>
	<rect x="14.7" y="22.8" transform="matrix(0.1724 -0.985 0.985 0.1724 -7.4438 39.2682)" class="st4" width="10" height="2.4"/>
</g>
<g>
	<defs>
		<rect id="SVGID_11_" x="21.3" y="15.4" width="0.7" height="13.6"/>
	</defs>
	<use xlink:href="#SVGID_11_"  style="overflow:visible;fill:#FFFFFF;"/>
	<clipPath id="SVGID_12_">
		<use xlink:href="#SVGID_11_"  style="overflow:visible;"/>
	</clipPath>
	<rect x="14.9" y="20.7" transform="matrix(0.1724 -0.985 0.985 0.1724 -3.9807 39.7411)" class="st5" width="13.5" height="3.1"/>
</g>
<g>
	<defs>
		<path id="SVGID_13_" d="M14.7,20.3c0-0.5,0.4-0.9,0.9-0.9c0.5,0,0.9,0.4,0.9,0.9c0,0.5-0.4,0.9-0.9,0.9
			C15.1,21.2,14.7,20.8,14.7,20.3 M13.9,20.3c0,0.9,0.7,1.7,1.7,1.7c0.9,0,1.7-0.7,1.7-1.7c0-0.9-0.7-1.7-1.7-1.7
			C14.7,18.6,13.9,19.4,13.9,20.3"/>
	</defs>
	<use xlink:href="#SVGID_13_"  style="overflow:visible;fill:#FFFFFF;"/>
	<clipPath id="SVGID_14_">
		<use xlink:href="#SVGID_13_"  style="overflow:visible;"/>
	</clipPath>
	<rect x="13.7" y="18.4" transform="matrix(0.1724 -0.985 0.985 0.1724 -7.0867 32.1692)" class="st6" width="3.8" height="3.8"/>
</g>
<g>
	<defs>
		<path id="SVGID_15_" d="M5,14.4C5.6,16.1,7,19,9.2,19v-0.7c-1.8,0-3.1-3.2-3.5-4.1L5,14.4z"/>
	</defs>
	<use xlink:href="#SVGID_15_"  style="overflow:visible;fill:#FFFFFF;"/>
	<clipPath id="SVGID_16_">
		<use xlink:href="#SVGID_15_"  style="overflow:visible;"/>
	</clipPath>
	<rect x="4.4" y="14.1" transform="matrix(0.1724 -0.985 0.985 0.1724 -10.4237 20.6955)" class="st7" width="5.5" height="4.9"/>
</g>
<g>
	<defs>
		<path id="SVGID_17_" d="M4.6,6.4c0,3.1,1.9,6.7,4.6,6.7v-0.7c-2,0-3.9-2.8-3.9-5.9c0-2.8,1.6-4.7,3.9-4.7V1C6.5,1,4.6,3.3,4.6,6.4
			"/>
	</defs>
	<use xlink:href="#SVGID_17_"  style="overflow:visible;fill:#FFFFFF;"/>
	<clipPath id="SVGID_18_">
		<use xlink:href="#SVGID_17_"  style="overflow:visible;"/>
	</clipPath>
	<rect x="0.5" y="3.7" transform="matrix(0.1724 -0.985 0.985 0.1724 -1.2147 12.5741)" class="st8" width="12.7" height="6.6"/>
</g>
<g>
	<defs>
		<path id="SVGID_19_" d="M7.2,12.1v1.3C2.5,14.1,0,16.9,0,21.4c0,1,0.1,4.1,0.3,7.7l0,0.3h26.8v-0.7H1c-0.2-3.3-0.3-6.4-0.3-7.3
			c0-5.3,3.7-6.9,6.8-7.2l0.3,0v-2H7.2z"/>
	</defs>
	<use xlink:href="#SVGID_19_"  style="overflow:visible;fill:#FFFFFF;"/>
	<clipPath id="SVGID_20_">
		<use xlink:href="#SVGID_19_"  style="overflow:visible;"/>
	</clipPath>
	<rect x="2.7" y="5.9" transform="matrix(0.1724 -0.985 0.985 0.1724 -9.2244 30.576)" class="st9" width="21.7" height="29.7"/>
</g>
<g>
	<defs>
		<path id="SVGID_21_" d="M30.7,0.7h2.6v1.4h-2.6V0.7z M29.9,2.8H34V0h-4.1V2.8z"/>
	</defs>
	<use xlink:href="#SVGID_21_"  style="overflow:visible;fill:#FFFFFF;"/>
	<clipPath id="SVGID_22_">
		<use xlink:href="#SVGID_21_"  style="overflow:visible;"/>
	</clipPath>
	<rect x="30.2" y="-0.8" transform="matrix(0.1724 -0.985 0.985 0.1724 25.0693 32.6632)" class="st10" width="3.5" height="4.5"/>
</g>
<g>
	<defs>
		<path id="SVGID_23_" d="M27,5.5h6.2v1.4H27V5.5z M26.3,7.6H34V4.8h-7.7V7.6z"/>
	</defs>
	<use xlink:href="#SVGID_23_"  style="overflow:visible;fill:#FFFFFF;"/>
	<clipPath id="SVGID_24_">
		<use xlink:href="#SVGID_23_"  style="overflow:visible;"/>
	</clipPath>
	<rect x="28.1" y="2.2" transform="matrix(0.1724 -0.985 0.985 0.1724 18.8468 34.8532)" class="st11" width="4.1" height="8.1"/>
</g>
<g>
	<defs>
		<path id="SVGID_25_" d="M19.1,5.5H24v1.4h-4.8V5.5z M18.4,7.6h6.3V4.8h-6.3V7.6z"/>
	</defs>
	<use xlink:href="#SVGID_25_"  style="overflow:visible;fill:#FFFFFF;"/>
	<clipPath id="SVGID_26_">
		<use xlink:href="#SVGID_25_"  style="overflow:visible;"/>
	</clipPath>
	<rect x="19.6" y="2.9" transform="matrix(0.1724 -0.985 0.985 0.1724 11.7107 26.3598)" class="st12" width="3.9" height="6.7"/>
</g>
<g>
	<defs>
		<path id="SVGID_27_" d="M19.1,0.7h8.5v1.4h-8.5V0.7z M18.4,2.8h9.9V0h-9.9V2.8z"/>
	</defs>
	<use xlink:href="#SVGID_27_"  style="overflow:visible;fill:#FFFFFF;"/>
	<clipPath id="SVGID_28_">
		<use xlink:href="#SVGID_27_"  style="overflow:visible;"/>
	</clipPath>
	<rect x="21.1" y="-3.7" transform="matrix(0.1724 -0.985 0.985 0.1724 17.9439 24.1826)" class="st13" width="4.5" height="10.3"/>
</g>
<g>
	<defs>
		<rect id="SVGID_29_" x="18.8" y="10.2" width="10" height="0.7"/>
	</defs>
	<use xlink:href="#SVGID_29_"  style="overflow:visible;fill:#FFFFFF;"/>
	<clipPath id="SVGID_30_">
		<use xlink:href="#SVGID_29_"  style="overflow:visible;"/>
	</clipPath>
	<rect x="22.5" y="5.6" transform="matrix(0.1724 -0.985 0.985 0.1724 9.2036 32.1849)" class="st14" width="2.4" height="10"/>
</g>
<g>
	<defs>
		<rect id="SVGID_31_" x="29.6" y="10.2" width="1" height="0.7"/>
	</defs>
	<use xlink:href="#SVGID_31_"  style="overflow:visible;fill:#FFFFFF;"/>
	<clipPath id="SVGID_32_">
		<use xlink:href="#SVGID_31_"  style="overflow:visible;"/>
	</clipPath>
	<rect x="29.7" y="10" transform="matrix(0.1724 -0.985 0.985 0.1724 14.49 38.4768)" class="st15" width="0.9" height="1.2"/>
</g>
<g>
	<defs>
		<rect id="SVGID_33_" x="31.5" y="10.2" width="2.2" height="0.7"/>
	</defs>
	<use xlink:href="#SVGID_33_"  style="overflow:visible;fill:#FFFFFF;"/>
	<clipPath id="SVGID_34_">
		<use xlink:href="#SVGID_33_"  style="overflow:visible;"/>
	</clipPath>
	<rect x="32" y="9.5" transform="matrix(0.1724 -0.985 0.985 0.1724 16.4834 40.8493)" class="st16" width="1.1" height="2.3"/>
</g>
<g>
	<defs>
		<rect id="SVGID_35_" x="31.4" y="12.4" width="2.2" height="0.7"/>
	</defs>
	<use xlink:href="#SVGID_35_"  style="overflow:visible;fill:#FFFFFF;"/>
	<clipPath id="SVGID_36_">
		<use xlink:href="#SVGID_35_"  style="overflow:visible;"/>
	</clipPath>
	<rect x="32" y="11.6" transform="matrix(0.1724 -0.985 0.985 0.1724 14.3505 42.6297)" class="st17" width="1.1" height="2.3"/>
</g>
<g>
	<defs>
		<rect id="SVGID_37_" x="31.1" y="14.6" width="2.6" height="0.7"/>
	</defs>
	<use xlink:href="#SVGID_37_"  style="overflow:visible;fill:#FFFFFF;"/>
	<clipPath id="SVGID_38_">
		<use xlink:href="#SVGID_37_"  style="overflow:visible;"/>
	</clipPath>
	<rect x="31.8" y="13.7" transform="matrix(0.1724 -0.985 0.985 0.1724 12.0176 44.2821)" class="st18" width="1.2" height="2.7"/>
</g>
<g>
	<defs>
		<rect id="SVGID_39_" x="25.9" y="14.6" width="4.6" height="0.7"/>
	</defs>
	<use xlink:href="#SVGID_39_"  style="overflow:visible;fill:#FFFFFF;"/>
	<clipPath id="SVGID_40_">
		<use xlink:href="#SVGID_39_"  style="overflow:visible;"/>
	</clipPath>
	<rect x="27.5" y="12.7" transform="matrix(0.1724 -0.985 0.985 0.1724 8.5871 40.1992)" class="st19" width="1.5" height="4.7"/>
</g>
<g>
	<defs>
		<rect id="SVGID_41_" x="25" y="12.4" width="5.7" height="0.7"/>
	</defs>
	<use xlink:href="#SVGID_41_"  style="overflow:visible;fill:#FFFFFF;"/>
	<clipPath id="SVGID_42_">
		<use xlink:href="#SVGID_41_"  style="overflow:visible;"/>
	</clipPath>
	<rect x="27" y="9.9" transform="matrix(0.1724 -0.985 0.985 0.1724 10.4771 38.0197)" class="st20" width="1.7" height="5.8"/>
</g>
<g>
	<defs>
		<rect id="SVGID_43_" x="18.8" y="12.4" width="5.4" height="0.7"/>
	</defs>
	<use xlink:href="#SVGID_43_"  style="overflow:visible;fill:#FFFFFF;"/>
	<clipPath id="SVGID_44_">
		<use xlink:href="#SVGID_43_"  style="overflow:visible;"/>
	</clipPath>
	<rect x="20.7" y="10" transform="matrix(0.1724 -0.985 0.985 0.1724 5.1994 31.7381)" class="st21" width="1.7" height="5.5"/>
</g>
<g>
	<defs>
		<polygon id="SVGID_45_" points="9.7,10.8 10.3,11.3 11.3,9.9 12.4,11.3 13,10.8 11.3,8.6 		"/>
	</defs>
	<use xlink:href="#SVGID_45_"  style="overflow:visible;fill:#FFFFFF;"/>
	<clipPath id="SVGID_46_">
		<use xlink:href="#SVGID_45_"  style="overflow:visible;"/>
	</clipPath>
	<rect x="9.7" y="8.1" transform="matrix(0.1724 -0.985 0.985 0.1724 -0.405 19.4018)" class="st22" width="3.2" height="3.7"/>
</g>
<g>
	<defs>
		<polygon id="SVGID_47_" points="25.2,28 26.6,29 25.2,30.1 25.6,30.7 27.9,29 25.6,27.4 		"/>
	</defs>
	<use xlink:href="#SVGID_47_"  style="overflow:visible;fill:#FFFFFF;"/>
	<clipPath id="SVGID_48_">
		<use xlink:href="#SVGID_47_"  style="overflow:visible;"/>
	</clipPath>
	<rect x="24.7" y="27.4" transform="matrix(0.1724 -0.985 0.985 0.1724 -6.6475 50.156)" class="st23" width="3.7" height="3.2"/>
</g>
<g>
	<defs>
		<rect id="SVGID_49_" x="10.4" y="0.9" width="1.1" height="0.7"/>
	</defs>
	<use xlink:href="#SVGID_49_"  style="overflow:visible;fill:#FFFFFF;"/>
	<clipPath id="SVGID_50_">
		<use xlink:href="#SVGID_49_"  style="overflow:visible;"/>
	</clipPath>
	<rect x="10.5" y="0.7" transform="matrix(0.1724 -0.985 0.985 0.1724 7.7725 11.8237)" class="st24" width="0.9" height="1.2"/>
</g>
<g>
	<defs>
		<rect id="SVGID_51_" x="13.1" y="0.9" width="4" height="0.7"/>
	</defs>
	<use xlink:href="#SVGID_51_"  style="overflow:visible;fill:#FFFFFF;"/>
	<clipPath id="SVGID_52_">
		<use xlink:href="#SVGID_51_"  style="overflow:visible;"/>
	</clipPath>
	<rect x="14.3" y="-0.7" transform="matrix(0.1724 -0.985 0.985 0.1724 11.1736 15.8716)" class="st25" width="1.4" height="4"/>
</g>
<g>
	<defs>
		<rect id="SVGID_53_" x="3.6" y="25.9" width="1" height="0.7"/>
	</defs>
	<use xlink:href="#SVGID_53_"  style="overflow:visible;fill:#FFFFFF;"/>
	<clipPath id="SVGID_54_">
		<use xlink:href="#SVGID_53_"  style="overflow:visible;"/>
	</clipPath>
	<rect x="3.7" y="25.8" transform="matrix(0.1724 -0.985 0.985 0.1724 -22.5231 25.822)" class="st26" width="0.9" height="1.1"/>
</g>
<g>
	<defs>
		<rect id="SVGID_55_" x="7.1" y="25.9" width="1" height="0.7"/>
	</defs>
	<use xlink:href="#SVGID_55_"  style="overflow:visible;fill:#FFFFFF;"/>
	<clipPath id="SVGID_56_">
		<use xlink:href="#SVGID_55_"  style="overflow:visible;"/>
	</clipPath>
	<rect x="7.1" y="25.8" transform="matrix(0.1724 -0.985 0.985 0.1724 -19.6716 29.2158)" class="st27" width="0.9" height="1.1"/>
</g>
<g>
	<defs>
		<path id="SVGID_57_" d="M29.5,22.8v-3V22.8z"/>
	</defs>
	<use xlink:href="#SVGID_57_"  style="overflow:visible;fill:#FFFFFF;"/>
	<clipPath id="SVGID_58_">
		<use xlink:href="#SVGID_57_"  style="overflow:visible;"/>
	</clipPath>
	<rect x="28" y="21.1" transform="matrix(0.1724 -0.985 0.985 0.1724 3.3836 46.722)" class="st28" width="2.9" height="0.5"/>
</g>
<g>
	<defs>
		<rect id="SVGID_59_" x="29.1" y="19.9" width="0.7" height="3"/>
	</defs>
	<use xlink:href="#SVGID_59_"  style="overflow:visible;fill:#FFFFFF;"/>
	<clipPath id="SVGID_60_">
		<use xlink:href="#SVGID_59_"  style="overflow:visible;"/>
	</clipPath>
	<rect x="28" y="20.7" transform="matrix(0.1724 -0.985 0.985 0.1724 3.3828 46.721)" class="st29" width="3.1" height="1.2"/>
</g>
<g>
	<defs>
		<path id="SVGID_61_" d="M28,21.3h3H28z"/>
	</defs>
	<use xlink:href="#SVGID_61_"  style="overflow:visible;fill:#FFFFFF;"/>
	<clipPath id="SVGID_62_">
		<use xlink:href="#SVGID_61_"  style="overflow:visible;"/>
	</clipPath>
	<rect x="29.2" y="19.9" transform="matrix(0.1724 -0.985 0.985 0.1724 3.3827 46.7229)" class="st30" width="0.5" height="2.9"/>
</g>
<g>
	<defs>
		<rect id="SVGID_63_" x="28" y="21" width="3" height="0.7"/>
	</defs>
	<use xlink:href="#SVGID_63_"  style="overflow:visible;fill:#FFFFFF;"/>
	<clipPath id="SVGID_64_">
		<use xlink:href="#SVGID_63_"  style="overflow:visible;"/>
	</clipPath>
	<rect x="28.9" y="19.8" transform="matrix(0.1724 -0.985 0.985 0.1724 3.3842 46.7216)" class="st31" width="1.2" height="3.1"/>
</g>
</svg>
