<?xml version="1.0" encoding="utf-8"?>
<!-- Generator: Adobe Illustrator 19.0.0, SVG Export Plug-In . SVG Version: 6.00 Build 0)  -->
<svg version="1.1" id="Layer_1" xmlns="http://www.w3.org/2000/svg" xmlns:xlink="http://www.w3.org/1999/xlink" x="0px" y="0px"
	 width="15px" height="15px" viewBox="-269.5 432.5 15 15" style="enable-background:new -269.5 432.5 15 15;" xml:space="preserve"
	>
<style type="text/css">
	.st0{fill:#A9A9A9;}
</style>
<path class="st0" d="M-258.5,437.4h-2.4v-1.6c0-0.6,0.4-0.7,0.7-0.7c0.3,0,1.7,0,1.7,0v-2.6l-2.3,0c-2.6,0-3.1,1.9-3.1,3.1v1.7h-1.5
	v2.6h1.5c0,3.4,0,7.5,0,7.5h3.1c0,0,0-4.1,0-7.5h2.1L-258.5,437.4z"/>
</svg>
