<?xml version="1.0" encoding="UTF-8"?>
<svg width="270px" height="345px" viewBox="0 0 270 345" version="1.1" xmlns="http://www.w3.org/2000/svg" xmlns:xlink="http://www.w3.org/1999/xlink">
    <!-- Generator: Sketch 50.2 (55047) - http://www.bohemiancoding.com/sketch -->
    <title>Group 12</title>
    <desc>Created with Sketch.</desc>
    <defs></defs>
    <g id="Page-1" stroke="none" stroke-width="1" fill="none" fill-rule="evenodd" opacity="0.125837054">
        <g id="Homepage" transform="translate(-448.000000, -6480.000000)" fill="#000000" fill-rule="nonzero">
            <g id="Group-21" transform="translate(217.000000, 6108.000000)">
                <g id="Group-14" transform="translate(175.000000, 372.000000)">
                    <g id="Group-12" transform="translate(56.000000, 0.000000)">
                        <g id="noun_704673_cc" transform="translate(180.000000, 0.000000)">
                            <polygon id="Shape" points="7.21 75 5.79 75 0 69.21 0 67.79"></polygon>
                            <polygon id="Shape" points="29.71 75 28.29 75 0 46.71 0 45.29"></polygon>
                            <polygon id="Shape" points="52.21 75 50.79 75 0 24.21 0 22.79"></polygon>
                            <polygon id="Shape" points="74.71 75 73.29 75 0 1.71 0 0.29"></polygon>
                        </g>
                        <g id="noun_704673_cc-copy" transform="translate(180.000000, 75.000000)">
                            <polygon id="Shape" points="7.21 90 5.79 90 0 84.21 0 82.79"></polygon>
                            <polygon id="Shape" points="29.71 90 28.29 90 0 61.71 0 60.29"></polygon>
                            <polygon id="Shape" points="52.21 90 50.79 90 0 39.21 0 37.79"></polygon>
                            <polygon id="Shape" points="74.71 90 73.29 90 0 16.71 0 15.29"></polygon>
                            <polygon id="Shape" points="90 82.79 90 84.21 5.79 0 7.21 0"></polygon>
                            <polygon id="Shape" points="90 60.29 90 61.71 28.29 0 29.71 0"></polygon>
                            <polygon id="Shape" points="90 37.79 90 39.21 50.79 0 52.21 0"></polygon>
                            <polygon id="Shape" points="90 15.29 90 16.71 73.29 0 74.71 0"></polygon>
                        </g>
                        <g id="noun_704673_cc-copy-2" transform="translate(180.000000, 165.000000)">
                            <polygon id="Shape" points="7.21 90 5.79 90 0 84.21 0 82.79"></polygon>
                            <polygon id="Shape" points="29.71 90 28.29 90 0 61.71 0 60.29"></polygon>
                            <polygon id="Shape" points="52.21 90 50.79 90 0 39.21 0 37.79"></polygon>
                            <polygon id="Shape" points="74.71 90 73.29 90 0 16.71 0 15.29"></polygon>
                            <polygon id="Shape" points="90 82.79 90 84.21 5.79 0 7.21 0"></polygon>
                            <polygon id="Shape" points="90 60.29 90 61.71 28.29 0 29.71 0"></polygon>
                            <polygon id="Shape" points="90 37.79 90 39.21 50.79 0 52.21 0"></polygon>
                            <polygon id="Shape" points="90 15.29 90 16.71 73.29 0 74.71 0"></polygon>
                        </g>
                        <g id="noun_704673_cc-copy-4" transform="translate(90.000000, 255.000000)">
                            <polygon id="Shape" points="7.21 90 5.79 90 0 84.21 0 82.79"></polygon>
                            <polygon id="Shape" points="29.71 90 28.29 90 0 61.71 0 60.29"></polygon>
                            <polygon id="Shape" points="52.21 90 50.79 90 0 39.21 0 37.79"></polygon>
                            <polygon id="Shape" points="74.71 90 73.29 90 0 16.71 0 15.29"></polygon>
                            <polygon id="Shape" points="90 82.79 90 84.21 5.79 0 7.21 0"></polygon>
                            <polygon id="Shape" points="90 60.29 90 61.71 28.29 0 29.71 0"></polygon>
                            <polygon id="Shape" points="90 37.79 90 39.21 50.79 0 52.21 0"></polygon>
                            <polygon id="Shape" points="90 15.29 90 16.71 73.29 0 74.71 0"></polygon>
                        </g>
                        <g id="noun_704673_cc-copy-5" transform="translate(0.000000, 255.000000)">
                            <polygon id="Shape" points="29.71 90 28.29 90 0 61.71 0 60.29"></polygon>
                            <polygon id="Shape" points="52.21 90 50.79 90 0 39.21 0 37.79"></polygon>
                            <polygon id="Shape" points="74.71 90 73.29 90 0 16.71 0 15.29"></polygon>
                            <polygon id="Shape" points="90 82.79 90 84.21 5.79 0 7.21 0"></polygon>
                            <polygon id="Shape" points="90 60.29 90 61.71 28.29 0 29.71 0"></polygon>
                            <polygon id="Shape" points="90 37.79 90 39.21 50.79 0 52.21 0"></polygon>
                            <polygon id="Shape" points="90 15.29 90 16.71 73.29 0 74.71 0"></polygon>
                        </g>
                        <g id="noun_704673_cc-copy-3" transform="translate(180.000000, 255.000000)">
                            <polygon id="Shape" points="7.21 90 5.79 90 0 84.21 0 82.79"></polygon>
                            <polygon id="Shape" points="29.71 90 28.29 90 0 61.71 0 60.29"></polygon>
                            <polygon id="Shape" points="52.21 90 50.79 90 0 39.21 0 37.79"></polygon>
                            <polygon id="Shape" points="74.71 90 73.29 90 0 16.71 0 15.29"></polygon>
                            <polygon id="Shape" points="90 82.79 90 84.21 5.79 0 7.21 0"></polygon>
                            <polygon id="Shape" points="90 60.29 90 61.71 28.29 0 29.71 0"></polygon>
                            <polygon id="Shape" points="90 37.79 90 39.21 50.79 0 52.21 0"></polygon>
                            <polygon id="Shape" points="90 15.29 90 16.71 73.29 0 74.71 0"></polygon>
                        </g>
                    </g>
                </g>
            </g>
        </g>
    </g>
</svg>