<?xml version="1.0" encoding="utf-8"?>
<!-- Generator: Adobe Illustrator 21.0.2, SVG Export Plug-In . SVG Version: 6.00 Build 0)  -->
<svg version="1.1" id="Layer_1" xmlns="http://www.w3.org/2000/svg" xmlns:xlink="http://www.w3.org/1999/xlink" x="0px" y="0px"
	 viewBox="0 0 82 41" style="enable-background:new 0 0 82 41;" xml:space="preserve">
<style type="text/css">
	.st0{display:none;}
	.st1{display:inline;fill:#DEDEDE;}
	.st2{display:inline;}
	.st3{fill:#DEDEDE;}
</style>
<g id="Layer_1_1_">
	
		<g id="coda_1_" xmlns:cc="http://creativecommons.org/ns#" xmlns:dc="http://purl.org/dc/elements/1.1/" xmlns:rdf="http://www.w3.org/1999/02/22-rdf-syntax-ns#" class="st0">
		<path class="st1" d="M53,16.1c0-2.5,0-4.9,0-7.3c1.7,0,3.4,0,5.1,0c0,0.1,0,0.2,0,0.3c0,7.6,0,15.1,0,22.8c0,0.2,0,0.2-0.3,0.2
			c-1.6,0-3.1,0-4.7,0C53,32,53,32,53,31.8c0-0.4,0-0.7,0-1.2c-0.1,0-0.1,0.1-0.1,0.1c-1.2,1.1-2.6,1.6-4.2,1.7
			c-1.7,0-3.2-0.3-4.7-1.1c-1.8-1-3.1-2.6-3.9-4.6c-0.5-1.3-0.6-2.7-0.6-4c0.2-2.8,1.5-5.1,3.8-6.8c1.7-1.2,3.5-1.7,5.4-1.6
			c1.6,0.1,2.9,0.6,4.1,1.7C52.9,16,52.9,16,53,16.1z M49,27.7c0.2,0,0.3,0,0.4,0c1.2-0.1,2.2-0.6,2.9-1.7c1-1.4,1.1-2.8,0.6-4.4
			c-0.6-1.6-1.7-2.5-3.4-2.7c-1.7-0.2-3,0.6-3.9,1.9c-1,1.6-0.9,3.6,0.3,5C46.6,27.1,47.6,27.7,49,27.7z"/>
		<path class="st1" d="M72.6,15.7c0-0.5,0-0.9,0-1.4c1.7,0,3.3,0,5,0c0,5.9,0,11.7,0,17.6c-1.7,0-3.3,0-5,0c0-0.5,0-0.8,0-1.3
			c0,0,0,0-0.1,0c-0.1,0.1-0.2,0.1-0.2,0.2c-0.7,0.6-1.6,1.2-2.6,1.5c-0.7,0.2-1.5,0.2-2.2,0.2c-1.3-0.1-2.6-0.4-3.8-1
			c-1.7-0.9-3-2.3-3.9-4c-0.6-1.2-0.8-2.4-0.9-3.7c-0.1-1.6,0.1-3,0.7-4.4c1.1-2.5,2.8-4.2,5.4-5c1.2-0.4,2.4-0.6,3.7-0.4
			C70.3,14.2,71.5,14.7,72.6,15.7C72.5,15.6,72.5,15.6,72.6,15.7z M68.2,18.9c-1.1,0-2,0.4-2.8,1.2c-1.5,1.5-1.8,4.1-0.4,6
			c1.7,2,4.1,1.9,5.8,0.6c1.3-1,1.8-2.5,1.6-4C72.2,20.4,70.4,18.9,68.2,18.9z"/>
		<path class="st1" d="M20.1,21.2c-0.1,0-0.2,0-0.2,0c-1.7,0-3.4,0-5,0c-0.1,0-0.2,0-0.3-0.2c-0.4-0.9-1-1.7-2-1.8
			c-1.7-0.4-3.1-0.1-4.2,1.2c-0.6,0.7-0.9,1.6-1,2.6c-0.1,0.7,0,1.6,0.4,2.2c0.6,1.4,1.7,2.1,3.1,2.3c0.8,0.1,1.6,0.1,2.3-0.3
			s1.3-0.9,1.7-1.7c0.1-0.2,0.2-0.3,0.5-0.3c1.6,0,3.1,0,4.7,0c0.1,0,0.1,0,0.2,0c0,0.2-0.1,0.5-0.1,0.6c-0.5,2-1.6,3.6-3.1,4.8
			c-1.4,1-2.9,1.7-4.7,1.8c-2.7,0.3-5-0.5-6.9-2.2c-1.7-1.5-2.7-3.2-2.9-5.4C1.9,21.2,3,18,6,15.7c1.2-1,2.7-1.6,4.2-1.7
			c2.3-0.3,4.3,0.3,6.2,1.6c1.2,0.8,2.2,1.8,2.9,3.1c0.4,0.7,0.6,1.5,0.7,2.3C20.1,21.1,20.1,21.2,20.1,21.2z"/>
		<path class="st1" d="M25.6,22.9c0-1.2,0.6-2.4,1.8-3.2c1.3-0.9,3.1-0.8,4.5,0.1c1.1,0.7,1.7,1.7,1.8,3c0.2,1.8-0.7,3.7-2.5,4.4
			c-1.8,0.7-4,0.1-5-1.7C25.7,24.7,25.6,24,25.6,22.9z"/>
		<path class="st1" d="M38.9,21.8c-4.2-2.4-8.5-4.7-12.8-7.1c0,0,0,0,0-0.1c2.6-1,5-1,7.5,0.2C36.8,16.3,38.6,19.3,38.9,21.8z"/>
		<path class="st1" d="M38.9,24.6c-0.6,2.8-1.9,4.9-4.3,6.3c-2.7,1.7-5.5,1.7-8.4,0.6c0,0,0,0,0-0.1C30.4,29.3,34.6,26.9,38.9,24.6
			L38.9,24.6z"/>
		<path class="st1" d="M23.8,30.2c-2.2-2-3.4-4.5-3.3-7.4c0.1-3,1.7-5.4,3.3-6.6C23.9,20.8,23.9,25.5,23.8,30.2L23.8,30.2z"/>
	</g>
	<g id="nike" class="st0">
		<g class="st2">
			<path class="st3" d="M12.8,7.5c-0.6,1.3-1.1,2.5-1.6,3.8c-0.6,1.7-0.9,3.5-0.7,5.2c0.4,3.3,2.8,5.6,6.1,6c2.3,0.3,4.5,0,6.7-0.6
				c17.9-4.8,35.9-9.5,53.8-14.2c0.2,0,0.4-0.1,0.6,0c-0.6,0.3-1.4,0.6-2,0.9c-17.7,7.6-35.5,15.1-53.2,22.8
				C19,32.7,15.6,33.8,12,34c-2.5,0.1-4.9-0.3-6.8-1.9c-2.6-2.1-3.3-5-2.6-8.2c0.4-1.8,1-3.7,1.8-5.3C6.4,14.3,9.6,10.9,12.8,7.5z"
				/>
		</g>
	</g>
	<g id="technorama" class="st0">
		<path class="st1" d="M48.8,28.3c-0.6-0.6-1.2-1.1-1.7-1.6c-1.7,1.7-3.6,2.5-5.9,2.5s-4.3-0.9-6-2.6c-0.6,0.6-1.2,1.1-1.7,1.7
			C37.4,32.7,44.7,32.8,48.8,28.3z"/>
		<path class="st1" d="M65.1,20c0,1.7,0,3.5,0,5.2c-0.6,0-1.2,0-1.8,0c0-2.8,0-5.6,0-8.4c0.1,0,0.2,0,0.2,0c0.6,0,1.3,0,1.9,0
			c0.2,0,0.2,0.1,0.3,0.2c0.6,1.7,1.3,3.2,2,4.9c0,0.1,0.1,0.1,0.1,0.3c0.2-0.6,0.4-1,0.6-1.5c0.5-1.2,1-2.4,1.5-3.6
			c0.1-0.1,0.1-0.2,0.3-0.2c0.6,0,1.3,0,1.9,0c0.1,0,0.1,0,0.2,0c0,2.8,0,5.6,0,8.4c-0.6,0-1.2,0-1.7,0c0-1.7,0-3.5,0-5.2l0,0
			c0,0.1-0.1,0.1-0.1,0.2c-0.6,1.4-1.1,2.8-1.7,4.1c-0.1,0.2-0.2,0.2-0.3,0.2c-0.4,0-0.8,0-1.2,0c-0.2,0-0.2-0.1-0.3-0.2
			c-0.6-1.4-1.1-2.8-1.7-4.1C65.2,20,65.2,20,65.1,20L65.1,20z"/>
		<path class="st1" d="M34.7,25.2c-0.7,0-1.5,0-2.2,0c-0.1,0-0.1-0.1-0.2-0.2c-0.8-1.7-1.7-3.4-2.6-5.1c0-0.1-0.1-0.1-0.1-0.2
			c0,1.8,0,3.7,0,5.5c-0.6,0-1.2,0-1.7,0c0-2.8,0-5.6,0-8.4c0.1,0,0.2,0,0.2,0c0.6,0,1.2,0,1.8,0c0.2,0,0.3,0.1,0.4,0.2
			c0.8,1.8,1.7,3.6,2.6,5.4c0,0.1,0.1,0.1,0.1,0.2c0-1.9,0-3.9,0-5.8c0.6,0,1.2,0,1.7,0C34.7,19.6,34.7,22.4,34.7,25.2z"/>
		<path class="st1" d="M54,25.2c-0.7,0-1.4,0-2,0c-0.1,0-0.2-0.1-0.2-0.2c-0.5-0.8-0.8-1.7-1.3-2.5c-0.1-0.2-0.2-0.3-0.4-0.2
			c-0.3,0-0.6,0-0.8,0c0,0.9,0,1.8,0,2.8c-0.6,0-1.3,0-1.8,0c0-2.8,0-5.6,0-8.4h0.1c1.3,0,2.7,0,3.9,0c0.5,0,0.8,0.1,1.2,0.4
			c0.6,0.4,0.8,0.9,0.9,1.5c0.1,0.6,0.1,1.2,0,1.8c-0.1,0.7-0.6,1.4-1.3,1.7C53,23.2,53.5,24.2,54,25.2z M49.3,20.8
			C49.3,20.8,49.4,20.8,49.3,20.8c0.7,0,1.3,0,1.9,0c0.3,0,0.5-0.2,0.6-0.6c0-0.4,0-0.8,0-1.2c0-0.5-0.2-0.6-0.6-0.6
			c-0.6,0-1.1,0-1.7,0c-0.1,0-0.1,0-0.2,0C49.3,19.3,49.3,20,49.3,20.8z"/>
		<path class="st1" d="M46,21.1c0,2.6-1.9,4.7-4.5,4.9c-2.6,0.3-4.9-1.5-5.3-3.9c-0.4-1.7,0.1-3.1,1.3-4.4c0.3-0.3,0.6-0.5,0.9-0.4
			c0.4,0.1,0.6,0.3,0.6,0.6c0.1,0.4,0,0.6-0.3,0.9c-0.6,0.6-0.9,1.4-0.9,2.2c0,1.6,1.2,2.8,2.8,3.1c1.5,0.2,3-0.8,3.3-2.4
			c0.3-1.1,0-2-0.7-2.8c-0.3-0.3-0.4-0.6-0.3-1c0.2-0.6,1-0.8,1.6-0.4c0.6,0.6,1.1,1.5,1.3,2.5C45.9,20.3,46,20.7,46,21.1z"/>
		<path class="st1" d="M48.8,13.9c-0.6,0.6-1.2,1.1-1.7,1.6c-1.7-1.7-3.6-2.5-5.9-2.5s-4.3,0.9-6,2.6c-0.6-0.6-1.2-1.1-1.7-1.7
			C37.3,9.5,44.7,9.4,48.8,13.9z"/>
		<path class="st1" d="M21.4,16.8c0,1.1,0,2.2,0,3.3c0.9,0,1.8,0,2.8,0c0-1.1,0-2.2,0-3.3c0.6,0,1.3,0,1.8,0c0,2.8,0,5.6,0,8.4
			c-0.6,0-1.2,0-1.8,0c0-1.1,0-2.2,0-3.3c-0.9,0-1.8,0-2.8,0c0,1.1,0,2.2,0,3.3c-0.6,0-1.2,0-1.8,0c0-0.1,0-0.1,0-0.2
			c0-2.7,0-5.3,0-8c0-0.2,0-0.2,0.2-0.2C20.3,16.8,20.9,16.8,21.4,16.8z"/>
		<path class="st1" d="M62.3,25.2c-0.6,0-1.2,0-1.8,0c-0.1,0-0.2-0.1-0.2-0.2c-0.1-0.5-0.3-0.8-0.4-1.3c0-0.1-0.1-0.2-0.3-0.2
			c-0.8,0-1.7,0-2.5,0c-0.2,0-0.2,0-0.3,0.2c-0.1,0.5-0.3,0.8-0.4,1.3c0,0.1-0.1,0.2-0.2,0.2c-0.6,0-1.2,0-1.8,0
			c0.1-0.4,0.2-0.6,0.3-1c0.7-2.4,1.5-4.8,2.2-7.2c0.1-0.2,0.1-0.2,0.3-0.2c0.7,0,1.4,0,2.1,0c0.2,0,0.2,0,0.3,0.2
			c0.8,2.7,1.7,5.3,2.5,8.1C62.3,25.1,62.3,25.1,62.3,25.2z M58.5,18.6C58.5,18.6,58.4,18.6,58.5,18.6c-0.4,1.1-0.6,2.3-1,3.4
			c0.6,0,1.3,0,1.9,0C59.1,20.9,58.8,19.7,58.5,18.6z"/>
		<path class="st1" d="M73.4,25.2c0.1-0.3,0.1-0.5,0.2-0.7c0.7-2.5,1.6-5,2.3-7.4c0.1-0.2,0.2-0.3,0.4-0.3c0.7,0,1.4,0,2.1,0
			c0.1,0,0.2,0,0.2,0.2c0.8,2.7,1.7,5.4,2.5,8.1c0,0,0,0.1,0,0.2c-0.6,0-1.2,0-1.8,0c-0.1,0-0.1-0.1-0.2-0.2
			c-0.1-0.5-0.3-0.8-0.4-1.3c0-0.1-0.1-0.2-0.3-0.2c-0.8,0-1.7,0-2.5,0c-0.1,0-0.2,0-0.2,0.2c-0.1,0.5-0.3,0.9-0.4,1.3
			c0,0.1-0.1,0.2-0.1,0.2C74.6,25.2,74,25.2,73.4,25.2z M78.2,22c-0.3-1.2-0.6-2.3-0.9-3.4l0,0c-0.3,1.1-0.6,2.3-0.9,3.4
			C76.9,22,77.5,22,78.2,22z"/>
		<path class="st1" d="M11.5,25.2c-1.7,0-3.5,0-5.2,0c0-2.8,0-5.6,0-8.4c0.1,0,0.1,0,0.2,0c1.7,0,3.2,0,4.9,0c0.2,0,0.2,0,0.2,0.2
			c0,0.5,0,0.9,0,1.5c-1.1,0-2.3,0-3.4,0c0,0.6,0,1.1,0,1.7c1,0,2,0,3.1,0c0,0.6,0,1.1,0,1.7c-1,0-2,0-3.1,0c0,0.6,0,1.2,0,1.7
			c1.1,0,2.2,0,3.4,0C11.5,24.1,11.5,24.6,11.5,25.2z"/>
		<path class="st1" d="M17.9,18.6c-0.5-0.1-0.8-0.1-1.3-0.2c-0.4,0-0.7,0-1.1,0c-0.6,0-0.9,0.4-0.9,0.9c0,1.1,0,2.3,0,3.4
			c0,0.6,0.3,0.8,0.8,0.8c0.7,0.1,1.4,0,2.1-0.1c0.1,0,0.3,0,0.4-0.1c0.1,0.6,0.2,1.1,0.3,1.7c-0.3,0.1-0.6,0.1-0.8,0.2
			c-0.8,0.1-1.7,0.2-2.6,0c-0.9-0.2-1.7-0.6-1.9-1.6c-0.1-0.3-0.1-0.6-0.1-0.7c0-1.2,0-2.5,0-3.7c0-1.3,0.7-2.1,2-2.4
			c0.9-0.2,1.7-0.1,2.7,0c0.2,0,0.5,0.1,0.6,0.1c0.1,0,0.2,0.1,0.1,0.2C18.1,17.6,18,18,17.9,18.6z"/>
		<path class="st1" d="M5.2,18.5c-0.7,0-1.5,0-2.3,0c0,2.2,0,4.5,0,6.7c-0.6,0-1.2,0-1.8,0c0-2.2,0-4.5,0-6.7c-0.7,0-1.5,0-2.3,0
			c0-0.6,0-1.1,0-1.7c0.1,0,0.1,0,0.2,0c2,0,3.9,0,6,0c0.2,0,0.3,0.1,0.3,0.3C5.2,17.5,5.2,18,5.2,18.5z"/>
		<path class="st1" d="M42,19c0,0.6,0,1.3,0,1.9c0,0.6-0.4,0.9-0.9,0.9s-0.9-0.4-0.9-0.9c0-1.3,0-2.7,0-3.9c0-0.6,0.4-0.9,0.9-0.9
			S42,16.5,42,17C42,17.7,42,18.4,42,19z"/>
	</g>
	<g id="Layer_5">
	</g>
	<g>
		<path class="st3" d="M71.1,23.8c-3.1,0-6.1,0-9.1,0c0,1.3,0,2.3,0,3.5c2.1,0,4.5,0,6.7,0c0-0.6,0-1.1,0-1.8c0.7,0,1.5,0,2.4,0
			c0,0.9,0,1.7,0,2.6c-0.1,1.2-0.7,1.8-1.9,1.8c-2.7,0-5.2,0-7.9,0c-1.3,0-1.9-0.7-1.9-2c0-3.4,0-6.7,0-10.1c0-1.3,0.6-2,2-2
			c2.7,0,5.2,0,7.9,0c1.1,0,1.8,0.5,1.8,1.7C71.2,19.5,71.1,21.6,71.1,23.8z M62.2,21.7c2.3,0,4.4,0,6.6,0c0-1,0-2,0-3
			c-2.2,0-4.4,0-6.6,0C62.2,19.7,62.2,20.6,62.2,21.7z"/>
		<path class="st3" d="M49.1,22.9c0,1.7,0,3.2,0,4.9c0,1.5-0.6,2.2-2.1,2.2c-2.5,0-5,0-7.5,0c-1.4,0-2.1-0.7-2.1-2
			c0-3.4,0-6.8,0-10.1c0-1.5,0.7-2,2.1-1.9c2.5,0,5,0,7.5,0c1.6,0,2.2,0.6,2.1,2.2C49.1,19.6,49.1,21.2,49.1,22.9z M39.8,27.4
			c2.3,0,4.4,0,6.5,0c0-3,0-5.9,0-8.8c-2.2,0-4.3,0-6.5,0C39.8,21.6,39.8,24.5,39.8,27.4z"/>
		<path class="st3" d="M34.6,23c0,1.7,0,3.2,0,4.9c0,1.4-0.6,2.1-2,2.1c-2.6,0-5.1,0-7.7,0c-1.3,0-2-0.6-2-1.9c0-3.4,0-6.9,0-10.3
			c0-1.2,0.6-1.8,1.8-1.8c2.7,0,5.4,0,8.1,0c1.3,0,1.8,0.6,1.8,1.8C34.6,19.5,34.6,21.2,34.6,23z M32.4,18.7c-2.3,0-4.5,0-6.6,0
			c0,3,0,5.9,0,8.7c2.3,0,4.4,0,6.6,0C32.4,24.5,32.4,21.7,32.4,18.7z"/>
		<polyline class="st3" points="51.5,12 51.5,14.3 51.5,16.1 50.3,16.1 50.3,18.4 51.5,18.4 51.5,29.9 54.3,29.9 54.3,18.4 
			57.6,18.4 57.6,16.1 54.3,16.1 54.3,14.3 59.3,14.3 59.3,12 		"/>
		<path class="st3" d="M3.9,29.9c0-3.9,0-7.7,0-11.5c1.9,0,3.8,0,5.7,0c0,3.9,0,7.6,0,11.5h2.6c0-3.9,0-7.6,0-11.5
			c1.9,0,3.7,0,5.7,0c0,3.9,0,7.6,0,11.5c1,0,1.7,0,2.6,0c0-3.9-0.1-7.8,0-11.6c0-1.8-0.7-2.4-2.5-2.4c-5.6,0.1-11.1,0-16.7,0
			c0,4.4,0,9.5,0,14H3.9z"/>
	</g>
	<g>
		<path class="st3" d="M76.6,17.7c-2.3,0-4.1-1.8-4.1-4.1s1.8-4.1,4.1-4.1c2.3,0,4.1,1.8,4.1,4.1S78.9,17.7,76.6,17.7z M76.6,10.3
			c-1.7,0-3.2,1.5-3.2,3.2s1.5,3.2,3.2,3.2s3.2-1.5,3.2-3.2S78.3,10.3,76.6,10.3z"/>
	</g>
	<polygon class="st3" points="78.2,11.6 75,11.6 75,11.7 75,12.5 75,15.5 76,15.5 76,12.5 78.2,12.5 	"/>
</g>
<g id="Layer_2">
</g>
</svg>
