<svg width="40" height="40" viewBox="0 0 40 40" version="1.1" xmlns="http://www.w3.org/2000/svg" xmlns:xlink="http://www.w3.org/1999/xlink">
<title>Shape</title>
<desc>Created using Figma</desc>
<g id="Canvas" transform="translate(-4222 -2988)">
<g id="Shape">
<use xlink:href="#path0_fill" transform="translate(4222 2988.03)"/>
</g>
</g>
<defs>
<path id="path0_fill" fill-rule="evenodd" d="M 37.7031 18.7476L 39.7031 20.0808C 39.8887 20.2046 40 20.4126 40 20.6355L 40 23.3022C 39.999 23.3992 39.9766 23.4946 39.9341 23.5818C 39.9199 23.606 39.9043 23.6292 39.8872 23.6514C 39.8525 23.7085 39.8096 23.76 39.7598 23.804C 39.7549 23.8083 39.751 23.8137 39.7476 23.8191C 39.7432 23.8252 39.7393 23.8311 39.7334 23.8354L 37.0669 25.8354C 36.9512 25.9219 36.811 25.9688 36.6665 25.969L 36.6665 27.3022C 36.6665 27.6399 36.4141 27.9243 36.0786 27.9644L 32.189 28.4265L 34.3398 34.8804C 34.4551 35.2361 34.4155 35.6238 34.2305 35.9485L 34.2837 36.0034C 34.5283 36.2659 34.6646 36.6104 34.6665 36.969L 34.6665 38.5955C 34.668 38.9998 34.4932 39.3843 34.1875 39.6489C 33.9497 39.8547 33.646 39.9683 33.3315 39.9692C 33.2681 39.9692 33.2041 39.9646 33.1411 39.9548L 29.8062 39.448C 29.1431 39.3381 28.6592 38.761 28.6665 38.0891L 28.6665 36.5059C 28.269 36.322 27.9883 35.9534 27.9165 35.5212L 27.5552 33.354L 23.3804 33.8179C 22.292 33.9395 21.3096 33.1616 21.1782 32.0747L 20.7451 28.6355L 19.3335 28.6355C 19.3335 29.0037 19.0347 29.3022 18.6665 29.3022L 18.6665 35.969C 18.666 36.7048 18.0693 37.3015 17.3335 37.3022L 16 37.3022C 15.2642 37.3015 14.6675 36.7048 14.6665 35.969L 14.6665 25.7834C 14.2554 25.5471 14.0015 25.1096 14 24.6355L 0.666504 24.6355C 0.29834 24.6355 0 24.3372 0 23.969L 0 20.6355C 0 20.2673 0.29834 19.969 0.666504 19.969L 14 19.969C 14.001 19.2329 14.5972 18.6362 15.3335 18.6355L 16.6665 18.6355L 16.6665 17.3022C 16.2983 17.3022 16 17.0037 16 16.6355L 16 13.3022C 16 12.9341 16.2983 12.6355 16.6665 12.6355L 16.6665 11.969L 12.6665 11.969C 11.9307 11.9683 11.334 11.3716 11.3335 10.6355L 11.3335 5.96899C 10.5972 5.96826 10.001 5.37158 10 4.6355L 10 2.6355C 10.001 1.89941 10.5972 1.30298 11.3335 1.30225L 12.8467 1.30225C 13.9072 -0.522949 19.3179 -0.428955 19.938 1.58057C 21.6528 2.00903 23.3149 2.62744 24.8931 3.42456L 24.959 3.45508C 25.8706 3.78369 26.6597 4.38257 27.2217 5.17163C 27.479 5.60498 27.6118 6.10132 27.6045 6.60522L 27.6055 6.61035C 27.606 6.61255 27.6064 6.6145 27.606 6.6167C 27.606 6.61938 27.605 6.62207 27.604 6.62451C 27.6035 6.62671 27.6025 6.62866 27.6025 6.6311C 27.5957 7.09351 27.4663 7.5459 27.2275 7.94189C 26.8154 8.54224 26.2388 9.01074 25.5669 9.29126C 24.2998 9.8916 23.021 10.532 21.7837 11.1521L 21.7622 11.1628L 20.6641 11.7124L 20.6655 12.6355C 21.0347 12.6355 21.3335 12.9341 21.3335 13.3022L 21.3335 13.425C 21.5469 13.3459 21.7725 13.3044 22 13.3022C 23.1045 13.3022 24 14.1978 24 15.3022C 24 16.4067 23.1045 17.3022 22 17.3022C 21.7026 17.3005 21.4092 17.2319 21.1421 17.1011C 21.0171 17.2297 20.8457 17.3022 20.6665 17.3022L 20.6665 18.6355L 32.6665 18.6355L 32.6665 16.6355C 32.6665 16.2673 32.9653 15.969 33.3335 15.969L 36 15.969C 36.3682 15.969 36.6665 16.2673 36.6665 16.6355L 36.6665 18.6355L 37.3335 18.6355C 37.4648 18.6355 37.5938 18.6746 37.7031 18.7476ZM 35.6094 21.969L 34.9429 22.6357L 38.667 22.6357L 38.667 21.969L 35.6094 21.969ZM 34 17.3022L 35.3335 17.3022L 35.3335 18.6355L 34 18.6355L 34 17.3022ZM 20 13.969L 17.3335 13.969L 17.3335 15.969L 20 15.969L 20 13.969ZM 22 14.6355C 22.3682 14.6355 22.667 14.9341 22.667 15.3022C 22.667 15.6704 22.3682 15.9688 22 15.9688C 21.6318 15.9688 21.3335 15.6704 21.3335 15.3022C 21.334 14.9341 21.6323 14.636 22 14.6355ZM 18.6631 1.96899C 18.5693 1.77222 17.7632 1.30225 16.3335 1.30225C 14.8691 1.30225 14.0591 1.79541 13.9985 1.98267C 14.0591 2.14233 14.8691 2.6355 16.3335 2.6355C 17.7632 2.6355 18.5693 2.16553 18.6631 1.96899ZM 11.3335 2.6355L 12.8467 2.6355C 13.3521 3.51343 14.8501 3.96875 16.3335 3.96875C 17.6709 3.96875 19.0176 3.59741 19.6411 2.8811C 21.2656 3.29053 22.8403 3.87891 24.335 4.6355L 24.4014 4.66602C 25.0625 4.89404 25.6445 5.30713 26.0781 5.85645L 26.0845 5.87134C 26.0864 5.87671 26.0879 5.88184 26.0908 5.88647L 12.4922 5.32202C 12.2593 4.8999 11.8159 4.63721 11.3335 4.6355L 11.3335 2.6355ZM 12.6665 6.66382L 12.6665 10.6357L 16.6665 10.6357L 16.6665 9.63574C 16.666 9.08374 16.2188 8.63623 15.6665 8.63574C 14.5308 8.63281 13.5625 7.81274 13.3726 6.69312L 12.6665 6.66382ZM 18 11.969L 18 9.63574C 17.9985 8.34766 16.9551 7.30396 15.667 7.30225C 15.2905 7.30103 14.9468 7.08813 14.7783 6.75146L 26.1011 7.22144L 26.0977 7.22876L 26.0957 7.2334C 26.0947 7.2373 26.0928 7.24146 26.0908 7.24512C 25.8145 7.625 25.4341 7.91699 24.9961 8.08618C 23.708 8.69653 22.415 9.34424 21.165 9.97095L 20.0684 10.5195C 19.6157 10.7456 19.3306 11.2095 19.3335 11.7158L 19.3335 12.6357L 18 12.6357L 18 11.969ZM 19.3335 17.3022L 18 17.3022L 18 18.6355L 19.3335 18.6355L 19.3335 17.3022ZM 1.3335 21.3022L 10 21.3022L 10 23.3022L 1.3335 23.3022L 1.3335 21.3022ZM 11.3335 23.3022L 12 23.3022L 14 23.3022L 14 21.3022L 11.3335 21.3022L 11.3335 23.3022ZM 18 27.969L 16 27.969L 16 25.969L 18 25.969L 18 27.969ZM 16 35.969L 17.3345 35.969L 17.3335 29.3022L 16 29.3022L 16 35.969ZM 23.2339 32.4927C 23.0596 32.5144 22.8838 32.4653 22.7461 32.3562C 22.6084 32.2468 22.52 32.0869 22.5015 31.9121L 22.0894 28.6355L 24 28.6355L 24 29.1941L 23.3677 31.0913C 23.2793 31.356 23.3652 31.6477 23.583 31.8223C 23.8008 31.9968 24.104 32.0173 24.3433 31.8738L 27.0391 30.2563L 27.3359 32.0371L 23.2339 32.4927ZM 26.7783 28.6921L 26.7686 28.6355L 25.3335 28.6355L 25.3335 29.3022C 25.3335 29.3738 25.3218 29.4451 25.2993 29.5132L 25.2026 29.8032L 26.8032 28.8428L 26.7783 28.6921ZM 30 38.0889L 30 36.6355L 33.0259 36.6355L 33.3335 36.9688L 33.3403 38.6365L 30 38.0889ZM 29.2314 35.3022L 33.0752 35.3022L 30.9209 28.8403C 30.8872 28.7354 30.8672 28.6267 30.8608 28.5166L 30.3599 28.3477C 29.7739 28.1509 29.1304 28.2378 28.6177 28.5825L 28.1616 28.8855L 29.2314 35.3022ZM 35.3335 26.7102L 31.9243 27.1155C 31.8887 27.1199 31.854 27.127 31.8193 27.1367C 31.6909 27.1758 31.5688 27.2344 31.4575 27.3105L 30.7827 27.083C 29.8066 26.7549 28.7329 26.8992 27.8779 27.4736L 27.6436 27.6294C 27.4009 27.418 27.0903 27.302 26.7686 27.3022L 19.3335 27.3022L 19.3335 25.969L 35.3335 25.969L 35.3335 26.7102ZM 15.3335 24.6357L 36.4443 24.6357L 37.3335 23.969L 33.3335 23.969C 33.064 23.969 32.8208 23.8066 32.7178 23.5574C 32.6143 23.3083 32.6714 23.0217 32.8623 22.8311L 34.8623 20.8311C 34.9873 20.7061 35.1567 20.6357 35.3335 20.6357L 38.1318 20.6357L 37.1318 19.969L 15.3335 19.969L 15.3335 24.6357Z"/>
</defs>
</svg>
