<svg width="30" height="30" viewBox="0 0 30 30" version="1.1" xmlns="http://www.w3.org/2000/svg" xmlns:xlink="http://www.w3.org/1999/xlink">
<title>Shape</title>
<desc>Created using Figma</desc>
<g id="Canvas" transform="translate(-3973 -3000)">
<g id="Shape">
<use xlink:href="#path0_fill" transform="translate(3973 3000)"/>
</g>
</g>
<defs>
<path id="path0_fill" fill-rule="evenodd" d="M 29.9575 13.8665C 29.4944 7.69238 25.0981 2.28369 19.1411 0.577881C 15.8696 -0.359131 12.3135 -0.151367 9.17407 1.16284C 6.50977 2.27832 4.19507 4.17505 2.5686 6.5603C -1.01709 11.8198 -0.830078 18.9885 3.01245 24.0632C 6.74365 28.9912 13.2964 31.1465 19.2307 29.4009C 25.1211 27.668 29.4514 22.3352 29.9507 16.2219C 30.0144 15.4385 30.0161 14.6501 29.9575 13.8665ZM 28.2048 11.4363C 27.2805 10.5125 26.0981 9.64111 24.7571 9.52124C 23.3911 9.39893 22.1221 10.1079 21.0137 10.8215C 20.313 9.90674 19.5645 9.02783 18.7908 8.17383L 19.095 7.97632C 20.8362 6.84399 22.7383 5.60693 24.8757 5.59595C 26.4612 7.24707 27.6008 9.2583 28.2048 11.4363ZM 18.385 1.80151C 18.4294 2.09229 18.4294 2.3396 18.385 2.54688C 18.1633 3.58716 17.5508 4.03174 15.6943 5.15601C 16.4707 5.80078 17.2078 6.49707 17.9072 7.22412C 19.0281 6.49072 20.1782 5.77515 21.3777 5.17578C 22.0627 4.80029 22.845 4.56616 23.6111 4.43237C 22.0747 3.18457 20.3003 2.29053 18.385 1.80151ZM 17.0105 1.52441C 17.1069 1.85181 17.21 2.20068 17.0576 2.52661C 16.9666 2.72119 16.8059 2.86938 16.6426 3.00317C 16.1641 3.396 15.6218 3.71704 15.0857 4.03442L 15.054 4.05322L 15.0374 4.06323C 14.8958 4.14722 14.7544 4.2312 14.615 4.31616C 13.3352 3.38745 11.9355 2.61572 10.4226 2.14331C 12.5186 1.41187 14.8125 1.19727 17.0105 1.52441ZM 13.4446 5.0542C 11.0916 3.44629 9.19336 3.06958 8.36694 3.05786C 5.79297 4.46851 3.75586 6.65381 2.52759 9.26465C 3.35718 8.61597 4.29834 8.13818 5.30884 7.84326C 5.98022 7.64746 6.66724 7.51025 7.354 7.37305L 7.35718 7.37231C 7.75928 7.29199 8.16113 7.21167 8.55957 7.11963C 9.36987 6.93237 10.1787 6.72266 10.9553 6.42236C 11.8545 6.07495 12.6406 5.57788 13.4446 5.0542ZM 3.81201 21.2065C 3.59448 21.5735 3.42773 21.9773 3.31543 22.3892C 1.3772 19.3142 0.760742 15.5142 1.58447 11.9771C 2.82251 10.5273 4.24854 9.39258 6.12549 8.94287C 6.6416 8.81934 7.16162 8.71094 7.68115 8.60278L 7.71802 8.59497L 7.72778 8.59302C 9.04492 8.31934 10.3606 8.04565 11.6145 7.53516C 12.5232 7.16528 13.3254 6.64893 14.1406 6.12427L 14.1697 6.10571C 14.2935 6.02588 14.4177 5.94604 14.5427 5.86646C 15.3008 6.46948 16.0664 7.16675 16.8308 7.94873C 14.2651 9.72241 11.8694 11.739 9.64551 13.9238C 8.05371 15.488 6.5542 17.1538 5.25879 18.9736C 4.74438 19.6965 4.2644 20.4431 3.81201 21.2065ZM 4.39307 23.8733C 6.51807 26.4299 11.4495 28.7351 12.7141 28.6509C 13.6255 27.4966 14.1729 26.1433 14.6194 24.7539C 15.0144 23.5251 15.3037 22.2651 15.5283 20.9951C 15.6028 20.5737 15.6689 20.1511 15.7349 19.729C 15.8816 18.7888 16.0283 17.8496 16.2688 16.925C 16.5242 15.9421 16.8567 14.9526 17.3938 14.0845C 18.0281 13.0591 19.001 12.2578 19.9604 11.5481C 19.3105 10.7039 18.5698 9.82715 17.7151 8.89087C 16.1318 9.97632 14.6099 11.1521 13.1621 12.4131C 11.0315 14.2688 8.99048 16.2598 7.23218 18.4763C 6.64868 19.2112 6.09985 19.9731 5.58984 20.7607C 5.37036 21.0991 5.15698 21.4417 4.95215 21.7888C 4.57544 22.4268 4.40649 23.1348 4.39307 23.8733ZM 24.4324 23.0376C 24.4167 23.863 24.2893 24.6997 23.9758 25.4673C 21.2791 27.8113 17.7844 29.0208 14.176 28.8123C 15.4883 26.8684 16.1389 24.4497 16.6042 22.178C 16.7405 21.5129 16.8435 20.8313 16.947 20.1467L 16.9478 20.1421C 17.2107 18.4023 17.4766 16.6433 18.2937 15.0857C 18.8401 14.0442 19.7881 13.2659 20.7195 12.5776C 21.7798 14.0916 22.6653 15.7107 23.2957 17.4504C 23.9373 19.2214 24.468 21.1392 24.4324 23.0376ZM 24.7246 17.6719C 25.3547 19.6055 25.677 23.6975 25.677 23.6975C 27.8196 21.0271 28.894 17.5994 28.6719 14.1858C 28.0454 12.9644 27.0083 11.8499 25.8042 11.1775C 25.1772 10.8274 24.481 10.6885 23.7786 10.8694C 23.0576 11.0549 22.394 11.457 21.772 11.853C 23.032 13.6462 24.0454 15.5864 24.7246 17.6719Z"/>
</defs>
</svg>
