<?xml version="1.0" encoding="UTF-8"?>
<svg width="357px" height="352px" viewBox="0 0 357 352" version="1.1" xmlns="http://www.w3.org/2000/svg" xmlns:xlink="http://www.w3.org/1999/xlink">
    <!-- Generator: Sketch 48.2 (47327) - http://www.bohemiancoding.com/sketch -->
    <title>Page 1</title>
    <desc>Created with Sketch.</desc>
    <defs>
        <polygon id="path-1" points="0.000371875 1.40940625 357 1.40940625 357 34.8220031 0.000371875 34.8220031"></polygon>
        <polygon id="path-3" points="0.000371875 0.610246875 357 0.610246875 357 34.0232156 0.000371875 34.0232156"></polygon>
        <polygon id="path-5" points="0.000371875 3.52835 357 3.52835 357 36.9413187 0.000371875 36.9413187"></polygon>
        <polygon id="path-7" points="0.000371875 2.72547188 357 2.72547188 357 36.1384406 0.000371875 36.1384406"></polygon>
        <polygon id="path-9" points="0.000371875 1.93040312 357 1.93040312 357 35.3433719 0.000371875 35.3433719"></polygon>
        <polygon id="path-11" points="0.000371875 1.13124375 357 1.13124375 357 34.5442125 0.000371875 34.5442125"></polygon>
        <polygon id="path-13" points="0.000371875 0.326878125 357 0.326878125 357 33.7435656 0.000371875 33.7435656"></polygon>
        <polygon id="path-15" points="0.000371875 3.25204687 357 3.25204687 357 36.6650156 0.000371875 36.6650156"></polygon>
        <polygon id="path-17" points="0.000371875 2.44582187 357 2.44582187 357 35.8625094 0.000371875 35.8625094"></polygon>
        <polygon id="path-19" points="0.000371875 1.65781875 357 1.65781875 357 35.0707875 0.000371875 35.0707875"></polygon>
        <polygon id="path-21" points="0.000371875 0.8553125 357 0.8553125 357 34.272 0.000371875 34.272"></polygon>
        <polygon id="path-23" points="0.000371875 0.05280625 357 0.05280625 357 33.46875 0.000371875 33.46875"></polygon>
    </defs>
    <g id="Artboard" stroke="none" stroke-width="1" fill="none" fill-rule="evenodd" transform="translate(0.000000, -2.000000)">
        <g id="Page-1" transform="translate(0.000000, -1.000000)">
            <g id="Group-3" transform="translate(0.000000, 2.309344)">
                <mask id="mask-2" fill="white">
                    <use xlink:href="#path-1"></use>
                </mask>
                <g id="Clip-2"></g>
                <path d="M297.489216,34.8220031 C280.650716,34.8220031 271.893059,28.6191281 264.169216,23.1451281 C257.047809,18.0987844 250.896997,13.7404094 237.978059,13.7404094 C225.066559,13.7404094 218.915747,18.0987844 211.794341,23.1451281 C204.070497,28.6191281 195.312841,34.8220031 178.474341,34.8220031 C161.635841,34.8220031 152.881903,28.6191281 145.161778,23.1451281 C138.036653,18.0987844 131.889559,13.7404094 118.974341,13.7404094 C106.070278,13.7404094 99.9194656,18.0987844 92.8017781,23.1451281 C85.0816531,28.6191281 76.3314344,34.8220031 59.4966531,34.8220031 C42.6581531,34.8220031 33.9079344,28.6191281 26.1840906,23.1451281 C19.0589656,18.0987844 12.9118719,13.7404094 0.000371875,13.7404094 L0.000371875,1.40903438 C16.8388719,1.40903438 25.5890906,7.61190937 33.3129344,13.0859094 C40.4343406,18.1322531 46.5851531,22.4906281 59.4966531,22.4906281 C72.4007156,22.4906281 78.5515281,18.1322531 85.6692156,13.0859094 C93.3893406,7.61190937 102.139559,1.40903438 118.974341,1.40903438 C135.812841,1.40903438 144.566778,7.61190937 152.286903,13.0859094 C159.412028,18.1322531 165.559122,22.4906281 178.474341,22.4906281 C191.389559,22.4906281 197.540372,18.1322531 204.661778,13.0859094 C212.385622,7.61190937 221.143278,1.40903438 237.978059,1.40903438 C254.820278,1.40903438 263.577934,7.61190937 271.301778,13.0859094 C278.423184,18.1322531 284.573997,22.4906281 297.489216,22.4906281 C310.404434,22.4906281 316.555247,18.1322531 323.676653,13.0859094 C331.400497,7.61190937 340.158153,1.40903438 357.000372,1.40903438 L357.000372,13.7404094 C344.081434,13.7404094 337.930622,18.0987844 330.809216,23.1451281 C323.085372,28.6191281 314.327716,34.8220031 297.489216,34.8220031" id="Fill-1" fill="#1A1E2E" mask="url(#mask-2)"></path>
            </g>
            <g id="Group-6" transform="translate(0.000000, 32.059344)">
                <mask id="mask-4" fill="white">
                    <use xlink:href="#path-3"></use>
                </mask>
                <g id="Clip-5"></g>
                <path d="M297.489216,34.0232156 C280.650716,34.0232156 271.893059,27.8203406 264.169216,22.3463406 C257.047809,17.2999969 250.896997,12.9416219 237.978059,12.9416219 C225.066559,12.9416219 218.915747,17.2999969 211.794341,22.3463406 C204.070497,27.8203406 195.312841,34.0232156 178.474341,34.0232156 C161.635841,34.0232156 152.881903,27.8203406 145.161778,22.3463406 C138.036653,17.2999969 131.889559,12.9416219 118.974341,12.9416219 C106.070278,12.9416219 99.9194656,17.2999969 92.8017781,22.3463406 C85.0816531,27.8203406 76.3314344,34.0232156 59.4966531,34.0232156 C42.6581531,34.0232156 33.9079344,27.8203406 26.1840906,22.3463406 C19.0589656,17.2999969 12.9118719,12.9416219 0.000371875,12.9416219 L0.000371875,0.610246875 C16.8388719,0.610246875 25.5890906,6.81312187 33.3129344,12.2871219 C40.4343406,17.3334656 46.5851531,21.6918406 59.4966531,21.6918406 C72.4007156,21.6918406 78.5515281,17.3334656 85.6692156,12.2871219 C93.3893406,6.81312187 102.139559,0.610246875 118.974341,0.610246875 C135.812841,0.610246875 144.566778,6.81312187 152.286903,12.2871219 C159.412028,17.3334656 165.559122,21.6918406 178.474341,21.6918406 C191.389559,21.6918406 197.540372,17.3334656 204.661778,12.2871219 C212.385622,6.81312187 221.143278,0.610246875 237.978059,0.610246875 C254.820278,0.610246875 263.577934,6.81312187 271.301778,12.2871219 C278.423184,17.3334656 284.573997,21.6918406 297.489216,21.6918406 C310.404434,21.6918406 316.555247,17.3334656 323.676653,12.2871219 C331.400497,6.81312187 340.158153,0.610246875 357.000372,0.610246875 L357.000372,12.9416219 C344.081434,12.9416219 337.930622,17.2999969 330.809216,22.3463406 C323.085372,27.8203406 314.327716,34.0232156 297.489216,34.0232156" id="Fill-4" fill="#1A1E2E" mask="url(#mask-4)"></path>
            </g>
            <g id="Group-9" transform="translate(0.000000, 58.090594)">
                <mask id="mask-6" fill="white">
                    <use xlink:href="#path-5"></use>
                </mask>
                <g id="Clip-8"></g>
                <path d="M297.489216,36.9413187 C280.650716,36.9413187 271.893059,30.7384437 264.169216,25.2644437 C257.047809,20.2181 250.896997,15.859725 237.978059,15.859725 C225.066559,15.859725 218.915747,20.2181 211.794341,25.2644437 C204.070497,30.7384437 195.312841,36.9413187 178.474341,36.9413187 C161.635841,36.9413187 152.881903,30.7384437 145.161778,25.2644437 C138.036653,20.2181 131.889559,15.859725 118.974341,15.859725 C106.070278,15.859725 99.9194656,20.2181 92.8017781,25.2644437 C85.0816531,30.7384437 76.3314344,36.9413187 59.4966531,36.9413187 C42.6581531,36.9413187 33.9079344,30.7384437 26.1840906,25.2644437 C19.0589656,20.2181 12.9118719,15.859725 0.000371875,15.859725 L0.000371875,3.52835 C16.8388719,3.52835 25.5890906,9.731225 33.3129344,15.205225 C40.4343406,20.2515687 46.5851531,24.6099437 59.4966531,24.6099437 C72.4007156,24.6099437 78.5515281,20.2515687 85.6692156,15.205225 C93.3893406,9.731225 102.139559,3.52835 118.974341,3.52835 C135.812841,3.52835 144.566778,9.731225 152.286903,15.205225 C159.412028,20.2515687 165.559122,24.6099437 178.474341,24.6099437 C191.389559,24.6099437 197.540372,20.2515687 204.661778,15.205225 C212.385622,9.731225 221.143278,3.52835 237.978059,3.52835 C254.820278,3.52835 263.577934,9.731225 271.301778,15.205225 C278.423184,20.2515687 284.573997,24.6099437 297.489216,24.6099437 C310.404434,24.6099437 316.555247,20.2515687 323.676653,15.205225 C331.400497,9.731225 340.158153,3.52835 357.000372,3.52835 L357.000372,15.859725 C344.081434,15.859725 337.930622,20.2181 330.809216,25.2644437 C323.085372,30.7384437 314.327716,36.9413187 297.489216,36.9413187" id="Fill-7" fill="#1A1E2E" mask="url(#mask-6)"></path>
            </g>
            <g id="Group-12" transform="translate(0.000000, 87.840594)">
                <mask id="mask-8" fill="white">
                    <use xlink:href="#path-7"></use>
                </mask>
                <g id="Clip-11"></g>
                <path d="M297.489216,36.1384406 C280.650716,36.1384406 271.893059,29.9355656 264.169216,24.4615656 C257.047809,19.4152219 250.896997,15.0568469 237.978059,15.0568469 C225.066559,15.0568469 218.915747,19.4152219 211.794341,24.4615656 C204.070497,29.9355656 195.312841,36.1384406 178.474341,36.1384406 C161.635841,36.1384406 152.881903,29.9355656 145.161778,24.4615656 C138.036653,19.4152219 131.889559,15.0568469 118.974341,15.0568469 C106.070278,15.0568469 99.9194656,19.4152219 92.8017781,24.4615656 C85.0816531,29.9355656 76.3314344,36.1384406 59.4966531,36.1384406 C42.6581531,36.1384406 33.9079344,29.9355656 26.1840906,24.4615656 C19.0589656,19.4152219 12.9118719,15.0568469 0.000371875,15.0568469 L0.000371875,2.72547188 C16.8388719,2.72547188 25.5890906,8.92834688 33.3129344,14.4023469 C40.4343406,19.4486906 46.5851531,23.8070656 59.4966531,23.8070656 C72.4007156,23.8070656 78.5515281,19.4486906 85.6692156,14.4023469 C93.3893406,8.92834688 102.139559,2.72547188 118.974341,2.72547188 C135.812841,2.72547188 144.566778,8.92834688 152.286903,14.4023469 C159.412028,19.4486906 165.559122,23.8070656 178.474341,23.8070656 C191.389559,23.8070656 197.540372,19.4486906 204.661778,14.4023469 C212.385622,8.92834688 221.143278,2.72547188 237.978059,2.72547188 C254.820278,2.72547188 263.577934,8.92834688 271.301778,14.4023469 C278.423184,19.4486906 284.573997,23.8070656 297.489216,23.8070656 C310.404434,23.8070656 316.555247,19.4486906 323.676653,14.4023469 C331.400497,8.92834688 340.158153,2.72547188 357.000372,2.72547188 L357.000372,15.0568469 C344.081434,15.0568469 337.930622,19.4152219 330.809216,24.4615656 C323.085372,29.9355656 314.327716,36.1384406 297.489216,36.1384406" id="Fill-10" fill="#1A1E2E" mask="url(#mask-8)"></path>
            </g>
            <g id="Group-15" transform="translate(0.000000, 117.590594)">
                <mask id="mask-10" fill="white">
                    <use xlink:href="#path-9"></use>
                </mask>
                <g id="Clip-14"></g>
                <path d="M297.489216,35.3433719 C280.650716,35.3433719 271.893059,29.1404969 264.169216,23.6664969 C257.047809,18.6201531 250.896997,14.2617781 237.978059,14.2617781 C225.066559,14.2617781 218.915747,18.6201531 211.794341,23.6664969 C204.070497,29.1404969 195.312841,35.3433719 178.474341,35.3433719 C161.635841,35.3433719 152.881903,29.1404969 145.161778,23.6664969 C138.036653,18.6201531 131.889559,14.2617781 118.974341,14.2617781 C106.070278,14.2617781 99.9194656,18.6201531 92.8017781,23.6664969 C85.0816531,29.1404969 76.3314344,35.3433719 59.4966531,35.3433719 C42.6581531,35.3433719 33.9079344,29.1404969 26.1840906,23.6664969 C19.0589656,18.6201531 12.9118719,14.2617781 0.000371875,14.2617781 L0.000371875,1.93040312 C16.8388719,1.93040312 25.5890906,8.13327812 33.3129344,13.6072781 C40.4343406,18.6536219 46.5851531,23.0119969 59.4966531,23.0119969 C72.4007156,23.0119969 78.5515281,18.6536219 85.6692156,13.6072781 C93.3893406,8.13327812 102.139559,1.93040312 118.974341,1.93040312 C135.812841,1.93040312 144.566778,8.13327812 152.286903,13.6072781 C159.412028,18.6536219 165.559122,23.0119969 178.474341,23.0119969 C191.389559,23.0119969 197.540372,18.6536219 204.661778,13.6072781 C212.385622,8.13327812 221.143278,1.93040312 237.978059,1.93040312 C254.820278,1.93040312 263.577934,8.13327812 271.301778,13.6072781 C278.423184,18.6536219 284.573997,23.0119969 297.489216,23.0119969 C310.404434,23.0119969 316.555247,18.6536219 323.676653,13.6072781 C331.400497,8.13327812 340.158153,1.93040312 357.000372,1.93040312 L357.000372,14.2617781 C344.081434,14.2617781 337.930622,18.6201531 330.809216,23.6664969 C323.085372,29.1404969 314.327716,35.3433719 297.489216,35.3433719" id="Fill-13" fill="#1A1E2E" mask="url(#mask-10)"></path>
            </g>
            <g id="Group-18" transform="translate(0.000000, 147.340594)">
                <mask id="mask-12" fill="white">
                    <use xlink:href="#path-11"></use>
                </mask>
                <g id="Clip-17"></g>
                <path d="M297.489216,34.5442125 C280.650716,34.5442125 271.893059,28.3413375 264.169216,22.8673375 C257.047809,17.8209938 250.896997,13.4626187 237.978059,13.4626187 C225.066559,13.4626187 218.915747,17.8209938 211.794341,22.8673375 C204.070497,28.3413375 195.312841,34.5442125 178.474341,34.5442125 C161.635841,34.5442125 152.881903,28.3413375 145.161778,22.8673375 C138.036653,17.8209938 131.889559,13.4626187 118.974341,13.4626187 C106.070278,13.4626187 99.9194656,17.8209938 92.8017781,22.8673375 C85.0816531,28.3413375 76.3314344,34.5442125 59.4966531,34.5442125 C42.6581531,34.5442125 33.9079344,28.3413375 26.1840906,22.8673375 C19.0589656,17.8209938 12.9118719,13.4626187 0.000371875,13.4626187 L0.000371875,1.13124375 C16.8388719,1.13124375 25.5890906,7.33411875 33.3129344,12.8081188 C40.4343406,17.8544625 46.5851531,22.2128375 59.4966531,22.2128375 C72.4007156,22.2128375 78.5515281,17.8544625 85.6692156,12.8081188 C93.3893406,7.33411875 102.139559,1.13124375 118.974341,1.13124375 C135.812841,1.13124375 144.566778,7.33411875 152.286903,12.8081188 C159.412028,17.8544625 165.559122,22.2128375 178.474341,22.2128375 C191.389559,22.2128375 197.540372,17.8544625 204.661778,12.8081188 C212.385622,7.33411875 221.143278,1.13124375 237.978059,1.13124375 C254.820278,1.13124375 263.577934,7.33411875 271.301778,12.8081188 C278.423184,17.8544625 284.573997,22.2128375 297.489216,22.2128375 C310.404434,22.2128375 316.555247,17.8544625 323.676653,12.8081188 C331.400497,7.33411875 340.158153,1.13124375 357.000372,1.13124375 L357.000372,13.4626187 C344.081434,13.4626187 337.930622,17.8209938 330.809216,22.8673375 C323.085372,28.3413375 314.327716,34.5442125 297.489216,34.5442125" id="Fill-16" fill="#1A1E2E" mask="url(#mask-12)"></path>
            </g>
            <g id="Group-21" transform="translate(0.000000, 177.090594)">
                <mask id="mask-14" fill="white">
                    <use xlink:href="#path-13"></use>
                </mask>
                <g id="Clip-20"></g>
                <path d="M297.489216,33.7435656 C280.650716,33.7435656 271.893059,27.5406906 264.169216,22.0666906 C257.047809,17.0203469 250.896997,12.6619719 237.978059,12.6619719 C225.066559,12.6619719 218.915747,17.0203469 211.794341,22.0666906 C204.070497,27.5406906 195.312841,33.7435656 178.474341,33.7435656 C161.635841,33.7435656 152.881903,27.5406906 145.158059,22.0666906 C138.036653,17.0203469 131.885841,12.6619719 118.974341,12.6619719 C106.070278,12.6619719 99.9194656,17.0203469 92.8017781,22.0629719 C85.0816531,27.5406906 76.3314344,33.7435656 59.4966531,33.7435656 C42.6581531,33.7435656 33.9042156,27.5406906 26.1840906,22.0666906 C19.0589656,17.0203469 12.9118719,12.6619719 0.000371875,12.6619719 L0.000371875,0.326878125 C16.8388719,0.326878125 25.5928094,6.52975312 33.3129344,12.0037531 C40.4343406,17.0500969 46.5851531,21.4084719 59.4966531,21.4084719 C72.4007156,21.4084719 78.5515281,17.0500969 85.6692156,12.0037531 C93.3893406,6.52975312 102.139559,0.326878125 118.974341,0.326878125 C135.812841,0.326878125 144.566778,6.52975312 152.290622,12.0037531 C159.412028,17.0500969 165.562841,21.4084719 178.474341,21.4084719 C191.389559,21.4084719 197.540372,17.0500969 204.661778,12.0037531 C212.385622,6.52975312 221.139559,0.326878125 237.978059,0.326878125 C254.820278,0.326878125 263.577934,6.52975312 271.301778,12.0037531 C278.423184,17.0500969 284.573997,21.4084719 297.489216,21.4084719 C310.404434,21.4084719 316.555247,17.0500969 323.676653,12.0037531 C331.400497,6.52975312 340.158153,0.326878125 357.000372,0.326878125 L357.000372,12.6619719 C344.081434,12.6619719 337.930622,17.0203469 330.809216,22.0666906 C323.085372,27.5406906 314.327716,33.7435656 297.489216,33.7435656" id="Fill-19" fill="#1A1E2E" mask="url(#mask-14)"></path>
            </g>
            <g id="Group-24" transform="translate(0.000000, 203.121844)">
                <mask id="mask-16" fill="white">
                    <use xlink:href="#path-15"></use>
                </mask>
                <g id="Clip-23"></g>
                <path d="M297.489216,36.6650156 C280.650716,36.6650156 271.893059,30.4621406 264.169216,24.9881406 C257.047809,19.9417969 250.893278,15.5834219 237.978059,15.5834219 C225.066559,15.5834219 218.915747,19.9380781 211.794341,24.9844219 C204.070497,30.4621406 195.312841,36.6650156 178.474341,36.6650156 C161.635841,36.6650156 152.881903,30.4621406 145.158059,24.9844219 C138.036653,19.9380781 131.885841,15.5834219 118.974341,15.5834219 C106.070278,15.5834219 99.9194656,19.9380781 92.8017781,24.9844219 C85.0816531,30.4621406 76.3314344,36.6650156 59.4966531,36.6650156 C42.6581531,36.6650156 33.9042156,30.4621406 26.1840906,24.9844219 C19.0589656,19.9343594 12.9118719,15.5834219 0.000371875,15.5834219 L0.000371875,3.25204687 C16.8388719,3.25204687 25.5928094,9.45492187 33.3129344,14.9289219 C40.4343406,19.9789844 46.5851531,24.3373594 59.4966531,24.3373594 C72.4007156,24.3373594 78.5515281,19.9789844 85.6692156,14.9289219 C93.3893406,9.45492187 102.139559,3.25204687 118.974341,3.25204687 C135.812841,3.25204687 144.566778,9.45492187 152.290622,14.9289219 C159.412028,19.9789844 165.562841,24.3373594 178.474341,24.3373594 C191.389559,24.3373594 197.540372,19.9789844 204.661778,14.9252031 C212.385622,9.45492187 221.139559,3.25204687 237.978059,3.25204687 C254.820278,3.25204687 263.577934,9.45492187 271.301778,14.9289219 C278.423184,19.9789844 284.573997,24.3373594 297.489216,24.3373594 C310.404434,24.3373594 316.555247,19.9789844 323.676653,14.9289219 C331.400497,9.45492187 340.158153,3.25204687 357.000372,3.25204687 L357.000372,15.5834219 C344.085153,15.5834219 337.930622,19.9417969 330.809216,24.9881406 C323.085372,30.4621406 314.327716,36.6650156 297.489216,36.6650156" id="Fill-22" fill="#1A1E2E" mask="url(#mask-16)"></path>
            </g>
            <g id="Group-27" transform="translate(0.000000, 232.871844)">
                <mask id="mask-18" fill="white">
                    <use xlink:href="#path-17"></use>
                </mask>
                <g id="Clip-26"></g>
                <path d="M297.489216,35.8625094 C280.650716,35.8625094 271.893059,29.6596344 264.169216,24.1856344 C257.047809,19.1392906 250.893278,14.7771969 237.978059,14.7771969 C225.066559,14.7771969 218.915747,19.1355719 211.794341,24.1819156 C204.070497,29.6596344 195.312841,35.8625094 178.474341,35.8625094 C161.635841,35.8625094 152.881903,29.6596344 145.158059,24.1819156 C138.036653,19.1355719 131.885841,14.7771969 118.974341,14.7771969 C106.070278,14.7771969 99.9194656,19.1355719 92.8017781,24.1819156 C85.0816531,29.6596344 76.3314344,35.8625094 59.4966531,35.8625094 C42.6581531,35.8625094 33.9042156,29.6596344 26.1840906,24.1819156 C19.0589656,19.1355719 12.9118719,14.7771969 0.000371875,14.7771969 L0.000371875,2.44582187 C16.8388719,2.44582187 25.5928094,8.64869687 33.3129344,14.1226969 C40.4343406,19.1727594 46.5851531,23.5311344 59.4966531,23.5311344 C72.4007156,23.5311344 78.5515281,19.1727594 85.6692156,14.1226969 C93.3893406,8.64869687 102.139559,2.44582187 118.974341,2.44582187 C135.812841,2.44582187 144.566778,8.64869687 152.290622,14.1226969 C159.412028,19.1727594 165.562841,23.5311344 178.474341,23.5311344 C191.389559,23.5311344 197.540372,19.1727594 204.661778,14.1189781 C212.385622,8.64869687 221.139559,2.44582187 237.978059,2.44582187 C254.820278,2.44582187 263.577934,8.64869687 271.301778,14.1226969 C278.423184,19.1727594 284.573997,23.5311344 297.489216,23.5311344 C310.404434,23.5311344 316.555247,19.1727594 323.676653,14.1226969 C331.400497,8.64869687 340.158153,2.44582187 357.000372,2.44582187 L357.000372,14.7734781 C344.085153,14.7734781 337.930622,19.1355719 330.809216,24.1819156 C323.085372,29.6596344 314.327716,35.8625094 297.489216,35.8625094" id="Fill-25" fill="#1A1E2E" mask="url(#mask-18)"></path>
            </g>
            <g id="Group-30" transform="translate(0.000000, 262.621844)">
                <mask id="mask-20" fill="white">
                    <use xlink:href="#path-19"></use>
                </mask>
                <g id="Clip-29"></g>
                <path d="M297.489216,35.0707875 C280.650716,35.0707875 271.893059,28.8679125 264.169216,23.3939125 C257.047809,18.3475687 250.893278,13.985475 237.978059,13.985475 C225.066559,13.985475 218.915747,18.34385 211.794341,23.3901937 C204.070497,28.8679125 195.312841,35.0707875 178.474341,35.0707875 C161.635841,35.0707875 152.881903,28.8679125 145.158059,23.3901937 C138.036653,18.34385 131.885841,13.985475 118.974341,13.985475 C106.070278,13.985475 99.9194656,18.34385 92.8017781,23.3901937 C85.0816531,28.8679125 76.3314344,35.0707875 59.4966531,35.0707875 C42.6581531,35.0707875 33.9042156,28.8679125 26.1840906,23.3901937 C19.0589656,18.34385 12.9118719,13.985475 0.000371875,13.985475 L0.000371875,1.65781875 C16.8388719,1.65781875 25.5928094,7.86069375 33.3129344,13.3346937 C40.4343406,18.3810375 46.5851531,22.7431313 59.4966531,22.7431313 C72.4007156,22.7431313 78.5515281,18.3810375 85.6692156,13.3346937 C93.3893406,7.86069375 102.139559,1.65781875 118.974341,1.65781875 C135.812841,1.65781875 144.566778,7.86069375 152.290622,13.3346937 C159.412028,18.3810375 165.562841,22.7431313 178.474341,22.7431313 C191.389559,22.7431313 197.540372,18.3810375 204.661778,13.330975 C212.385622,7.86069375 221.139559,1.65781875 237.978059,1.65781875 C254.820278,1.65781875 263.577934,7.86069375 271.301778,13.3346937 C278.423184,18.3810375 284.573997,22.7431313 297.489216,22.7431313 C310.404434,22.7431313 316.555247,18.3810375 323.676653,13.3346937 C331.400497,7.86069375 340.158153,1.65781875 357.000372,1.65781875 L357.000372,13.985475 C344.085153,13.985475 337.930622,18.3475687 330.809216,23.3939125 C323.085372,28.8679125 314.327716,35.0707875 297.489216,35.0707875" id="Fill-28" fill="#1A1E2E" mask="url(#mask-20)"></path>
            </g>
            <g id="Group-33" transform="translate(0.000000, 292.371844)">
                <mask id="mask-22" fill="white">
                    <use xlink:href="#path-21"></use>
                </mask>
                <g id="Clip-32"></g>
                <path d="M297.489216,34.272 C280.650716,34.272 271.893059,28.069125 264.169216,22.595125 C257.047809,17.5487813 250.893278,13.1866875 237.978059,13.1866875 C225.066559,13.1866875 218.915747,17.5450625 211.794341,22.5914062 C204.070497,28.069125 195.312841,34.272 178.474341,34.272 C161.635841,34.272 152.881903,28.069125 145.158059,22.5914062 C138.036653,17.5450625 131.885841,13.1866875 118.974341,13.1866875 C106.070278,13.1866875 99.9194656,17.5450625 92.8017781,22.5914062 C85.0816531,28.069125 76.3314344,34.272 59.4966531,34.272 C42.6581531,34.272 33.9042156,28.069125 26.1840906,22.5914062 C19.0589656,17.5450625 12.9118719,13.1866875 0.000371875,13.1866875 L0.000371875,0.8553125 C16.8388719,0.8553125 25.5928094,7.0581875 33.3129344,12.5359063 C40.4343406,17.58225 46.5851531,21.940625 59.4966531,21.940625 C72.4007156,21.940625 78.5515281,17.58225 85.6692156,12.5359063 C93.3893406,7.0581875 102.139559,0.8553125 118.974341,0.8553125 C135.812841,0.8553125 144.566778,7.0581875 152.290622,12.5359063 C159.412028,17.58225 165.562841,21.940625 178.474341,21.940625 C191.389559,21.940625 197.540372,17.58225 204.661778,12.5321875 C212.385622,7.0581875 221.139559,0.8553125 237.978059,0.8553125 C254.820278,0.8553125 263.577934,7.0581875 271.301778,12.5359063 C278.423184,17.58225 284.573997,21.940625 297.489216,21.940625 C310.404434,21.940625 316.555247,17.58225 323.676653,12.5359063 C331.400497,7.0581875 340.158153,0.8553125 357.000372,0.8553125 L357.000372,13.1866875 C344.085153,13.1866875 337.930622,17.5487813 330.809216,22.595125 C323.085372,28.069125 314.327716,34.272 297.489216,34.272" id="Fill-31" fill="#1A1E2E" mask="url(#mask-22)"></path>
            </g>
            <g id="Group-36" transform="translate(0.000000, 322.121844)">
                <mask id="mask-24" fill="white">
                    <use xlink:href="#path-23"></use>
                </mask>
                <g id="Clip-35"></g>
                <path d="M297.489216,33.4694937 C280.650716,33.4694937 271.893059,27.2666188 264.169216,21.7889 C257.047809,16.746275 250.893278,12.3841813 237.978059,12.3841813 C225.066559,12.3841813 218.915747,16.7425562 211.794341,21.7851813 C204.070497,27.2666188 195.312841,33.4694937 178.474341,33.4694937 C161.635841,33.4694937 152.881903,27.2666188 145.158059,21.7851813 C138.036653,16.7425562 131.885841,12.3841813 118.974341,12.3841813 C106.070278,12.3841813 99.9194656,16.7425562 92.8017781,21.7851813 C85.0816531,27.2666188 76.3314344,33.4694937 59.4966531,33.4694937 C42.6581531,33.4694937 33.9042156,27.2666188 26.1840906,21.7851813 C19.0589656,16.7425562 12.9118719,12.3841813 0.000371875,12.3841813 L0.000371875,0.05280625 C16.8388719,0.05280625 25.5928094,6.25568125 33.3129344,11.7334 C40.4343406,16.7797437 46.5851531,21.1381188 59.4966531,21.1381188 C72.4007156,21.1381188 78.5515281,16.7797437 85.6692156,11.7334 C93.3893406,6.25568125 102.139559,0.05280625 118.974341,0.05280625 C135.812841,0.05280625 144.566778,6.25568125 152.290622,11.7334 C159.412028,16.7797437 165.562841,21.1381188 178.474341,21.1381188 C191.389559,21.1381188 197.540372,16.7797437 204.661778,11.7296813 C212.385622,6.25568125 221.139559,0.05280625 237.978059,0.05280625 C254.820278,0.05280625 263.577934,6.25568125 271.301778,11.7334 C278.423184,16.7797437 284.573997,21.1381188 297.489216,21.1381188 C310.404434,21.1381188 316.555247,16.7797437 323.676653,11.7334 C331.400497,6.25568125 340.158153,0.05280625 357.000372,0.05280625 L357.000372,12.3841813 C344.085153,12.3841813 337.930622,16.746275 330.809216,21.7889 C323.085372,27.2666188 314.327716,33.4694937 297.489216,33.4694937" id="Fill-34" fill="#1A1E2E" mask="url(#mask-24)"></path>
            </g>
        </g>
    </g>
</svg>