<?xml version="1.0" encoding="utf-8"?>
<!-- Generator: Adobe Illustrator 21.0.2, SVG Export Plug-In . SVG Version: 6.00 Build 0)  -->
<svg version="1.1" id="Layer_1" xmlns="http://www.w3.org/2000/svg" xmlns:xlink="http://www.w3.org/1999/xlink" x="0px" y="0px"
	 width="1103.3px" height="1106.5px" viewBox="0 0 1103.3 1106.5" style="enable-background:new 0 0 1103.3 1106.5;"
	 xml:space="preserve">
<style type="text/css">
	.st0{fill:#F7F7F7;}
</style>
<title>Layer_2</title>
<desc>Created with Sketch.</desc>
<path class="st0" d="M931.1,498.2l172.2-105.1V0h-466L0,1106.5h1103.3V713.1l-172.2-103c0,0-4.8,0-4.8,4.9l150.2,248
	c0,0,0,4.9-4.8,4.9H669.5c-4.8,0-4.8-4.9-4.8-4.9l155.1-252.9c0,0,0-4.9-4.8-4.9L567.7,760.8c0,0-4.8,0-4.8-4.9V352.3
	c0-4.9,4.8-4.9,4.8-4.9l247.1,150.8c0,0,4.8,0,4.8-4.9l-155.1-248c0,0,0-4.9,4.8-4.9h402.2c4.8,0,4.8,4.9,4.8,4.9l-150.2,248
	C926.3,493.3,926.3,498.2,931.1,498.2z"/>
</svg>
