<?xml version="1.0" encoding="utf-8"?>
<!-- Generator: Adobe Illustrator 21.0.2, SVG Export Plug-In . SVG Version: 6.00 Build 0)  -->
<svg version="1.1" baseProfile="basic"
	 id="svg2" inkscape:version="0.91 r13725" sodipodi:docname="Lietuvos Pastas Logo.svg" xmlns:cc="http://creativecommons.org/ns#" xmlns:dc="http://purl.org/dc/elements/1.1/" xmlns:inkscape="http://www.inkscape.org/namespaces/inkscape" xmlns:rdf="http://www.w3.org/1999/02/22-rdf-syntax-ns#" xmlns:sodipodi="http://sodipodi.sourceforge.net/DTD/sodipodi-0.dtd" xmlns:svg="http://www.w3.org/2000/svg"
	 xmlns="http://www.w3.org/2000/svg" xmlns:xlink="http://www.w3.org/1999/xlink" x="0px" y="0px" width="337px" height="149px"
	 viewBox="0 0 337 149" xml:space="preserve">
<style type="text/css">
	.st0{fill:#FFFFFF;}
	.st1{fill:#FFDD00;}
</style>
<sodipodi:namedview  bordercolor="#666666" borderopacity="1.0" fit-margin-bottom="0" fit-margin-left="0" fit-margin-right="0" fit-margin-top="0" id="base" inkscape:current-layer="layer1" inkscape:cx="73.440388" inkscape:cy="14.880095" inkscape:document-units="px" inkscape:pageopacity="0.0" inkscape:pageshadow="2" inkscape:window-height="1018" inkscape:window-maximized="1" inkscape:window-width="1920" inkscape:window-x="-8" inkscape:window-y="-8" inkscape:zoom="7.9195959" pagecolor="#ffffff" showgrid="false">
	</sodipodi:namedview>
<g>
	<g id="g3380" transform="matrix(1.25,0,0,-1.25,-175.69832,1038.9004)">
		<g id="g3386" transform="translate(468.4784,773.5848)">
			<path id="path3388" inkscape:connector-curvature="0" class="st0" d="M-301.3-38.1c-2.2,0-4.3,0.9-5.7,2.6
				c-1.4,1.7-1.9,4-1.6,6.2l8.6,59.2c0.6,4.2,4.5,7.7,8.8,7.7H-96c2.2,0,4.2-1,5.6-2.6c1.4-1.7,1.9-4,1.6-6.2l-8.6-59.2
				c-0.6-4.3-4.6-7.7-9-7.7H-301.3z"/>
		</g>
		<g id="g3390" transform="translate(468.4783,774.3235)">
			<path id="path3392" inkscape:connector-curvature="0" class="st1" d="M-301.3-37.1c-1.8,0-3.3,0.7-4.4,2
				c-1.1,1.3-1.5,3.1-1.2,4.8l8.6,59.1c0.6,3.4,3.7,6.1,7.1,6.2H-96c1.7-0.1,3.2-0.8,4.2-2c1.1-1.3,1.5-3.1,1.2-4.8l-8.6-59.2
				c-0.6-3.5-3.8-6.2-7.2-6.2H-301.3z"/>
		</g>
		<g id="g3394" transform="translate(515.4224,791.0485)">
			<path id="path3396" inkscape:connector-curvature="0" d="M-238.4-14.7l2.9,14.7h3.2l-2.4-11.9h5.2l-0.5-2.8H-238.4z M-228.5-14.7
				l2.9,14.7h3.2l-2.9-14.7H-228.5z M-218.3-14.7c-1.1,0-2.7,0.4-3.7,1.4c-0.7,0.7-1,1.6-0.8,2.7h0l0.1,0.4l1.2,6.2h0
				c0.8,3,4,4.1,6,4.1h4.1l-0.6-2.8h-4c-0.8,0-2.2-0.3-2.5-1.6l-0.3-1.5h1.8c0.1,0,0.2,0,0.2,0h2.9l-0.6-2.8h-4.8
				c-0.1-0.5-0.4-1.5-0.4-1.7c-0.1-0.4,0-0.8,0.2-1c0.4-0.4,1.1-0.5,1.5-0.5h4.1l-0.5-2.8H-218.3z M-210-14.7l2.4,11.9h-3.7l0.6,2.8
				h10.5l-0.6-2.8h-3.7l-2.4-11.9H-210z M-196.5-14.7c-1.5,0-2.7,0.4-3.5,1.2c-1.3,1.4-0.9,3.4-0.9,3.5l2,10h3.2l-2-10.1
				c0,0-0.2-0.8,0.3-1.4c0.3-0.3,0.7-0.4,1.3-0.4c2.1,0,2.5,1.8,2.5,1.9l2,10h3.2l-2-10.1C-190.4-10.1-191.3-14.7-196.5-14.7
				 M-185-14.7L-187.2,0h3.3l1.2-8.9l4.8,8.9h3.3l-8.1-14.6H-185z M-168.9-2.8c-2.1,0-2.5-1.8-2.5-1.9l-1.1-5.4c0,0-0.2-0.8,0.3-1.4
				c0.3-0.3,0.7-0.4,1.3-0.4c2.1,0,2.5,1.8,2.6,1.9l1.1,5.4c0,0,0.1,0.8-0.3,1.4C-167.9-2.9-168.3-2.8-168.9-2.8 M-171.3-14.7
				c-1.5,0-2.7,0.4-3.5,1.2c-1.3,1.4-0.9,3.4-0.9,3.5l1.1,5.4c0,0,1,4.6,6.1,4.6c1.5,0,2.7-0.4,3.5-1.2c1.3-1.4,0.9-3.4,0.9-3.5
				l-1.1-5.4C-165.2-10.1-166.1-14.7-171.3-14.7 M-163.2-14.7l0.5,2.8h4c0.1,0,1.9,0,2.2,1.3c0.1,0.7-1,1.4-2.2,2.2
				c-1.7,1.1-3.9,2.5-3.5,4.5c0.5,2.4,2.9,3.9,6,3.9h4.1l-0.6-2.8h-4c-0.1,0-1.9,0-2.2-1.3c-0.1-0.7,1-1.4,2.3-2.2
				c1.8-1.1,4-2.5,3.5-4.5c-0.5-2.4-2.9-3.9-6-3.9C-159.1-14.7-163.2-14.7-163.2-14.7z M-211.6-20.9l-2.3,3.3h2.6l0.9-1.2l1.4,1.2
				h2.7l-3.7-3.3C-210.1-20.9-211.6-20.9-211.6-20.9z M-235.5-27.9c0.1,0,2.2,0,2.6,1.9c0.1,0.5,0,1-0.3,1.3
				c-0.5,0.5-1.4,0.5-1.4,0.5h-2.2l-0.7-3.7C-237.6-27.9-235.5-27.9-235.5-27.9z M-242.4-36.1l2.9,14.6h5.2c0.1,0,2.3,0,3.6-1.4
				c0.8-0.8,1-1.9,0.8-3.3c-0.9-4.5-6.1-4.6-6.1-4.6h-2.2l-1.1-5.4H-242.4z M-223.2-31.1l-0.4,5.9l-2.7-5.9H-223.2z M-222.7-36.1
				l-0.2,2.2h-4.8l-1.1-2.2h-3.3l7.4,14.7h3.7l1.5-14.7C-219.4-36.1-222.7-36.1-222.7-36.1z M-217.7-36.1l0.5,2.8h4
				c0.1,0,1.9,0,2.2,1.3c0.1,0.6-1,1.4-2.2,2.2c-1.7,1.1-3.9,2.5-3.5,4.5c0.5,2.4,2.9,3.9,6,3.9h4.1l-0.6-2.8h-4
				c-0.1,0-1.9,0-2.2-1.3c-0.1-0.7,1-1.4,2.3-2.2c1.8-1.1,4-2.5,3.5-4.5c-0.5-2.4-2.9-3.9-6-3.9C-213.6-36.1-217.7-36.1-217.7-36.1z
				 M-204.2-36.1l2.4,11.9h-3.7l0.6,2.8h10.5l-0.6-2.8h-3.7l-2.4-11.9C-201-36.1-204.2-36.1-204.2-36.1z M-189.6-31.1l-0.4,5.9
				l-2.7-5.9H-189.6z M-189.1-36.1l-0.2,2.2h-4.8l-1.1-2.2h-3.3l7.4,14.7h3.7l1.5-14.7H-189.1z M-184.2-36.1l0.5,2.8h4
				c0.1,0,1.9,0,2.2,1.3c0.1,0.6-1,1.4-2.2,2.2c-1.8,1.1-3.9,2.5-3.5,4.5c0.5,2.4,2.9,3.9,6,3.9h4.1l-0.6-2.8h-4
				c-0.1,0-1.9,0-2.2-1.3c-0.1-0.7,1-1.4,2.3-2.2c1.8-1.1,4-2.5,3.5-4.5c-0.5-2.4-2.9-3.9-6-3.9C-180-36.1-184.2-36.1-184.2-36.1z
				 M-296.6-6.9L-296.6-6.9l0-23.4l0,0c-2.9,3-4.7,7.2-4.7,11.7C-301.3-14.1-299.5-10-296.6-6.9 M-284.4-1.7c4.6,0,8.8-1.9,11.9-4.9
				l-3.3,0v-20.8h-3.1V-13h0v0h-3.8v6.4h-3.6V-13h-3.6l0-14.3h-3.2l0,20.9h-3.1C-293.1-3.5-289-1.7-284.4-1.7 M-272.1-6.9
				c2.9-3.1,4.8-7.2,4.8-11.8c0-4.6-1.8-8.7-4.8-11.8L-272.1-6.9z M-295.4-31.6L-295.4-31.6C-295.3-31.6-295.3-31.6-295.4-31.6
				C-295.3-31.6-295.3-31.6-295.4-31.6 M-286.5-16.5h4.1v-10.8h-4.1V-16.5z M-273.4-31.6c-3-2.5-6.8-4-11-4c-4.2,0-8,1.5-11,4
				C-295.3-31.6-273.4-31.6-273.4-31.6z M-247.1-3.4c0,0.4-0.1,1.3-0.1,1.7c0,0,0,0.8-1,1.1c-1.6,0.5-3.8,0.7-5.4,0.4
				c-0.6-0.1-0.9-0.4-0.8-1.3c0.2-1.1,0.3-1.8,0.3-2.8c0.6-9.6-2.9-18.4-9-24.4c1.4,3,2.1,6.3,2.1,9.7c0,12.8-10.4,23.2-23.2,23.2
				c-12.8,0-23.2-10.4-23.2-23.2c0-2.6,0.4-5.2,1.3-7.5c-4.2,5.7-7.7,13.9-6.3,25.3c0.3,2.4,0.6,5.5,1.2,7.8h0v0
				c0,0.7-0.5,1.2-1.1,1.3c-7.4,1.5-15.6,0.4-18.6-0.5c-0.6-0.2-1.1-0.5-1.3-1.4c0,0-0.5-2.7-0.5-4.6c-0.3-6.4,0.8-12.5,3-18.1
				c0.1-0.2,0.1-0.4,0.2-0.5c0.1-0.3,0.2-0.5,0.3-0.8c6.8-16.2,22.6-27.5,41-27.5c6.8,0,13.3,1.6,19.1,4.4
				c8.8,4.3,14.2,11,14.6,11.5C-248.7-22.4-246.7-13.7-247.1-3.4"/>
		</g>
	</g>
</g>
<g id="g3398" transform="matrix(1.25,0,0,-1.25,222.6603,1027.9753)">
	<path id="path3400" inkscape:connector-curvature="0" d="M-185,184.7c0.1,0,0.2,0.5,0.2,0.7c0,0.2-0.1,0.3-0.2,0.3h-2.8
		c2.6,2.8,2.8,3.4,2.8,4c0,1.4-1.2,1.9-2.4,1.9c-0.4,0-0.8,0-1.4-0.2c-0.1,0-0.2-0.1-0.2-0.3c0-0.2,0.2-0.7,0.3-0.7
		c0.6,0.1,0.9,0.1,1.2,0.1c0.7,0,1.2-0.2,1.2-0.9c0-0.5-0.3-1-3.1-4c-0.1-0.2-0.1-0.5-0.1-0.7c0-0.1,0.1-0.3,0.2-0.3H-185z"/>
</g>
</svg>
