<?xml version="1.0" encoding="utf-8"?>
<!-- Generator: Adobe Illustrator 21.0.2, SVG Export Plug-In . SVG Version: 6.00 Build 0)  -->
<svg version="1.1" id="Layer_1" xmlns="http://www.w3.org/2000/svg" xmlns:xlink="http://www.w3.org/1999/xlink" x="0px" y="0px"
	 width="300px" height="150px" viewBox="0 0 300 150" style="enable-background:new 0 0 300 150;" xml:space="preserve">
<style type="text/css">
	.st0{fill:#95BF47;}
	.st1{fill:#5E8E3E;}
	.st2{fill:#FFFFFF;}
	.st3{fill:#231F20;}
</style>
<g id="Layer_2">
</g>
<g id="Layer_2_3_">
</g>
<g id="Layer_2_4_">
</g>
<g id="Layer_2_6_">
</g>
<g id="Layer_2_2_">
</g>
<g id="Layer_2_7_">
</g>
<g id="Layer_2_8_">
</g>
<g id="Layer_2_9_">
</g>
<g id="Layer_2_10_">
</g>
<g id="Layer_2_11_">
</g>
<g id="Layer_2_12_">
</g>
<g>
	<g>
		<path class="st0" d="M107.7,61.9c0-0.2-0.2-0.3-0.4-0.3c-0.2,0-3.3-0.2-3.3-0.2s-2.2-2.2-2.4-2.4c-0.2-0.2-0.7-0.2-0.9-0.1
			c0,0-0.5,0.1-1.2,0.4c-0.7-2.1-2-4.1-4.3-4.1c-0.1,0-0.1,0-0.2,0c-0.7-0.9-1.5-1.2-2.2-1.2c-5.3,0-7.9,6.7-8.7,10
			c-2.1,0.6-3.5,1.1-3.7,1.2c-1.2,0.4-1.2,0.4-1.3,1.5c-0.1,0.8-3.1,24.2-3.1,24.2l23.6,4.4l12.8-2.8
			C112.3,92.4,107.8,62.1,107.7,61.9z M98.2,59.5c-0.6,0.2-1.3,0.4-2,0.6c0-0.1,0-0.3,0-0.4c0-1.3-0.2-2.4-0.5-3.2
			C96.9,56.7,97.7,58,98.2,59.5z M94.2,56.8c0.3,0.8,0.5,2,0.5,3.6c0,0.1,0,0.2,0,0.2c-1.3,0.4-2.7,0.8-4.1,1.3
			C91.5,58.8,92.9,57.3,94.2,56.8z M92.7,55.3c0.2,0,0.5,0.1,0.7,0.2c-1.7,0.8-3.5,2.8-4.3,6.9c-1.1,0.3-2.2,0.7-3.3,1
			C86.7,60.3,88.8,55.3,92.7,55.3z"/>
		<path class="st1" d="M107.4,61.5c-0.2,0-3.3-0.2-3.3-0.2s-2.2-2.2-2.4-2.4c-0.1-0.1-0.2-0.1-0.3-0.2l-1.8,36.4l12.8-2.8
			c0,0-4.5-30.3-4.5-30.5C107.7,61.7,107.5,61.6,107.4,61.5z"/>
		<path class="st2" d="M95.2,68.6l-1.6,4.7c0,0-1.4-0.7-3.1-0.7c-2.5,0-2.6,1.6-2.6,1.9c0,2.1,5.6,3,5.6,8c0,3.9-2.5,6.5-5.9,6.5
			c-4,0-6.1-2.5-6.1-2.5l1.1-3.6c0,0,2.1,1.8,3.9,1.8c1.2,0,1.6-0.9,1.6-1.6c0-2.8-4.6-2.9-4.6-7.5c0-3.9,2.8-7.6,8.4-7.6
			C94.1,68,95.2,68.6,95.2,68.6z"/>
	</g>
	<path id="s" class="st3" d="M127.1,77.4c-1.3-0.7-1.9-1.3-1.9-2.1c0-1,0.9-1.7,2.3-1.7c1.7,0,3.1,0.7,3.1,0.7l1.2-3.6
		c0,0-1.1-0.8-4.2-0.8c-4.4,0-7.4,2.5-7.4,6c0,2,1.4,3.5,3.3,4.6c1.5,0.9,2.1,1.5,2.1,2.4c0,0.9-0.8,1.7-2.2,1.7
		c-2.1,0-4.1-1.1-4.1-1.1l-1.2,3.6c0,0,1.8,1.2,4.9,1.2c4.5,0,7.8-2.2,7.8-6.2C130.7,80,129.1,78.5,127.1,77.4z"/>
	<path id="h" class="st3" d="M145.1,69.9c-2.2,0-4,1.1-5.3,2.7l-0.1,0l1.9-10.1h-5l-4.9,25.7h5l1.7-8.8c0.7-3.3,2.4-5.3,4-5.3
		c1.1,0,1.6,0.8,1.6,1.9c0,0.7-0.1,1.5-0.2,2.2l-1.9,10h5l2-10.4c0.2-1.1,0.4-2.4,0.4-3.3C149.2,71.6,147.7,69.9,145.1,69.9z"/>
	<path id="o" class="st3" d="M160.6,69.9c-6,0-10,5.5-10,11.5c0,3.9,2.4,7,6.9,7c5.9,0,9.9-5.3,9.9-11.5
		C167.4,73.3,165.3,69.9,160.6,69.9z M158.1,84.6c-1.7,0-2.4-1.5-2.4-3.3c0-2.9,1.5-7.6,4.2-7.6c1.8,0,2.4,1.5,2.4,3
		C162.3,79.9,160.8,84.6,158.1,84.6z"/>
	<path id="p" class="st3" d="M180.2,69.9c-3.4,0-5.3,3-5.3,3h-0.1l0.3-2.7h-4.4c-0.2,1.8-0.6,4.6-1,6.7l-3.5,18.4h5l1.4-7.4h0.1
		c0,0,1,0.7,2.9,0.7c5.9,0,9.8-6,9.8-12.2C185.4,72.9,183.9,69.9,180.2,69.9z M175.4,84.7c-1.3,0-2.1-0.7-2.1-0.7l0.8-4.7
		c0.6-3.1,2.2-5.2,4-5.2c1.5,0,2,1.4,2,2.8C180.2,80,178.2,84.7,175.4,84.7z"/>
	<path id="dot" class="st3" d="M192.6,62.7c-1.6,0-2.9,1.3-2.9,2.9c0,1.5,0.9,2.5,2.4,2.5h0.1c1.6,0,2.9-1.1,2.9-2.9
		C195.1,63.7,194.1,62.7,192.6,62.7z"/>
	<polygon id="i" class="st3" points="185.5,88.1 190.6,88.1 194,70.3 188.9,70.3 	"/>
	<path id="f" class="st3" d="M206.8,70.3h-3.5l0.2-0.8c0.3-1.7,1.3-3.2,3-3.2c0.9,0,1.6,0.3,1.6,0.3l1-3.9c0,0-0.9-0.4-2.7-0.4
		c-1.8,0-3.6,0.5-4.9,1.7c-1.7,1.5-2.5,3.6-2.9,5.7l-0.1,0.8H196l-0.7,3.8h2.3l-2.7,14h5l2.7-14h3.5L206.8,70.3z"/>
	<path id="y" class="st3" d="M218.8,70.3c0,0-3.1,7.9-4.5,12.2h-0.1c-0.1-1.4-1.2-12.2-1.2-12.2h-5.3l3,16.3c0.1,0.4,0,0.6-0.1,0.8
		c-0.6,1.1-1.6,2.2-2.7,3c-0.9,0.7-2,1.1-2.8,1.4l1.4,4.3c1-0.2,3.1-1.1,4.9-2.7c2.3-2.1,4.4-5.5,6.6-10l6.1-13.2H218.8z"/>
</g>
</svg>
