<?xml version="1.0" encoding="utf-8"?>
<!-- Generator: Adobe Illustrator 21.1.0, SVG Export Plug-In . SVG Version: 6.00 Build 0)  -->
<svg version="1.1" id="Layer_1" xmlns="http://www.w3.org/2000/svg" xmlns:xlink="http://www.w3.org/1999/xlink" x="0px" y="0px"
	 viewBox="0 0 166.525 194" style="enable-background:new 0 0 166.525 194;" xml:space="preserve">
<g>
	<g>
		<g>
			<defs>
				<path id="SVGID_1_" d="M155.75,28.621c-15.156-8.372-32.352-12.322-46.163-14.182c-15.08-2.026-26.114-1.563-26.06-1.642
					c0.032,0.042-2.912-0.062-7.848,0.106c-5.035,0.176-12.145,0.633-20.293,1.828c-6.426,0.944-13.494,2.344-20.699,4.416
					c-7.849,2.261-15.854,5.326-23.367,9.474c0,5.824,0,11.647,0,17.471c0,1.689,0,4.971,0,6.658c0,4.782,0,7.976,0,12.76
					c0,16.231,0,32.464,0,48.695c0.004,17.327,5.971,32.556,19.03,43.409c2.96,2.503,7.502,5.36,12.719,8.262
					c4.423,2.458,9.334,4.946,14.159,7.286c5.691,2.754,11.269,5.285,15.812,7.292c6.234,2.754,10.522,4.516,10.488,4.481
					c-0.052,0.046,9.487-3.878,20.767-9.144c12.008-5.609,25.977-12.726,32.419-18.177c13.064-10.855,19.038-26.083,19.038-43.415
					c0-16.225,0-32.458,0-48.689c0-4.784,0-8.506,0-13.29c0-1.689,0-4.438,0-6.128C155.75,40.269,155.75,34.444,155.75,28.621"/>
			</defs>
			<clipPath id="SVGID_2_">
				<use xlink:href="#SVGID_1_"  style="overflow:visible;"/>
			</clipPath>
			
				<linearGradient id="SVGID_3_" gradientUnits="userSpaceOnUse" x1="-162.7398" y1="370.419" x2="-13.1006" y2="370.419" gradientTransform="matrix(1 0 0 -1 171.75 468.4453)">
				<stop  offset="0" style="stop-color:#FFD66B"/>
				<stop  offset="0.2821" style="stop-color:#FDE2D2"/>
				<stop  offset="0.4908" style="stop-color:#E9AA70"/>
				<stop  offset="1" style="stop-color:#DC931D"/>
			</linearGradient>
			<rect x="9.01" y="11.293" style="clip-path:url(#SVGID_2_);fill:url(#SVGID_3_);" width="149.639" height="173.467"/>
		</g>
	</g>
	<g>
		<g>
			<defs>
				<path id="SVGID_4_" d="M150.086,29.737c-21.127-2.222-44.409-2.805-67.583,1.814c-6.726,1.352-13.443,3.137-20.072,5.458
					c-7.083,2.483-14.059,5.571-20.831,9.384c-8.659,4.877-16.974,10.938-24.733,18.413c-0.001,1.599-0.006,3.198-0.01,4.795
					c-0.011,7.672-0.019,15.351-0.022,23.03c-0.006,7.207,0,14.418,0.005,21.629c0.012,16.076,5.789,29.603,17.091,38.992
					c6.95,3.597,13.901,7.196,20.855,10.796c5.309,2.753,10.622,5.5,15.933,8.253c4.27,2.209,8.54,4.419,12.812,6.635
					c8.512-3.549,39.529-17.173,49.605-25.685c11.305-9.389,17.075-22.916,17.087-38.992c0.017-15.495,0.009-31-0.018-46.48
					c-0.023-10.517-0.051-21.023-0.092-31.497C150.101,34.102,150.096,31.919,150.086,29.737"/>
			</defs>
			<clipPath id="SVGID_5_">
				<use xlink:href="#SVGID_4_"  style="overflow:visible;"/>
			</clipPath>
			
				<linearGradient id="SVGID_6_" gradientUnits="userSpaceOnUse" x1="-158.2888" y1="381.31" x2="-94.1205" y2="366.6974" gradientTransform="matrix(1 0 0 -1 171.75 468.4453)">
				<stop  offset="0" style="stop-color:#DBC9B8"/>
				<stop  offset="0.3114" style="stop-color:#775024"/>
				<stop  offset="1" style="stop-color:#4E2700"/>
			</linearGradient>
			<rect x="16" y="26.225" style="clip-path:url(#SVGID_5_);fill:url(#SVGID_6_);" width="136.613" height="154.087"/>
		</g>
	</g>
	<path style="fill:#3F1800;" d="M83.53,178.938l-49.599-25.684C44.002,161.766,75.02,175.39,83.53,178.938"/>
	<path style="fill:#3F1800;" d="M156.677,114.199c0,8.956-1.583,17.199-4.69,24.509c-3.265,7.631-8.196,14.235-14.681,19.615
		c-6.525,5.526-20.695,12.705-31.431,17.752c-6.144,2.891-11.75,5.367-15.382,6.936c-2.17,0.94-5.968,2.523-6.967,2.934v0.512
		c1.001-0.42,4.975-2.082,7.157-3.023c3.628-1.568,9.246-4.048,15.387-6.936c15.656-7.366,26.272-13.354,31.542-17.815
		c6.526-5.429,11.512-12.097,14.79-19.796c3.144-7.366,4.74-15.662,4.74-24.688v-86.4l-0.465,0.27v86.131"/>
	<path style="fill:#3F1800;" d="M10.869,27.807c26.408-14.599,59.067-16.01,71.872-15.94h0.787h0.801
		c12.803-0.069,45.46,1.341,71.867,15.94l0.482,0.261l0.466-0.27l-0.728-0.396c-26.502-14.653-59.244-16.066-72.097-15.997h-0.792
		H82.74c-12.844-0.069-45.596,1.344-72.096,15.992l-0.725,0.396l0.468,0.274L10.869,27.807"/>
	<path style="fill:#3F1800;" d="M14.662,138.887c3.288,7.698,8.267,14.367,14.802,19.802c5.262,4.455,15.868,10.443,31.529,17.81
		c6.139,2.888,11.761,5.367,15.389,6.936c2.173,0.94,6.158,2.604,7.146,3.022v-0.511c-0.988-0.411-4.787-1.993-6.961-2.934
		c-3.628-1.568-9.244-4.045-15.383-6.936c-10.735-5.047-24.897-12.227-31.418-17.744c-6.485-5.389-11.419-11.993-14.677-19.624
		c-3.11-7.31-4.689-15.554-4.689-24.509l-0.012-86.131L9.92,27.794l0.014,86.405C9.937,123.224,11.528,131.52,14.662,138.887"/>
	<path style="fill:#3F1800;" d="M143.921,70.978l0.344,0.279l0.468-0.228l-0.522-0.42c-2.257-1.79-7.16-4.768-14.727-4.622
		l0.017,0.461C136.916,66.308,141.719,69.222,143.921,70.978"/>
	<path style="fill:#3F1800;" d="M142.692,83.488c-2.271-2.406-6.244-5.011-10.597-5.085l-0.002,0.466
		c4.205,0.075,8.058,2.596,10.257,4.941l2.414,2.562l-0.463-1.172L142.692,83.488"/>
	<path style="fill:#3F1800;" d="M125.585,83.617l0.46,0.009c0.108-4.392,4.267-4.788,6.049-4.757l0.003-0.466
		C130.603,78.378,125.706,78.673,125.585,83.617"/>
	<polyline style="fill:#3F1800;" points="144.302,85.2 144.765,86.372 144.733,71.03 144.265,71.257 144.302,85.2 	"/>
	<path style="fill:#3F1800;" d="M103.579,74.818c4.186,5.453,6.387,13.403,6.391,23.006h0.465c0-9.704-2.242-17.757-6.488-23.284
		c-4.412-5.752-10.961-8.789-18.938-8.801v0.467C92.837,66.214,99.259,69.192,103.579,74.818"/>
	<path style="fill:#3F1800;" d="M111.474,83.961c0-6.433,3.109-10.506,5.724-12.806c3.313-2.905,7.802-4.621,12.304-4.706
		l-0.017-0.462c-4.599,0.09-9.198,1.844-12.591,4.818c-2.688,2.362-5.888,6.555-5.888,13.156c0,0.037,0,0.083,0,0.118h0.468
		C111.474,84.04,111.474,83.998,111.474,83.961"/>
	<path style="fill:#3F1800;" d="M124.214,103.611l0.234-0.396c-10.813-6.411-12.939-11.876-12.975-19.136h-0.468
		C111.036,91.514,113.208,97.091,124.214,103.611"/>
	<path style="fill:#3F1800;" d="M132.487,91.586l1.01,0.608l0.235-0.394l-1.005-0.608c-4.443-2.645-6.754-4.176-6.683-7.566
		l-0.46-0.009C125.499,87.434,128.275,89.079,132.487,91.586"/>
	<path style="fill:#3F1800;" d="M126.997,130.733l0.004,0.463c6.129-0.061,11.239-2.173,14.782-6.108
		c2.985-3.327,4.727-7.8,4.888-12.579l-0.471-0.015C145.903,121.467,139.85,130.593,126.997,130.733"/>
	<path style="fill:#3F1800;" d="M124.448,103.216l-0.234,0.396c5.598,3.336,7.153,5.127,7.222,8.394l0.466-0.012
		C131.823,108.569,130.155,106.604,124.448,103.216"/>
	<path style="fill:#3F1800;" d="M130.345,116.42c1.017-1.039,1.562-2.509,1.562-4.233c0-0.066-0.005-0.129-0.005-0.193l-0.466,0.012
		c0.004,0.061,0.004,0.118,0.004,0.182c0,1.604-0.496,2.953-1.425,3.909c-1.097,1.123-2.753,1.708-4.797,1.708v0.465
		C127.389,118.269,129.166,117.626,130.345,116.42"/>
	<path style="fill:#3F1800;" d="M143.99,101.854c1.673,2.965,2.33,6.149,2.21,10.639l0.471,0.014
		c0.212-7.849-1.881-14.046-12.939-20.709l-0.234,0.395C138.713,95.335,142.049,98.412,143.99,101.854"/>
	<path style="fill:#3F1800;" d="M103.866,121.443c-4.18,6.058-10.233,9.258-17.506,9.27v0.457c7.435,0,13.619-3.271,17.885-9.462
		c4.047-5.874,6.19-14.136,6.19-23.884h-0.465C109.97,107.484,107.858,115.65,103.866,121.443"/>
	<path style="fill:#3F1800;" d="M113.579,113.291c3.322,2.982,7.995,4.978,11.639,4.978v-0.465c-3.537,0-8.084-1.946-11.318-4.851
		l-2.322-2.087l0.464,1.042L113.579,113.291"/>
	<path style="fill:#3F1800;" d="M112.462,126.714l-0.457-0.27l-0.471,0.261l0.693,0.405c4.516,2.682,9.764,4.137,14.773,4.086
		l-0.004-0.463C122.075,130.779,116.904,129.355,112.462,126.714"/>
	<polyline style="fill:#3F1800;" points="112.041,111.908 111.577,110.866 111.534,126.706 112.005,126.444 112.041,111.908 	"/>
	<path style="fill:#3F1800;" d="M81.902,79.445l-0.471-0.333c0,1.178,0,37.418,0,38.69l0.471-0.354
		C81.902,115.565,81.902,81.212,81.902,79.445"/>
	<path style="fill:#3F1800;" d="M81.902,117.448l-0.471,0.354c0.804,0.238,1.975,0.514,3.287,0.514v-0.463
		C83.625,117.853,82.64,117.655,81.902,117.448"/>
	<path style="fill:#3F1800;" d="M92.239,113.606c1.74-3.318,2.618-8.503,2.618-15.432h-0.46c-0.006,6.849-0.858,11.97-2.567,15.217
		c-1.603,3.034-3.859,4.461-7.113,4.461v0.463C88.117,118.315,90.577,116.773,92.239,113.606"/>
	<path style="fill:#3F1800;" d="M81.44,130.246l0.465,0.568c1.337,0.235,2.824,0.367,4.455,0.356v-0.457
		C84.541,130.713,82.887,130.553,81.44,130.246"/>
	<path style="fill:#3F1800;" d="M81.458,156l0.006,0.942l0.465,0.459L81.925,156c0,0-0.02-22.123-0.02-25.187l-0.465-0.568
		C81.443,132.422,81.458,156,81.458,156"/>
	<path style="fill:#3F1800;" d="M66.724,155.977c-0.142-27.526-0.181-55.865-0.118-84.207l0.004-0.505l-0.459-0.251l-0.005,0.753
		c-0.066,28.347-0.027,56.685,0.113,84.212l0.009,1.384l0.455-0.459L66.724,155.977"/>
	<rect x="66.269" y="156.902" style="fill:#3F1800;" width="15.66" height="0.499"/>
	<path style="fill:#3F1800;" d="M62.277,68.497c-0.07,18.533-0.063,37.462-0.012,56.268l0.003,0.493l0.466,0.244l-0.002-0.737
		c-0.056-18.807-0.052-37.735,0.011-56.268l0.002-1.407l-0.465,0.475L62.277,68.497"/>
	<path style="fill:#3F1800;" d="M61.856,125.541c-5.14,3.487-12.007,5.284-19.871,5.21l-0.004,0.464
		c7.954,0.075,14.92-1.748,20.135-5.286l0.619-0.426l-0.466-0.244L61.856,125.541"/>
	<path style="fill:#3F1800;" d="M47.526,116.837l-0.471-0.272c-1.187,0.605-2.809,0.938-4.65,0.927l-0.003,0.462
		C44.45,117.971,46.237,117.565,47.526,116.837"/>
	<path style="fill:#3F1800;" d="M47.023,98.91c0,5.893,0.014,11.784,0.032,17.655l0.471,0.272
		c-0.021-5.957-0.032-11.939-0.032-17.927c0-10.143,0.027-20.296,0.071-30.337l0.004-0.915l-0.458-0.46l-0.013,1.375
		C47.055,78.614,47.023,88.766,47.023,98.91"/>
	<path style="fill:#3F1800;" d="M27.16,125.155c-3.271-3.605-4.89-8.996-4.902-15.998h-0.466c0.021,7.119,1.674,12.61,5.023,16.317
		c3.405,3.74,8.506,5.676,15.166,5.74l0.004-0.464C35.461,130.679,30.474,128.804,27.16,125.155"/>
	<path style="fill:#3F1800;" d="M37.691,115.252c0.94,1.8,2.484,2.681,4.711,2.701l0.003-0.463c-1.309-0.012-5.289-0.049-5.308-7.71
		l-0.466,0.003C36.637,112.073,36.994,113.915,37.691,115.252"/>
	<rect x="21.788" y="67.475" style="fill:#3F1800;" width="0.471" height="41.682"/>
	<path style="fill:#3F1800;" d="M36.696,68.703c-0.062,13.695-0.086,27.52-0.066,41.082l0.467-0.004
		c-0.025-13.558-0.005-27.382,0.062-41.078l0.013-1.415L36.7,67.761L36.696,68.703"/>
	<polyline style="fill:#3F1800;" points="61.348,67.57 62.281,67.566 62.746,67.091 61.339,67.1 47.111,67.197 47.569,67.657 
		61.348,67.57 	"/>
	<rect x="21.788" y="67.288" style="fill:#3F1800;" width="15.382" height="0.65"/>
	<path style="fill:#3F1800;" d="M85.101,78.955c3.332,0,5.476,1.251,6.938,4.082c1.584,3.058,2.354,8.005,2.359,15.137h0.46
		c0-7.207-0.781-12.235-2.406-15.353c-1.532-2.958-3.872-4.329-7.351-4.337V78.955"/>
	<path style="fill:#3F1800;" d="M85.101,78.955v-0.471c-1.404,0-2.753,0.295-3.669,0.627l0.471,0.333
		C82.744,79.175,83.912,78.955,85.101,78.955"/>
	<path style="fill:#3F1800;" d="M66.151,71.014l0.459,0.251l0.423-0.276c4.937-3.219,10.817-4.782,17.976-4.782V65.74
		c-7.251,0-13.223,1.59-18.227,4.862L66.151,71.014"/>
	<path style="fill:#3F1800;" d="M82.689,32.467c-25.76,5.162-47.591,16.178-64.893,32.748l0.466,0.204
		c17.215-16.432,38.914-27.368,64.516-32.495c19.251-3.841,40.826-4.464,65.913-1.917l0.468-0.424
		C123.847,27.982,102.093,28.598,82.689,32.467"/>
	<path style="fill:#3F1800;" d="M148.833,98.892c0,5.139-0.007,10.266-0.009,15.369c-0.014,15.807-5.748,28.914-16.589,37.919
		c-9.337,7.886-37.803,20.672-48.705,25.243v0.502c10.783-4.511,39.576-17.42,49.005-25.386
		c10.949-9.095,16.74-22.333,16.759-38.277c0.004-5.104,0.01-10.231,0.01-15.37c0-22.6-0.052-45.508-0.144-68.307l-0.468,0.424
		C148.786,53.665,148.833,76.432,148.833,98.892"/>
	<path style="fill:#3F1800;" d="M34.824,152.178c-10.837-9.003-16.573-22.116-16.584-37.916c-0.008-5.029-0.008-10.128-0.008-15.297
		c0-10.938,0.011-22.168,0.031-33.545l-0.466-0.204c-0.02,11.449-0.03,22.745-0.03,33.75c0,5.169,0.002,10.274,0.007,15.297
		c0.012,15.944,5.808,29.178,16.749,38.277c9.384,7.92,38.211,20.861,49.008,25.386v-0.502
		C72.616,172.834,44.11,160.02,34.824,152.178"/>
	<path style="fill:#3F1800;" d="M84.32,10.936l-0.792,0.007l-0.784-0.007c-12.881-0.07-45.714,1.351-72.312,16.061L9.455,27.52
		l0.465,0.274l0.725-0.396c26.501-14.648,59.252-16.062,72.096-15.992h0.787h0.791c12.853-0.069,45.596,1.344,72.099,15.997
		l0.727,0.396l0.468-0.278l-0.971-0.524C130.043,12.287,97.2,10.866,84.32,10.936"/>
	<path style="fill:#3F1800;" d="M157.144,114.199c0,9.024-1.597,17.321-4.74,24.688c-3.278,7.698-8.265,14.367-14.79,19.796
		c-5.27,4.461-15.886,10.448-31.542,17.815c-6.141,2.888-11.759,5.367-15.387,6.936c-2.183,0.94-6.156,2.604-7.157,3.022v0.499
		c1.001-0.419,5.159-2.15,7.343-3.091c3.632-1.579,9.253-4.054,15.407-6.944c15.679-7.381,26.324-13.397,31.629-17.882
		c6.594-5.477,11.626-12.197,14.934-19.972c3.158-7.417,4.765-15.78,4.771-24.868V27.52l-0.468,0.278V114.199"/>
	<path style="fill:#3F1800;" d="M76.382,183.434c-3.628-1.568-9.25-4.048-15.389-6.936c-15.661-7.367-26.267-13.355-31.529-17.81
		c-6.535-5.434-11.514-12.104-14.802-19.802c-3.134-7.366-4.724-15.662-4.728-24.688L9.92,27.794L9.455,27.52l0.011,86.679
		c0.007,9.088,1.606,17.45,4.768,24.868c3.31,7.773,8.336,14.494,14.928,19.971c5.305,4.484,15.945,10.501,31.629,17.883
		c6.143,2.891,11.77,5.364,15.401,6.943c2.176,0.941,6.347,2.673,7.335,3.092v-0.499C82.54,186.037,78.555,184.375,76.382,183.434"
		/>
	<g>
		<g>
			<defs>
				<path id="SVGID_7_" d="M130.015,116.096c0.929-0.956,1.425-2.306,1.425-3.909c0-0.064,0-0.121-0.004-0.182l-0.468,0.009
					c0.004,0.061,0.004,0.119,0.004,0.175c0,1.504-0.437,2.702-1.292,3.586c-1.005,1.025-2.549,1.56-4.462,1.56v0.47
					C127.262,117.804,128.918,117.219,130.015,116.096"/>
			</defs>
			<clipPath id="SVGID_8_">
				<use xlink:href="#SVGID_7_"  style="overflow:visible;"/>
			</clipPath>
			<path style="clip-path:url(#SVGID_8_);fill:#492300;" d="M130.015,116.096c0.929-0.956,1.425-2.306,1.425-3.909
				c0-0.064,0-0.121-0.004-0.182l-0.468,0.009c0.004,0.061,0.004,0.119,0.004,0.175c0,1.504-0.437,2.702-1.292,3.586
				c-1.005,1.025-2.549,1.56-4.462,1.56v0.47C127.262,117.804,128.918,117.219,130.015,116.096"/>
		</g>
		<g>
			<defs>
				<path id="SVGID_9_" d="M130.015,116.096c0.929-0.956,1.425-2.306,1.425-3.909c0-0.064,0-0.121-0.004-0.182l-0.468,0.009
					c0.004,0.061,0.004,0.119,0.004,0.175c0,1.504-0.437,2.702-1.292,3.586c-1.005,1.025-2.549,1.56-4.462,1.56v0.47
					C127.262,117.804,128.918,117.219,130.015,116.096"/>
			</defs>
			<clipPath id="SVGID_10_">
				<use xlink:href="#SVGID_9_"  style="overflow:visible;"/>
			</clipPath>
			
				<linearGradient id="SVGID_11_" gradientUnits="userSpaceOnUse" x1="-701.8812" y1="106.4964" x2="-698.9419" y2="106.4964" gradientTransform="matrix(2.1164 0 0 4.7729 1610.6792 -393.3924)">
				<stop  offset="0" style="stop-color:#492300"/>
				<stop  offset="1" style="stop-color:#492300"/>
			</linearGradient>
			<rect x="125.218" y="112.005" style="clip-path:url(#SVGID_10_);fill:url(#SVGID_11_);" width="6.221" height="5.799"/>
		</g>
	</g>
	<polyline style="fill:#3F1800;" points="111.577,110.866 111.118,109.83 111.071,126.965 111.534,126.706 111.577,110.866 	"/>
	<g>
		<g>
			<defs>
				<path id="SVGID_12_" d="M146.671,112.508l0.456,0.02c0.227-8.021-1.9-14.341-13.153-21.129l-0.241,0.401
					C144.79,98.461,146.883,104.659,146.671,112.508"/>
			</defs>
			<clipPath id="SVGID_13_">
				<use xlink:href="#SVGID_12_"  style="overflow:visible;"/>
			</clipPath>
			<path style="clip-path:url(#SVGID_13_);fill:#70491C;" d="M146.671,112.508l0.456,0.02c0.227-8.021-1.9-14.341-13.153-21.129
				l-0.241,0.401C144.79,98.461,146.883,104.659,146.671,112.508"/>
		</g>
		<g>
			<defs>
				<path id="SVGID_14_" d="M146.671,112.508l0.456,0.02c0.227-8.021-1.9-14.341-13.153-21.129l-0.241,0.401
					C144.79,98.461,146.883,104.659,146.671,112.508"/>
			</defs>
			<clipPath id="SVGID_15_">
				<use xlink:href="#SVGID_14_"  style="overflow:visible;"/>
			</clipPath>
			
				<linearGradient id="SVGID_16_" gradientUnits="userSpaceOnUse" x1="-719.7807" y1="74.5156" x2="-716.84" y2="74.5156" gradientTransform="matrix(4.5568 0 0 9.988 3413.6443 -642.2993)">
				<stop  offset="0" style="stop-color:#70491C"/>
				<stop  offset="1" style="stop-color:#9C7955"/>
			</linearGradient>
			<rect x="133.732" y="91.398" style="clip-path:url(#SVGID_15_);fill:url(#SVGID_16_);" width="13.622" height="21.129"/>
		</g>
	</g>
	<g>
		<g>
			<defs>
				<path id="SVGID_17_" d="M112.228,127.11l-0.694-0.405l-0.462,0.259l0.918,0.555c4.59,2.72,9.92,4.198,15.012,4.139v-0.462
					C121.991,131.247,116.743,129.792,112.228,127.11 M146.671,112.508l0.456,0.02c-0.161,4.892-1.934,9.465-5,12.87
					c-3.635,4.033-8.859,6.197-15.126,6.261v-0.462c6.129-0.061,11.238-2.174,14.781-6.109
					C144.767,121.76,146.511,117.287,146.671,112.508z"/>
			</defs>
			<clipPath id="SVGID_18_">
				<use xlink:href="#SVGID_17_"  style="overflow:visible;"/>
			</clipPath>
			<path style="clip-path:url(#SVGID_18_);fill:#492300;" d="M112.228,127.11l-0.694-0.405l-0.462,0.259l0.918,0.555
				c4.59,2.72,9.92,4.198,15.012,4.139v-0.462C121.991,131.247,116.743,129.792,112.228,127.11 M146.671,112.508l0.456,0.02
				c-0.161,4.892-1.934,9.465-5,12.87c-3.635,4.033-8.859,6.197-15.126,6.261v-0.462c6.129-0.061,11.238-2.174,14.781-6.109
				C144.767,121.76,146.511,117.287,146.671,112.508z"/>
		</g>
		<g>
			<defs>
				<path id="SVGID_19_" d="M112.228,127.11l-0.694-0.405l-0.462,0.259l0.918,0.555c4.59,2.72,9.92,4.198,15.012,4.139v-0.462
					C121.991,131.247,116.743,129.792,112.228,127.11 M146.671,112.508l0.456,0.02c-0.161,4.892-1.934,9.465-5,12.87
					c-3.635,4.033-8.859,6.197-15.126,6.261v-0.462c6.129-0.061,11.238-2.174,14.781-6.109
					C144.767,121.76,146.511,117.287,146.671,112.508z"/>
			</defs>
			<clipPath id="SVGID_20_">
				<use xlink:href="#SVGID_19_"  style="overflow:visible;"/>
			</clipPath>
			
				<linearGradient id="SVGID_21_" gradientUnits="userSpaceOnUse" x1="-732.2034" y1="77.8725" x2="-729.2639" y2="77.8725" gradientTransform="matrix(12.2657 0 0 9.3352 9092.0586 -604.8429)">
				<stop  offset="0" style="stop-color:#492300"/>
				<stop  offset="1" style="stop-color:#9C7955"/>
			</linearGradient>
			<rect x="111.071" y="112.508" style="clip-path:url(#SVGID_20_);fill:url(#SVGID_21_);" width="36.056" height="19.21"/>
		</g>
	</g>
	<g>
		<g>
			<defs>
				<path id="SVGID_22_" d="M113.899,112.953c3.234,2.904,7.781,4.851,11.318,4.851v-0.47c-3.381,0-7.906-1.938-11.009-4.727
					l-3.091-2.777l0.459,1.036L113.899,112.953"/>
			</defs>
			<clipPath id="SVGID_23_">
				<use xlink:href="#SVGID_22_"  style="overflow:visible;"/>
			</clipPath>
			<path style="clip-path:url(#SVGID_23_);fill:#663F0F;" d="M113.899,112.953c3.234,2.904,7.781,4.851,11.318,4.851v-0.47
				c-3.381,0-7.906-1.938-11.009-4.727l-3.091-2.777l0.459,1.036L113.899,112.953"/>
		</g>
		<g>
			<defs>
				<path id="SVGID_24_" d="M113.899,112.953c3.234,2.904,7.781,4.851,11.318,4.851v-0.47c-3.381,0-7.906-1.938-11.009-4.727
					l-3.091-2.777l0.459,1.036L113.899,112.953"/>
			</defs>
			<clipPath id="SVGID_25_">
				<use xlink:href="#SVGID_24_"  style="overflow:visible;"/>
			</clipPath>
			
				<linearGradient id="SVGID_26_" gradientUnits="userSpaceOnUse" x1="-723.7793" y1="98.365" x2="-720.8395" y2="98.365" gradientTransform="matrix(4.7961 0 0 5.5125 3582.436 -428.4203)">
				<stop  offset="0" style="stop-color:#663F0F"/>
				<stop  offset="1" style="stop-color:#492300"/>
			</linearGradient>
			<rect x="111.118" y="109.83" style="clip-path:url(#SVGID_25_);fill:url(#SVGID_26_);" width="14.1" height="7.974"/>
		</g>
	</g>
	<g>
		<g>
			<defs>
				<path id="SVGID_27_" d="M132.728,91.192l1.005,0.608l0.241-0.401l-1.01-0.607c-4.41-2.621-6.518-4.025-6.451-7.153l-0.468-0.011
					C125.974,87.015,128.284,88.547,132.728,91.192"/>
			</defs>
			<clipPath id="SVGID_28_">
				<use xlink:href="#SVGID_27_"  style="overflow:visible;"/>
			</clipPath>
			<path style="clip-path:url(#SVGID_28_);fill:#70491C;" d="M132.728,91.192l1.005,0.608l0.241-0.401l-1.01-0.607
				c-4.41-2.621-6.518-4.025-6.451-7.153l-0.468-0.011C125.974,87.015,128.284,88.547,132.728,91.192"/>
		</g>
		<g>
			<defs>
				<path id="SVGID_29_" d="M132.728,91.192l1.005,0.608l0.241-0.401l-1.01-0.607c-4.41-2.621-6.518-4.025-6.451-7.153l-0.468-0.011
					C125.974,87.015,128.284,88.547,132.728,91.192"/>
			</defs>
			<clipPath id="SVGID_30_">
				<use xlink:href="#SVGID_29_"  style="overflow:visible;"/>
			</clipPath>
			
				<linearGradient id="SVGID_31_" gradientUnits="userSpaceOnUse" x1="-767.793" y1="-0.8728" x2="-764.8531" y2="-0.8728" gradientTransform="matrix(-2.6961 0 0 -5.5802 -1936.0732 82.8419)">
				<stop  offset="0" style="stop-color:#70491C"/>
				<stop  offset="1" style="stop-color:#9C7955"/>
			</linearGradient>
			<rect x="125.974" y="83.626" style="clip-path:url(#SVGID_30_);fill:url(#SVGID_31_);" width="8" height="8.172"/>
		</g>
	</g>
	<g>
		<g>
			<defs>
				<path id="SVGID_32_" d="M37.159,68.703c-0.066,13.695-0.086,27.52-0.062,41.078h0.465c-0.023-13.558-0.003-27.382,0.058-41.074
					l0.012-1.889l-0.461,0.47L37.159,68.703"/>
			</defs>
			<clipPath id="SVGID_33_">
				<use xlink:href="#SVGID_32_"  style="overflow:visible;"/>
			</clipPath>
			<path style="clip-path:url(#SVGID_33_);fill:#9C7955;" d="M37.159,68.703c-0.066,13.695-0.086,27.52-0.062,41.078h0.465
				c-0.023-13.558-0.003-27.382,0.058-41.074l0.012-1.889l-0.461,0.47L37.159,68.703"/>
		</g>
		<g>
			<defs>
				<path id="SVGID_34_" d="M37.159,68.703c-0.066,13.695-0.086,27.52-0.062,41.078h0.465c-0.023-13.558-0.003-27.382,0.058-41.074
					l0.012-1.889l-0.461,0.47L37.159,68.703"/>
			</defs>
			<clipPath id="SVGID_35_">
				<use xlink:href="#SVGID_34_"  style="overflow:visible;"/>
			</clipPath>
			
				<linearGradient id="SVGID_36_" gradientUnits="userSpaceOnUse" x1="-756.8373" y1="52.7826" x2="-753.8978" y2="52.7826" gradientTransform="matrix(0 -14.6153 2.9907 0 -120.5046 -10951.624)">
				<stop  offset="0" style="stop-color:#9C7955"/>
				<stop  offset="1" style="stop-color:#AF906F"/>
			</linearGradient>
			<rect x="37.072" y="66.818" style="clip-path:url(#SVGID_35_);fill:url(#SVGID_36_);" width="0.56" height="42.962"/>
		</g>
	</g>
	<path style="fill:#8A643E;" d="M82.364,79.789l-0.463-0.344c0,1.767,0,36.12,0,38.003l0.463-0.364
		C82.364,114.612,82.364,82.133,82.364,79.789"/>
	<rect x="21.325" y="66.818" style="fill:#785228;" width="16.307" height="0.658"/>
	<path style="fill:#70491C;" d="M47.023,98.91c0-10.143,0.032-20.296,0.075-30.337l0.013-1.375l-0.466-0.462l-0.004,1.837
		c-0.052,10.039-0.075,20.194-0.075,30.337c0,5.798,0.009,11.591,0.023,17.365l0.466,0.29
		C47.037,110.693,47.023,104.803,47.023,98.91"/>
	<g>
		<g>
			<defs>
				<path id="SVGID_37_" d="M42.405,117.491l0.002-0.468c-1.319-0.006-4.83-0.035-4.846-7.242h-0.465
					C37.116,117.442,41.096,117.48,42.405,117.491 M42.405,117.491l0.002-0.468c1.646,0.012,3.089-0.255,4.181-0.749l0.466,0.29
					C45.868,117.17,44.246,117.502,42.405,117.491z"/>
			</defs>
			<clipPath id="SVGID_38_">
				<use xlink:href="#SVGID_37_"  style="overflow:visible;"/>
			</clipPath>
			<path style="clip-path:url(#SVGID_38_);fill:#532D00;" d="M42.405,117.491l0.002-0.468c-1.319-0.006-4.83-0.035-4.846-7.242
				h-0.465C37.116,117.442,41.096,117.48,42.405,117.491 M42.405,117.491l0.002-0.468c1.646,0.012,3.089-0.255,4.181-0.749
				l0.466,0.29C45.868,117.17,44.246,117.502,42.405,117.491z"/>
		</g>
		<g>
			<defs>
				<path id="SVGID_39_" d="M42.405,117.491l0.002-0.468c-1.319-0.006-4.83-0.035-4.846-7.242h-0.465
					C37.116,117.442,41.096,117.48,42.405,117.491 M42.405,117.491l0.002-0.468c1.646,0.012,3.089-0.255,4.181-0.749l0.466,0.29
					C45.868,117.17,44.246,117.502,42.405,117.491z"/>
			</defs>
			<clipPath id="SVGID_40_">
				<use xlink:href="#SVGID_39_"  style="overflow:visible;"/>
			</clipPath>
			
				<linearGradient id="SVGID_41_" gradientUnits="userSpaceOnUse" x1="-744.6988" y1="-5.3702" x2="-741.7595" y2="-5.3702" gradientTransform="matrix(-3.3879 0 0 -5.4271 -2475.9099 84.4966)">
				<stop  offset="0" style="stop-color:#532D00"/>
				<stop  offset="1" style="stop-color:#9C7955"/>
			</linearGradient>
			<rect x="37.097" y="109.78" style="clip-path:url(#SVGID_40_);fill:url(#SVGID_41_);" width="9.958" height="7.722"/>
		</g>
	</g>
	<polyline style="fill:#663F0F;" points="46.645,66.735 47.111,67.197 61.339,67.1 62.746,67.091 63.21,66.626 61.339,66.637 
		46.645,66.735 	"/>
	<g>
		<g>
			<defs>
				<path id="SVGID_42_" d="M62.117,125.929c-5.215,3.538-12.182,5.361-20.135,5.286l-0.004,0.466
					c8.052,0.071,15.113-1.78,20.402-5.374l0.818-0.557l-0.463-0.248L62.117,125.929 M26.815,125.475
					c-3.35-3.707-5.005-9.198-5.025-16.317h-0.466c0.016,7.246,1.721,12.835,5.15,16.624c3.492,3.838,8.707,5.83,15.503,5.899
					l0.004-0.466C35.321,131.15,30.22,129.215,26.815,125.475z M21.325,67.022l0.462,0.454l0.002,41.681h-0.466L21.325,67.022z"/>
			</defs>
			<clipPath id="SVGID_43_">
				<use xlink:href="#SVGID_42_"  style="overflow:visible;"/>
			</clipPath>
			<path style="clip-path:url(#SVGID_43_);fill:#815B33;" d="M62.117,125.929c-5.215,3.538-12.182,5.361-20.135,5.286l-0.004,0.466
				c8.052,0.071,15.113-1.78,20.402-5.374l0.818-0.557l-0.463-0.248L62.117,125.929 M26.815,125.475
				c-3.35-3.707-5.005-9.198-5.025-16.317h-0.466c0.016,7.246,1.721,12.835,5.15,16.624c3.492,3.838,8.707,5.83,15.503,5.899
				l0.004-0.466C35.321,131.15,30.22,129.215,26.815,125.475z M21.325,67.022l0.462,0.454l0.002,41.681h-0.466L21.325,67.022z"/>
		</g>
		<g>
			<defs>
				<path id="SVGID_44_" d="M62.117,125.929c-5.215,3.538-12.182,5.361-20.135,5.286l-0.004,0.466
					c8.052,0.071,15.113-1.78,20.402-5.374l0.818-0.557l-0.463-0.248L62.117,125.929 M26.815,125.475
					c-3.35-3.707-5.005-9.198-5.025-16.317h-0.466c0.016,7.246,1.721,12.835,5.15,16.624c3.492,3.838,8.707,5.83,15.503,5.899
					l0.004-0.466C35.321,131.15,30.22,129.215,26.815,125.475z M21.325,67.022l0.462,0.454l0.002,41.681h-0.466L21.325,67.022z"/>
			</defs>
			<clipPath id="SVGID_45_">
				<use xlink:href="#SVGID_44_"  style="overflow:visible;"/>
			</clipPath>
			
				<linearGradient id="SVGID_46_" gradientUnits="userSpaceOnUse" x1="-737.1087" y1="57.9394" x2="-734.1693" y2="57.9394" gradientTransform="matrix(14.2448 0 0 24.8207 10521.29 -1338.7081)">
				<stop  offset="0" style="stop-color:#815B33"/>
				<stop  offset="1" style="stop-color:#9C7955"/>
			</linearGradient>
			<rect x="21.324" y="67.022" style="clip-path:url(#SVGID_45_);fill:url(#SVGID_46_);" width="41.873" height="64.73"/>
		</g>
	</g>
	<path style="fill:#8A643E;" d="M62.744,68.497c-0.064,18.533-0.067,37.462-0.012,56.268l0.002,0.737l0.463,0.247l-0.003-0.984
		c-0.052-18.81-0.052-37.735,0.011-56.26l0.004-1.88l-0.463,0.465L62.744,68.497"/>
	<g>
		<g>
			<defs>
				<path id="SVGID_47_" d="M124.214,103.611l-0.242,0.402c5.429,3.227,6.936,4.938,6.996,8l0.468-0.009
					C131.366,108.738,129.812,106.947,124.214,103.611 M124.214,103.611l-0.242,0.402c-5.327-3.161-8.77-6.195-10.845-9.546
					c-1.791-2.922-2.563-6.031-2.583-10.383l0.462-0.004C111.036,91.514,113.208,97.091,124.214,103.611z"/>
			</defs>
			<clipPath id="SVGID_48_">
				<use xlink:href="#SVGID_47_"  style="overflow:visible;"/>
			</clipPath>
			<path style="clip-path:url(#SVGID_48_);fill:#492300;" d="M124.214,103.611l-0.242,0.402c5.429,3.227,6.936,4.938,6.996,8
				l0.468-0.009C131.366,108.738,129.812,106.947,124.214,103.611 M124.214,103.611l-0.242,0.402
				c-5.327-3.161-8.77-6.195-10.845-9.546c-1.791-2.922-2.563-6.031-2.583-10.383l0.462-0.004
				C111.036,91.514,113.208,97.091,124.214,103.611z"/>
		</g>
		<g>
			<defs>
				<path id="SVGID_49_" d="M124.214,103.611l-0.242,0.402c5.429,3.227,6.936,4.938,6.996,8l0.468-0.009
					C131.366,108.738,129.812,106.947,124.214,103.611 M124.214,103.611l-0.242,0.402c-5.327-3.161-8.77-6.195-10.845-9.546
					c-1.791-2.922-2.563-6.031-2.583-10.383l0.462-0.004C111.036,91.514,113.208,97.091,124.214,103.611z"/>
			</defs>
			<clipPath id="SVGID_50_">
				<use xlink:href="#SVGID_49_"  style="overflow:visible;"/>
			</clipPath>
			
				<linearGradient id="SVGID_51_" gradientUnits="userSpaceOnUse" x1="-728.3255" y1="69.1071" x2="-725.3857" y2="69.1071" gradientTransform="matrix(7.1067 0 0 12.3026 5286.5337 -752.1499)">
				<stop  offset="0" style="stop-color:#492300"/>
				<stop  offset="0.5" style="stop-color:#9C7955"/>
				<stop  offset="1" style="stop-color:#492300"/>
			</linearGradient>
			<rect x="110.543" y="84.079" style="clip-path:url(#SVGID_50_);fill:url(#SVGID_51_);" width="20.893" height="27.934"/>
		</g>
	</g>
	<path style="fill:#532D00;" d="M66.26,155.977c-0.14-27.526-0.179-55.865-0.113-84.212l0.004-0.753l-0.467-0.253l-0.003,1.006
		c-0.063,28.346-0.031,56.688,0.113,84.218l0.012,1.842l0.462-0.465L66.26,155.977"/>
	<g>
		<g>
			<defs>
				<path id="SVGID_52_" d="M91.413,113.171c-1.51,2.873-3.635,4.211-6.7,4.211l0.006,0.471c3.252,0,5.508-1.426,7.113-4.461
					c1.708-3.247,2.561-8.368,2.566-15.217h-0.464C93.933,104.949,93.083,109.996,91.413,113.171 M84.713,117.382l0.006,0.471
					c-1.094,0-2.079-0.198-2.817-0.404l0.462-0.364C83.022,117.253,83.835,117.382,84.713,117.382z"/>
			</defs>
			<clipPath id="SVGID_53_">
				<use xlink:href="#SVGID_52_"  style="overflow:visible;"/>
			</clipPath>
			<path style="clip-path:url(#SVGID_53_);fill:#492300;" d="M91.413,113.171c-1.51,2.873-3.635,4.211-6.7,4.211l0.006,0.471
				c3.252,0,5.508-1.426,7.113-4.461c1.708-3.247,2.561-8.368,2.566-15.217h-0.464C93.933,104.949,93.083,109.996,91.413,113.171
				 M84.713,117.382l0.006,0.471c-1.094,0-2.079-0.198-2.817-0.404l0.462-0.364C83.022,117.253,83.835,117.382,84.713,117.382z"/>
		</g>
		<g>
			<defs>
				<path id="SVGID_54_" d="M91.413,113.171c-1.51,2.873-3.635,4.211-6.7,4.211l0.006,0.471c3.252,0,5.508-1.426,7.113-4.461
					c1.708-3.247,2.561-8.368,2.566-15.217h-0.464C93.933,104.949,93.083,109.996,91.413,113.171 M84.713,117.382l0.006,0.471
					c-1.094,0-2.079-0.198-2.817-0.404l0.462-0.364C83.022,117.253,83.835,117.382,84.713,117.382z"/>
			</defs>
			<clipPath id="SVGID_55_">
				<use xlink:href="#SVGID_54_"  style="overflow:visible;"/>
			</clipPath>
			
				<linearGradient id="SVGID_56_" gradientUnits="userSpaceOnUse" x1="-750.6036" y1="17.4078" x2="-747.6642" y2="17.4078" gradientTransform="matrix(-4.2513 0 0 -9.4948 -3096.6426 273.2972)">
				<stop  offset="0" style="stop-color:#492300"/>
				<stop  offset="1" style="stop-color:#70491C"/>
			</linearGradient>
			<rect x="81.902" y="98.174" style="clip-path:url(#SVGID_55_);fill:url(#SVGID_56_);" width="12.496" height="19.678"/>
		</g>
	</g>
	<g>
		<g>
			<defs>
				<path id="SVGID_57_" d="M85.101,78.955L85.101,78.955v0.463c3.133,0,5.152,1.183,6.523,3.836
					c1.552,2.982,2.307,7.868,2.311,14.921h0.464c-0.006-7.132-0.775-12.08-2.359-15.137C90.577,80.206,88.433,78.955,85.101,78.955
					 M82.364,79.789l-0.463-0.344c0.841-0.27,2.01-0.49,3.198-0.49v0.463C84.105,79.418,83.123,79.579,82.364,79.789z"/>
			</defs>
			<clipPath id="SVGID_58_">
				<use xlink:href="#SVGID_57_"  style="overflow:visible;"/>
			</clipPath>
			<path style="clip-path:url(#SVGID_58_);fill:#492300;" d="M85.101,78.955L85.101,78.955v0.463c3.133,0,5.152,1.183,6.523,3.836
				c1.552,2.982,2.307,7.868,2.311,14.921h0.464c-0.006-7.132-0.775-12.08-2.359-15.137C90.577,80.206,88.433,78.955,85.101,78.955
				 M82.364,79.789l-0.463-0.344c0.841-0.27,2.01-0.49,3.198-0.49v0.463C84.105,79.418,83.123,79.579,82.364,79.789z"/>
		</g>
		<g>
			<defs>
				<path id="SVGID_59_" d="M85.101,78.955L85.101,78.955v0.463c3.133,0,5.152,1.183,6.523,3.836
					c1.552,2.982,2.307,7.868,2.311,14.921h0.464c-0.006-7.132-0.775-12.08-2.359-15.137C90.577,80.206,88.433,78.955,85.101,78.955
					 M82.364,79.789l-0.463-0.344c0.841-0.27,2.01-0.49,3.198-0.49v0.463C84.105,79.418,83.123,79.579,82.364,79.789z"/>
			</defs>
			<clipPath id="SVGID_60_">
				<use xlink:href="#SVGID_59_"  style="overflow:visible;"/>
			</clipPath>
			
				<linearGradient id="SVGID_61_" gradientUnits="userSpaceOnUse" x1="-750.6036" y1="18.2852" x2="-747.6642" y2="18.2852" gradientTransform="matrix(-4.2513 0 0 -9.3376 -3096.6426 259.3049)">
				<stop  offset="0" style="stop-color:#492300"/>
				<stop  offset="1" style="stop-color:#9C7955"/>
			</linearGradient>
			<rect x="81.902" y="78.955" style="clip-path:url(#SVGID_60_);fill:url(#SVGID_61_);" width="12.496" height="19.219"/>
		</g>
	</g>
	<rect x="65.806" y="157.361" style="fill:#8A643E;" width="16.59" height="0.509"/>
	<g>
		<g>
			<defs>
				<path id="SVGID_62_" d="M66.782,70.602c5.004-3.271,10.975-4.862,18.227-4.862v-0.462c-7.347,0-13.393,1.606-18.484,4.932
					l-0.84,0.55l0.467,0.253L66.782,70.602 M85.009,65.278v0.462c7.977,0.012,14.525,3.049,18.938,8.801
					c4.246,5.527,6.488,13.58,6.488,23.284h0.47c-0.011-9.81-2.282-17.96-6.585-23.571C99.818,68.388,93.142,65.285,85.009,65.278z
					 M81.906,130.814l0.462,0.551c1.226,0.181,2.551,0.272,3.994,0.272v-0.467C84.73,131.182,83.243,131.05,81.906,130.814z
					 M110.435,97.824h0.47c0,9.847-2.167,18.196-6.274,24.153c-4.357,6.313-10.678,9.657-18.27,9.659v-0.467
					c7.435,0,13.619-3.271,17.885-9.462C108.292,115.834,110.435,107.572,110.435,97.824z"/>
			</defs>
			<clipPath id="SVGID_63_">
				<use xlink:href="#SVGID_62_"  style="overflow:visible;"/>
			</clipPath>
			<path style="clip-path:url(#SVGID_63_);fill:#3E1700;" d="M66.782,70.602c5.004-3.271,10.975-4.862,18.227-4.862v-0.462
				c-7.347,0-13.393,1.606-18.484,4.932l-0.84,0.55l0.467,0.253L66.782,70.602 M85.009,65.278v0.462
				c7.977,0.012,14.525,3.049,18.938,8.801c4.246,5.527,6.488,13.58,6.488,23.284h0.47c-0.011-9.81-2.282-17.96-6.585-23.571
				C99.818,68.388,93.142,65.285,85.009,65.278z M81.906,130.814l0.462,0.551c1.226,0.181,2.551,0.272,3.994,0.272v-0.467
				C84.73,131.182,83.243,131.05,81.906,130.814z M110.435,97.824h0.47c0,9.847-2.167,18.196-6.274,24.153
				c-4.357,6.313-10.678,9.657-18.27,9.659v-0.467c7.435,0,13.619-3.271,17.885-9.462
				C108.292,115.834,110.435,107.572,110.435,97.824z"/>
		</g>
		<g>
			<defs>
				<path id="SVGID_64_" d="M66.782,70.602c5.004-3.271,10.975-4.862,18.227-4.862v-0.462c-7.347,0-13.393,1.606-18.484,4.932
					l-0.84,0.55l0.467,0.253L66.782,70.602 M85.009,65.278v0.462c7.977,0.012,14.525,3.049,18.938,8.801
					c4.246,5.527,6.488,13.58,6.488,23.284h0.47c-0.011-9.81-2.282-17.96-6.585-23.571C99.818,68.388,93.142,65.285,85.009,65.278z
					 M81.906,130.814l0.462,0.551c1.226,0.181,2.551,0.272,3.994,0.272v-0.467C84.73,131.182,83.243,131.05,81.906,130.814z
					 M110.435,97.824h0.47c0,9.847-2.167,18.196-6.274,24.153c-4.357,6.313-10.678,9.657-18.27,9.659v-0.467
					c7.435,0,13.619-3.271,17.885-9.462C108.292,115.834,110.435,107.572,110.435,97.824z"/>
			</defs>
			<clipPath id="SVGID_65_">
				<use xlink:href="#SVGID_64_"  style="overflow:visible;"/>
			</clipPath>
			
				<linearGradient id="SVGID_66_" gradientUnits="userSpaceOnUse" x1="-735.2419" y1="57.6729" x2="-732.3022" y2="57.6729" gradientTransform="matrix(15.3826 0 0 25.3747 11375.6162 -1364.9745)">
				<stop  offset="0" style="stop-color:#3E1700"/>
				<stop  offset="1" style="stop-color:#9C7955"/>
			</linearGradient>
			<rect x="65.684" y="65.278" style="clip-path:url(#SVGID_65_);fill:url(#SVGID_66_);" width="45.22" height="66.36"/>
		</g>
	</g>
	<polyline style="fill:#8A643E;" points="144.765,86.372 145.238,87.543 145.198,70.803 144.733,71.03 144.765,86.372 	"/>
	<g>
		<g>
			<defs>
				<path id="SVGID_67_" d="M142.351,83.81c-2.199-2.345-6.051-4.866-10.257-4.941l-0.013,0.467c4.066,0.07,7.795,2.522,9.937,4.795
					l3.221,3.412l-0.474-1.171L142.351,83.81 M132.094,78.869l-0.013,0.467c-1.581-0.037-2.988,0.317-3.956,0.987
					c-1.053,0.716-1.575,1.806-1.613,3.314l-0.467-0.011C126.153,79.234,130.311,78.837,132.094,78.869z"/>
			</defs>
			<clipPath id="SVGID_68_">
				<use xlink:href="#SVGID_67_"  style="overflow:visible;"/>
			</clipPath>
			<path style="clip-path:url(#SVGID_68_);fill:#3E1700;" d="M142.351,83.81c-2.199-2.345-6.051-4.866-10.257-4.941l-0.013,0.467
				c4.066,0.07,7.795,2.522,9.937,4.795l3.221,3.412l-0.474-1.171L142.351,83.81 M132.094,78.869l-0.013,0.467
				c-1.581-0.037-2.988,0.317-3.956,0.987c-1.053,0.716-1.575,1.806-1.613,3.314l-0.467-0.011
				C126.153,79.234,130.311,78.837,132.094,78.869z"/>
		</g>
		<g>
			<defs>
				<path id="SVGID_69_" d="M142.351,83.81c-2.199-2.345-6.051-4.866-10.257-4.941l-0.013,0.467c4.066,0.07,7.795,2.522,9.937,4.795
					l3.221,3.412l-0.474-1.171L142.351,83.81 M132.094,78.869l-0.013,0.467c-1.581-0.037-2.988,0.317-3.956,0.987
					c-1.053,0.716-1.575,1.806-1.613,3.314l-0.467-0.011C126.153,79.234,130.311,78.837,132.094,78.869z"/>
			</defs>
			<clipPath id="SVGID_70_">
				<use xlink:href="#SVGID_69_"  style="overflow:visible;"/>
			</clipPath>
			
				<linearGradient id="SVGID_71_" gradientUnits="userSpaceOnUse" x1="-751.2096" y1="1.1423" x2="-748.2699" y2="1.1423" gradientTransform="matrix(-6.529 0 0 -5.7613 -4759.4092 89.7713)">
				<stop  offset="0" style="stop-color:#3E1700"/>
				<stop  offset="1" style="stop-color:#9C7955"/>
			</linearGradient>
			<rect x="126.045" y="78.837" style="clip-path:url(#SVGID_70_);fill:url(#SVGID_71_);" width="19.193" height="8.705"/>
		</g>
	</g>
	<g>
		<g>
			<defs>
				<path id="SVGID_72_" d="M110.543,83.971c0,0.034,0,0.078,0,0.113l0.463-0.004c0-0.034,0-0.081,0-0.118
					c0-6.601,3.2-10.794,5.888-13.156c3.394-2.975,7.992-4.728,12.591-4.818l-0.003-0.467c-4.717,0.095-9.416,1.892-12.901,4.941
					C112.685,73.877,110.543,78.673,110.543,83.971 M129.484,65.987l-0.003-0.467c7.708-0.145,12.721,2.895,15.022,4.729
					l0.695,0.554l-0.466,0.227l-0.523-0.419C141.955,68.819,137.051,65.842,129.484,65.987z"/>
			</defs>
			<clipPath id="SVGID_73_">
				<use xlink:href="#SVGID_72_"  style="overflow:visible;"/>
			</clipPath>
			<path style="clip-path:url(#SVGID_73_);fill:#492300;" d="M110.543,83.971c0,0.034,0,0.078,0,0.113l0.463-0.004
				c0-0.034,0-0.081,0-0.118c0-6.601,3.2-10.794,5.888-13.156c3.394-2.975,7.992-4.728,12.591-4.818l-0.003-0.467
				c-4.717,0.095-9.416,1.892-12.901,4.941C112.685,73.877,110.543,78.673,110.543,83.971 M129.484,65.987l-0.003-0.467
				c7.708-0.145,12.721,2.895,15.022,4.729l0.695,0.554l-0.466,0.227l-0.523-0.419C141.955,68.819,137.051,65.842,129.484,65.987z"
				/>
		</g>
		<g>
			<defs>
				<path id="SVGID_74_" d="M110.543,83.971c0,0.034,0,0.078,0,0.113l0.463-0.004c0-0.034,0-0.081,0-0.118
					c0-6.601,3.2-10.794,5.888-13.156c3.394-2.975,7.992-4.728,12.591-4.818l-0.003-0.467c-4.717,0.095-9.416,1.892-12.901,4.941
					C112.685,73.877,110.543,78.673,110.543,83.971 M129.484,65.987l-0.003-0.467c7.708-0.145,12.721,2.895,15.022,4.729
					l0.695,0.554l-0.466,0.227l-0.523-0.419C141.955,68.819,137.051,65.842,129.484,65.987z"/>
			</defs>
			<clipPath id="SVGID_75_">
				<use xlink:href="#SVGID_74_"  style="overflow:visible;"/>
			</clipPath>
			
				<linearGradient id="SVGID_76_" gradientUnits="userSpaceOnUse" x1="-732.0134" y1="75.041" x2="-729.0737" y2="75.041" gradientTransform="matrix(11.7886 0 0 9.1643 8739.9561 -612.9688)">
				<stop  offset="0" style="stop-color:#492300"/>
				<stop  offset="1" style="stop-color:#70491C"/>
			</linearGradient>
			<rect x="110.543" y="65.375" style="clip-path:url(#SVGID_75_);fill:url(#SVGID_76_);" width="34.655" height="18.708"/>
		</g>
	</g>
	<path style="fill:#785228;" d="M81.925,156l0.003,1.401l0.468,0.468L82.387,156c0,0-0.017-20.785-0.02-24.635l-0.462-0.551
		C81.906,133.877,81.925,156,81.925,156"/>
	<g>
		<g>
			<defs>
				<path id="SVGID_77_" d="M82.87,33.382c19.093-3.808,40.497-4.442,65.36-1.957l0.462-0.418
					c-25.087-2.548-46.663-1.924-65.913,1.917c-25.602,5.127-47.3,16.062-64.516,32.495l0.471,0.204
					C35.858,49.328,57.43,38.479,82.87,33.382"/>
			</defs>
			<clipPath id="SVGID_78_">
				<use xlink:href="#SVGID_77_"  style="overflow:visible;"/>
			</clipPath>
			<path style="clip-path:url(#SVGID_78_);fill:#8C6741;" d="M82.87,33.382c19.093-3.808,40.497-4.442,65.36-1.957l0.462-0.418
				c-25.087-2.548-46.663-1.924-65.913,1.917c-25.602,5.127-47.3,16.062-64.516,32.495l0.471,0.204
				C35.858,49.328,57.43,38.479,82.87,33.382"/>
		</g>
		<g>
			<defs>
				<path id="SVGID_79_" d="M82.87,33.382c19.093-3.808,40.497-4.442,65.36-1.957l0.462-0.418
					c-25.087-2.548-46.663-1.924-65.913,1.917c-25.602,5.127-47.3,16.062-64.516,32.495l0.471,0.204
					C35.858,49.328,57.43,38.479,82.87,33.382"/>
			</defs>
			<clipPath id="SVGID_80_">
				<use xlink:href="#SVGID_79_"  style="overflow:visible;"/>
			</clipPath>
			
				<linearGradient id="SVGID_81_" gradientUnits="userSpaceOnUse" x1="-737.4906" y1="62.4125" x2="-734.551" y2="62.4125" gradientTransform="matrix(44.3701 0 0 15.4421 32740.793 -916.7377)">
				<stop  offset="0" style="stop-color:#8C6741"/>
				<stop  offset="1" style="stop-color:#9C7955"/>
			</linearGradient>
			<rect x="18.262" y="28.46" style="clip-path:url(#SVGID_80_);fill:url(#SVGID_81_);" width="130.429" height="37.163"/>
		</g>
	</g>
	<path style="fill:#3F1800;" d="M148.367,98.892c0,5.139-0.006,10.266-0.009,15.369c-0.015,15.66-5.687,28.644-16.426,37.566
		c-9.236,7.802-37.385,20.464-48.404,25.083v0.513c10.903-4.57,39.369-17.356,48.705-25.243
		c10.842-9.005,16.575-22.112,16.589-37.919c0.003-5.104,0.009-10.231,0.009-15.369c0-22.459-0.046-45.227-0.141-67.884
		l-0.462,0.418C148.321,53.951,148.367,76.57,148.367,98.892"/>
	<g>
		<g>
			<defs>
				<path id="SVGID_82_" d="M18.239,114.262c0.012,15.8,5.747,28.913,16.584,37.916c9.287,7.843,37.792,20.657,48.707,25.245v-0.513
					c-11.027-4.636-39.213-17.329-48.41-25.096c-10.726-8.909-16.404-21.902-16.418-37.554c0-5.029-0.004-10.127-0.004-15.297
					c0-10.873,0.008-22.034,0.036-33.341l-0.471-0.204c-0.021,11.378-0.031,22.606-0.031,33.545
					C18.231,104.134,18.231,109.232,18.239,114.262"/>
			</defs>
			<clipPath id="SVGID_83_">
				<use xlink:href="#SVGID_82_"  style="overflow:visible;"/>
			</clipPath>
			<path style="clip-path:url(#SVGID_83_);fill:#492300;" d="M18.239,114.262c0.012,15.8,5.747,28.913,16.584,37.916
				c9.287,7.843,37.792,20.657,48.707,25.245v-0.513c-11.027-4.636-39.213-17.329-48.41-25.096
				c-10.726-8.909-16.404-21.902-16.418-37.554c0-5.029-0.004-10.127-0.004-15.297c0-10.873,0.008-22.034,0.036-33.341l-0.471-0.204
				c-0.021,11.378-0.031,22.606-0.031,33.545C18.231,104.134,18.231,109.232,18.239,114.262"/>
		</g>
		<g>
			<defs>
				<path id="SVGID_84_" d="M18.239,114.262c0.012,15.8,5.747,28.913,16.584,37.916c9.287,7.843,37.792,20.657,48.707,25.245v-0.513
					c-11.027-4.636-39.213-17.329-48.41-25.096c-10.726-8.909-16.404-21.902-16.418-37.554c0-5.029-0.004-10.127-0.004-15.297
					c0-10.873,0.008-22.034,0.036-33.341l-0.471-0.204c-0.021,11.378-0.031,22.606-0.031,33.545
					C18.231,104.134,18.231,109.232,18.239,114.262"/>
			</defs>
			<clipPath id="SVGID_85_">
				<use xlink:href="#SVGID_84_"  style="overflow:visible;"/>
			</clipPath>
			
				<linearGradient id="SVGID_86_" gradientUnits="userSpaceOnUse" x1="-739.7691" y1="39.8295" x2="-736.8296" y2="39.8295" gradientTransform="matrix(-22.2141 0 0 -40.9025 -16349.7754 1750.547)">
				<stop  offset="0" style="stop-color:#492300"/>
				<stop  offset="1" style="stop-color:#70491C"/>
			</linearGradient>
			<rect x="18.231" y="65.419" style="clip-path:url(#SVGID_85_);fill:url(#SVGID_86_);" width="65.299" height="112.004"/>
		</g>
	</g>
	<path style="fill:#905800;" d="M105.876,176.076c10.734-5.047,24.905-12.227,31.431-17.753c6.484-5.38,11.417-11.984,14.681-19.614
		c3.106-7.309,4.69-15.554,4.69-24.51V28.068l-0.927,0.553c0,28.535,0,57.049,0,85.578c0,17.329-5.971,32.562-19.035,43.415
		c-12.49,10.57-53.288,27.421-53.188,27.32v1.012c0.999-0.411,4.797-1.993,6.967-2.934
		C94.126,181.443,99.732,178.967,105.876,176.076"/>
	<g>
		<g>
			<defs>
				<path id="SVGID_87_" d="M30.354,157.613c-13.055-10.854-19.025-26.085-19.025-43.414c0-28.529-0.008-57.043-0.008-85.582
					l-0.932-0.549l0.012,86.131c0,8.956,1.579,17.199,4.689,24.509c3.257,7.63,8.192,14.235,14.677,19.624
					c6.521,5.518,20.683,12.696,31.418,17.744c6.139,2.891,11.754,5.367,15.383,6.936c2.174,0.94,5.974,2.522,6.961,2.933v-1.01
					C83.642,185.035,42.844,168.184,30.354,157.613"/>
			</defs>
			<clipPath id="SVGID_88_">
				<use xlink:href="#SVGID_87_"  style="overflow:visible;"/>
			</clipPath>
			<path style="clip-path:url(#SVGID_88_);fill:#FFD568;" d="M30.354,157.613c-13.055-10.854-19.025-26.085-19.025-43.414
				c0-28.529-0.008-57.043-0.008-85.582l-0.932-0.549l0.012,86.131c0,8.956,1.579,17.199,4.689,24.509
				c3.257,7.63,8.192,14.235,14.677,19.624c6.521,5.518,20.683,12.696,31.418,17.744c6.139,2.891,11.754,5.367,15.383,6.936
				c2.174,0.94,5.974,2.522,6.961,2.933v-1.01C83.642,185.035,42.844,168.184,30.354,157.613"/>
		</g>
		<g>
			<defs>
				<path id="SVGID_89_" d="M30.354,157.613c-13.055-10.854-19.025-26.085-19.025-43.414c0-28.529-0.008-57.043-0.008-85.582
					l-0.932-0.549l0.012,86.131c0,8.956,1.579,17.199,4.689,24.509c3.257,7.63,8.192,14.235,14.677,19.624
					c6.521,5.518,20.683,12.696,31.418,17.744c6.139,2.891,11.754,5.367,15.383,6.936c2.174,0.94,5.974,2.522,6.961,2.933v-1.01
					C83.642,185.035,42.844,168.184,30.354,157.613"/>
			</defs>
			<clipPath id="SVGID_90_">
				<use xlink:href="#SVGID_89_"  style="overflow:visible;"/>
			</clipPath>
			
				<linearGradient id="SVGID_91_" gradientUnits="userSpaceOnUse" x1="-737.6124" y1="51.8312" x2="-734.6738" y2="51.8312" gradientTransform="matrix(24.8811 0 0 56.5076 18362.9941 -2821.8508)">
				<stop  offset="0" style="stop-color:#FFD568"/>
				<stop  offset="0.8353" style="stop-color:#A36D12"/>
				<stop  offset="1" style="stop-color:#905800"/>
			</linearGradient>
			<rect x="10.388" y="28.068" style="clip-path:url(#SVGID_90_);fill:url(#SVGID_91_);" width="73.254" height="157.876"/>
		</g>
	</g>
	<path style="fill:#FFD568;" d="M83.527,12.792c-0.101,0.149,40.525-1.688,72.223,15.829l0.927-0.553l-0.482-0.261
		c-26.407-14.599-59.064-16.009-71.867-15.939h-0.801h-0.787c-12.805-0.07-45.464,1.341-71.872,15.939l-0.481,0.261l0.932,0.55
		C43.017,11.101,83.642,12.941,83.527,12.792"/>
	<g>
		<g>
			<defs>
				<path id="SVGID_92_" d="M124.655,83.595l0.93,0.022c0.121-4.944,5.018-5.238,6.511-5.214l0.023-0.925
					C128.523,77.405,124.765,78.996,124.655,83.595"/>
			</defs>
			<clipPath id="SVGID_93_">
				<use xlink:href="#SVGID_92_"  style="overflow:visible;"/>
			</clipPath>
			<path style="clip-path:url(#SVGID_93_);fill:#905800;" d="M124.655,83.595l0.93,0.022c0.121-4.944,5.018-5.238,6.511-5.214
				l0.023-0.925C128.523,77.405,124.765,78.996,124.655,83.595"/>
		</g>
		<g>
			<defs>
				<path id="SVGID_94_" d="M124.655,83.595l0.93,0.022c0.121-4.944,5.018-5.238,6.511-5.214l0.023-0.925
					C128.523,77.405,124.765,78.996,124.655,83.595"/>
			</defs>
			<clipPath id="SVGID_95_">
				<use xlink:href="#SVGID_94_"  style="overflow:visible;"/>
			</clipPath>
			
				<linearGradient id="SVGID_96_" gradientUnits="userSpaceOnUse" x1="-707.9744" y1="100.1678" x2="-705.0355" y2="100.1678" gradientTransform="matrix(2.5396 0 0 4.9137 1922.6122 -411.6834)">
				<stop  offset="0" style="stop-color:#905800"/>
				<stop  offset="1" style="stop-color:#905800"/>
			</linearGradient>
			<rect x="124.655" y="77.405" style="clip-path:url(#SVGID_95_);fill:url(#SVGID_96_);" width="7.464" height="6.211"/>
		</g>
	</g>
	<g>
		<g>
			<defs>
				<path id="SVGID_97_" d="M129.51,67.382l-0.009-0.933c-4.502,0.086-8.99,1.801-12.304,4.706
					c-2.614,2.299-5.724,6.373-5.724,12.806c0,0.037,0,0.079,0,0.118l0.936-0.008C112.34,73.596,121.182,67.538,129.51,67.382"/>
			</defs>
			<clipPath id="SVGID_98_">
				<use xlink:href="#SVGID_97_"  style="overflow:visible;"/>
			</clipPath>
			<path style="clip-path:url(#SVGID_98_);fill:#EFCB95;" d="M129.51,67.382l-0.009-0.933c-4.502,0.086-8.99,1.801-12.304,4.706
				c-2.614,2.299-5.724,6.373-5.724,12.806c0,0.037,0,0.079,0,0.118l0.936-0.008C112.34,73.596,121.182,67.538,129.51,67.382"/>
		</g>
		<g>
			<defs>
				<path id="SVGID_99_" d="M129.51,67.382l-0.009-0.933c-4.502,0.086-8.99,1.801-12.304,4.706
					c-2.614,2.299-5.724,6.373-5.724,12.806c0,0.037,0,0.079,0,0.118l0.936-0.008C112.34,73.596,121.182,67.538,129.51,67.382"/>
			</defs>
			<clipPath id="SVGID_100_">
				<use xlink:href="#SVGID_99_"  style="overflow:visible;"/>
			</clipPath>
			
				<linearGradient id="SVGID_101_" gradientUnits="userSpaceOnUse" x1="-726.7628" y1="76.2503" x2="-723.8233" y2="76.2503" gradientTransform="matrix(6.1359 0 0 8.7975 4570.8169 -595.548)">
				<stop  offset="0" style="stop-color:#EFCB95"/>
				<stop  offset="1" style="stop-color:#E2AB53"/>
			</linearGradient>
			<rect x="111.474" y="66.449" style="clip-path:url(#SVGID_100_);fill:url(#SVGID_101_);" width="18.036" height="17.63"/>
		</g>
	</g>
	<g>
		<g>
			<defs>
				<path id="SVGID_102_" d="M132.119,77.479l-0.023,0.925c4.352,0.074,8.326,2.679,10.597,5.085l1.609,1.712l-0.936-2.346
					C140.766,80.092,136.546,77.548,132.119,77.479"/>
			</defs>
			<clipPath id="SVGID_103_">
				<use xlink:href="#SVGID_102_"  style="overflow:visible;"/>
			</clipPath>
			<path style="clip-path:url(#SVGID_103_);fill:#905800;" d="M132.119,77.479l-0.023,0.925c4.352,0.074,8.326,2.679,10.597,5.085
				l1.609,1.712l-0.936-2.346C140.766,80.092,136.546,77.548,132.119,77.479"/>
		</g>
		<g>
			<defs>
				<path id="SVGID_104_" d="M132.119,77.479l-0.023,0.925c4.352,0.074,8.326,2.679,10.597,5.085l1.609,1.712l-0.936-2.346
					C140.766,80.092,136.546,77.548,132.119,77.479"/>
			</defs>
			<clipPath id="SVGID_105_">
				<use xlink:href="#SVGID_104_"  style="overflow:visible;"/>
			</clipPath>
			
				<linearGradient id="SVGID_106_" gradientUnits="userSpaceOnUse" x1="-718.3084" y1="95.2291" x2="-715.3691" y2="95.2291" gradientTransform="matrix(4.1528 0 0 5.4267 3115.0869 -435.4405)">
				<stop  offset="0" style="stop-color:#905800"/>
				<stop  offset="0.5778" style="stop-color:#BF8934"/>
				<stop  offset="1" style="stop-color:#E4AF5D"/>
			</linearGradient>
			<rect x="132.096" y="77.479" style="clip-path:url(#SVGID_105_);fill:url(#SVGID_106_);" width="12.206" height="7.722"/>
		</g>
	</g>
	<g>
		<g>
			<defs>
				<path id="SVGID_107_" d="M143.341,71.708l0.924-0.451l-0.344-0.279c-2.202-1.755-7.005-4.67-14.42-4.528l0.009,0.933
					C136.488,67.249,141.142,69.955,143.341,71.708"/>
			</defs>
			<clipPath id="SVGID_108_">
				<use xlink:href="#SVGID_107_"  style="overflow:visible;"/>
			</clipPath>
			<path style="clip-path:url(#SVGID_108_);fill:#E2AB53;" d="M143.341,71.708l0.924-0.451l-0.344-0.279
				c-2.202-1.755-7.005-4.67-14.42-4.528l0.009,0.933C136.488,67.249,141.142,69.955,143.341,71.708"/>
		</g>
		<g>
			<defs>
				<path id="SVGID_109_" d="M143.341,71.708l0.924-0.451l-0.344-0.279c-2.202-1.755-7.005-4.67-14.42-4.528l0.009,0.933
					C136.488,67.249,141.142,69.955,143.341,71.708"/>
			</defs>
			<clipPath id="SVGID_110_">
				<use xlink:href="#SVGID_109_"  style="overflow:visible;"/>
			</clipPath>
			
				<linearGradient id="SVGID_111_" gradientUnits="userSpaceOnUse" x1="-721.9844" y1="101.7064" x2="-719.0448" y2="101.7064" gradientTransform="matrix(5.0224 0 0 4.6368 3755.5952 -402.5847)">
				<stop  offset="0" style="stop-color:#E2AB53"/>
				<stop  offset="1" style="stop-color:#C27913"/>
			</linearGradient>
			<rect x="129.501" y="66.308" style="clip-path:url(#SVGID_110_);fill:url(#SVGID_111_);" width="14.764" height="5.4"/>
		</g>
	</g>
	<path style="fill:#905800;" d="M143.366,82.854l0.936,2.346l-0.037-13.943l-0.924,0.451
		C143.349,75.415,143.355,79.135,143.366,82.854"/>
	<g>
		<g>
			<defs>
				<path id="SVGID_112_" d="M133.018,92.995l0.48-0.802l-1.01-0.607c-4.213-2.507-6.988-4.152-6.902-7.969l-0.93-0.023
					C124.546,88.297,128.315,90.165,133.018,92.995"/>
			</defs>
			<clipPath id="SVGID_113_">
				<use xlink:href="#SVGID_112_"  style="overflow:visible;"/>
			</clipPath>
			<path style="clip-path:url(#SVGID_113_);fill:#DDAC72;" d="M133.018,92.995l0.48-0.802l-1.01-0.607
				c-4.213-2.507-6.988-4.152-6.902-7.969l-0.93-0.023C124.546,88.297,128.315,90.165,133.018,92.995"/>
		</g>
		<g>
			<defs>
				<path id="SVGID_114_" d="M133.018,92.995l0.48-0.802l-1.01-0.607c-4.213-2.507-6.988-4.152-6.902-7.969l-0.93-0.023
					C124.546,88.297,128.315,90.165,133.018,92.995"/>
			</defs>
			<clipPath id="SVGID_115_">
				<use xlink:href="#SVGID_114_"  style="overflow:visible;"/>
			</clipPath>
			
				<linearGradient id="SVGID_116_" gradientUnits="userSpaceOnUse" x1="-822.0521" y1="60.2531" x2="-819.1123" y2="60.2531" gradientTransform="matrix(0 -3.1975 5.8447 0 -223.1398 -2535.5291)">
				<stop  offset="0" style="stop-color:#DDAC72"/>
				<stop  offset="1" style="stop-color:#905800"/>
			</linearGradient>
			<rect x="124.546" y="83.595" style="clip-path:url(#SVGID_115_);fill:url(#SVGID_116_);" width="8.951" height="9.4"/>
		</g>
	</g>
	<g>
		<g>
			<defs>
				<path id="SVGID_117_" d="M131.901,111.993l0.93-0.017c-0.09-4.053-2.316-6.243-7.911-9.559l-0.472,0.798
					C130.155,106.604,131.823,108.569,131.901,111.993"/>
			</defs>
			<clipPath id="SVGID_118_">
				<use xlink:href="#SVGID_117_"  style="overflow:visible;"/>
			</clipPath>
			<path style="clip-path:url(#SVGID_118_);fill:#EABD79;" d="M131.901,111.993l0.93-0.017c-0.09-4.053-2.316-6.243-7.911-9.559
				l-0.472,0.798C130.155,106.604,131.823,108.569,131.901,111.993"/>
		</g>
		<g>
			<defs>
				<path id="SVGID_119_" d="M131.901,111.993l0.93-0.017c-0.09-4.053-2.316-6.243-7.911-9.559l-0.472,0.798
					C130.155,106.604,131.823,108.569,131.901,111.993"/>
			</defs>
			<clipPath id="SVGID_120_">
				<use xlink:href="#SVGID_119_"  style="overflow:visible;"/>
			</clipPath>
			
				<linearGradient id="SVGID_121_" gradientUnits="userSpaceOnUse" x1="-765.8787" y1="0.7689" x2="-762.9394" y2="0.7689" gradientTransform="matrix(-2.8519 0 0 -6.058 -2051.3945 111.8632)">
				<stop  offset="0" style="stop-color:#EABD79"/>
				<stop  offset="1" style="stop-color:#C27913"/>
			</linearGradient>
			<rect x="124.448" y="102.418" style="clip-path:url(#SVGID_120_);fill:url(#SVGID_121_);" width="8.383" height="9.575"/>
		</g>
	</g>
	<g>
		<g>
			<defs>
				<path id="SVGID_122_" d="M112.933,125.917l-0.928,0.527l0.457,0.271c4.442,2.641,9.613,4.064,14.535,4.018l-0.008-0.933
					C121.945,129.855,116.956,128.3,112.933,125.917"/>
			</defs>
			<clipPath id="SVGID_123_">
				<use xlink:href="#SVGID_122_"  style="overflow:visible;"/>
			</clipPath>
			<path style="clip-path:url(#SVGID_123_);fill:#C27913;" d="M112.933,125.917l-0.928,0.527l0.457,0.271
				c4.442,2.641,9.613,4.064,14.535,4.018l-0.008-0.933C121.945,129.855,116.956,128.3,112.933,125.917"/>
		</g>
		<g>
			<defs>
				<path id="SVGID_124_" d="M112.933,125.917l-0.928,0.527l0.457,0.271c4.442,2.641,9.613,4.064,14.535,4.018l-0.008-0.933
					C121.945,129.855,116.956,128.3,112.933,125.917"/>
			</defs>
			<clipPath id="SVGID_125_">
				<use xlink:href="#SVGID_124_"  style="overflow:visible;"/>
			</clipPath>
			
				<linearGradient id="SVGID_126_" gradientUnits="userSpaceOnUse" x1="-724.4896" y1="112.7457" x2="-721.5501" y2="112.7457" gradientTransform="matrix(5.1003 0 0 4.4543 3807.1191 -373.8552)">
				<stop  offset="0" style="stop-color:#C27913"/>
				<stop  offset="0.8538" style="stop-color:#985D03"/>
				<stop  offset="1" style="stop-color:#905800"/>
			</linearGradient>
			<rect x="112.005" y="125.917" style="clip-path:url(#SVGID_125_);fill:url(#SVGID_126_);" width="14.992" height="4.862"/>
		</g>
	</g>
	<path style="fill:#EDC68C;" d="M112.966,113.986l-0.925-2.079l-0.038,14.537l0.928-0.528
		C112.955,121.946,112.96,117.974,112.966,113.986"/>
	<g>
		<g>
			<defs>
				<path id="SVGID_127_" d="M112.409,84.071l-0.936,0.008c0.035,7.26,2.161,12.726,12.975,19.136l0.472-0.798
					C114.372,96.162,112.433,90.984,112.409,84.071"/>
			</defs>
			<clipPath id="SVGID_128_">
				<use xlink:href="#SVGID_127_"  style="overflow:visible;"/>
			</clipPath>
			<path style="clip-path:url(#SVGID_128_);fill:#EFCB95;" d="M112.409,84.071l-0.936,0.008c0.035,7.26,2.161,12.726,12.975,19.136
				l0.472-0.798C114.372,96.162,112.433,90.984,112.409,84.071"/>
		</g>
		<g>
			<defs>
				<path id="SVGID_129_" d="M112.409,84.071l-0.936,0.008c0.035,7.26,2.161,12.726,12.975,19.136l0.472-0.798
					C114.372,96.162,112.433,90.984,112.409,84.071"/>
			</defs>
			<clipPath id="SVGID_130_">
				<use xlink:href="#SVGID_129_"  style="overflow:visible;"/>
			</clipPath>
			
				<linearGradient id="SVGID_131_" gradientUnits="userSpaceOnUse" x1="-723.0609" y1="75.9347" x2="-720.122" y2="75.9347" gradientTransform="matrix(4.5753 0 0 9.312 3419.6941 -613.4601)">
				<stop  offset="0" style="stop-color:#EFCB95"/>
				<stop  offset="1" style="stop-color:#C27913"/>
			</linearGradient>
			<rect x="111.474" y="84.071" style="clip-path:url(#SVGID_130_);fill:url(#SVGID_131_);" width="13.446" height="19.145"/>
		</g>
	</g>
	<g>
		<g>
			<defs>
				<path id="SVGID_132_" d="M125.218,119.199v-0.931c-3.643,0-8.316-1.995-11.637-4.978l-1.539-1.384l0.925,2.079
					C116.256,116.948,121.149,119.199,125.218,119.199"/>
			</defs>
			<clipPath id="SVGID_133_">
				<use xlink:href="#SVGID_132_"  style="overflow:visible;"/>
			</clipPath>
			<path style="clip-path:url(#SVGID_133_);fill:#EABD79;" d="M125.218,119.199v-0.931c-3.643,0-8.316-1.995-11.637-4.978
				l-1.539-1.384l0.925,2.079C116.256,116.948,121.149,119.199,125.218,119.199"/>
		</g>
		<g>
			<defs>
				<path id="SVGID_134_" d="M125.218,119.199v-0.931c-3.643,0-8.316-1.995-11.637-4.978l-1.539-1.384l0.925,2.079
					C116.256,116.948,121.149,119.199,125.218,119.199"/>
			</defs>
			<clipPath id="SVGID_135_">
				<use xlink:href="#SVGID_134_"  style="overflow:visible;"/>
			</clipPath>
			
				<linearGradient id="SVGID_136_" gradientUnits="userSpaceOnUse" x1="-754.4778" y1="-7.067" x2="-751.5375" y2="-7.067" gradientTransform="matrix(-4.4816 0 0 -5.2801 -3256.0642 78.2394)">
				<stop  offset="0" style="stop-color:#EABD79"/>
				<stop  offset="1" style="stop-color:#C27913"/>
			</linearGradient>
			<rect x="112.041" y="111.908" style="clip-path:url(#SVGID_135_);fill:url(#SVGID_136_);" width="13.177" height="7.291"/>
		</g>
	</g>
	<g>
		<g>
			<defs>
				<path id="SVGID_137_" d="M126.989,129.801l0.008,0.933c12.854-0.141,18.908-9.267,19.203-18.24l-0.924-0.039
					C145.003,120.651,139.555,129.671,126.989,129.801"/>
			</defs>
			<clipPath id="SVGID_138_">
				<use xlink:href="#SVGID_137_"  style="overflow:visible;"/>
			</clipPath>
			<path style="clip-path:url(#SVGID_138_);fill:#905800;" d="M126.989,129.801l0.008,0.933c12.854-0.141,18.908-9.267,19.203-18.24
				l-0.924-0.039C145.003,120.651,139.555,129.671,126.989,129.801"/>
		</g>
		<g>
			<defs>
				<path id="SVGID_139_" d="M126.989,129.801l0.008,0.933c12.854-0.141,18.908-9.267,19.203-18.24l-0.924-0.039
					C145.003,120.651,139.555,129.671,126.989,129.801"/>
			</defs>
			<clipPath id="SVGID_140_">
				<use xlink:href="#SVGID_139_"  style="overflow:visible;"/>
			</clipPath>
			
				<linearGradient id="SVGID_141_" gradientUnits="userSpaceOnUse" x1="-725.8521" y1="78.922" x2="-722.9126" y2="78.922" gradientTransform="matrix(6.5352 0 0 9.018 4870.5776 -590.1253)">
				<stop  offset="0" style="stop-color:#905800"/>
				<stop  offset="1" style="stop-color:#9A6419"/>
			</linearGradient>
			<rect x="126.989" y="112.453" style="clip-path:url(#SVGID_140_);fill:url(#SVGID_141_);" width="19.21" height="18.28"/>
		</g>
	</g>
	<g>
		<g>
			<defs>
				<path id="SVGID_142_" d="M132.831,111.977l-0.93,0.017c0,0.064,0.005,0.126,0.005,0.193c0,1.725-0.545,3.194-1.562,4.233
					c-1.179,1.205-2.956,1.849-5.127,1.849v0.931C129.874,119.199,132.929,116.449,132.831,111.977"/>
			</defs>
			<clipPath id="SVGID_143_">
				<use xlink:href="#SVGID_142_"  style="overflow:visible;"/>
			</clipPath>
			<path style="clip-path:url(#SVGID_143_);fill:#EABD79;" d="M132.831,111.977l-0.93,0.017c0,0.064,0.005,0.126,0.005,0.193
				c0,1.725-0.545,3.194-1.562,4.233c-1.179,1.205-2.956,1.849-5.127,1.849v0.931C129.874,119.199,132.929,116.449,132.831,111.977"
				/>
		</g>
		<g>
			<defs>
				<path id="SVGID_144_" d="M132.831,111.977l-0.93,0.017c0,0.064,0.005,0.126,0.005,0.193c0,1.725-0.545,3.194-1.562,4.233
					c-1.179,1.205-2.956,1.849-5.127,1.849v0.931C129.874,119.199,132.929,116.449,132.831,111.977"/>
			</defs>
			<clipPath id="SVGID_145_">
				<use xlink:href="#SVGID_144_"  style="overflow:visible;"/>
			</clipPath>
			
				<linearGradient id="SVGID_146_" gradientUnits="userSpaceOnUse" x1="-708.4238" y1="101.0824" x2="-705.485" y2="101.0824" gradientTransform="matrix(2.5908 0 0 5.2575 1960.6138 -415.853)">
				<stop  offset="0" style="stop-color:#EABD79"/>
				<stop  offset="1" style="stop-color:#EABD79"/>
			</linearGradient>
			<rect x="125.218" y="111.977" style="clip-path:url(#SVGID_145_);fill:url(#SVGID_146_);" width="7.711" height="7.223"/>
		</g>
	</g>
	<g>
		<g>
			<defs>
				<path id="SVGID_147_" d="M145.275,112.453l0.924,0.04c0.121-4.489-0.536-7.674-2.21-10.639
					c-1.941-3.442-5.276-6.519-10.493-9.662l-0.479,0.802C143.568,99.357,145.477,104.982,145.275,112.453"/>
			</defs>
			<clipPath id="SVGID_148_">
				<use xlink:href="#SVGID_147_"  style="overflow:visible;"/>
			</clipPath>
			<path style="clip-path:url(#SVGID_148_);fill:#DDAC72;" d="M145.275,112.453l0.924,0.04c0.121-4.489-0.536-7.674-2.21-10.639
				c-1.941-3.442-5.276-6.519-10.493-9.662l-0.479,0.802C143.568,99.357,145.477,104.982,145.275,112.453"/>
		</g>
		<g>
			<defs>
				<path id="SVGID_149_" d="M145.275,112.453l0.924,0.04c0.121-4.489-0.536-7.674-2.21-10.639
					c-1.941-3.442-5.276-6.519-10.493-9.662l-0.479,0.802C143.568,99.357,145.477,104.982,145.275,112.453"/>
			</defs>
			<clipPath id="SVGID_150_">
				<use xlink:href="#SVGID_149_"  style="overflow:visible;"/>
			</clipPath>
			
				<linearGradient id="SVGID_151_" gradientUnits="userSpaceOnUse" x1="-698.5795" y1="35.2642" x2="-695.6397" y2="35.2642" gradientTransform="matrix(0 6.9053 -7.3254 0 397.9931 4916.0942)">
				<stop  offset="0" style="stop-color:#DDAC72"/>
				<stop  offset="1" style="stop-color:#9A6419"/>
			</linearGradient>
			<rect x="133.018" y="92.193" style="clip-path:url(#SVGID_150_);fill:url(#SVGID_151_);" width="13.303" height="20.3"/>
		</g>
	</g>
	<g>
		<g>
			<defs>
				<path id="SVGID_152_" d="M85.101,78.485c3.479,0.008,5.818,1.378,7.351,4.336c1.625,3.118,2.405,8.146,2.405,15.353l0.937-0.005
					c0-14.59-3.152-20.609-10.693-20.609V78.485"/>
			</defs>
			<clipPath id="SVGID_153_">
				<use xlink:href="#SVGID_152_"  style="overflow:visible;"/>
			</clipPath>
			<path style="clip-path:url(#SVGID_153_);fill:#EABD79;" d="M85.101,78.485c3.479,0.008,5.818,1.378,7.351,4.336
				c1.625,3.118,2.405,8.146,2.405,15.353l0.937-0.005c0-14.59-3.152-20.609-10.693-20.609V78.485"/>
		</g>
		<g>
			<defs>
				<path id="SVGID_154_" d="M85.101,78.485c3.479,0.008,5.818,1.378,7.351,4.336c1.625,3.118,2.405,8.146,2.405,15.353l0.937-0.005
					c0-14.59-3.152-20.609-10.693-20.609V78.485"/>
			</defs>
			<clipPath id="SVGID_155_">
				<use xlink:href="#SVGID_154_"  style="overflow:visible;"/>
			</clipPath>
			
				<linearGradient id="SVGID_156_" gradientUnits="userSpaceOnUse" x1="-776.5989" y1="55.0703" x2="-773.6592" y2="55.0703" gradientTransform="matrix(0 -7.0123 6.4374 0 -264.0621 -5347.5698)">
				<stop  offset="0" style="stop-color:#EABD79"/>
				<stop  offset="1" style="stop-color:#905800"/>
			</linearGradient>
			<rect x="85.101" y="77.561" style="clip-path:url(#SVGID_155_);fill:url(#SVGID_156_);" width="10.693" height="20.614"/>
		</g>
	</g>
	<g>
		<g>
			<defs>
				<path id="SVGID_157_" d="M85.101,78.485v-0.925c-1.749,0-3.551,0.419-4.602,0.933l0.933,0.619
					C82.347,78.779,83.697,78.485,85.101,78.485"/>
			</defs>
			<clipPath id="SVGID_158_">
				<use xlink:href="#SVGID_157_"  style="overflow:visible;"/>
			</clipPath>
			<path style="clip-path:url(#SVGID_158_);fill:#905800;" d="M85.101,78.485v-0.925c-1.749,0-3.551,0.419-4.602,0.933l0.933,0.619
				C82.347,78.779,83.697,78.485,85.101,78.485"/>
		</g>
		<g>
			<defs>
				<path id="SVGID_159_" d="M85.101,78.485v-0.925c-1.749,0-3.551,0.419-4.602,0.933l0.933,0.619
					C82.347,78.779,83.697,78.485,85.101,78.485"/>
			</defs>
			<clipPath id="SVGID_160_">
				<use xlink:href="#SVGID_159_"  style="overflow:visible;"/>
			</clipPath>
			
				<linearGradient id="SVGID_161_" gradientUnits="userSpaceOnUse" x1="-708.1445" y1="125.1193" x2="-705.204" y2="125.1193" gradientTransform="matrix(1.5651 0 0 3.3281 1188.8154 -338.0734)">
				<stop  offset="0" style="stop-color:#905800"/>
				<stop  offset="1" style="stop-color:#905800"/>
			</linearGradient>
			<rect x="80.499" y="77.561" style="clip-path:url(#SVGID_160_);fill:url(#SVGID_161_);" width="4.602" height="1.551"/>
		</g>
	</g>
	<g>
		<g>
			<defs>
				<path id="SVGID_162_" d="M86.36,129.775v0.939c7.271-0.012,13.326-3.213,17.506-9.27c3.992-5.793,6.102-13.96,6.102-23.62
					h-0.927C109.042,116.808,100.749,129.763,86.36,129.775"/>
			</defs>
			<clipPath id="SVGID_163_">
				<use xlink:href="#SVGID_162_"  style="overflow:visible;"/>
			</clipPath>
			<path style="clip-path:url(#SVGID_163_);fill:#905800;" d="M86.36,129.775v0.939c7.271-0.012,13.326-3.213,17.506-9.27
				c3.992-5.793,6.102-13.96,6.102-23.62h-0.927C109.042,116.808,100.749,129.763,86.36,129.775"/>
		</g>
		<g>
			<defs>
				<path id="SVGID_164_" d="M86.36,129.775v0.939c7.271-0.012,13.326-3.213,17.506-9.27c3.992-5.793,6.102-13.96,6.102-23.62
					h-0.927C109.042,116.808,100.749,129.763,86.36,129.775"/>
			</defs>
			<clipPath id="SVGID_165_">
				<use xlink:href="#SVGID_164_"  style="overflow:visible;"/>
			</clipPath>
			
				<linearGradient id="SVGID_166_" gradientUnits="userSpaceOnUse" x1="-731.3817" y1="67.1976" x2="-728.4423" y2="67.1976" gradientTransform="matrix(8.0316 0 0 13.9884 5960.5254 -825.7188)">
				<stop  offset="0" style="stop-color:#905800"/>
				<stop  offset="1" style="stop-color:#905800"/>
			</linearGradient>
			<rect x="86.36" y="97.824" style="clip-path:url(#SVGID_165_);fill:url(#SVGID_166_);" width="23.608" height="32.889"/>
		</g>
	</g>
	<g>
		<g>
			<defs>
				<path id="SVGID_167_" d="M66.724,155.977v0.925l0.929-0.931c-0.143-27.494-0.177-56.115-0.118-84.202l-0.925-0.505l-0.004,0.505
					C66.543,100.112,66.582,128.451,66.724,155.977"/>
			</defs>
			<clipPath id="SVGID_168_">
				<use xlink:href="#SVGID_167_"  style="overflow:visible;"/>
			</clipPath>
			<path style="clip-path:url(#SVGID_168_);fill:#E0B27C;" d="M66.724,155.977v0.925l0.929-0.931
				c-0.143-27.494-0.177-56.115-0.118-84.202l-0.925-0.505l-0.004,0.505C66.543,100.112,66.582,128.451,66.724,155.977"/>
		</g>
		<g>
			<defs>
				<path id="SVGID_169_" d="M66.724,155.977v0.925l0.929-0.931c-0.143-27.494-0.177-56.115-0.118-84.202l-0.925-0.505l-0.004,0.505
					C66.543,100.112,66.582,128.451,66.724,155.977"/>
			</defs>
			<clipPath id="SVGID_170_">
				<use xlink:href="#SVGID_169_"  style="overflow:visible;"/>
			</clipPath>
			
				<linearGradient id="SVGID_171_" gradientUnits="userSpaceOnUse" x1="-728.8282" y1="35.1703" x2="-725.8887" y2="35.1703" gradientTransform="matrix(0 29.1327 -3.1774 0 178.8474 21304)">
				<stop  offset="0" style="stop-color:#E0B27C"/>
				<stop  offset="1" style="stop-color:#C27913"/>
			</linearGradient>
			<rect x="66.543" y="71.265" style="clip-path:url(#SVGID_170_);fill:url(#SVGID_171_);" width="1.11" height="85.638"/>
		</g>
	</g>
	<g>
		<g>
			<defs>
				<path id="SVGID_172_" d="M81.432,79.111l-0.933-0.619c0,13.286,0,26.671,0.005,39.971l0.928-0.663
					C81.432,116.529,81.432,80.29,81.432,79.111"/>
			</defs>
			<clipPath id="SVGID_173_">
				<use xlink:href="#SVGID_172_"  style="overflow:visible;"/>
			</clipPath>
			<path style="clip-path:url(#SVGID_173_);fill:#905800;" d="M81.432,79.111l-0.933-0.619c0,13.286,0,26.671,0.005,39.971
				l0.928-0.663C81.432,116.529,81.432,80.29,81.432,79.111"/>
		</g>
		<g>
			<defs>
				<path id="SVGID_174_" d="M81.432,79.111l-0.933-0.619c0,13.286,0,26.671,0.005,39.971l0.928-0.663
					C81.432,116.529,81.432,80.29,81.432,79.111"/>
			</defs>
			<clipPath id="SVGID_175_">
				<use xlink:href="#SVGID_174_"  style="overflow:visible;"/>
			</clipPath>
			
				<linearGradient id="SVGID_176_" gradientUnits="userSpaceOnUse" x1="-592.2443" y1="63.5766" x2="-589.3026" y2="63.5766" gradientTransform="matrix(0.3172 0 0 16.3974 268.3534 -944.0126)">
				<stop  offset="0" style="stop-color:#905800"/>
				<stop  offset="1" style="stop-color:#905800"/>
			</linearGradient>
			<rect x="80.499" y="78.493" style="clip-path:url(#SVGID_175_);fill:url(#SVGID_176_);" width="0.933" height="39.971"/>
		</g>
	</g>
	<g>
		<g>
			<defs>
				<path id="SVGID_177_" d="M109.042,97.824h0.928c-0.004-9.603-2.205-17.553-6.391-23.006c-4.32-5.626-10.742-8.604-18.57-8.611
					l-0.004,0.936C100.507,67.151,109.028,78.892,109.042,97.824"/>
			</defs>
			<clipPath id="SVGID_178_">
				<use xlink:href="#SVGID_177_"  style="overflow:visible;"/>
			</clipPath>
			<path style="clip-path:url(#SVGID_178_);fill:#EDC68C;" d="M109.042,97.824h0.928c-0.004-9.603-2.205-17.553-6.391-23.006
				c-4.32-5.626-10.742-8.604-18.57-8.611l-0.004,0.936C100.507,67.151,109.028,78.892,109.042,97.824"/>
		</g>
		<g>
			<defs>
				<path id="SVGID_179_" d="M109.042,97.824h0.928c-0.004-9.603-2.205-17.553-6.391-23.006c-4.32-5.626-10.742-8.604-18.57-8.611
					l-0.004,0.936C100.507,67.151,109.028,78.892,109.042,97.824"/>
			</defs>
			<clipPath id="SVGID_180_">
				<use xlink:href="#SVGID_179_"  style="overflow:visible;"/>
			</clipPath>
			
				<linearGradient id="SVGID_181_" gradientUnits="userSpaceOnUse" x1="-731.8267" y1="66.2749" x2="-728.8871" y2="66.2749" gradientTransform="matrix(8.4923 0 0 13.5561 6299.8979 -816.4138)">
				<stop  offset="0" style="stop-color:#EDC68C"/>
				<stop  offset="1" style="stop-color:#905800"/>
			</linearGradient>
			<rect x="85.007" y="66.207" style="clip-path:url(#SVGID_180_);fill:url(#SVGID_181_);" width="24.963" height="31.617"/>
		</g>
	</g>
	<g>
		<g>
			<defs>
				<path id="SVGID_182_" d="M85.007,67.143l0.002-0.936c-7.158,0-13.039,1.563-17.975,4.782l-0.424,0.276l0.925,0.505
					C72.229,68.713,77.94,67.143,85.007,67.143"/>
			</defs>
			<clipPath id="SVGID_183_">
				<use xlink:href="#SVGID_182_"  style="overflow:visible;"/>
			</clipPath>
			<path style="clip-path:url(#SVGID_183_);fill:#FFECC0;" d="M85.007,67.143l0.002-0.936c-7.158,0-13.039,1.563-17.975,4.782
				l-0.424,0.276l0.925,0.505C72.229,68.713,77.94,67.143,85.007,67.143"/>
		</g>
		<g>
			<defs>
				<path id="SVGID_184_" d="M85.007,67.143l0.002-0.936c-7.158,0-13.039,1.563-17.975,4.782l-0.424,0.276l0.925,0.505
					C72.229,68.713,77.94,67.143,85.007,67.143"/>
			</defs>
			<clipPath id="SVGID_185_">
				<use xlink:href="#SVGID_184_"  style="overflow:visible;"/>
			</clipPath>
			
				<linearGradient id="SVGID_186_" gradientUnits="userSpaceOnUse" x1="-731.702" y1="101.0533" x2="-728.7625" y2="101.0533" gradientTransform="matrix(6.259 0 0 4.6925 4646.333 -405.2041)">
				<stop  offset="0" style="stop-color:#FFECC0"/>
				<stop  offset="0.1264" style="stop-color:#FDE7B9"/>
				<stop  offset="1" style="stop-color:#EDC68C"/>
			</linearGradient>
			<rect x="66.61" y="66.207" style="clip-path:url(#SVGID_185_);fill:url(#SVGID_186_);" width="18.399" height="5.563"/>
		</g>
	</g>
	<g>
		<g>
			<defs>
				<path id="SVGID_187_" d="M80.507,129.055l0.933,1.191c1.447,0.307,3.1,0.467,4.92,0.467v-0.938
					C83.697,129.785,81.805,129.436,80.507,129.055"/>
			</defs>
			<clipPath id="SVGID_188_">
				<use xlink:href="#SVGID_187_"  style="overflow:visible;"/>
			</clipPath>
			<path style="clip-path:url(#SVGID_188_);fill:#905800;" d="M80.507,129.055l0.933,1.191c1.447,0.307,3.1,0.467,4.92,0.467v-0.938
				C83.697,129.785,81.805,129.436,80.507,129.055"/>
		</g>
		<g>
			<defs>
				<path id="SVGID_189_" d="M80.507,129.055l0.933,1.191c1.447,0.307,3.1,0.467,4.92,0.467v-0.938
					C83.697,129.785,81.805,129.436,80.507,129.055"/>
			</defs>
			<clipPath id="SVGID_190_">
				<use xlink:href="#SVGID_189_"  style="overflow:visible;"/>
			</clipPath>
			
				<linearGradient id="SVGID_191_" gradientUnits="userSpaceOnUse" x1="-762.6897" y1="-40.5871" x2="-759.7512" y2="-40.5871" gradientTransform="matrix(-1.992 0 0 -3.3647 -1432.9176 -6.6797)">
				<stop  offset="0" style="stop-color:#905800"/>
				<stop  offset="1" style="stop-color:#C27913"/>
			</linearGradient>
			<rect x="80.507" y="129.055" style="clip-path:url(#SVGID_190_);fill:url(#SVGID_191_);" width="5.853" height="1.658"/>
		</g>
	</g>
	<g>
		<g>
			<defs>
				<path id="SVGID_192_" d="M80.526,156l0.938,0.942L81.458,156c0,0-0.014-23.578-0.017-25.754l-0.933-1.191
					C80.519,138.117,80.523,147.13,80.526,156"/>
			</defs>
			<clipPath id="SVGID_193_">
				<use xlink:href="#SVGID_192_"  style="overflow:visible;"/>
			</clipPath>
			<path style="clip-path:url(#SVGID_193_);fill:#905800;" d="M80.526,156l0.938,0.942L81.458,156c0,0-0.014-23.578-0.017-25.754
				l-0.933-1.191C80.519,138.117,80.523,147.13,80.526,156"/>
		</g>
		<g>
			<defs>
				<path id="SVGID_194_" d="M80.526,156l0.938,0.942L81.458,156c0,0-0.014-23.578-0.017-25.754l-0.933-1.191
					C80.519,138.117,80.523,147.13,80.526,156"/>
			</defs>
			<clipPath id="SVGID_195_">
				<use xlink:href="#SVGID_194_"  style="overflow:visible;"/>
			</clipPath>
			
				<linearGradient id="SVGID_196_" gradientUnits="userSpaceOnUse" x1="-595.7656" y1="71.5524" x2="-592.8237" y2="71.5524" gradientTransform="matrix(0.325 0 0 12.287 274.1405 -736.1663)">
				<stop  offset="0" style="stop-color:#905800"/>
				<stop  offset="1" style="stop-color:#905800"/>
			</linearGradient>
			<rect x="80.507" y="129.055" style="clip-path:url(#SVGID_195_);fill:url(#SVGID_196_);" width="0.956" height="27.888"/>
		</g>
	</g>
	<path style="fill:#905800;" d="M67.653,155.972l-0.928,0.931l14.739,0.04L80.527,156C76.232,156,71.942,155.993,67.653,155.972"/>
	<g>
		<g>
			<defs>
				<path id="SVGID_197_" d="M94.857,98.174l0.937-0.006c0,14.23-3.584,21.077-11.076,21.079v-0.933
					c3.399,0,5.859-1.542,7.521-4.708C93.98,110.289,94.857,105.104,94.857,98.174"/>
			</defs>
			<clipPath id="SVGID_198_">
				<use xlink:href="#SVGID_197_"  style="overflow:visible;"/>
			</clipPath>
			<path style="clip-path:url(#SVGID_198_);fill:#FFE4A2;" d="M94.857,98.174l0.937-0.006c0,14.23-3.584,21.077-11.076,21.079
				v-0.933c3.399,0,5.859-1.542,7.521-4.708C93.98,110.289,94.857,105.104,94.857,98.174"/>
		</g>
		<g>
			<defs>
				<path id="SVGID_199_" d="M94.857,98.174l0.937-0.006c0,14.23-3.584,21.077-11.076,21.079v-0.933
					c3.399,0,5.859-1.542,7.521-4.708C93.98,110.289,94.857,105.104,94.857,98.174"/>
			</defs>
			<clipPath id="SVGID_200_">
				<use xlink:href="#SVGID_199_"  style="overflow:visible;"/>
			</clipPath>
			
				<linearGradient id="SVGID_201_" gradientUnits="userSpaceOnUse" x1="-723.7107" y1="75.0107" x2="-720.7705" y2="75.0107" gradientTransform="matrix(3.5289 0 0 9.9706 2638.8535 -639.1939)">
				<stop  offset="0" style="stop-color:#FFE4A2"/>
				<stop  offset="0.1" style="stop-color:#FFE4A2"/>
				<stop  offset="0.6" style="stop-color:#F7E4CA"/>
				<stop  offset="1" style="stop-color:#EABD79"/>
			</linearGradient>
			<rect x="84.718" y="98.168" style="clip-path:url(#SVGID_200_);fill:url(#SVGID_201_);" width="11.076" height="21.079"/>
		</g>
	</g>
	<path style="fill:#FFE4A2;" d="M84.718,118.315c-1.312,0-2.483-0.275-3.287-0.514l-0.928,0.662
		c0.928,0.348,2.473,0.783,4.216,0.783L84.718,118.315"/>
	<g>
		<g>
			<defs>
				<path id="SVGID_202_" d="M48.5,68.585l-0.931-0.928l-0.005,0.915c-0.043,10.042-0.07,20.194-0.07,30.337
					c0,5.988,0.012,11.97,0.032,17.927l0.924,0.525C48.407,101.113,48.423,84.762,48.5,68.585"/>
			</defs>
			<clipPath id="SVGID_203_">
				<use xlink:href="#SVGID_202_"  style="overflow:visible;"/>
			</clipPath>
			<path style="clip-path:url(#SVGID_203_);fill:#DB9A28;" d="M48.5,68.585l-0.931-0.928l-0.005,0.915
				c-0.043,10.042-0.07,20.194-0.07,30.337c0,5.988,0.012,11.97,0.032,17.927l0.924,0.525C48.407,101.113,48.423,84.762,48.5,68.585
				"/>
		</g>
		<g>
			<defs>
				<path id="SVGID_204_" d="M48.5,68.585l-0.931-0.928l-0.005,0.915c-0.043,10.042-0.07,20.194-0.07,30.337
					c0,5.988,0.012,11.97,0.032,17.927l0.924,0.525C48.407,101.113,48.423,84.762,48.5,68.585"/>
			</defs>
			<clipPath id="SVGID_205_">
				<use xlink:href="#SVGID_204_"  style="overflow:visible;"/>
			</clipPath>
			
				<linearGradient id="SVGID_206_" gradientUnits="userSpaceOnUse" x1="-722.6241" y1="39.0437" x2="-719.6846" y2="39.0437" gradientTransform="matrix(0 16.9098 -3.1425 0 170.6918 12287.0859)">
				<stop  offset="0" style="stop-color:#DB9A28"/>
				<stop  offset="1" style="stop-color:#C27913"/>
			</linearGradient>
			<rect x="47.494" y="67.657" style="clip-path:url(#SVGID_205_);fill:url(#SVGID_206_);" width="1.006" height="49.706"/>
		</g>
	</g>
	<g>
		<g>
			<defs>
				<path id="SVGID_207_" d="M61.337,124.766l0.931,0.493l-0.003-0.493c-0.051-18.807-0.058-37.735,0.011-56.268l0.004-0.932
					l-0.933,0.932C61.276,87.159,61.276,106.068,61.337,124.766"/>
			</defs>
			<clipPath id="SVGID_208_">
				<use xlink:href="#SVGID_207_"  style="overflow:visible;"/>
			</clipPath>
			<path style="clip-path:url(#SVGID_208_);fill:#C27913;" d="M61.337,124.766l0.931,0.493l-0.003-0.493
				c-0.051-18.807-0.058-37.735,0.011-56.268l0.004-0.932l-0.933,0.932C61.276,87.159,61.276,106.068,61.337,124.766"/>
		</g>
		<g>
			<defs>
				<path id="SVGID_209_" d="M61.337,124.766l0.931,0.493l-0.003-0.493c-0.051-18.807-0.058-37.735,0.011-56.268l0.004-0.932
					l-0.933,0.932C61.276,87.159,61.276,106.068,61.337,124.766"/>
			</defs>
			<clipPath id="SVGID_210_">
				<use xlink:href="#SVGID_209_"  style="overflow:visible;"/>
			</clipPath>
			
				<linearGradient id="SVGID_211_" gradientUnits="userSpaceOnUse" x1="-724.7014" y1="36.152" x2="-721.762" y2="36.152" gradientTransform="matrix(0 19.627 -3.1415 0 175.3502 14291.2803)">
				<stop  offset="0" style="stop-color:#C27913"/>
				<stop  offset="0.8538" style="stop-color:#985D03"/>
				<stop  offset="1" style="stop-color:#905800"/>
			</linearGradient>
			<rect x="61.276" y="67.566" style="clip-path:url(#SVGID_210_);fill:url(#SVGID_211_);" width="1.004" height="57.693"/>
		</g>
	</g>
	<path style="fill:#F7E4CA;" d="M61.348,68.497l0.933-0.932l-0.933,0.004l-13.779,0.087l0.931,0.928
		C52.763,68.549,57.051,68.521,61.348,68.497"/>
	<g>
		<g>
			<defs>
				<path id="SVGID_212_" d="M41.998,129.817l-0.012,0.934c7.864,0.074,14.731-1.723,19.871-5.21l0.412-0.281l-0.931-0.493
					C56.403,128.115,49.802,129.89,41.998,129.817"/>
			</defs>
			<clipPath id="SVGID_213_">
				<use xlink:href="#SVGID_212_"  style="overflow:visible;"/>
			</clipPath>
			<path style="clip-path:url(#SVGID_213_);fill:#905800;" d="M41.998,129.817l-0.012,0.934c7.864,0.074,14.731-1.723,19.871-5.21
				l0.412-0.281l-0.931-0.493C56.403,128.115,49.802,129.89,41.998,129.817"/>
		</g>
		<g>
			<defs>
				<path id="SVGID_214_" d="M41.998,129.817l-0.012,0.934c7.864,0.074,14.731-1.723,19.871-5.21l0.412-0.281l-0.931-0.493
					C56.403,128.115,49.802,129.89,41.998,129.817"/>
			</defs>
			<clipPath id="SVGID_215_">
				<use xlink:href="#SVGID_214_"  style="overflow:visible;"/>
			</clipPath>
			
				<linearGradient id="SVGID_216_" gradientUnits="userSpaceOnUse" x1="-734.6064" y1="107.1574" x2="-731.667" y2="107.1574" gradientTransform="matrix(6.9002 0 0 4.861 5110.917 -393.0966)">
				<stop  offset="0" style="stop-color:#905800"/>
				<stop  offset="1" style="stop-color:#905800"/>
			</linearGradient>
			<rect x="41.985" y="124.766" style="clip-path:url(#SVGID_215_);fill:url(#SVGID_216_);" width="20.283" height="6.06"/>
		</g>
	</g>
	<g>
		<g>
			<defs>
				<path id="SVGID_217_" d="M42.398,118.878c2.596,0.022,4.667-0.558,6.053-1.517l-0.924-0.525
					c-1.289,0.729-3.076,1.135-5.125,1.117L42.398,118.878 M42.398,118.878l0.003-0.925c-2.226-0.021-3.77-0.901-4.71-2.701
					c-0.698-1.337-1.054-3.179-1.061-5.468h-0.928C35.709,113.423,36.572,118.838,42.398,118.878z M35.765,68.703l0.936-0.941
					l-0.004,0.941c-0.062,13.695-0.086,27.52-0.066,41.082h-0.928C35.677,96.076,35.702,82.353,35.765,68.703z"/>
			</defs>
			<clipPath id="SVGID_218_">
				<use xlink:href="#SVGID_217_"  style="overflow:visible;"/>
			</clipPath>
			
				<linearGradient id="SVGID_219_" gradientUnits="userSpaceOnUse" x1="-136.0578" y1="375.1254" x2="-123.2993" y2="375.1254" gradientTransform="matrix(1 0 0 -1 171.75 468.4453)">
				<stop  offset="0" style="stop-color:#CE8E3E"/>
				<stop  offset="1" style="stop-color:#FFE7B0"/>
			</linearGradient>
			<path style="clip-path:url(#SVGID_218_);fill:url(#SVGID_219_);" d="M42.398,118.878c2.596,0.022,4.667-0.558,6.053-1.517
				l-0.924-0.525c-1.289,0.729-3.076,1.135-5.125,1.117L42.398,118.878 M42.398,118.878l0.003-0.925
				c-2.226-0.021-3.77-0.901-4.71-2.701c-0.698-1.337-1.054-3.179-1.061-5.468h-0.928C35.709,113.423,36.572,118.838,42.398,118.878
				z M35.765,68.703l0.936-0.941l-0.004,0.941c-0.062,13.695-0.086,27.52-0.066,41.082h-0.928
				C35.677,96.076,35.702,82.353,35.765,68.703z"/>
		</g>
	</g>
	<g>
		<g>
			<defs>
				<path id="SVGID_220_" d="M23.19,109.157h-0.934c0.013,7.002,1.634,12.394,4.905,15.999c3.314,3.648,8.301,5.522,14.826,5.596
					l0.012-0.934C29.394,129.688,23.213,122.718,23.19,109.157"/>
			</defs>
			<clipPath id="SVGID_221_">
				<use xlink:href="#SVGID_220_"  style="overflow:visible;"/>
			</clipPath>
			<path style="clip-path:url(#SVGID_221_);fill:#DB9A28;" d="M23.19,109.157h-0.934c0.013,7.002,1.634,12.394,4.905,15.999
				c3.314,3.648,8.301,5.522,14.826,5.596l0.012-0.934C29.394,129.688,23.213,122.718,23.19,109.157"/>
		</g>
		<g>
			<defs>
				<path id="SVGID_222_" d="M23.19,109.157h-0.934c0.013,7.002,1.634,12.394,4.905,15.999c3.314,3.648,8.301,5.522,14.826,5.596
					l0.012-0.934C29.394,129.688,23.213,122.718,23.19,109.157"/>
			</defs>
			<clipPath id="SVGID_223_">
				<use xlink:href="#SVGID_222_"  style="overflow:visible;"/>
			</clipPath>
			
				<linearGradient id="SVGID_224_" gradientUnits="userSpaceOnUse" x1="-736.4633" y1="75.2568" x2="-733.5236" y2="75.2568" gradientTransform="matrix(6.7156 0 0 10.1452 4968.0483 -643.5416)">
				<stop  offset="0" style="stop-color:#DB9A28"/>
				<stop  offset="0.9376" style="stop-color:#955C03"/>
				<stop  offset="1" style="stop-color:#905800"/>
			</linearGradient>
			<rect x="22.255" y="109.157" style="clip-path:url(#SVGID_223_);fill:url(#SVGID_224_);" width="19.742" height="21.594"/>
		</g>
	</g>
	<path style="fill:#FAEFE1;" d="M35.765,68.703l0.936-0.941l-14.442,0.176l0.933,0.917C27.344,68.796,31.537,68.742,35.765,68.703"
		/>
	<g>
		<g>
			<defs>
				<polyline id="SVGID_225_" points="22.255,109.157 23.19,109.157 23.191,68.855 22.258,67.938 22.255,109.157 				"/>
			</defs>
			<clipPath id="SVGID_226_">
				<use xlink:href="#SVGID_225_"  style="overflow:visible;"/>
			</clipPath>
			<rect x="22.255" y="67.938" style="clip-path:url(#SVGID_226_);fill:#DB9A28;" width="0.936" height="41.22"/>
		</g>
		<g>
			<defs>
				<polyline id="SVGID_227_" points="22.255,109.157 23.19,109.157 23.191,68.855 22.258,67.938 22.255,109.157 				"/>
			</defs>
			<clipPath id="SVGID_228_">
				<use xlink:href="#SVGID_227_"  style="overflow:visible;"/>
			</clipPath>
			
				<linearGradient id="SVGID_229_" gradientUnits="userSpaceOnUse" x1="-757.6198" y1="49.4542" x2="-754.6802" y2="49.4542" gradientTransform="matrix(0 -14.0223 3.1179 0 -131.4698 -10514.415)">
				<stop  offset="0" style="stop-color:#DB9A28"/>
				<stop  offset="0.9376" style="stop-color:#955C03"/>
				<stop  offset="1" style="stop-color:#905800"/>
			</linearGradient>
			<rect x="22.255" y="67.938" style="clip-path:url(#SVGID_228_);fill:url(#SVGID_229_);" width="0.936" height="41.22"/>
		</g>
	</g>
	<path style="fill:#C27913;" d="M82.689,32.467c19.404-3.869,41.157-4.485,66.47-1.882l0.931-0.847
		c-21.131-2.222-44.413-2.809-67.585,1.814c-23.127,4.63-46.146,14.469-65.641,33.255l0.932,0.408
		C35.098,48.646,56.929,37.629,82.689,32.467"/>
	<path style="fill:#FFD568;" d="M149.159,30.584c0.092,22.799,0.144,45.707,0.144,68.307c0,5.139-0.006,10.266-0.009,15.369
		c-0.02,15.944-5.811,29.184-16.759,38.277c-9.431,7.967-38.223,20.876-49.005,25.386v1.017
		c8.512-3.546,39.529-17.176,49.609-25.688c11.301-9.387,17.074-22.916,17.089-38.992c0.022-28.214-0.018-56.483-0.138-84.524
		L149.159,30.584"/>
	<g>
		<g>
			<defs>
				<path id="SVGID_230_" d="M34.522,152.539c-10.942-9.1-16.737-22.333-16.749-38.277c-0.004-5.023-0.007-10.128-0.007-15.297
					c0-11.005,0.01-22.301,0.03-33.75l-0.932-0.408c-0.027,16.463-0.043,32.971-0.025,49.455
					c0.012,16.076,5.783,29.605,17.091,38.992c10.081,8.512,41.106,22.142,49.599,25.686v-1.016
					C72.733,173.4,43.906,160.459,34.522,152.539"/>
			</defs>
			<clipPath id="SVGID_231_">
				<use xlink:href="#SVGID_230_"  style="overflow:visible;"/>
			</clipPath>
			<path style="clip-path:url(#SVGID_231_);fill:#C27913;" d="M34.522,152.539c-10.942-9.1-16.737-22.333-16.749-38.277
				c-0.004-5.023-0.007-10.128-0.007-15.297c0-11.005,0.01-22.301,0.03-33.75l-0.932-0.408c-0.027,16.463-0.043,32.971-0.025,49.455
				c0.012,16.076,5.783,29.605,17.091,38.992c10.081,8.512,41.106,22.142,49.599,25.686v-1.016
				C72.733,173.4,43.906,160.459,34.522,152.539"/>
		</g>
		<g>
			<defs>
				<path id="SVGID_232_" d="M34.522,152.539c-10.942-9.1-16.737-22.333-16.749-38.277c-0.004-5.023-0.007-10.128-0.007-15.297
					c0-11.005,0.01-22.301,0.03-33.75l-0.932-0.408c-0.027,16.463-0.043,32.971-0.025,49.455
					c0.012,16.076,5.783,29.605,17.091,38.992c10.081,8.512,41.106,22.142,49.599,25.686v-1.016
					C72.733,173.4,43.906,160.459,34.522,152.539"/>
			</defs>
			<clipPath id="SVGID_233_">
				<use xlink:href="#SVGID_232_"  style="overflow:visible;"/>
			</clipPath>
			
				<linearGradient id="SVGID_234_" gradientUnits="userSpaceOnUse" x1="-746.0201" y1="47.9128" x2="-743.0805" y2="47.9128" gradientTransform="matrix(0 -38.8261 25.494 0 -1171.3127 -28786.1113)">
				<stop  offset="0" style="stop-color:#C27913"/>
				<stop  offset="0.3" style="stop-color:#DB9A28"/>
				<stop  offset="1" style="stop-color:#C27913"/>
			</linearGradient>
			<rect x="16.821" y="64.807" style="clip-path:url(#SVGID_233_);fill:url(#SVGID_234_);" width="66.708" height="114.133"/>
		</g>
	</g>
	<g>
		<g>
			<defs>
				<path id="SVGID_235_" d="M132.828,111.977c-0.087-4.053-2.311-6.243-7.908-9.565c-10.542-6.253-12.487-11.432-12.517-18.34
					c-0.063-10.479,8.778-16.533,17.11-16.689c6.97-0.134,11.629,2.577,13.825,4.325c0.011,3.71,0.02,7.428,0.021,11.142
					c-2.597-2.761-6.816-5.291-11.247-5.371c-3.594-0.067-7.349,1.517-7.463,6.116c-0.104,4.696,3.667,6.571,8.365,9.4
					c10.547,6.363,12.461,11.982,12.258,19.459c-0.27,8.192-5.718,17.206-18.286,17.344c-5.035,0.052-10.036-1.504-14.055-3.881
					c0.017-3.97,0.029-7.945,0.034-11.937c3.29,2.957,8.185,5.213,12.247,5.213C129.874,119.19,132.929,116.455,132.828,111.977
					 M80.499,78.489c1.051-0.509,2.851-0.928,4.602-0.928c7.547,0,10.682,6.023,10.693,20.609
					c-0.007,14.22-3.591,21.076-11.078,21.076c-1.748,0-3.282-0.437-4.218-0.786C80.496,105.164,80.497,91.783,80.499,78.489z
					 M80.524,156.004c-0.005-8.883-0.016-17.882-0.017-26.947c1.289,0.38,3.19,0.724,5.851,0.721
					c14.388-0.014,22.681-12.97,22.681-31.953c-0.009-18.932-8.535-30.673-24.033-30.682c-7.064,0-12.782,1.57-17.469,4.628
					c-0.065,28.087-0.026,56.707,0.112,84.196C71.937,155.99,76.231,156,80.524,156.004z M42.398,118.878
					c2.596,0.017,4.667-0.568,6.054-1.527c-0.046-16.243-0.032-32.585,0.047-48.766c4.264-0.036,8.551-0.065,12.85-0.083
					c-0.063,18.658-0.067,37.564-0.012,56.26c-4.932,3.348-11.53,5.127-19.335,5.055c-12.604-0.128-18.787-7.105-18.812-20.665
					c0-13.435,0.002-26.89,0.002-40.296c4.152-0.059,8.351-0.105,12.575-0.152c-0.065,13.642-0.087,27.377-0.065,41.078
					C35.713,113.421,36.574,118.838,42.398,118.878z"/>
			</defs>
			<clipPath id="SVGID_236_">
				<use xlink:href="#SVGID_235_"  style="overflow:visible;"/>
			</clipPath>
			<path style="clip-path:url(#SVGID_236_);fill:#DA9017;" d="M132.828,111.977c-0.087-4.053-2.311-6.243-7.908-9.565
				c-10.542-6.253-12.487-11.432-12.517-18.34c-0.063-10.479,8.778-16.533,17.11-16.689c6.97-0.134,11.629,2.577,13.825,4.325
				c0.011,3.71,0.02,7.428,0.021,11.142c-2.597-2.761-6.816-5.291-11.247-5.371c-3.594-0.067-7.349,1.517-7.463,6.116
				c-0.104,4.696,3.667,6.571,8.365,9.4c10.547,6.363,12.461,11.982,12.258,19.459c-0.27,8.192-5.718,17.206-18.286,17.344
				c-5.035,0.052-10.036-1.504-14.055-3.881c0.017-3.97,0.029-7.945,0.034-11.937c3.29,2.957,8.185,5.213,12.247,5.213
				C129.874,119.19,132.929,116.455,132.828,111.977 M80.499,78.489c1.051-0.509,2.851-0.928,4.602-0.928
				c7.547,0,10.682,6.023,10.693,20.609c-0.007,14.22-3.591,21.076-11.078,21.076c-1.748,0-3.282-0.437-4.218-0.786
				C80.496,105.164,80.497,91.783,80.499,78.489z M80.524,156.004c-0.005-8.883-0.016-17.882-0.017-26.947
				c1.289,0.38,3.19,0.724,5.851,0.721c14.388-0.014,22.681-12.97,22.681-31.953c-0.009-18.932-8.535-30.673-24.033-30.682
				c-7.064,0-12.782,1.57-17.469,4.628c-0.065,28.087-0.026,56.707,0.112,84.196C71.937,155.99,76.231,156,80.524,156.004z
				 M42.398,118.878c2.596,0.017,4.667-0.568,6.054-1.527c-0.046-16.243-0.032-32.585,0.047-48.766
				c4.264-0.036,8.551-0.065,12.85-0.083c-0.063,18.658-0.067,37.564-0.012,56.26c-4.932,3.348-11.53,5.127-19.335,5.055
				c-12.604-0.128-18.787-7.105-18.812-20.665c0-13.435,0.002-26.89,0.002-40.296c4.152-0.059,8.351-0.105,12.575-0.152
				c-0.065,13.642-0.087,27.377-0.065,41.078C35.713,113.421,36.574,118.838,42.398,118.878z"/>
		</g>
		<g>
			<defs>
				<path id="SVGID_237_" d="M132.828,111.977c-0.087-4.053-2.311-6.243-7.908-9.565c-10.542-6.253-12.487-11.432-12.517-18.34
					c-0.063-10.479,8.778-16.533,17.11-16.689c6.97-0.134,11.629,2.577,13.825,4.325c0.011,3.71,0.02,7.428,0.021,11.142
					c-2.597-2.761-6.816-5.291-11.247-5.371c-3.594-0.067-7.349,1.517-7.463,6.116c-0.104,4.696,3.667,6.571,8.365,9.4
					c10.547,6.363,12.461,11.982,12.258,19.459c-0.27,8.192-5.718,17.206-18.286,17.344c-5.035,0.052-10.036-1.504-14.055-3.881
					c0.017-3.97,0.029-7.945,0.034-11.937c3.29,2.957,8.185,5.213,12.247,5.213C129.874,119.19,132.929,116.455,132.828,111.977
					 M80.499,78.489c1.051-0.509,2.851-0.928,4.602-0.928c7.547,0,10.682,6.023,10.693,20.609
					c-0.007,14.22-3.591,21.076-11.078,21.076c-1.748,0-3.282-0.437-4.218-0.786C80.496,105.164,80.497,91.783,80.499,78.489z
					 M80.524,156.004c-0.005-8.883-0.016-17.882-0.017-26.947c1.289,0.38,3.19,0.724,5.851,0.721
					c14.388-0.014,22.681-12.97,22.681-31.953c-0.009-18.932-8.535-30.673-24.033-30.682c-7.064,0-12.782,1.57-17.469,4.628
					c-0.065,28.087-0.026,56.707,0.112,84.196C71.937,155.99,76.231,156,80.524,156.004z M42.398,118.878
					c2.596,0.017,4.667-0.568,6.054-1.527c-0.046-16.243-0.032-32.585,0.047-48.766c4.264-0.036,8.551-0.065,12.85-0.083
					c-0.063,18.658-0.067,37.564-0.012,56.26c-4.932,3.348-11.53,5.127-19.335,5.055c-12.604-0.128-18.787-7.105-18.812-20.665
					c0-13.435,0.002-26.89,0.002-40.296c4.152-0.059,8.351-0.105,12.575-0.152c-0.065,13.642-0.087,27.377-0.065,41.078
					C35.713,113.421,36.574,118.838,42.398,118.878z"/>
			</defs>
			<clipPath id="SVGID_238_">
				<use xlink:href="#SVGID_237_"  style="overflow:visible;"/>
			</clipPath>
			
				<radialGradient id="SVGID_239_" cx="-127.0494" cy="386.094" r="84.0806" gradientTransform="matrix(1 0 0 -1 171.75 468.4453)" gradientUnits="userSpaceOnUse">
				<stop  offset="0" style="stop-color:#FFE7B0"/>
				<stop  offset="0.5275" style="stop-color:#FEBF52"/>
				<stop  offset="0.5568" style="stop-color:#F9B94C"/>
				<stop  offset="1" style="stop-color:#DA9017"/>
			</radialGradient>
			<rect x="22.883" y="67.103" style="clip-path:url(#SVGID_238_);fill:url(#SVGID_239_);" width="122.845" height="89.38"/>
		</g>
	</g>
	<path style="fill:#905800;" d="M131.327,186.955v-5.853l-1.912,5.853h-1.131l-1.883-5.853v5.853h-1.456v-8.294h1.933l1.985,6.241
		l2.004-6.241h1.961v8.294H131.327 M121.696,179.907v7.048h-1.582v-7.048h-2.102v-1.246h5.782v1.246H121.696z"/>
</g>
</svg>
