<?xml version="1.0" encoding="utf-8"?>
<!-- Generator: Adobe Illustrator 21.0.2, SVG Export Plug-In . SVG Version: 6.00 Build 0)  -->
<svg version="1.1" id="Layer_1" xmlns="http://www.w3.org/2000/svg" xmlns:xlink="http://www.w3.org/1999/xlink" x="0px" y="0px"
	 width="300px" height="150px" viewBox="0 0 300 150" style="enable-background:new 0 0 300 150;" xml:space="preserve">
<style type="text/css">
	.st0{fill:#9B5C8F;}
	.st1{fill:#FFFFFF;}
</style>
<g id="Layer_2">
</g>
<g id="Layer_2_3_">
</g>
<g id="Layer_2_4_">
</g>
<g id="Layer_2_6_">
</g>
<g id="Layer_2_2_">
</g>
<g id="Layer_2_7_">
</g>
<g id="Layer_2_8_">
</g>
<g id="Layer_2_9_">
</g>
<g id="Layer_2_10_">
</g>
<g id="Layer_2_11_">
</g>
<g id="Layer_2_12_">
</g>
<g>
	<path class="st0" d="M61.9,56.1h51.8c3.3,0,5.9,2.7,5.9,5.9v19.8c0,3.3-2.7,5.9-5.9,5.9H95.2l2.6,6.2l-11.2-6.2H62
		c-3.3,0-5.9-2.7-5.9-5.9V62C56,58.7,58.6,56.1,61.9,56.1z"/>
	<path class="st1" d="M59.2,61.4c0.4-0.5,0.9-0.8,1.6-0.8c1.3-0.1,2.1,0.5,2.3,1.9c0.8,5.4,1.7,10,2.6,13.8l5.7-10.9
		c0.5-1,1.2-1.5,2-1.6c1.1-0.1,1.8,0.7,2.1,2.2c0.7,3.5,1.5,6.4,2.5,8.9c0.7-6.6,1.8-11.4,3.4-14.3c0.4-0.7,1-1.1,1.7-1.1
		c0.6-0.1,1.1,0.1,1.6,0.5s0.8,0.9,0.8,1.5c0,0.5-0.1,0.9-0.3,1.2c-1,1.9-1.8,5-2.5,9.4c-0.7,4.2-0.9,7.5-0.7,9.9
		c0.1,0.7-0.1,1.2-0.3,1.7c-0.3,0.6-0.8,0.9-1.4,0.9c-0.7,0.1-1.4-0.3-2.1-1c-2.4-2.5-4.3-6.2-5.8-11.1c-1.7,3.3-2.9,5.8-3.7,7.5
		c-1.5,2.9-2.8,4.5-3.9,4.5c-0.7,0.1-1.3-0.5-1.8-1.8c-1.3-3.4-2.8-10-4.3-19.8C58.7,62.5,58.8,61.9,59.2,61.4z"/>
	<path class="st1" d="M115.2,65.5c-0.9-1.6-2.3-2.6-4.2-3c-0.5-0.1-1-0.2-1.4-0.2c-2.5,0-4.5,1.3-6.1,3.9c-1.4,2.2-2,4.7-2,7.3
		c0,2,0.4,3.7,1.2,5.2c0.9,1.6,2.3,2.6,4.2,3c0.5,0.1,1,0.2,1.4,0.2c2.5,0,4.6-1.3,6.1-3.9c1.4-2.2,2-4.7,2-7.4
		C116.4,68.6,116,66.9,115.2,65.5L115.2,65.5z M111.9,72.7c-0.4,1.7-1,3-2,3.9c-0.8,0.7-1.5,1-2.1,0.8c-0.6-0.1-1.1-0.7-1.5-1.7
		c-0.3-0.8-0.5-1.6-0.5-2.4c0-0.7,0.1-1.3,0.2-1.9c0.2-1.1,0.7-2.1,1.4-3.1c0.9-1.3,1.8-1.8,2.7-1.6c0.6,0.1,1.1,0.7,1.5,1.7
		c0.3,0.8,0.5,1.6,0.5,2.4C112.1,71.5,112,72.1,111.9,72.7L111.9,72.7z"/>
	<path class="st1" d="M98.8,65.5c-0.9-1.6-2.3-2.6-4.2-3c-0.5-0.1-1-0.2-1.4-0.2c-2.5,0-4.5,1.3-6.1,3.9c-1.4,2.2-2,4.7-2,7.3
		c0,2,0.4,3.7,1.2,5.2c0.9,1.6,2.3,2.6,4.2,3c0.5,0.1,1,0.2,1.4,0.2c2.5,0,4.6-1.3,6.1-3.9c1.4-2.2,2-4.7,2-7.4
		C100.1,68.6,99.7,66.9,98.8,65.5L98.8,65.5z M95.6,72.7c-0.4,1.7-1,3-2,3.9c-0.8,0.7-1.5,1-2.1,0.8c-0.6-0.1-1.1-0.7-1.5-1.7
		c-0.3-0.8-0.5-1.6-0.5-2.4c0-0.7,0.1-1.3,0.2-1.9c0.2-1.1,0.7-2.1,1.4-3.1c0.9-1.3,1.8-1.8,2.7-1.6c0.6,0.1,1.1,0.7,1.5,1.7
		c0.3,0.8,0.5,1.6,0.5,2.4C95.7,71.5,95.7,72.1,95.6,72.7L95.6,72.7z"/>
	<g>
		<g>
			<path d="M126.3,65.3c-1.7,1.7-2.6,3.9-2.6,6.6c0,2.8,0.9,5.2,2.6,6.9c1.7,1.7,4,2.6,6.7,2.6c0.8,0,1.7-0.1,2.7-0.4v-4.2
				c-0.9,0.3-1.7,0.4-2.4,0.4c-1.4,0-2.5-0.5-3.3-1.4c-0.8-0.9-1.2-2.2-1.2-3.8c0-1.5,0.4-2.7,1.2-3.6c0.8-1,1.8-1.4,3.1-1.4
				c0.8,0,1.7,0.1,2.6,0.4v-4.2c-0.9-0.2-1.8-0.3-2.8-0.3C130.2,62.7,128,63.6,126.3,65.3z M144.3,62.7c-2.4,0-4.3,0.8-5.6,2.4
				s-2,3.8-2,6.7c0,3.1,0.7,5.5,2,7.1s3.3,2.5,5.8,2.5c2.5,0,4.4-0.8,5.7-2.5c1.3-1.6,2-4,2-6.9c0-3-0.7-5.3-2-6.9
				C148.8,63.5,146.9,62.7,144.3,62.7z M146.4,76.2c-0.5,0.7-1.2,1.1-2.1,1.1c-0.8,0-1.5-0.4-1.9-1.1c-0.4-0.7-0.7-2.2-0.7-4.4
				c0-3.4,0.9-5.1,2.6-5.1c1.8,0,2.8,1.7,2.8,5.2C147.1,74.1,146.9,75.5,146.4,76.2z M165.1,63.2l-0.9,4c-0.2,1-0.5,2.1-0.7,3.1
				l-0.5,2.8c-0.5-2.8-1.2-6-2-9.9h-6l-2.3,17.7h4.5l1.2-12.2l3.1,12.2h3.2l3-12.2l1.3,12.2h4.7l-2.4-17.7L165.1,63.2L165.1,63.2z
				 M186.8,63.2l-0.9,4c-0.2,1-0.5,2.1-0.7,3.1l-0.5,2.8c-0.5-2.8-1.2-6-2-9.9h-6l-2.3,17.7h4.5l1.2-12.2l3.1,12.2h3.2l2.9-12.2
				l1.3,12.2h4.7L193,63.2H186.8z M201.5,73.9h4.2v-3.7h-4.2V67h4.9v-3.8h-9.7V81h9.7v-3.8h-4.9V73.9z M219.9,71.1
				c0.5-0.8,0.8-1.6,0.8-2.5c0-1.7-0.7-3-2-4c-1.3-1-3.1-1.5-5.3-1.5h-5.6v17.7h4.8v-8.1h0.1l3.9,8.1h5l-3.8-8
				C218.7,72.5,219.4,71.9,219.9,71.1z M212.6,70.8v-4.2c1.1,0,2,0.2,2.4,0.6s0.7,0.9,0.7,1.8C215.8,70.2,214.7,70.8,212.6,70.8z
				 M223.5,65.3c-1.7,1.7-2.6,3.9-2.6,6.6c0,2.8,0.9,5.2,2.6,6.9c1.7,1.7,4,2.6,6.7,2.6c0.8,0,1.7-0.1,2.7-0.4v-4.2
				c-0.9,0.3-1.7,0.4-2.4,0.4c-1.4,0-2.5-0.5-3.3-1.4c-0.8-0.9-1.2-2.2-1.2-3.8c0-1.5,0.4-2.7,1.2-3.6c0.8-1,1.8-1.4,3.1-1.4
				c0.8,0,1.7,0.1,2.6,0.4v-4.2c-0.9-0.2-1.8-0.3-2.8-0.3C227.5,62.7,225.2,63.6,223.5,65.3z M239,77.1v-3.2h4.2v-3.7H239V67h4.9
				v-3.8h-9.7v17.7h9.7v-3.8L239,77.1L239,77.1z"/>
		</g>
	</g>
</g>
</svg>
