<?xml version="1.0" encoding="utf-8"?>
<!-- Generator: Adobe Illustrator 21.0.2, SVG Export Plug-In . SVG Version: 6.00 Build 0)  -->
<svg version="1.1" id="Layer_1" xmlns="http://www.w3.org/2000/svg" xmlns:xlink="http://www.w3.org/1999/xlink" x="0px" y="0px"
	 width="300px" height="150px" viewBox="0 0 300 150" style="enable-background:new 0 0 300 150;" xml:space="preserve">
<style type="text/css">
	.st0{fill:#ffffff;}
</style>
<g id="Layer_2">
</g>
<g id="Layer_2_3_">
</g>
<g id="Layer_2_4_">
</g>
<g id="Layer_2_6_">
</g>
<g id="Layer_2_2_">
</g>
<g id="Layer_2_7_">
</g>
<g id="Layer_2_8_">
</g>
<g id="Layer_2_9_">
</g>
<g id="Layer_2_10_">
</g>
<g id="Layer_2_11_">
</g>
<g id="Layer_2_12_">
</g>
<g id="Layer_2_5_">
	<g>
		<path class="st0" d="M144.6,87.8c-0.3,0-0.6-0.3-0.6-0.6V64.8c0-0.3,0.3-0.6,0.6-0.6h10.9c4.2,0,6.7,2.4,6.7,6.3v10.9
			c0,3.9-2.4,6.3-6.7,6.3L144.6,87.8L144.6,87.8z M154.9,83c1.5,0,2.1-0.6,2.1-2.4v-9.1c0-1.5-0.6-2.4-2.1-2.4h-5.7v14.2L154.9,83
			L154.9,83z M170.3,87.2c0,0.3-0.3,0.6-0.6,0.6h-3.9c-0.3,0-0.6-0.3-0.6-0.6V64.5c0-0.3,0.3-0.6,0.6-0.6h14.5
			c0.3,0,0.6,0.3,0.6,0.6v3.9c0,0.3-0.3,0.6-0.6,0.6h-10v5.1h8.8c0.3,0,0.6,0.3,0.6,0.6v3.6c0,0.3-0.3,0.6-0.6,0.6h-8.8V87.2
			L170.3,87.2z M183.9,87.8c-0.3,0-0.6-0.3-0.6-0.6V64.8c0-0.3,0.3-0.6,0.6-0.6h10.9c4.2,0,6.7,2.4,6.7,6.3v10.9
			c0,3.9-2.4,6.3-6.7,6.3L183.9,87.8L183.9,87.8z M194.2,83c1.5,0,2.1-0.6,2.1-2.4v-9.1c0-1.5-0.6-2.4-2.1-2.4h-5.7v14.2L194.2,83
			L194.2,83z M204.8,87.8c-0.3,0-0.6-0.3-0.6-0.6v-3.6c0-0.3,0.3-0.6,0.6-0.6c0,0,4.8,0.3,8.5,0.3c1.5,0,2.1-0.3,2.1-1.8v-0.6
			c0-1.2-0.3-1.5-1.5-2.1l-5.1-1.5c-2.4-0.6-4.5-1.5-4.5-5.7v-1.8c0-3.9,2.4-5.7,6.7-5.7c3.6,0,7.9,0.3,7.9,0.3
			c0.3,0,0.6,0.3,0.6,0.6v3.6c0,0.3-0.3,0.6-0.6,0.6c0,0-3.9-0.3-7.3-0.3c-1.5,0-2.1,0-2.1,1.5V71c0,1.2,0.3,1.5,1.5,1.8l5.4,1.5
			c2.1,0.6,4.5,1.5,4.5,5.7v1.8c0,3.9-2.4,5.7-6.7,5.7C209.6,87.8,204.8,87.8,204.8,87.8z"/>
		<path class="st0" d="M143.7,50.3h-41.1c-0.3,0-0.3,0-0.3,0.3l-29,50.5c-0.3,0.3,0,0.6,0.3,0.6h40.8c0.3,0,0.3,0,0.3-0.3L144,50.9
			C144.3,50.9,144.3,50.3,143.7,50.3z M120.5,83.6C120.5,83.9,120.2,83.9,120.5,83.6l-9.7-5.7c0,0-0.3,0-0.3,0.3l5.7,9.4
			c0,0,0,0.3-0.3,0.3h-15.1c-0.3,0-0.3-0.3-0.3-0.3l5.7-9.7c0,0,0-0.3-0.3-0.3l-8.8,6c0,0-0.3,0-0.3-0.3V68.1c0-0.3,0.3-0.3,0.3-0.3
			l9.4,5.7c0,0,0.3,0,0.3-0.3l-5.7-9.4c0,0,0-0.3,0.3-0.3h15.1c0.3,0,0.3,0.3,0.3,0.3l-5.7,9.4c0,0,0,0.3,0.3,0.3l9.4-5.7
			c0,0,0.3,0,0.3,0.3C120.5,68.1,120.5,83.6,120.5,83.6z"/>
	</g>
</g>
</svg>
