<?xml version="1.0" encoding="utf-8"?>
<!-- Generator: Adobe Illustrator 21.0.2, SVG Export Plug-In . SVG Version: 6.00 Build 0)  -->
<svg version="1.1" id="Layer_1" xmlns="http://www.w3.org/2000/svg" xmlns:xlink="http://www.w3.org/1999/xlink" x="0px" y="0px"
	 width="300px" height="150px" viewBox="0 0 300 150" style="enable-background:new 0 0 300 150;" xml:space="preserve">
<style type="text/css">
	.st0{fill:#ffffff;}
</style>
<g id="Layer_2">
</g>
<g id="Layer_2_3_">
</g>
<g id="Layer_2_4_">
</g>
<g id="Layer_2_6_">
</g>
<g id="Layer_2_2_">
</g>
<g id="Layer_2_7_">
</g>
<g id="Layer_2_8_">
</g>
<g id="Layer_2_9_">
</g>
<g id="Layer_2_10_">
</g>
<g id="Layer_2_11_">
</g>
<g id="Layer_2_12_">
</g>
<g>
	<g>
		<polygon class="st0" points="230.2,57 225.2,57 225.2,57.2 225.2,58.4 225.2,63.2 226.8,63.2 226.8,58.4 230.2,58.4 		"/>
		<g>
			<path class="st0" d="M227.7,68.6c-4.7,0-8.5-3.8-8.5-8.5s3.8-8.5,8.5-8.5s8.5,3.8,8.5,8.5S232.4,68.6,227.7,68.6z M227.7,53.4
				c-3.7,0-6.7,3-6.7,6.7s3,6.7,6.7,6.7s6.7-3,6.7-6.7S231.4,53.4,227.7,53.4z"/>
		</g>
	</g>
	<path class="st0" d="M216.1,81.4c-6.5,0-12.6,0-18.9,0c0,2.6,0,4.9,0,7.4c4.5,0,9.3,0.1,13.9,0.1c0.1-1.2,0-2.3,0.1-3.8
		c1.5,0,3,0,5,0c0,1.9,0.1,3.6,0,5.4c-0.1,2.5-1.5,3.9-4,3.9c-5.5,0-11,0.1-16.5,0c-2.7,0-4.1-1.6-4.1-4.2c0-7.1,0-14.1,0-21.2
		c0-2.6,1.4-4.1,4.1-4.2c5.5,0,11,0,16.5,0c2.3,0,3.8,1,3.9,3.4C216.2,72.5,216.1,76.8,216.1,81.4z M197.5,77.1c4.8,0,9.2,0,13.8,0
		c0-2.2,0-4.2,0-6.3c-4.7,0-9.2,0-13.8,0C197.5,72.9,197.5,74.9,197.5,77.1z"/>
	<path class="st0" d="M170.1,79.5c0,3.4,0,6.8,0,10.2c0,3-1.3,4.7-4.5,4.7c-5.2,0-10.5,0-15.7,0c-2.9,0-4.4-1.4-4.4-4.3
		c0-7.1,0-14.1,0-21.2c0-3,1.6-4.2,4.5-4.1c5.2,0.1,10.5,0.1,15.7,0c3.2-0.1,4.5,1.4,4.5,4.5C170.1,72.7,170.1,76.1,170.1,79.5z
		 M150.5,89c4.7,0,9.2,0,13.6,0c0-6.3,0-12.2,0-18.4c-4.6,0-9,0-13.6,0C150.5,76.8,150.5,82.8,150.5,89z"/>
	<path class="st0" d="M139.8,79.7c0,3.4,0,6.8,0,10.2c0,2.9-1.2,4.5-4.2,4.5c-5.4,0-10.7,0-16.1,0c-2.6,0-4.2-1.3-4.2-4.1
		c0-7.2,0-14.4,0-21.6c0-2.6,1.3-3.9,3.8-3.9c5.6,0,11.2,0,16.9,0c2.6,0,3.8,1.3,3.8,3.9C139.8,72.4,139.8,76.1,139.8,79.7z
		 M135,70.8c-4.9,0-9.3,0-13.8,0c0,6.3,0,12.2,0,18.2c4.7,0,9.2,0,13.8,0C135,82.9,135,77,135,70.8z"/>
	<polygon class="st0" points="175.3,56.7 175.3,61.6 175.3,65.1 172.7,65.1 172.7,70 175.3,70 175.3,94.4 181.1,94.4 181.1,70 
		188,70 188,65.1 181.1,65.1 181.1,61.6 191.9,61.6 191.9,56.7 	"/>
	<path class="st0" d="M75.5,94.4c0-8-0.1-16.8-0.1-24.3c4.1,0,7.8,0,11.8,0c0,8,0,16.3,0,24.3h5.3c0-8,0-16.4,0-24.3
		c4,0,7.7,0,11.8,0c0,8-0.1,16.5-0.1,24.3h5.5c0-8.2-0.2-16.7,0-24.6c0.1-3.8-1.5-5.1-5.2-5c-11.6,0.1-23.3,0-34.9,0
		c0,9.6,0,19.9,0,29.6C69.6,94.4,75.5,94.4,75.5,94.4z"/>
</g>
</svg>
