<?xml version="1.0" encoding="UTF-8"?>
<svg width="128px" height="127px" viewBox="0 0 128 127" version="1.1" xmlns="http://www.w3.org/2000/svg" xmlns:xlink="http://www.w3.org/1999/xlink">
    <!-- Generator: Sketch 48.2 (47327) - http://www.bohemiancoding.com/sketch -->
    <title>Group</title>
    <desc>Created with Sketch.</desc>
    <defs>
        <polygon id="path-1" points="0.000133333333 0.333333333 128 0.333333333 128 12.3132 0.000133333333 12.3132"></polygon>
        <polygon id="path-3" points="0.000133333333 10.7134667 128 10.7134667 128 22.6934667 0.000133333333 22.6934667"></polygon>
        <polygon id="path-5" points="0.000133333333 21.0930667 128 21.0930667 128 33.0730667 0.000133333333 33.0730667"></polygon>
        <polygon id="path-7" points="0.000133333333 31.4718667 128 31.4718667 128 43.4518667 0.000133333333 43.4518667"></polygon>
        <polygon id="path-9" points="0.000133333333 41.8534667 128 41.8534667 128 53.8334667 0.000133333333 53.8334667"></polygon>
        <polygon id="path-11" points="0.000133333333 52.2336 128 52.2336 128 64.2136 0.000133333333 64.2136"></polygon>
        <polygon id="path-13" points="0.000133333333 62.6125333 128 62.6125333 128 74.5938667 0.000133333333 74.5938667"></polygon>
        <polygon id="path-15" points="0.000133333333 72.994 128 72.994 128 84.974 0.000133333333 84.974"></polygon>
        <polygon id="path-17" points="0.000133333333 83.3716 128 83.3716 128 95.3529333 0.000133333333 95.3529333"></polygon>
        <polygon id="path-19" points="0.000133333333 93.7557333 128 93.7557333 128 105.735733 0.000133333333 105.735733"></polygon>
        <polygon id="path-21" points="0.000133333333 104.134667 128 104.134667 128 116.116 0.000133333333 116.116"></polygon>
        <polygon id="path-23" points="0.000133333333 114.5136 128 114.5136 128 126.494667 0.000133333333 126.494667"></polygon>
    </defs>
    <g id="Artboard" stroke="none" stroke-width="1" fill="none" fill-rule="evenodd" transform="translate(0.000000, -1.000000)">
        <g id="Group" transform="translate(0.000000, 1.000000)">
            <mask id="mask-2" fill="white">
                <use xlink:href="#path-1"></use>
            </mask>
            <g id="Clip-2"></g>
            <path d="M106.6628,12.3132 C100.625467,12.3132 97.4854667,10.0892 94.7161333,8.12653333 C92.1628,6.3172 89.9574667,4.75453333 85.3254667,4.75453333 C80.6961333,4.75453333 78.4908,6.3172 75.9374667,8.12653333 C73.1681333,10.0892 70.0281333,12.3132 63.9908,12.3132 C57.9534667,12.3132 54.8148,10.0892 52.0468,8.12653333 C49.4921333,6.3172 47.2881333,4.75453333 42.6574667,4.75453333 C38.0308,4.75453333 35.8254667,6.3172 33.2734667,8.12653333 C30.5054667,10.0892 27.3681333,12.3132 21.3321333,12.3132 C15.2948,12.3132 12.1574667,10.0892 9.38813333,8.12653333 C6.83346667,6.3172 4.62946667,4.75453333 0.000133333333,4.75453333 L0.000133333333,0.3332 C6.03746667,0.3332 9.1748,2.5572 11.9441333,4.51986667 C14.4974667,6.3292 16.7028,7.89186667 21.3321333,7.89186667 C25.9588,7.89186667 28.1641333,6.3292 30.7161333,4.51986667 C33.4841333,2.5572 36.6214667,0.3332 42.6574667,0.3332 C48.6948,0.3332 51.8334667,2.5572 54.6014667,4.51986667 C57.1561333,6.3292 59.3601333,7.89186667 63.9908,7.89186667 C68.6214667,7.89186667 70.8268,6.3292 73.3801333,4.51986667 C76.1494667,2.5572 79.2894667,0.3332 85.3254667,0.3332 C91.3641333,0.3332 94.5041333,2.5572 97.2734667,4.51986667 C99.8268,6.3292 102.032133,7.89186667 106.6628,7.89186667 C111.293467,7.89186667 113.4988,6.3292 116.052133,4.51986667 C118.821467,2.5572 121.961467,0.3332 128.000133,0.3332 L128.000133,4.75453333 C123.368133,4.75453333 121.1628,6.3172 118.609467,8.12653333 C115.840133,10.0892 112.700133,12.3132 106.6628,12.3132" id="Fill-1" fill="#606688" mask="url(#mask-2)"></path>
            <mask id="mask-4" fill="white">
                <use xlink:href="#path-3"></use>
            </mask>
            <g id="Clip-5"></g>
            <path d="M106.6628,22.6934667 C100.625467,22.6934667 97.4854667,20.4694667 94.7161333,18.5068 C92.1628,16.6974667 89.9574667,15.1348 85.3254667,15.1348 C80.6961333,15.1348 78.4908,16.6974667 75.9374667,18.5068 C73.1681333,20.4694667 70.0281333,22.6934667 63.9908,22.6934667 C57.9534667,22.6934667 54.8148,20.4694667 52.0468,18.5068 C49.4921333,16.6974667 47.2881333,15.1348 42.6574667,15.1348 C38.0308,15.1348 35.8254667,16.6974667 33.2734667,18.5068 C30.5054667,20.4694667 27.3681333,22.6934667 21.3321333,22.6934667 C15.2948,22.6934667 12.1574667,20.4694667 9.38813333,18.5068 C6.83346667,16.6974667 4.62946667,15.1348 0.000133333333,15.1348 L0.000133333333,10.7134667 C6.03746667,10.7134667 9.1748,12.9374667 11.9441333,14.9001333 C14.4974667,16.7094667 16.7028,18.2721333 21.3321333,18.2721333 C25.9588,18.2721333 28.1641333,16.7094667 30.7161333,14.9001333 C33.4841333,12.9374667 36.6214667,10.7134667 42.6574667,10.7134667 C48.6948,10.7134667 51.8334667,12.9374667 54.6014667,14.9001333 C57.1561333,16.7094667 59.3601333,18.2721333 63.9908,18.2721333 C68.6214667,18.2721333 70.8268,16.7094667 73.3801333,14.9001333 C76.1494667,12.9374667 79.2894667,10.7134667 85.3254667,10.7134667 C91.3641333,10.7134667 94.5041333,12.9374667 97.2734667,14.9001333 C99.8268,16.7094667 102.032133,18.2721333 106.6628,18.2721333 C111.293467,18.2721333 113.4988,16.7094667 116.052133,14.9001333 C118.821467,12.9374667 121.961467,10.7134667 128.000133,10.7134667 L128.000133,15.1348 C123.368133,15.1348 121.1628,16.6974667 118.609467,18.5068 C115.840133,20.4694667 112.700133,22.6934667 106.6628,22.6934667" id="Fill-4" fill="#606688" mask="url(#mask-4)"></path>
            <mask id="mask-6" fill="white">
                <use xlink:href="#path-5"></use>
            </mask>
            <g id="Clip-8"></g>
            <path d="M106.6628,33.0730667 C100.625467,33.0730667 97.4854667,30.8490667 94.7161333,28.8864 C92.1628,27.0770667 89.9574667,25.5144 85.3254667,25.5144 C80.6961333,25.5144 78.4908,27.0770667 75.9374667,28.8864 C73.1681333,30.8490667 70.0281333,33.0730667 63.9908,33.0730667 C57.9534667,33.0730667 54.8148,30.8490667 52.0468,28.8864 C49.4921333,27.0770667 47.2881333,25.5144 42.6574667,25.5144 C38.0308,25.5144 35.8254667,27.0770667 33.2734667,28.8864 C30.5054667,30.8490667 27.3681333,33.0730667 21.3321333,33.0730667 C15.2948,33.0730667 12.1574667,30.8490667 9.38813333,28.8864 C6.83346667,27.0770667 4.62946667,25.5144 0.000133333333,25.5144 L0.000133333333,21.0930667 C6.03746667,21.0930667 9.1748,23.3170667 11.9441333,25.2797333 C14.4974667,27.0890667 16.7028,28.6517333 21.3321333,28.6517333 C25.9588,28.6517333 28.1641333,27.0890667 30.7161333,25.2797333 C33.4841333,23.3170667 36.6214667,21.0930667 42.6574667,21.0930667 C48.6948,21.0930667 51.8334667,23.3170667 54.6014667,25.2797333 C57.1561333,27.0890667 59.3601333,28.6517333 63.9908,28.6517333 C68.6214667,28.6517333 70.8268,27.0890667 73.3801333,25.2797333 C76.1494667,23.3170667 79.2894667,21.0930667 85.3254667,21.0930667 C91.3641333,21.0930667 94.5041333,23.3170667 97.2734667,25.2797333 C99.8268,27.0890667 102.032133,28.6517333 106.6628,28.6517333 C111.293467,28.6517333 113.4988,27.0890667 116.052133,25.2797333 C118.821467,23.3170667 121.961467,21.0930667 128.000133,21.0930667 L128.000133,25.5144 C123.368133,25.5144 121.1628,27.0770667 118.609467,28.8864 C115.840133,30.8490667 112.700133,33.0730667 106.6628,33.0730667" id="Fill-7" fill="#606688" mask="url(#mask-6)"></path>
            <mask id="mask-8" fill="white">
                <use xlink:href="#path-7"></use>
            </mask>
            <g id="Clip-11"></g>
            <path d="M106.6628,43.4518667 C100.625467,43.4518667 97.4854667,41.2278667 94.7161333,39.2652 C92.1628,37.4558667 89.9574667,35.8932 85.3254667,35.8932 C80.6961333,35.8932 78.4908,37.4558667 75.9374667,39.2652 C73.1681333,41.2278667 70.0281333,43.4518667 63.9908,43.4518667 C57.9534667,43.4518667 54.8148,41.2278667 52.0468,39.2652 C49.4921333,37.4558667 47.2881333,35.8932 42.6574667,35.8932 C38.0308,35.8932 35.8254667,37.4558667 33.2734667,39.2652 C30.5054667,41.2278667 27.3681333,43.4518667 21.3321333,43.4518667 C15.2948,43.4518667 12.1574667,41.2278667 9.38813333,39.2652 C6.83346667,37.4558667 4.62946667,35.8932 0.000133333333,35.8932 L0.000133333333,31.4718667 C6.03746667,31.4718667 9.1748,33.6958667 11.9441333,35.6585333 C14.4974667,37.4678667 16.7028,39.0305333 21.3321333,39.0305333 C25.9588,39.0305333 28.1641333,37.4678667 30.7161333,35.6585333 C33.4841333,33.6958667 36.6214667,31.4718667 42.6574667,31.4718667 C48.6948,31.4718667 51.8334667,33.6958667 54.6014667,35.6585333 C57.1561333,37.4678667 59.3601333,39.0305333 63.9908,39.0305333 C68.6214667,39.0305333 70.8268,37.4678667 73.3801333,35.6585333 C76.1494667,33.6958667 79.2894667,31.4718667 85.3254667,31.4718667 C91.3641333,31.4718667 94.5041333,33.6958667 97.2734667,35.6585333 C99.8268,37.4678667 102.032133,39.0305333 106.6628,39.0305333 C111.293467,39.0305333 113.4988,37.4678667 116.052133,35.6585333 C118.821467,33.6958667 121.961467,31.4718667 128.000133,31.4718667 L128.000133,35.8932 C123.368133,35.8932 121.1628,37.4558667 118.609467,39.2652 C115.840133,41.2278667 112.700133,43.4518667 106.6628,43.4518667" id="Fill-10" fill="#606688" mask="url(#mask-8)"></path>
            <mask id="mask-10" fill="white">
                <use xlink:href="#path-9"></use>
            </mask>
            <g id="Clip-14"></g>
            <path d="M106.6628,53.8334667 C100.625467,53.8334667 97.4854667,51.6094667 94.7161333,49.6468 C92.1628,47.8374667 89.9574667,46.2748 85.3254667,46.2748 C80.6961333,46.2748 78.4908,47.8374667 75.9374667,49.6468 C73.1681333,51.6094667 70.0281333,53.8334667 63.9908,53.8334667 C57.9534667,53.8334667 54.8148,51.6094667 52.0468,49.6468 C49.4921333,47.8374667 47.2881333,46.2748 42.6574667,46.2748 C38.0308,46.2748 35.8254667,47.8374667 33.2734667,49.6468 C30.5054667,51.6094667 27.3681333,53.8334667 21.3321333,53.8334667 C15.2948,53.8334667 12.1574667,51.6094667 9.38813333,49.6468 C6.83346667,47.8374667 4.62946667,46.2748 0.000133333333,46.2748 L0.000133333333,41.8534667 C6.03746667,41.8534667 9.1748,44.0774667 11.9441333,46.0401333 C14.4974667,47.8494667 16.7028,49.4121333 21.3321333,49.4121333 C25.9588,49.4121333 28.1641333,47.8494667 30.7161333,46.0401333 C33.4841333,44.0774667 36.6214667,41.8534667 42.6574667,41.8534667 C48.6948,41.8534667 51.8334667,44.0774667 54.6014667,46.0401333 C57.1561333,47.8494667 59.3601333,49.4121333 63.9908,49.4121333 C68.6214667,49.4121333 70.8268,47.8494667 73.3801333,46.0401333 C76.1494667,44.0774667 79.2894667,41.8534667 85.3254667,41.8534667 C91.3641333,41.8534667 94.5041333,44.0774667 97.2734667,46.0401333 C99.8268,47.8494667 102.032133,49.4121333 106.6628,49.4121333 C111.293467,49.4121333 113.4988,47.8494667 116.052133,46.0401333 C118.821467,44.0774667 121.961467,41.8534667 128.000133,41.8534667 L128.000133,46.2748 C123.368133,46.2748 121.1628,47.8374667 118.609467,49.6468 C115.840133,51.6094667 112.700133,53.8334667 106.6628,53.8334667" id="Fill-13" fill="#606688" mask="url(#mask-10)"></path>
            <mask id="mask-12" fill="white">
                <use xlink:href="#path-11"></use>
            </mask>
            <g id="Clip-17"></g>
            <path d="M106.6628,64.2136 C100.625467,64.2136 97.4854667,61.9896 94.7161333,60.0269333 C92.1628,58.2176 89.9574667,56.6549333 85.3254667,56.6549333 C80.6961333,56.6549333 78.4908,58.2176 75.9374667,60.0269333 C73.1681333,61.9896 70.0281333,64.2136 63.9908,64.2136 C57.9534667,64.2136 54.8148,61.9896 52.0468,60.0269333 C49.4921333,58.2176 47.2881333,56.6549333 42.6574667,56.6549333 C38.0308,56.6549333 35.8254667,58.2176 33.2734667,60.0269333 C30.5054667,61.9896 27.3681333,64.2136 21.3321333,64.2136 C15.2948,64.2136 12.1574667,61.9896 9.38813333,60.0269333 C6.83346667,58.2176 4.62946667,56.6549333 0.000133333333,56.6549333 L0.000133333333,52.2336 C6.03746667,52.2336 9.1748,54.4576 11.9441333,56.4202667 C14.4974667,58.2296 16.7028,59.7922667 21.3321333,59.7922667 C25.9588,59.7922667 28.1641333,58.2296 30.7161333,56.4202667 C33.4841333,54.4576 36.6214667,52.2336 42.6574667,52.2336 C48.6948,52.2336 51.8334667,54.4576 54.6014667,56.4202667 C57.1561333,58.2296 59.3601333,59.7922667 63.9908,59.7922667 C68.6214667,59.7922667 70.8268,58.2296 73.3801333,56.4202667 C76.1494667,54.4576 79.2894667,52.2336 85.3254667,52.2336 C91.3641333,52.2336 94.5041333,54.4576 97.2734667,56.4202667 C99.8268,58.2296 102.032133,59.7922667 106.6628,59.7922667 C111.293467,59.7922667 113.4988,58.2296 116.052133,56.4202667 C118.821467,54.4576 121.961467,52.2336 128.000133,52.2336 L128.000133,56.6549333 C123.368133,56.6549333 121.1628,58.2176 118.609467,60.0269333 C115.840133,61.9896 112.700133,64.2136 106.6628,64.2136" id="Fill-16" fill="#606688" mask="url(#mask-12)"></path>
            <mask id="mask-14" fill="white">
                <use xlink:href="#path-13"></use>
            </mask>
            <g id="Clip-20"></g>
            <path d="M106.6628,74.5938667 C100.625467,74.5938667 97.4854667,72.3698667 94.7161333,70.4058667 C92.1628,68.5978667 89.9574667,67.0352 85.3254667,67.0352 C80.6961333,67.0352 78.4908,68.5978667 75.9374667,70.4058667 C73.1681333,72.3698667 70.0281333,74.5938667 63.9908,74.5938667 C57.9534667,74.5938667 54.8148,72.3698667 52.0454667,70.4058667 C49.4921333,68.5978667 47.2868,67.0352 42.6574667,67.0352 C38.0308,67.0352 35.8254667,68.5978667 33.2734667,70.4045333 C30.5054667,72.3698667 27.3681333,74.5938667 21.3321333,74.5938667 C15.2948,74.5938667 12.1561333,72.3698667 9.38813333,70.4058667 C6.83346667,68.5978667 4.62946667,67.0352 0.000133333333,67.0352 L0.000133333333,62.6125333 C6.03746667,62.6125333 9.17613333,64.8365333 11.9441333,66.7978667 C14.4974667,68.6085333 16.7028,70.1712 21.3321333,70.1712 C25.9588,70.1712 28.1641333,68.6085333 30.7161333,66.7978667 C33.4841333,64.8365333 36.6214667,62.6125333 42.6574667,62.6125333 C48.6948,62.6125333 51.8334667,64.8365333 54.6028,66.7978667 C57.1561333,68.6085333 59.3614667,70.1712 63.9908,70.1712 C68.6214667,70.1712 70.8268,68.6085333 73.3801333,66.7978667 C76.1494667,64.8365333 79.2881333,62.6125333 85.3254667,62.6125333 C91.3641333,62.6125333 94.5041333,64.8365333 97.2734667,66.7978667 C99.8268,68.6085333 102.032133,70.1712 106.6628,70.1712 C111.293467,70.1712 113.4988,68.6085333 116.052133,66.7978667 C118.821467,64.8365333 121.961467,62.6125333 128.000133,62.6125333 L128.000133,67.0352 C123.368133,67.0352 121.1628,68.5978667 118.609467,70.4058667 C115.840133,72.3698667 112.700133,74.5938667 106.6628,74.5938667" id="Fill-19" fill="#606688" mask="url(#mask-14)"></path>
            <mask id="mask-16" fill="white">
                <use xlink:href="#path-15"></use>
            </mask>
            <g id="Clip-23"></g>
            <path d="M106.6628,84.974 C100.625467,84.974 97.4854667,82.75 94.7161333,80.7873333 C92.1628,78.9793333 89.9561333,77.414 85.3254667,77.414 C80.6961333,77.414 78.4908,78.978 75.9374667,80.786 C73.1681333,82.75 70.0281333,84.974 63.9908,84.974 C57.9534667,84.974 54.8148,82.75 52.0454667,80.786 C49.4921333,78.978 47.2868,77.414 42.6574667,77.414 C38.0308,77.414 35.8254667,78.978 33.2734667,80.786 C30.5054667,82.75 27.3681333,84.974 21.3321333,84.974 C15.2948,84.974 12.1561333,82.75 9.38813333,80.786 C6.83346667,78.9753333 4.62946667,77.414 0.000133333333,77.414 L0.000133333333,72.994 C6.03746667,72.994 9.17613333,75.218 11.9441333,77.1806667 C14.4974667,78.9913333 16.7028,80.554 21.3321333,80.554 C25.9588,80.554 28.1641333,78.9913333 30.7161333,77.1806667 C33.4841333,75.218 36.6214667,72.994 42.6574667,72.994 C48.6948,72.994 51.8334667,75.218 54.6028,77.1806667 C57.1561333,78.9913333 59.3614667,80.554 63.9908,80.554 C68.6214667,80.554 70.8268,78.9913333 73.3801333,77.1793333 C76.1494667,75.218 79.2881333,72.994 85.3254667,72.994 C91.3641333,72.994 94.5041333,75.218 97.2734667,77.1806667 C99.8268,78.9913333 102.032133,80.554 106.6628,80.554 C111.293467,80.554 113.4988,78.9913333 116.052133,77.1806667 C118.821467,75.218 121.961467,72.994 128.000133,72.994 L128.000133,77.414 C123.369467,77.414 121.1628,78.9793333 118.609467,80.7873333 C115.840133,82.75 112.700133,84.974 106.6628,84.974" id="Fill-22" fill="#606688" mask="url(#mask-16)"></path>
            <mask id="mask-18" fill="white">
                <use xlink:href="#path-17"></use>
            </mask>
            <g id="Clip-26"></g>
            <path d="M106.6628,95.3529333 C100.625467,95.3529333 97.4854667,93.1289333 94.7161333,91.1662667 C92.1628,89.3569333 89.9561333,87.7929333 85.3254667,87.7929333 C80.6961333,87.7929333 78.4908,89.3556 75.9374667,91.1649333 C73.1681333,93.1289333 70.0281333,95.3529333 63.9908,95.3529333 C57.9534667,95.3529333 54.8148,93.1289333 52.0454667,91.1649333 C49.4921333,89.3556 47.2868,87.7929333 42.6574667,87.7929333 C38.0308,87.7929333 35.8254667,89.3556 33.2734667,91.1649333 C30.5054667,93.1289333 27.3681333,95.3529333 21.3321333,95.3529333 C15.2948,95.3529333 12.1561333,93.1289333 9.38813333,91.1649333 C6.83346667,89.3556 4.62946667,87.7929333 0.000133333333,87.7929333 L0.000133333333,83.3716 C6.03746667,83.3716 9.17613333,85.5956 11.9441333,87.5582667 C14.4974667,89.3689333 16.7028,90.9316 21.3321333,90.9316 C25.9588,90.9316 28.1641333,89.3689333 30.7161333,87.5582667 C33.4841333,85.5956 36.6214667,83.3716 42.6574667,83.3716 C48.6948,83.3716 51.8334667,85.5956 54.6028,87.5582667 C57.1561333,89.3689333 59.3614667,90.9316 63.9908,90.9316 C68.6214667,90.9316 70.8268,89.3689333 73.3801333,87.5569333 C76.1494667,85.5956 79.2881333,83.3716 85.3254667,83.3716 C91.3641333,83.3716 94.5041333,85.5956 97.2734667,87.5582667 C99.8268,89.3689333 102.032133,90.9316 106.6628,90.9316 C111.293467,90.9316 113.4988,89.3689333 116.052133,87.5582667 C118.821467,85.5956 121.961467,83.3716 128.000133,83.3716 L128.000133,87.7916 C123.369467,87.7916 121.1628,89.3556 118.609467,91.1649333 C115.840133,93.1289333 112.700133,95.3529333 106.6628,95.3529333" id="Fill-25" fill="#606688" mask="url(#mask-18)"></path>
            <mask id="mask-20" fill="white">
                <use xlink:href="#path-19"></use>
            </mask>
            <g id="Clip-29"></g>
            <path d="M106.6628,105.735733 C100.625467,105.735733 97.4854667,103.511733 94.7161333,101.549067 C92.1628,99.7397333 89.9561333,98.1757333 85.3254667,98.1757333 C80.6961333,98.1757333 78.4908,99.7384 75.9374667,101.547733 C73.1681333,103.511733 70.0281333,105.735733 63.9908,105.735733 C57.9534667,105.735733 54.8148,103.511733 52.0454667,101.547733 C49.4921333,99.7384 47.2868,98.1757333 42.6574667,98.1757333 C38.0308,98.1757333 35.8254667,99.7384 33.2734667,101.547733 C30.5054667,103.511733 27.3681333,105.735733 21.3321333,105.735733 C15.2948,105.735733 12.1561333,103.511733 9.38813333,101.547733 C6.83346667,99.7384 4.62946667,98.1757333 0.000133333333,98.1757333 L0.000133333333,93.7557333 C6.03746667,93.7557333 9.17613333,95.9797333 11.9441333,97.9424 C14.4974667,99.7517333 16.7028,101.315733 21.3321333,101.315733 C25.9588,101.315733 28.1641333,99.7517333 30.7161333,97.9424 C33.4841333,95.9797333 36.6214667,93.7557333 42.6574667,93.7557333 C48.6948,93.7557333 51.8334667,95.9797333 54.6028,97.9424 C57.1561333,99.7517333 59.3614667,101.315733 63.9908,101.315733 C68.6214667,101.315733 70.8268,99.7517333 73.3801333,97.9410667 C76.1494667,95.9797333 79.2881333,93.7557333 85.3254667,93.7557333 C91.3641333,93.7557333 94.5041333,95.9797333 97.2734667,97.9424 C99.8268,99.7517333 102.032133,101.315733 106.6628,101.315733 C111.293467,101.315733 113.4988,99.7517333 116.052133,97.9424 C118.821467,95.9797333 121.961467,93.7557333 128.000133,93.7557333 L128.000133,98.1757333 C123.369467,98.1757333 121.1628,99.7397333 118.609467,101.549067 C115.840133,103.511733 112.700133,105.735733 106.6628,105.735733" id="Fill-28" fill="#606688" mask="url(#mask-20)"></path>
            <mask id="mask-22" fill="white">
                <use xlink:href="#path-21"></use>
            </mask>
            <g id="Clip-32"></g>
            <path d="M106.6628,116.116 C100.625467,116.116 97.4854667,113.892 94.7161333,111.929333 C92.1628,110.12 89.9561333,108.556 85.3254667,108.556 C80.6961333,108.556 78.4908,110.118667 75.9374667,111.928 C73.1681333,113.892 70.0281333,116.116 63.9908,116.116 C57.9534667,116.116 54.8148,113.892 52.0454667,111.928 C49.4921333,110.118667 47.2868,108.556 42.6574667,108.556 C38.0308,108.556 35.8254667,110.118667 33.2734667,111.928 C30.5054667,113.892 27.3681333,116.116 21.3321333,116.116 C15.2948,116.116 12.1561333,113.892 9.38813333,111.928 C6.83346667,110.118667 4.62946667,108.556 0.000133333333,108.556 L0.000133333333,104.134667 C6.03746667,104.134667 9.17613333,106.358667 11.9441333,108.322667 C14.4974667,110.132 16.7028,111.694667 21.3321333,111.694667 C25.9588,111.694667 28.1641333,110.132 30.7161333,108.322667 C33.4841333,106.358667 36.6214667,104.134667 42.6574667,104.134667 C48.6948,104.134667 51.8334667,106.358667 54.6028,108.322667 C57.1561333,110.132 59.3614667,111.694667 63.9908,111.694667 C68.6214667,111.694667 70.8268,110.132 73.3801333,108.321333 C76.1494667,106.358667 79.2881333,104.134667 85.3254667,104.134667 C91.3641333,104.134667 94.5041333,106.358667 97.2734667,108.322667 C99.8268,110.132 102.032133,111.694667 106.6628,111.694667 C111.293467,111.694667 113.4988,110.132 116.052133,108.322667 C118.821467,106.358667 121.961467,104.134667 128.000133,104.134667 L128.000133,108.556 C123.369467,108.556 121.1628,110.12 118.609467,111.929333 C115.840133,113.892 112.700133,116.116 106.6628,116.116" id="Fill-31" fill="#606688" mask="url(#mask-22)"></path>
            <mask id="mask-24" fill="white">
                <use xlink:href="#path-23"></use>
            </mask>
            <g id="Clip-35"></g>
            <path d="M106.6628,126.494933 C100.625467,126.494933 97.4854667,124.270933 94.7161333,122.306933 C92.1628,120.498933 89.9561333,118.934933 85.3254667,118.934933 C80.6961333,118.934933 78.4908,120.4976 75.9374667,122.3056 C73.1681333,124.270933 70.0281333,126.494933 63.9908,126.494933 C57.9534667,126.494933 54.8148,124.270933 52.0454667,122.3056 C49.4921333,120.4976 47.2868,118.934933 42.6574667,118.934933 C38.0308,118.934933 35.8254667,120.4976 33.2734667,122.3056 C30.5054667,124.270933 27.3681333,126.494933 21.3321333,126.494933 C15.2948,126.494933 12.1561333,124.270933 9.38813333,122.3056 C6.83346667,120.4976 4.62946667,118.934933 0.000133333333,118.934933 L0.000133333333,114.5136 C6.03746667,114.5136 9.17613333,116.7376 11.9441333,118.7016 C14.4974667,120.510933 16.7028,122.0736 21.3321333,122.0736 C25.9588,122.0736 28.1641333,120.510933 30.7161333,118.7016 C33.4841333,116.7376 36.6214667,114.5136 42.6574667,114.5136 C48.6948,114.5136 51.8334667,116.7376 54.6028,118.7016 C57.1561333,120.510933 59.3614667,122.0736 63.9908,122.0736 C68.6214667,122.0736 70.8268,120.510933 73.3801333,118.700267 C76.1494667,116.7376 79.2881333,114.5136 85.3254667,114.5136 C91.3641333,114.5136 94.5041333,116.7376 97.2734667,118.7016 C99.8268,120.510933 102.032133,122.0736 106.6628,122.0736 C111.293467,122.0736 113.4988,120.510933 116.052133,118.7016 C118.821467,116.7376 121.961467,114.5136 128.000133,114.5136 L128.000133,118.934933 C123.369467,118.934933 121.1628,120.498933 118.609467,122.306933 C115.840133,124.270933 112.700133,126.494933 106.6628,126.494933" id="Fill-34" fill="#606688" mask="url(#mask-24)"></path>
        </g>
    </g>
</svg>