<?xml version="1.0" encoding="utf-8"?>
<!-- Generator: Adobe Illustrator 21.0.2, SVG Export Plug-In . SVG Version: 6.00 Build 0)  -->
<svg version="1.1" id="Layer_1" xmlns="http://www.w3.org/2000/svg" xmlns:xlink="http://www.w3.org/1999/xlink" x="0px" y="0px"
	 width="300px" height="150px" viewBox="0 0 300 150" style="enable-background:new 0 0 300 150;" xml:space="preserve">
<style type="text/css">
	.st0{fill:#2F3C40;}
</style>
<g>
	<path class="st0" d="M100.8,86.2V65h2.7l12.9,17V65h2.6v21.1h-2.7L103.4,69v17.2H100.8L100.8,86.2z M140.1,85.4
		c-1.7,0.7-3.5,1-5.5,1c-7.7,0-11.5-3.7-11.5-11c0-6.9,3.7-10.4,11.1-10.4c2.1,0,4.1,0.3,5.9,0.9v2.4c-1.8-0.7-3.7-1-5.6-1
		c-5.8,0-8.6,2.7-8.6,8.2c0,5.9,2.8,8.8,8.5,8.8c0.9,0,1.9-0.1,3-0.4v-7.2h2.7L140.1,85.4z M144.4,78V65h2.7v13c0,4.1,2,6.1,6.1,6.1
		c4,0,6.1-2,6.1-6.1V65h2.7v13c0,5.5-2.9,8.3-8.8,8.3C147.4,86.3,144.4,83.6,144.4,78z M169.6,65v19h11.1v2.2h-13.8V65H169.6
		L169.6,65z M184.6,86.2h-2.8l10.5-23.9l10.5,23.9h-3l-2.7-6.7h-7l0.8-2.2h5.3l-3.9-9.6L184.6,86.2L184.6,86.2z M205.7,86.2V65h9
		c4,0,6,1.7,6,5.1c0,2.7-2,4.8-5.9,6.1l7.3,10h-3.6l-6.7-9.5v-1.8c4-0.6,6.1-2.2,6.1-4.7c0-1.9-1.1-2.9-3.4-2.9h-6v18.9H205.7
		L205.7,86.2z"/>
	<path class="st0" d="M232.3,65v15c0,4.1-2.4,6.1-7.2,6.1V84c3,0,4.4-1.3,4.4-3.9V65H232.3L232.3,65z M237.2,85.4v-2.5
		c2.2,0.8,4.6,1.2,7.2,1.2c3.6,0,5.5-1.3,5.5-4c0-2.3-1.3-3.4-4-3.4h-2.7c-4.4,0-6.6-1.9-6.6-5.8c0-4,2.8-6.1,8.5-6.1
		c2.5,0,4.8,0.3,6.9,0.9v2.5c-2.1-0.8-4.4-1.2-6.9-1.2c-3.8,0-5.8,1.3-5.8,3.8c0,2.3,1.3,3.4,3.9,3.4h2.7c4.5,0,6.8,1.9,6.8,5.8
		c0,4.1-2.7,6.2-8.2,6.2C241.8,86.3,239.4,86,237.2,85.4L237.2,85.4z"/>
	<g>
		<polygon class="st0" points="72,74.9 72.3,74.9 77.2,74.9 72.1,64.1 67.5,74.9 		"/>
		<path class="st0" d="M72.1,48.8L72.1,48.8l-24.7,8.7l3.9,32.3l20.8,11.4L93,89.6l3.9-32.3L72.1,48.8z M82.5,87.2l-3.4-7.8h-7.2
			l0,0h-6.5l-3.1,7.7l-5.7,0.1l15.4-34l0,0l0,0l0,0l0,0l0,0l16,34C88,87.2,82.5,87.2,82.5,87.2z"/>
	</g>
</g>
</svg>
