<?xml version="1.0" encoding="utf-8"?>
<!-- Generator: Adobe Illustrator 21.0.2, SVG Export Plug-In . SVG Version: 6.00 Build 0)  -->
<svg version="1.1" id="Layer_1" xmlns="http://www.w3.org/2000/svg" xmlns:xlink="http://www.w3.org/1999/xlink" x="0px" y="0px"
	 width="300px" height="150px" viewBox="0 0 300 150" style="enable-background:new 0 0 300 150;" xml:space="preserve">
<style type="text/css">
	.st0{fill:#2F3C40;}
</style>
<g>
	<path class="st0" d="M121.9,58.9H102l-8.6,43.4h10.2l2.1-11.3h9.6c9.1,0.5,19.3-7,19.3-19.8C134.7,63.7,130.4,59.5,121.9,58.9z
		 M114.4,83H108l0,0l2.7-16.1h7c3.8,0,6.4,1.6,6.4,4.8C123.5,80.9,119.2,82.5,114.4,83z"/>
	<path class="st0" d="M155.2,91.1H166l3.8-22c1.1-5.4-2.1-9.6-10.7-10.2h-9.6l2.1-11.3h-10.2L132.8,91H143l4.8-24.1h8
		c3.8,0,3.8,1.6,3.2,4.3L155.2,91.1z"/>
	<path class="st0" d="M193.7,58.9h-19.8l-8.6,43.4h10.2l2.1-11.3h9.6c9.1,0.5,19.3-7,19.3-19.8C206.5,63.7,202.3,59.5,193.7,58.9z
		 M186.2,83h-6.4l0,0l2.7-16.1h7c3.8,0,6.4,1.6,6.4,4.8C195.3,80.9,191,82.5,186.2,83z"/>
</g>
</svg>
