<?xml version="1.0" encoding="UTF-8"?>
<svg width="133px" height="86px" viewBox="0 0 133 86" version="1.1" xmlns="http://www.w3.org/2000/svg" xmlns:xlink="http://www.w3.org/1999/xlink">
    <!-- Generator: Sketch 48.2 (47327) - http://www.bohemiancoding.com/sketch -->
    <title>Page 1</title>
    <desc>Created with Sketch.</desc>
    <defs>
        <polygon id="path-1" points="0.55654698 0.407122819 12.0780067 0.407122819 12.0780067 14.1471832 0.55654698 14.1471832"></polygon>
        <polygon id="path-3" points="0.646255034 0.143711409 67.7211007 0.143711409 67.7211007 58.4559101 0.646255034 58.4559101"></polygon>
    </defs>
    <g id="Artboard" stroke="none" stroke-width="1" fill="none" fill-rule="evenodd">
        <g id="Page-1">
            <polygon id="Fill-1" fill="#414749" points="15.2001148 67.2104342 18.6072356 67.2104342 18.4456718 69.6990517 15.0376584 69.6990517"></polygon>
            <g id="Group-38" transform="translate(0.000000, 0.749263)">
                <path d="M109.591821,79.0105691 C108.780432,79.7139517 108.023493,80.2548779 106.671177,80.2548779 C104.399466,80.2548779 103.479177,78.9561195 103.479177,77.2797839 C103.479177,75.3865423 105.426868,74.1422336 108.889332,74.1422336 L110.024741,74.1422336 C110.079191,73.3308443 110.349654,71.9249718 108.942889,71.9249718 C107.915486,71.9249718 107.69858,72.8979248 107.64413,73.385294 L104.345016,73.385294 C104.399466,72.1409852 104.940392,71.329596 105.967795,70.8431195 C106.99609,70.4102 108.239506,70.2477436 109.321358,70.2477436 C111.26905,70.2477436 113.648768,71.2215893 113.486311,73.6013074 L113.216741,78.1991799 C113.162291,78.5776497 113.162291,79.0105691 113.216741,80.1468711 L109.754278,80.1468711 L109.591821,79.0105691 M107.969936,78.3616362 C109.646271,78.3616362 109.754278,76.7933074 109.863177,75.494549 C109.105345,75.494549 108.401962,75.4400993 107.861929,75.711455 C107.32011,75.9810255 106.888083,76.413945 106.833634,77.1173275 C106.833634,77.8207101 107.32011,78.3616362 107.969936,78.3616362" id="Fill-2" fill="#414749"></path>
                <g id="Group-6" transform="translate(120.503356, 66.053691)">
                    <mask id="mask-2" fill="white">
                        <use xlink:href="#path-1"></use>
                    </mask>
                    <g id="Clip-5"></g>
                    <path d="M0.55654698,14.1471832 L1.53039262,0.407122819 L5.15441946,0.407122819 L4.18146644,14.1471832 L0.55654698,14.1471832 Z M4.55904362,8.79147852 L7.96705705,4.51851879 L12.078453,4.51851879 L8.39997651,8.5754651 L11.9159966,14.0927336 L7.48058054,14.0927336 L4.55904362,8.79147852 Z" id="Fill-4" fill="#414749" mask="url(#mask-2)"></path>
                </g>
                <path d="M62.4234161,72.0326215 C63.3972617,70.8427624 64.4791141,70.6258564 65.6145235,70.6258564 L65.3985101,73.7098497 L64.6406779,73.7098497 C62.2600671,73.7098497 62.2065101,75.0621651 62.0985034,76.630494 L61.8824899,80.2009638 L58.1495638,80.2009638 L58.6369329,73.1144738 C58.6904899,72.2495275 58.7449396,71.7086013 58.6904899,70.6258564 L62.2065101,70.6258564 L62.4234161,72.0326215" id="Fill-7" fill="#414749"></path>
                <polygon id="Fill-9" fill="#414749" points="65.3445067 80.2008745 66.3183523 66.4608141 69.8334799 66.4608141 68.8596342 80.2008745"></polygon>
                <path d="M37.1076248,66.4611711 L40.6780946,66.4611711 L40.2987322,71.9248826 L40.3531819,71.9248826 C41.0565644,71.0590436 42.0839671,70.3556611 43.3818329,70.3556611 C46.3033698,70.3556611 47.4396718,72.9522852 47.2772154,75.2784463 C47.1147591,77.6581644 45.8704503,80.3627953 42.6257859,80.3627953 C41.5439336,80.3627953 40.4611886,79.7683121 39.9747121,79.0649295 L39.9202624,79.0649295 L39.704249,80.2547886 L36.1882289,80.2547886 L37.1076248,66.4611711 M39.9747121,75.5489094 C39.9202624,76.7387685 40.1907255,78.361547 41.5439336,78.361547 C43.2202691,78.361547 43.5987389,76.6852114 43.7076383,75.386453 C43.7611953,74.196594 43.5451819,72.4658087 42.1384168,72.4658087 C40.2987322,72.4658087 40.0282691,74.2510436 39.9747121,75.5489094" id="Fill-11" fill="#414749"></path>
                <path d="M51.2256195,76.0354752 C51.1176128,77.3342336 51.4425255,78.4160859 52.7948409,78.4160859 C53.8222436,78.4160859 54.4176195,77.7662604 54.4176195,77.1173275 L57.7711832,77.1173275 C57.7167336,78.3071866 56.9053443,79.1730255 55.9314987,79.7139517 C55.0665523,80.2548779 54.038257,80.3628846 52.9564047,80.3628846 C49.0619148,80.3628846 47.5480356,78.740106 47.764049,75.1160792 C47.9800624,72.0865356 50.4151228,70.3021933 53.2813174,70.3557503 C57.1213577,70.4102 58.3665591,72.6819114 57.9871966,76.0354752 L51.2256195,76.0354752 Z M54.6880826,74.1966832 C54.7416396,73.655757 54.6336329,73.1692805 54.3631698,72.7899181 C54.0927067,72.4114483 53.7142369,72.1409852 53.1733107,72.1954349 C51.929002,72.2489919 51.5505322,73.1692805 51.3880758,74.2502403 L54.6880826,74.2502403 L54.6880826,74.1966832 Z" id="Fill-13" fill="#414749"></path>
                <polygon id="Fill-15" fill="#414749" points="0.974024161 66.4611711 4.97652081 66.4611711 4.00356779 80.2012315 0.00017852349 80.2012315"></polygon>
                <polygon id="Fill-17" fill="#414749" points="9.46611879 66.4611711 4.65134027 72.5738154 8.92608523 80.2012315 13.7390785 80.2012315 8.92608523 72.3569094 14.0104342 66.4611711"></polygon>
                <polygon id="Fill-19" fill="#414749" points="14.8759161 70.6261242 18.2830369 70.6261242 17.634104 80.2012315 14.2260906 80.2012315"></polygon>
                <path d="M22.6104463,70.6261242 L22.6104463,71.9248826 L22.664896,71.9248826 C23.7467483,70.5181174 25.2070705,70.4101107 26.1264664,70.4101107 C27.4252248,70.4101107 28.7775403,71.1126007 29.0480034,72.0864463 C29.8058356,70.9510369 31.1037013,70.3556611 32.5631309,70.3556611 C34.6741711,70.3556611 36.1336007,71.7079765 35.9720369,73.8181242 L35.4302181,80.2012315 L31.7526342,80.2012315 L32.131104,74.5750638 C32.1855537,73.6556678 32.131104,72.6273725 30.8867953,72.6273725 C29.1015604,72.6273725 29.2104597,74.5750638 29.1560101,74.6830705 L28.885547,80.2012315 L25.2070705,80.2012315 L25.6399899,74.5750638 C25.6399899,73.6556678 25.5310906,72.6273725 24.3956812,72.6273725 C22.5559966,72.6273725 22.5559966,74.5750638 22.5559966,74.6830705 L22.1239698,80.2012315 L18.3374866,80.2012315 L18.9864195,70.6261242 L22.6104463,70.6261242" id="Fill-21" fill="#414749"></path>
                <polygon id="Fill-23" fill="#414749" points="74.4319772 84.7986577 71.0775208 84.7986577 73.2421181 80.3632416 69.726098 70.6265705 73.7821517 70.6265705 75.3513732 76.5767584 77.8935477 70.6265705 81.248004 70.6265705"></polygon>
                <polygon id="Fill-25" fill="#414749" points="81.4098356 72.519455 86.0621577 72.519455 84.600943 75.494549 79.9486208 75.494549"></polygon>
                <path d="M93.4724,66.0824336 C96.2850376,66.0824336 99.2065745,67.3267423 99.0985678,70.7347557 L95.2031852,70.7347557 C95.2031852,69.8153597 94.6622591,68.7870644 93.3643933,68.7870644 C92.0665275,68.7870644 90.497306,69.7609101 90.226843,72.6279973 C89.9563799,75.4941919 90.3348497,77.6587893 92.6065611,77.6587893 C94.6078094,77.6587893 94.9871718,75.9271114 95.0416215,75.6030913 L98.9361114,75.6030913 C98.9361114,77.1178631 97.6918027,80.3089705 92.4449973,80.3089705 C86.9268362,80.3089705 85.8994336,76.3064738 86.3868027,72.519098 C86.7108228,69.3824403 88.9280846,66.0824336 93.4724,66.0824336" id="Fill-27" fill="#414749"></path>
                <polygon id="Fill-29" fill="#414749" points="99.1523926 80.2008745 100.126238 66.4608141 103.641366 66.4608141 102.66752 80.2008745"></polygon>
                <path d="M117.976713,72.0326215 C118.950558,70.8427624 120.032411,70.6258564 121.22227,70.6258564 L121.006256,73.7098497 L120.248424,73.7098497 C117.868706,73.7098497 117.814256,75.0621651 117.705357,76.630494 L117.489344,80.2009638 L113.75731,80.2009638 L114.243787,73.1144738 C114.298236,72.2495275 114.298236,71.7086013 114.298236,70.6258564 L117.814256,70.6258564 L117.976713,72.0326215" id="Fill-31" fill="#414749"></path>
                <g id="Group-35" transform="translate(32.134228, 0.000000)">
                    <mask id="mask-4" fill="white">
                        <use xlink:href="#path-3"></use>
                    </mask>
                    <g id="Clip-34"></g>
                    <path d="M0.646255034,29.2994537 C0.646255034,45.4192322 15.6841812,58.4559101 34.1836779,58.4559101 C52.6831745,58.4559101 67.7211007,45.4192322 67.7211007,29.2994537 C67.7211007,13.1796752 52.6831745,0.142997315 34.1836779,0.142997315 C15.5761745,0.142997315 0.646255034,13.2341248 0.646255034,29.2994537 M34.1836779,55.8048362 C17.0900537,55.8048362 3.29643624,43.9589101 3.29643624,29.2994537 C3.29643624,14.6399973 17.0900537,2.79407114 34.1836779,2.79407114 C51.277302,2.79407114 65.0709195,14.6399973 65.0709195,29.2994537 C65.0164698,43.9589101 51.277302,55.8048362 34.1836779,55.8048362" id="Fill-33" fill="#3C93CB" mask="url(#mask-4)"></path>
                </g>
                <path d="M59.1772342,49.0974409 L59.1772342,40.9835483 C58.4747443,41.4709174 56.7975161,42.7687832 53.281496,42.7687832 L39.4869859,42.7687832 L39.4869859,31.4628906 L47.9802409,31.4628906 C50.089496,31.4628906 50.2519523,30.2194745 50.2519523,29.786555 C50.2519523,26.5401054 44.6266772,21.9966826 38.4051336,17.2908034 L55.1202879,17.2372463 C56.1476906,17.9941859 57.7713617,19.1295953 59.1772342,20.7532664 L59.1772342,8.8528906 L73.4037711,8.8528906 L73.4037711,20.7532664 C74.8105362,19.1295953 76.4333148,17.9941859 77.4607174,17.2372463 L94.1758718,17.2908034 C87.9543282,21.9966826 82.329053,26.4865483 82.329053,29.786555 C82.329053,30.1650248 82.4379523,31.4628906 84.6007644,31.4628906 L93.0940195,31.4628906 L93.0940195,42.7687832 L79.300402,42.7687832 C75.7834893,42.7687832 74.1071537,41.4164678 73.4037711,40.9835483 L73.4037711,49.0974409 L59.1772342,49.0974409 Z M70.6455832,46.3383604 L70.6455832,33.4641389 C73.0788584,38.8734007 77.2991537,40.0641523 80.7607242,40.0641523 L90.3349389,40.0641523 L90.3349389,34.2219711 L83.6278114,34.2219711 C80.1662409,34.2219711 79.083496,31.6797966 79.083496,30.1650248 C79.083496,26.594555 82.0041403,23.8899242 86.2779926,20.0498839 L78.6505765,20.0498839 C75.3514624,22.2135886 72.1050128,25.621602 70.6455832,29.5160919 L70.6455832,11.6646356 L61.9898718,11.6646356 L61.9898718,29.5160919 C60.5304423,25.6751591 57.2839926,22.2135886 53.9848785,20.0498839 L46.3574624,20.0498839 C50.6313148,23.9443738 53.498402,26.6490047 53.498402,30.2194745 C53.498402,31.6797966 52.4165497,34.2764208 48.9540866,34.2764208 L42.2460664,34.2764208 L42.2460664,40.0641523 L51.8747309,40.0641523 C55.3363013,40.0641523 59.5565966,38.8734007 61.9898718,33.4641389 L61.9898718,46.3383604 L70.6455832,46.3383604 Z" id="Fill-36" fill="#3C93CB"></path>
            </g>
        </g>
    </g>
</svg>