<?xml version="1.0" encoding="utf-8"?>
<!-- Generator: Adobe Illustrator 21.0.2, SVG Export Plug-In . SVG Version: 6.00 Build 0)  -->
<svg version="1.1" id="Layer_1" xmlns="http://www.w3.org/2000/svg" xmlns:xlink="http://www.w3.org/1999/xlink" x="0px" y="0px"
	 width="300px" height="150px" viewBox="0 0 300 150" style="enable-background:new 0 0 300 150;" xml:space="preserve">
<g id="Layer_2">
</g>
<g id="Layer_2_3_">
</g>
<g id="Layer_2_4_">
</g>
<g id="Layer_2_6_">
</g>
<g id="Layer_2_2_">
</g>
<g id="Layer_2_7_">
</g>
<g id="Layer_2_8_">
</g>
<g id="Layer_2_9_">
</g>
<g id="Layer_2_10_">
</g>
<g id="Layer_2_11_">
</g>
<g id="Layer_2_12_">
</g>
<g>
	<path d="M164.8,104.1c-0.9-0.1-1.8-0.2-1.8-0.7c0-0.2,0.1-0.4,0.3-0.5c0.2-0.1,0.6-0.2,0.9-0.2c0.3,0,0.6,0.1,0.8,0.3
		c0.1,0.1,0.3,0.4,0.3,0.6h1.5c0-0.6-0.3-1.1-0.7-1.4c-0.4-0.3-1-0.7-1.7-0.7c-0.7,0-1.4,0-1.9,0.4c-0.5,0.4-0.9,1-0.9,1.5
		c0,0.3,0,0.7,0.1,0.9c0.1,0.2,0.5,0.7,0.8,0.8c0.4,0.2,1.3,0.3,1.9,0.5c0.4,0.1,0.9,0.1,1.1,0.6c0.1,0.3,0,0.5-0.2,0.6
		c-0.2,0.1-0.6,0.3-0.9,0.3c-0.4,0-0.7-0.1-0.9-0.3c-0.2-0.2-0.3-0.4-0.4-0.8h-1.5c0,0.7,0.4,1.4,0.9,1.8c0.5,0.4,1.1,0.6,1.9,0.6
		c0.8,0,1.5-0.1,2-0.5c0.5-0.4,0.8-1.1,0.8-1.6c0-0.5-0.1-0.9-0.4-1.2C166.2,104.3,165.4,104.1,164.8,104.1L164.8,104.1z M144.8,108
		h1.6v-6.5h-1.6V108L144.8,108z M144.8,101.1h1.6v-1.6h-1.6V101.1z M142.6,102.4c-0.6-0.4-1.3-0.8-2.1-0.8h-0.1
		c-1.8,0-3.2,1.5-3.2,3.2c0,1.8,1.5,3.2,3.2,3.2h0.1c0.8,0,1.5-0.3,2.1-0.9l0,0.8h1.5v-8.4h-1.5V102.4L142.6,102.4z M140.5,106.8
		L140.5,106.8c-1.1,0-1.9-0.9-1.9-1.9c0-1,0.9-1.9,1.9-1.9h0c1,0,1.9,0.9,1.9,1.9C142.4,105.9,141.5,106.8,140.5,106.8z
		 M152.2,102.4c-0.6-0.4-1.3-0.8-2.1-0.8H150c-1.8,0-3.2,1.5-3.2,3.2c0,1.8,1.5,3.2,3.2,3.2h0.1c0.8,0,1.5-0.3,2.1-0.9v0.8h1.5v-8.4
		h-1.5L152.2,102.4z M150.1,106.8c-1.1,0-1.9-0.9-1.9-1.9c0-1,0.9-1.9,1.9-1.9c1.1,0,1.9,0.9,1.9,1.9
		C152,105.9,151.2,106.8,150.1,106.8z M135.1,101.5v0.6c-0.3-0.3-0.4-0.4-0.8-0.6c-0.3-0.1-0.7-0.2-1.2-0.2h-0.1
		c-0.5,0-0.9,0.1-1.3,0.2c-0.4,0.2-0.7,0.4-1.1,0.8c-0.3,0.3-0.5,0.7-0.7,1.1c-0.2,0.4-0.2,0.8-0.2,1.3c0,1,0.3,1.8,1,2.4
		c0.6,0.6,1.4,1,2.4,1h0c0.4,0,0.8-0.1,1.2-0.2c0.3-0.1,0.6-0.2,0.8-0.5v0.6l1.5,0l0-6.5L135.1,101.5L135.1,101.5z M133.1,106.7
		L133.1,106.7c-1.1,0-1.9-0.8-1.9-1.9c0,0,0,0,0,0c0-1.1,0.9-1.9,1.9-1.9h0c1,0,1.9,0.9,1.9,1.9C135,105.8,134.2,106.7,133.1,106.7z
		 M159.5,101.5l0,0.6c-0.3-0.3-0.4-0.4-0.8-0.6c-0.4-0.1-0.8-0.2-1.2-0.2h-0.1c-0.5,0-0.9,0.1-1.3,0.2c-0.4,0.2-0.7,0.4-1.1,0.8
		c-0.3,0.3-0.5,0.7-0.7,1.1c-0.2,0.4-0.2,0.8-0.2,1.3c0,1,0.3,1.8,1,2.4c0.6,0.6,1.4,1,2.4,1c0.4,0,0.8-0.1,1.2-0.2
		c0.3-0.1,0.6-0.2,0.8-0.5v0.6l1.5,0l0-6.5L159.5,101.5L159.5,101.5L159.5,101.5z M157.6,106.7c-1.1,0-1.9-0.9-1.9-1.9
		c0-1,0.9-1.9,1.9-1.9c1.1,0,1.9,0.9,1.9,1.9C159.5,105.8,158.6,106.7,157.6,106.7z M168.3,98.1C168.3,98.1,168.3,98.1,168.3,98.1
		c-1,0-1.8,0.8-1.8,1.8c0,1,0.8,1.8,1.8,1.8h0c1,0,1.8-0.8,1.8-1.8S169.3,98.1,168.3,98.1z M168.3,101.4c-0.8,0-1.5-0.7-1.5-1.5
		c0,0,0,0,0,0c0-0.8,0.7-1.5,1.5-1.5c0.8,0,1.5,0.7,1.5,1.5C169.8,100.8,169.1,101.4,168.3,101.4z"/>
	<path d="M168.8,100.2c-0.1-0.1-0.1-0.1-0.2-0.2c0.2,0,0.3-0.1,0.4-0.2c0.1-0.1,0.1-0.2,0.1-0.3c0-0.1,0-0.2-0.1-0.3
		c-0.1-0.1-0.1-0.1-0.2-0.2c-0.1,0-0.2,0-0.5,0h-0.8v2h0.4v-0.8h0.1c0.1,0,0.2,0,0.2,0c0,0,0.1,0,0.1,0.1c0,0,0,0,0,0
		c0,0,0.1,0.1,0.2,0.3l0.3,0.4h0.5l-0.2-0.4C168.9,100.4,168.9,100.3,168.8,100.2L168.8,100.2z M168.3,99.8h-0.4v-0.5h0.4
		c0.1,0,0.2,0,0.2,0c0.1,0,0.1,0,0.1,0.1c0,0,0.1,0.1,0.1,0.1c0,0.1,0,0.1,0,0.2c0,0-0.1,0.1-0.1,0.1
		C168.5,99.8,168.4,99.8,168.3,99.8L168.3,99.8z M144.7,89.4h-13.1c3.9,2.4,8.5,4,13.8,5.1L144.7,89.4L144.7,89.4z M154.7,89.4
		l-0.8,4.8c5.3-1,9.9-2.5,13.9-4.8H154.7L154.7,89.4z M153.2,89.4l-7.2,0c1,2.1,2.3,3.9,3.8,5.6C151.2,93.2,152.2,91.5,153.2,89.4
		L153.2,89.4z M172.6,86.2l-46,0c-1.5-1.2-2.6-1.9-3.8-3.5h53.6C175.3,84,173.9,85.2,172.6,86.2z M179.5,78.7l-59.4,0
		c-0.8-1.1-1.7-2.7-2.3-3.9h64C181.2,76.2,180.4,77.5,179.5,78.7L179.5,78.7z M137,70.6l-20.7,0c-1.9-4.4-3.1-8.9-3.7-14.5
		C123.2,58,131.5,62.4,137,70.6z M158.2,70.6h-17.1c-0.4-11,2.7-22.1,8.5-28.8C155.7,48.3,158.8,59.4,158.2,70.6L158.2,70.6z
		 M183.5,70.6l-21.2,0c5.8-8.2,14.2-12.9,25.1-14.5C186.8,61.6,185.5,66.3,183.5,70.6z"/>
</g>
</svg>
