<?xml version="1.0" encoding="utf-8"?>
<!-- Generator: Adobe Illustrator 21.0.2, SVG Export Plug-In . SVG Version: 6.00 Build 0)  -->
<svg version="1.1" id="Layer_1" xmlns="http://www.w3.org/2000/svg" xmlns:xlink="http://www.w3.org/1999/xlink" x="0px" y="0px"
	 width="300px" height="150px" viewBox="0 0 300 150" style="enable-background:new 0 0 300 150;" xml:space="preserve">
<style type="text/css">
	.st0{fill:#EA2227;}
</style>
<g id="Layer_2">
</g>
<g id="Layer_2_3_">
</g>
<g id="Layer_2_4_">
</g>
<g id="Layer_2_6_">
</g>
<g id="Layer_2_2_">
</g>
<g id="Layer_2_7_">
</g>
<g id="Layer_2_8_">
</g>
<g id="Layer_2_9_">
</g>
<g id="Layer_2_10_">
</g>
<g id="Layer_2_11_">
</g>
<g id="Layer_2_12_">
</g>
<g>
	<g>
		<g>
			<g>
				<path class="st0" d="M200.2,71.4c-0.6-1.5-1.9-2.5-3.3-3.1c-8-2.6-15.6-6.3-23.1-10c-3.8-1.7-7.8-2.8-12-3.7
					c-11-2.3-22.4-0.9-32.3,2.6c-9.3,3.4-17.7,9.4-28.1,10l-0.8,0.7c-0.4,1.2-1.2,2.6-0.8,4l6.9,12.6c0.6,0.9,0.9,2.2,2.1,2.4
					l5.3,0.2c1.7,0.3,3.7-0.1,5.1,1.2c1.1,1.7-0.8,4,0.9,5.6c2.1,1.9,4.8,2.7,7.8,2.7c2.6-0.2,5.4-0.5,6.9-2.7
					c0.7-1.1,0.2-3.1,2-3.3l5.2,0.9c10,1.1,20.7,0.8,30.1-1.3c0.6-0.1,1.5-0.1,1.9,0.5c0.5,1.3,1.2,2.8,2.7,3.3
					c4.6,0.9,8.9-0.7,12.3-3.6c1.9-1.7,2.4-4.4,2.2-7c0.6-1.1,1.9-1.4,2.9-2.2C196.9,78.5,200.7,75.6,200.2,71.4z M195.7,69
					c-0.4,1.1-0.7,2.4-1.4,3.3l-1.4-0.5c0.3-1.1,0.7-2.3,1.4-3.3L195.7,69z M191.9,67.8c0.6,0.1,1.2,0.3,1.6,0.5l-1.3,3.3
					c-0.6-0.1-1.1-0.3-1.5-0.6C191,69.8,191.3,68.7,191.9,67.8z M189.7,68.6l0.1,0.5c0.3,2,0.2,4,0.5,5.9c0.8,0,1.3-0.6,2-0.8
					c0.4,0.6,0.4,1.5,0.4,2.3c-1.6,0.9-3.2,2-5,2.7c-0.3-3.3-0.4-6.9-0.6-10.3C188,68.6,188.9,68.5,189.7,68.6z M184.7,68.9l0.1,0.5
					c0.2,2.9,0.1,5.6,0.6,8.4c0.5,0.2,0.9-0.3,1.5-0.4c0.3,0.7,0.2,1.5,0.2,2.1c-1.4,0.9-2.9,1.6-4.3,2.1c-0.4-3.9-0.5-8.4-0.6-12.4
					C182.9,69,183.8,68.9,184.7,68.9z M175.3,69.7c0.8-0.4,2.1-0.3,3.1-0.4c1.6-0.4,1,1.6,1.6,2.4c0.7,3.4,1.6,6.7,2.2,10.2
					c-0.8,0.4-1.5,0.8-2.5,0.9c-0.2-0.5-0.3-1.2-0.6-1.8c-0.5-0.2-1.1,0.2-1.7,0.3c-0.5,0.7-0.3,1.8-0.5,2.6
					c-0.9,0.3-1.8,0.7-2.7,0.8l-0.1-0.4L175.3,69.7z M166.1,70.3c0.8-0.4,1.8-0.1,2.7-0.3l0.4,0.8c0.3,2.1,0.8,4.3,1.3,6.4
					c0.3-0.1,0.2-0.5,0.2-0.8l0.4-6c-0.1-0.2,0.1-0.5,0.1-0.6c0.8-0.2,1.7-0.2,2.5-0.2c-0.1,5.3-0.4,10.4-0.8,15.4
					c-1.1,0.4-2.1,0.7-3.2,0.9c-0.7-1.8-0.9-3.7-1.4-5.5c-0.3,0-0.2,0.4-0.2,0.7l-0.6,5.3c-1,0.4-2.2,0.3-3.3,0.5l-0.3-0.7
					l-3.3-15.6l0.2-0.1l2.9-0.2l0.3,0.4c0.3,2.7,0.7,5.3,1.2,7.9C165.8,75.9,165.8,73.2,166.1,70.3z M162.9,62.5
					c-0.9-0.3-2-1.1-3-0.4c-0.3,0.3-0.6,0.8-0.3,1.1c1.5,1,4.1,0.2,4.8,2.5c0.4,0.9,0.2,2.1-0.5,2.8c-1.2,1.3-2.9,1.6-4.7,1.2
					c-0.8-0.2-1.7-0.4-2.3-1c0.2-0.8,0.6-1.3,1.1-1.8c0.9,0.2,1.8,0.8,3,0.6c0.5,0,0.9-0.2,1.1-0.7c0-1.7-2-0.9-3.1-1.3
					c-1-0.2-1.8-1-2.1-1.9c-0.2-1,0-2,0.7-2.7c1.7-1.3,4.5-1.3,6.3-0.1C163.9,61.4,163.4,62,162.9,62.5z M146.7,87.1l-0.2,0.1
					l-2.6-0.3l-0.2-0.8l-0.7-14l0.1-0.5c0.8-0.1,1.7,0,2.5-0.2c0.4,2.2,0.4,4.4,0.6,6.7c0.5,0.5,1.4,0.1,2.1,0.1l0.2-0.2l-0.3-6.6
					c0.8-0.3,1.8-0.3,2.7-0.3l0.1,0.4l1,15.7c0.1,0.2-0.1,0.3-0.2,0.3c-0.9-0.1-1.9,0.2-2.6-0.4l-0.4-5.8c-0.7-0.3-1.5,0-2.2,0
					l-0.2,0.2L146.7,87.1z M140.4,86.4l-0.1,0.2l-2.4-0.4c-0.4-3.8-0.6-7.6-1-11.5l-0.1-0.2l-2.2,0c0-0.8-0.4-1.7,0-2.4
					c2.4-0.2,4.9-0.3,7.3-0.4l0.2,0.2l0,2.1c-0.7,0.1-1.5,0.2-2.2,0.2l-0.2,0.3L140.4,86.4z M141.8,69l-0.3,1.4
					c-0.8,0.1-1.7,0.2-2.4,0.1c0.6-3,1.3-5.9,2-8.8c1.1-0.4,2.5-0.3,3.7-0.3l0.9,2.2l2,6.3c-0.7,0.3-1.5,0.1-2.4,0.3
					c-0.4-0.5-0.2-1.6-1.1-1.6C143.4,68.6,142.4,68.4,141.8,69z M150.9,65.9c-0.2-0.1-0.2,0.1-0.2,0.1l0.2,3.6
					c-0.6,0.4-1.4,0.1-2.2,0.3l-0.1-0.5c-0.2-2.6-0.4-5.5-0.4-8.2c0.8-0.2,1.7-0.3,2.5-0.3l0.3,0.2l2.2,3.5l0.3-0.1
					c-0.1-1,0-2.4-0.2-3.6c0.7-0.3,1.7-0.2,2.4-0.2c0.2,2.9,0.4,5.8,0.5,8.6c-0.9,0.3-2,0.1-2.9,0.2
					C152.4,68.3,151.8,67.2,150.9,65.9z M158.3,70.7l0.2,0.1c0.1,0.7,0.1,1.4,0.1,2.1l-2.8,0.4l-0.2,0.3l0.4,4.1
					c0.7,0.3,1.6,0,2.3,0.2c0.1,0.8,0.3,1.8,0.2,2.5c-0.6,0.4-1.4,0.1-2.1,0.3l-0.2,0.2l0.2,4l0.4,0.3l2.6,0
					c0.3,0.6,0.3,1.4,0.3,2.1c-1.8,0.3-3.9,0.3-5.9,0.3l-0.1-0.5l-1-14.4l0-1.7C154.4,70.8,156.3,70.8,158.3,70.7z M132.5,58.3
					c1.2,2.9,1.8,6.1,2.8,9l0.4-0.2l1.7-8.9l0.2-0.3l23.8-1.5c0.8,0.2,2.2-0.6,2.1,0.6c-0.2,0.5,0.4,1.4-0.3,1.7l-21,1.3l-2.2,0.2
					l-0.3,0.4l-1.9,10.1l-0.4,0.1l-3.5,0.2l-0.4-0.6c-1.2-4-2.6-7.9-3.8-11.9C130.5,58.3,131.6,58.2,132.5,58.3z M131.7,72.6
					l0.1,0.2l0,1.9c-0.8,0.2-1.7,0.2-2.6,0.3c-0.4,0.5,0,1.2,0,1.9c0.7,0.4,1.4-0.1,2.2,0.1c0.2,0.6,0.1,1.5,0.2,2.3
					c-0.7,0.2-1.5,0.1-2.2,0.3c-0.3,1.7,0.2,3.2,0.1,4.8c-0.8,0.1-1.8-0.3-2.7-0.4c-0.4-3.7-0.7-7.3-0.8-11.2
					C127.9,72.7,129.7,72.5,131.7,72.6z M119.4,73.4c1.8-0.3,3.7-0.3,5.5-0.4l0.1,0.3l0.2,1.8c-0.1,0.1-0.2,0.2-0.5,0.3l-2.2,0.2
					c-0.3,0.5-0.1,1.1,0,1.7c0.5,0.5,1.4,0.2,2.1,0.2l0.2,0.2l0.1,2.1c-0.6,0.4-1.7,0-2.3,0.5c-0.2,1.1,0.1,2.1,0,3.3
					c-0.8,0-1.8-0.2-2.7-0.4l-0.2-0.3l-0.5-9.4L119.4,73.4z M115.6,73.3c0.9,0.2,1.7,0.7,2.3,1.4c1.3,2,1.3,4.8,0.4,6.9
					c-0.6,1.1-1.8,1.6-3,1.8c-1.4,0.1-2.6-0.7-3.2-1.9c-0.9-1.9-1.1-4.7,0-6.6C112.8,73.7,114.1,72.7,115.6,73.3z M110,71.9
					c0.7,0.9,0.8,1.9,1.4,2.9c-0.3,0.5-1,0.6-1.5,0.8c-0.4-0.8-1.1-1.9-1.4-2.9C108.9,72.3,109.4,72,110,71.9z M107.8,76.5
					c-0.4-1-1.1-1.8-1.4-2.9c0.5-0.4,1-0.5,1.5-0.6c0.5,0.9,1,1.9,1.3,2.9C108.8,76.2,108.3,76.7,107.8,76.5z M129.9,94.8
					c-2.5,0.6-5.6,0.4-7.2-1.5c-0.1-0.6,0.2-1,0.7-1.3c2.4-0.6,5.1-0.1,7,1.2l0.3,0.5C130.7,94.2,130.3,94.6,129.9,94.8z
					 M133.7,93.3c-0.1,0.2-0.2,0.5-0.5,0.5l-0.5-0.1C130,90.5,125,90,121,91.2c-0.4-0.1-0.4-0.5-0.4-0.8c0-0.6,0.4-1.2,1-1.5
					c4.2-0.6,8.6,0,11.8,2.7C134,91.9,133.7,92.8,133.7,93.3z M186.9,90.1c-1.5,1.7-3.3,2.6-5.5,2.6c-0.4-0.2-0.8-0.2-1.1-0.6
					c-0.1-1,0.6-1.6,1.3-2.2c1.3-1.1,3-1.7,4.8-1.4l0.5,0.3C187.1,89.2,187,89.6,186.9,90.1z M189.1,87.8c-0.2,0.4-0.8,0.2-1.1,0.1
					c-2.7-1-5.8,0.1-7.9,2.1c-1.2,0.4-1.7,3.7-3.4,1.8c-0.4-0.3-0.3-0.8-0.1-1.2c2.7-2.8,6-4.8,9.9-4.9c1,0.1,2.2-0.2,2.7,0.7
					C189.2,86.9,189.4,87.5,189.1,87.8z M198.9,74.4c-2.7,3.9-7.4,6.3-11.4,8.5c-11.6,6.3-25.2,9.1-39.4,8
					c-9.5-0.4-18.2-3.2-27.6-4.1l-10.6-1c-0.1-0.2-0.5-0.2-0.4-0.5c0.2-0.5,0.2-1,0.6-1.2c4.2,0.1,8.1,0.7,12,1.2l18.4,2.6
					c12.7,1.8,26.1,1,37.4-3.1c7.4-2.5,14.2-6.7,20.7-11.6C199.1,73.5,199,74,198.9,74.4z"/>
				<path class="st0" d="M115.4,80.8c1.2-1.2,0.4-3,0.2-4.5c-0.2-0.5-1.1-0.9-1.4-0.3c-0.5,1.3-0.3,3,0.1,4.3
					C114.4,80.7,114.9,80.9,115.4,80.8z"/>
				<path class="st0" d="M178.6,78.1c-0.1-1.3-0.4-2.7-0.8-3.9c-0.3,1.3-0.4,2.7-0.3,4C177.9,78.4,178.2,78.3,178.6,78.1z"/>
				<path class="st0" d="M142.5,66.3c0.4,0.2,0.8,0.1,1.2-0.1c-0.1-0.7-0.4-1.4-0.8-2C142.6,64.9,142.7,65.6,142.5,66.3z"/>
			</g>
		</g>
		<g>
			<path class="st0" d="M195.6,84.8c-0.3,0.3-0.6,0.4-0.9,0.4c-0.4,0-0.7-0.1-1-0.4c-0.3-0.3-0.4-0.6-0.4-0.9c0-0.4,0.1-0.7,0.4-1
				c0.3-0.2,0.6-0.4,0.9-0.4c0.4,0,0.7,0.1,0.9,0.4c0.3,0.3,0.4,0.6,0.4,1C196,84.2,195.9,84.5,195.6,84.8z M193.9,83
				c-0.2,0.2-0.3,0.5-0.3,0.8c0,0.3,0.1,0.6,0.3,0.8c0.2,0.2,0.5,0.3,0.8,0.3c0.3,0,0.6-0.1,0.8-0.3c0.2-0.2,0.3-0.5,0.3-0.8
				c0-0.3-0.1-0.6-0.3-0.8c-0.2-0.2-0.5-0.3-0.8-0.3C194.4,82.7,194.1,82.8,193.9,83z M194.1,84.5v-1.5c0.1,0,0.2,0,0.4,0
				c0.2,0,0.3,0,0.3,0c0.1,0,0.2,0,0.3,0.1c0.1,0.1,0.2,0.2,0.2,0.4c0,0.1,0,0.2-0.1,0.3c-0.1,0.1-0.2,0.1-0.3,0.1
				c0.1,0,0.2,0.1,0.2,0.1c0.1,0.1,0.1,0.2,0.1,0.3l0,0.1c0,0,0,0,0,0c0,0,0,0,0,0l0,0l-0.4,0c0,0,0-0.1,0-0.2c0-0.1,0-0.1,0-0.2
				c0-0.1-0.1-0.1-0.1-0.1c0,0-0.1,0-0.1,0h-0.1l-0.1,0v0.5L194.1,84.5z M194.8,83.3c-0.1,0-0.1,0-0.2,0h-0.1v0.4h0.2
				c0.1,0,0.2,0,0.2,0c0.1,0,0.1-0.1,0.1-0.2C194.9,83.4,194.9,83.4,194.8,83.3z"/>
		</g>
	</g>
</g>
</svg>
