<?xml version="1.0" encoding="UTF-8"?>
<svg width="330px" height="102px" viewBox="0 0 330 102" version="1.1" xmlns="http://www.w3.org/2000/svg" xmlns:xlink="http://www.w3.org/1999/xlink">
    <!-- Generator: Sketch 48.2 (47327) - http://www.bohemiancoding.com/sketch -->
    <title>Page 1</title>
    <desc>Created with Sketch.</desc>
    <defs>
        <polygon id="path-1" points="0 102.361111 330 102.361111 330 0.226875 0 0.226875"></polygon>
    </defs>
    <g id="Artboard" stroke="none" stroke-width="1" fill="none" fill-rule="evenodd">
        <g id="Page-1" transform="translate(0.000000, -1.000000)">
            <polygon id="Fill-1" fill="#FFFFFF" points="0.006875 20.7724306 20.0154167 20.7724306 20.0154167 0.763888889 0.006875 0.763888889"></polygon>
            <polygon id="Fill-2" fill="#FFFFFF" points="53.3423611 20.7724306 73.3509028 20.7724306 73.3509028 0.763888889 53.3423611 0.763888889"></polygon>
            <polygon id="Fill-3" fill="#FFFFFF" points="137.674931 102.898125 157.683472 102.898125 157.683472 82.8895833 137.674931 82.8895833"></polygon>
            <g id="Group-28" transform="translate(0.000000, 0.537014)">
                <path d="M14.3650833,58.8367083 C12.6241806,59.7617778 11.0276528,59.8458056 10.2530694,59.8458056 C7.20668056,59.8458056 5.32063889,58.5005972 4.59418056,57.7848333 C2.61188889,55.9346944 2.03209722,53.1174722 2.03209722,50.6768472 C2.03209722,46.4288611 4.30466667,41.7607361 10.0605694,41.6339306 C11.7525833,41.6339306 13.1069583,42.0548333 13.6875139,42.2656667 C16.29925,43.3175417 18.2823056,45.755875 18.2823056,50.8449028 C18.2815417,55.4725417 16.49175,57.6595556 14.3650833,58.8367083 Z M18.1852917,44.3694167 C17.798,43.7376806 17.6047361,43.3587917 17.0730694,42.8126111 C14.7508472,40.3307361 11.4623056,40.1626806 10.2530694,40.1626806 C4.59418056,40.1626806 2.17647222,43.6528889 1.35376389,45.1669167 C0.435569444,46.8917778 0.000152777778,48.994 0.000152777778,50.8456667 C0.000152777778,51.9387917 0.0971666667,57.4899722 4.83709722,60.1406667 C5.70640278,60.6028194 7.35181944,61.4003194 9.91390278,61.4003194 C13.8303611,61.4003194 16.0563333,59.719 16.9745278,58.667125 C17.5077222,58.1637222 18.1364028,57.1966389 18.1837639,57.1118472 C18.08675,60.8144167 18.1837639,62.4949722 17.6520972,64.3023333 C17.2655694,65.4810139 16.7805,66.1967778 16.3947361,66.6169167 C16.2022361,66.8262222 16.0570972,66.9950417 15.5735556,67.2891389 C14.1710556,68.2982361 12.2834861,68.635875 10.4944583,68.635875 C10.1079306,68.635875 7.20591667,68.635875 5.46425,67.4159444 C4.88445833,67.0370556 4.54605556,66.5749028 4.40015278,66.3640694 C3.57897222,65.2709444 3.48195833,64.3451111 3.33681944,63.0839306 L1.304875,63.0839306 C1.35223611,63.4628194 1.401125,65.1869167 2.17570833,66.5328889 C3.09543056,68.1317083 5.416125,70.1499028 10.1560556,70.1499028 C11.4134167,70.1499028 16.588,70.1063611 18.7658472,66.3212917 C19.7329306,64.6399722 20.0232083,62.4521944 20.0232083,58.5410833 L20.0232083,40.6263611 L18.1860556,40.6263611 L18.1860556,44.3694167 L18.1852917,44.3694167 Z" id="Fill-4" fill="#FFFFFF"></path>
                <path d="M27.6115278,50.2564028 C27.8529167,47.1023056 29.2080556,45.1253611 30.1751389,44.1155 C32.3995833,41.8444583 35.3978472,41.6764028 36.6078472,41.6764028 C38.300625,41.6764028 39.8475,42.0132778 41.25,42.8970972 C44.7325694,45.0428611 44.6363194,49.4153611 44.6363194,50.2151528 L27.6115278,50.2564028 Z M44.3941667,43.5280694 C41.9275694,40.4152222 38.0111111,40.1639028 36.6078472,40.1639028 C33.4155556,40.1639028 31.3354861,41.2990417 30.3684028,41.9300139 C27.7566667,43.6113333 26.4022917,45.882375 25.8698611,48.6170972 C25.5795833,49.8782778 25.5795833,51.0554306 25.5795833,51.5183472 C25.5795833,52.1913333 25.6277083,55.2201528 26.8843056,57.6172361 C27.369375,58.5002917 27.9002778,59.2565417 28.6267361,60.0135556 C28.9170139,60.2664028 29.6411806,61.0234167 30.7060417,61.612375 C32.8823611,62.7910556 35.591875,62.8743194 36.3656944,62.8743194 C37.9614583,62.8743194 42.4592361,62.5794583 44.9747222,58.8364028 C45.7974306,57.6172361 46.1358333,56.3973056 46.2809722,55.9351528 L44.3468056,55.6402917 C44.2024306,56.4385556 43.6203472,58.5423056 41.3966667,60.0135556 C39.8009028,61.0654306 38.2540278,61.3602917 36.3198611,61.3602917 C34.14125,61.3602917 32.2078472,60.8568889 30.5639583,59.5101528 C29.0163194,58.2061944 27.6130556,55.851125 27.5649306,51.6871667 L46.57125,51.6871667 C46.5697222,47.3964028 45.7966667,45.2093889 44.3941667,43.5280694 Z" id="Fill-6" fill="#FFFFFF"></path>
                <path d="M71.2792361,57.0276667 C71.1822222,57.2362083 70.6024306,58.2475972 69.8767361,58.9618333 C69.0547917,59.8036389 66.8777083,61.3596806 63.3966667,61.3596806 C60.9300694,61.3596806 59.2388194,60.6034306 58.4642361,60.13975 C54.1581944,57.6586389 54.1581944,52.3580139 54.1581944,51.4337083 C54.1581944,46.6395417 56.4330556,43.990375 58.3672222,42.8552361 C59.1402778,42.3923194 60.7849306,41.6765556 63.2034028,41.6345417 C64.2682639,41.6345417 67.2657639,41.6765556 69.5390972,43.7382917 C72.5847222,46.4287083 72.538125,50.8455139 72.538125,51.6445417 C72.5365972,53.6627361 72.2463194,55.2195417 71.2792361,57.0276667 M68.7652778,41.2564167 C66.3941667,40.1212778 64.1697222,40.1212778 63.2034028,40.1212778 C60.204375,40.1632917 58.3183333,41.0883611 57.3023611,41.6765556 C52.2713889,44.5800972 52.1270139,50.2565556 52.1270139,51.5185 C52.1270139,57.7021806 55.7539583,60.8142639 58.3672222,61.947875 C60.396875,62.8316944 62.4295833,62.9164861 63.2522917,62.9164861 C66.2513194,62.9164861 68.3298611,62.0341944 69.2977083,61.4444722 C70.2166667,60.9387778 71.135625,60.2237778 71.8131944,59.4255139 C74.4241667,56.4807222 74.5685417,52.7384306 74.5685417,51.6017639 C74.5670139,45.5044028 71.4236111,42.5168333 68.7652778,41.2564167" id="Fill-8" fill="#FFFFFF"></path>
                <path d="M104.887368,40.205 C102.277924,40.205 100.776882,40.92 99.8579236,41.4241667 C98.4088264,42.2239583 97.4394514,43.1070139 96.6182708,44.4529861 C96.5709097,44.1588889 96.3776458,43.3590972 95.7459097,42.5593056 C94.4419514,40.8779861 92.1197292,40.205 89.8463958,40.205 C87.2346597,40.205 84.5251458,41.1720833 82.8316042,42.9802083 C82.6879931,43.1490278 82.3014653,43.6531944 81.9126458,44.2009028 L81.9126458,40.6259028 L80.1236181,40.6259028 L80.1236181,62.4120139 L81.9607708,62.4120139 L81.9607708,49.878125 C81.9607708,48.0692361 82.0096597,47.3129861 82.3495903,46.3879167 C82.6391042,45.4613194 83.8964653,42.9381944 87.2338958,42.0551389 C88.3468819,41.7197917 89.1207014,41.7197917 89.6516042,41.7197917 C92.5543819,41.7197917 94.0034792,43.0657639 94.5374375,43.9908333 C95.2631319,45.3368056 95.2150069,47.355 95.2150069,48.7842361 L95.2150069,62.4120139 L97.1002847,62.4120139 L97.1002847,50.1302083 C97.1002847,47.0601389 97.3913264,45.5461111 98.4546597,44.2841667 C99.2773681,43.2758333 101.162646,41.7197917 104.694104,41.7197917 C106.774174,41.7197917 107.740493,42.1819444 108.515076,42.686875 C109.819035,43.4859028 110.305632,44.5370139 110.352993,47.1029167 C110.352993,47.4810417 110.400354,47.8591667 110.400354,48.2380556 L110.400354,62.4120139 L112.28716,62.4120139 L112.28716,47.39625 C112.239799,46.1343056 112.142785,44.7050694 111.60959,43.4851389 C110.450771,41.0872917 107.692368,40.205 104.887368,40.205" id="Fill-10" fill="#FFFFFF"></path>
                <path d="M119.923833,50.2564028 C120.165222,47.1023056 121.519597,45.1253611 122.486681,44.1155 C124.711125,41.8444583 127.709389,41.6764028 128.918625,41.6764028 C130.611403,41.6764028 132.159042,42.0132778 133.561542,42.8970972 C137.044111,45.0428611 136.947861,49.4153611 136.947861,50.2151528 L119.923833,50.2564028 Z M136.707236,43.5280694 C134.240639,40.4152222 130.322653,40.1639028 128.920153,40.1639028 C125.727861,40.1639028 123.650083,41.2990417 122.681472,41.9300139 C120.068208,43.6113333 118.717653,45.882375 118.182931,48.6170972 C117.892653,49.8782778 117.892653,51.0554306 117.892653,51.5183472 C117.892653,52.1913333 117.940014,55.2201528 119.199667,57.6172361 C119.682444,58.5002917 120.214875,59.2565417 120.939806,60.0135556 C121.230083,60.2664028 121.955014,61.0234167 123.019111,61.612375 C125.196958,62.7910556 127.904944,62.8743194 128.678764,62.8743194 C130.274528,62.8743194 134.773069,62.5794583 137.288556,58.8364028 C138.109736,57.6172361 138.448903,56.3973056 138.592514,55.9351528 L136.659111,55.6402917 C136.514736,56.4385556 135.934944,58.5423056 133.708972,60.0135556 C132.113208,61.0654306 130.565569,61.3602917 128.632167,61.3602917 C126.455847,61.3602917 124.520153,60.8568889 122.876264,59.5101528 C121.330153,58.2061944 119.926889,55.851125 119.877236,51.6871667 L138.886611,51.6871667 C138.884319,47.3964028 138.109736,45.2093889 136.707236,43.5280694 Z" id="Fill-12" fill="#FFFFFF"></path>
                <path d="M148.067639,58.3741736 C148.020278,58.0388264 148.020278,57.6584097 148.020278,57.3222986 L148.020278,42.1392431 L152.324792,42.1392431 L152.324792,40.6259792 L148.020278,40.6259792 L148.020278,35.7050069 L146.134236,35.7050069 L146.134236,40.6259792 L142.844931,40.6259792 L142.844931,42.0972292 L146.134236,42.0972292 L146.134236,58.0380625 C146.134236,58.9195903 145.989861,62.6641736 150.43875,62.6641736 C150.969653,62.6641736 151.356181,62.6641736 152.372917,62.5388958 L152.372917,60.9836181 C151.84125,61.0256319 151.308056,61.0653542 150.776389,61.0653542 C148.649722,61.0653542 148.164653,60.0134792 148.067639,58.3741736" id="Fill-14" fill="#FFFFFF"></path>
                <path d="M163.931396,41.2131806 C162.91466,41.7608889 161.900215,42.5591528 161.029382,44.578875 L161.029382,40.6249861 L159.142576,40.6249861 L159.142576,62.4110972 L161.029382,62.4110972 L161.029382,50.5922083 C161.076743,48.6588056 161.029382,46.8919306 162.046118,45.0838056 C162.72216,43.8218611 164.559313,41.7608889 168.622437,41.9297083 L168.622437,40.2468611 C167.798965,40.2468611 165.865563,40.1628333 163.931396,41.2131806" id="Fill-16" fill="#FFFFFF"></path>
                <path d="M182.694035,60.7016667 L174.424174,40.2202778 L172.341813,40.2202778 L181.820146,62.9299306 L181.096743,64.6960417 C180.031882,67.0938889 179.113687,67.766875 177.517924,68.0189583 C176.83959,68.1022222 176.405701,68.1022222 176.115424,68.1022222 C175.388965,68.1022222 175.146813,68.0602083 174.761049,67.9769444 L174.761049,69.5329861 C175.580701,69.6590278 175.922924,69.6590278 176.405701,69.6590278 C176.550076,69.6590278 177.323896,69.6590278 177.903688,69.5765278 C180.710215,69.1136111 181.580285,67.6415972 182.547368,65.5378472 L192.607021,40.21875 L190.57584,40.21875 L182.694035,60.7016667 Z" id="Fill-18" fill="#FFFFFF"></path>
                <path d="M226.850403,58.8367083 C225.110264,59.7617778 223.512972,59.8458056 222.738389,59.8458056 C219.692,59.8458056 217.805958,58.5005972 217.078736,57.7848333 C215.097208,55.9346944 214.516653,53.1174722 214.516653,50.6768472 C214.516653,46.4288611 216.789222,41.7607361 222.545889,41.6339306 C224.237903,41.6339306 225.591514,42.0548333 226.172069,42.2656667 C228.785333,43.3175417 230.766861,45.755875 230.766861,50.8449028 C230.766861,55.4725417 228.977833,57.6595556 226.850403,58.8367083 Z M230.670611,44.3694167 C230.284083,43.7376806 230.090056,43.3587917 229.559917,42.8126111 C227.236931,40.3307361 223.948389,40.1626806 222.738389,40.1626806 C217.078736,40.1626806 214.661792,43.6528889 213.839083,45.1669167 C212.921653,46.8917778 212.486236,48.994 212.486236,50.8456667 C212.486236,51.9387917 212.582486,57.4899722 217.322417,60.1406667 C218.191722,60.6028194 219.836375,61.4003194 222.399222,61.4003194 C226.316444,61.4003194 228.541653,59.719 229.459847,58.667125 C229.992278,58.1637222 230.621722,57.1966389 230.669083,57.1118472 C230.572069,60.8144167 230.669083,62.4949722 230.138181,64.3023333 C229.750889,65.4810139 229.265819,66.1967778 228.880056,66.6169167 C228.686028,66.8262222 228.541653,66.9950417 228.058111,67.2891389 C226.655611,68.2982361 224.767278,68.635875 222.979778,68.635875 C222.592486,68.635875 219.690472,68.635875 217.951097,67.4159444 C217.369778,67.0370556 217.030611,66.5749028 216.884708,66.3640694 C216.063528,65.2709444 215.967278,64.3451111 215.821375,63.0839306 L213.789431,63.0839306 C213.836792,63.4628194 213.885681,65.1869167 214.660264,66.5328889 C215.579986,68.1317083 217.901444,70.1499028 222.640611,70.1499028 C223.898736,70.1499028 229.073319,70.1063611 231.251167,66.3212917 C232.21825,64.6399722 232.507,62.4521944 232.507,58.5410833 L232.507,40.6263611 L230.670611,40.6263611 L230.670611,44.3694167 Z" id="Fill-20" fill="#FFFFFF"></path>
                <mask id="mask-2" fill="white">
                    <use xlink:href="#path-1"></use>
                </mask>
                <g id="Clip-23"></g>
                <polygon id="Fill-22" fill="#FFFFFF" mask="url(#mask-2)" points="239.567778 62.41125 241.454583 62.41125 241.454583 32.718125 239.567778 32.718125"></polygon>
                <path d="M266.602417,57.0276667 C266.505403,57.2362083 265.923319,58.2475972 265.199917,58.9618333 C264.377972,59.8036389 262.200125,61.3596806 258.719083,61.3596806 C256.252486,61.3596806 254.559708,60.6034306 253.787417,60.13975 C249.482139,57.6586389 249.482139,52.3580139 249.482139,51.4337083 C249.482139,46.6395417 251.754708,43.990375 253.688111,42.8552361 C254.462694,42.3923194 256.107347,41.6765556 258.526583,41.6345417 C259.589153,41.6345417 262.587417,41.6765556 264.862278,43.7382917 C267.908667,46.4287083 267.860542,50.8455139 267.860542,51.6445417 C267.859778,53.6627361 267.5695,55.2195417 266.602417,57.0276667 M264.086931,41.2564167 C261.717347,40.1212778 259.491375,40.1212778 258.526583,40.1212778 C255.526792,40.1632917 253.64075,41.0883611 252.625542,41.6765556 C247.595333,44.5800972 247.448667,50.2565556 247.448667,51.5185 C247.448667,57.7021806 251.077139,60.8142639 253.688111,61.947875 C255.720819,62.8316944 257.751236,62.9164861 258.573944,62.9164861 C261.572972,62.9164861 263.65075,62.0341944 264.618597,61.4444722 C265.536792,60.9387778 266.456514,60.2237778 267.132556,59.4255139 C269.745819,56.4807222 269.889431,52.7384306 269.889431,51.6017639 C269.891722,45.5044028 266.747556,42.5168333 264.086931,41.2564167" id="Fill-24" fill="#FFFFFF" mask="url(#mask-2)"></path>
                <path d="M294.553035,51.5603611 C294.553035,55.3454306 293.200187,57.7425139 292.037549,59.0044583 C290.441785,60.6032778 288.266229,61.3595278 285.895118,61.3595278 C279.655674,61.3595278 277.964424,56.8182083 277.529007,55.1766111 C277.237965,54.0414722 277.190604,52.9055694 277.190604,51.7704306 C277.190604,46.4293194 278.932271,43.9046667 281.543243,42.6014722 C282.896854,41.9712639 284.396368,41.633625 285.944007,41.633625 C287.830812,41.6756389 291.555535,42.3493889 293.440812,46.3437639 C294.50491,48.5323056 294.553035,50.8033472 294.553035,51.5603611 M291.651785,41.6764028 C289.425812,40.2471667 286.862965,40.121125 285.943243,40.121125 C283.330743,40.121125 280.57616,41.0041806 278.784076,42.7702917 C278.156924,43.4432778 277.673382,44.1590417 277.237965,44.8740417 L277.237965,32.7182778 L275.35116,32.7182778 L275.35116,62.4114028 L277.189076,62.4114028 L277.189076,58.037375 C277.479354,58.5850833 277.770396,59.0052222 277.914771,59.2152917 C278.882618,60.5200139 281.203312,62.8743194 285.89359,62.8743194 C288.649701,62.8743194 291.068174,62.1585556 293.004632,60.3932083 C293.631785,59.8462639 294.213104,59.1732778 294.358243,58.9624444 C296.438312,56.1032083 296.535326,52.5266806 296.535326,51.561125 C296.53609,46.0504306 293.777687,42.9803611 291.651785,41.6764028" id="Fill-25" fill="#FFFFFF" mask="url(#mask-2)"></path>
                <path d="M317.57191,53.9997639 C317.523785,55.1341389 317.474132,55.9346944 316.989826,57.0285833 C315.925729,59.5104583 313.266632,60.6876111 312.347674,60.9389306 C310.994063,61.3605972 309.63816,61.4003194 309.107257,61.4003194 C306.78809,61.4003194 305.335174,60.729625 304.608715,60.1406667 C304.319201,59.932125 304.174826,59.719 303.932674,59.4676806 C303.398715,58.7939306 303.15809,58.3325417 303.012951,57.53275 C302.96559,57.4082361 302.915938,57.0285833 302.915938,56.6076806 C302.915938,56.0194861 303.012951,54.294625 304.75309,53.1571944 C306.05934,52.2749028 308.090521,52.0235833 309.686285,51.7279583 C310.896285,51.5178889 312.105521,51.3085833 313.362118,51.0557361 C314.039688,50.9289306 314.765382,50.8456667 315.489549,50.719625 C316.167118,50.5508056 316.843924,50.3835139 317.569618,50.1719167 L317.57191,53.9997639 Z M319.457951,59.8037917 C319.409826,59.5096944 319.409826,59.0047639 319.409826,58.9619861 L319.409826,46.2615694 C319.409826,45.5045556 319.409826,44.9576111 319.120313,44.1593472 C318.925521,43.5703889 318.490104,42.8553889 318.054688,42.3924722 C315.926493,40.0374028 311.960382,40.0786528 311.13691,40.0786528 C307.65434,40.0786528 305.576563,40.9204583 304.414688,41.7615 C303.54309,42.4344861 302.04434,43.9905278 301.85184,46.5976806 L303.83566,46.6817083 C304.077049,43.4848333 306.108993,42.4765 307.656632,42.0143472 C308.188299,41.8447639 309.396771,41.5514306 310.945938,41.5514306 C313.509549,41.5514306 316.701076,42.3076806 317.426007,44.8330972 C317.571146,45.2944861 317.571146,45.7574028 317.571146,45.9269861 L317.571146,47.2286528 C317.571146,47.3554583 317.66816,48.4080972 316.846215,48.87025 C316.264896,49.2055972 314.426979,49.5432361 313.74941,49.6685139 C307.944618,50.6776111 304.948646,50.5935833 302.722674,52.5712917 C301.029132,54.0837917 300.981007,55.8521944 300.981007,56.6084444 C300.981007,60.688375 304.561354,62.874625 308.913993,62.874625 C310.508993,62.874625 311.38059,62.7058056 312.056632,62.5400417 C313.894549,62.0778889 315.733229,61.0665 316.846215,59.7220556 C317.328993,59.1751111 317.571146,58.6694167 317.717812,58.460875 C317.669688,58.9650417 317.620799,59.4699722 317.620799,59.973375 C317.620799,62.4132361 319.506076,62.4132361 320.618299,62.4132361 L321.97191,62.4132361 L321.97191,60.9404583 L321.055243,60.9404583 C320.086632,60.9389306 319.60309,60.6868472 319.457951,59.8037917 Z" id="Fill-26" fill="#FFFFFF" mask="url(#mask-2)"></path>
                <polygon id="Fill-27" fill="#FFFFFF" mask="url(#mask-2)" points="328.113958 62.41125 330 62.41125 330 32.718125 328.113958 32.718125"></polygon>
            </g>
        </g>
    </g>
</svg>