<?xml version="1.0" encoding="utf-8"?>
<!-- Generator: Adobe Illustrator 21.0.2, SVG Export Plug-In . SVG Version: 6.00 Build 0)  -->
<svg version="1.1" id="Layer_1" xmlns="http://www.w3.org/2000/svg" xmlns:xlink="http://www.w3.org/1999/xlink" x="0px" y="0px"
	 width="300px" height="150px" viewBox="0 0 300 150" style="enable-background:new 0 0 300 150;" xml:space="preserve">
<style type="text/css">
	.st0{fill:#2F3C40;}
</style>
<g>
	<path class="st0" d="M119,64.8c-3.2,0-6.8,1.2-7.5,5.3c-0.1,0.4,0.2,0.6,0.5,0.7l3.3,0.4c0.3,0,0.5-0.3,0.6-0.7
		c0.3-1.4,1.4-2.1,2.7-2.1c0.7,0,1.5,0.2,1.9,0.9c0.5,0.7,0.4,1.7,0.4,2.5v0.5c-2,0.2-4.5,0.4-6.4,1.2c-2.1,0.9-3.6,2.8-3.6,5.7
		c0,3.6,2.2,5.4,5,5.4c2.4,0,3.7-0.6,5.6-2.5c0.6,0.9,0.8,1.3,1.9,2.3c0.3,0.1,0.6,0.1,0.8-0.1l0,0c0.7-0.6,1.9-1.7,2.6-2.3
		c0.3-0.2,0.2-0.6,0-0.9c-0.6-0.9-1.3-1.6-1.3-3.2v-5.4c0-2.3,0.2-4.4-1.4-6C122.8,65.2,120.6,64.8,119,64.8L119,64.8z M163.2,64.8
		c-3.2,0-6.8,1.2-7.5,5.3c-0.1,0.4,0.2,0.6,0.5,0.7l3.3,0.4c0.3,0,0.5-0.3,0.6-0.7c0.3-1.4,1.4-2.1,2.7-2.1c0.7,0,1.5,0.2,1.9,0.9
		c0.5,0.7,0.4,1.7,0.4,2.5v0.5c-2,0.2-4.5,0.4-6.3,1.2c-2.1,0.9-3.6,2.8-3.6,5.7c0,3.6,2.2,5.4,5,5.4c2.4,0,3.7-0.6,5.6-2.5
		c0.6,0.9,0.8,1.3,1.9,2.3c0.3,0.1,0.6,0.1,0.8-0.1l0,0c0.7-0.6,1.9-1.7,2.6-2.3c0.3-0.2,0.2-0.6,0-0.9c-0.6-0.9-1.3-1.6-1.3-3.2
		v-5.4c0-2.3,0.1-4.4-1.5-6C167,65.2,164.8,64.8,163.2,64.8L163.2,64.8z M138.3,65c-2.1,0-3.6,1-4.4,3.3l0,0V66
		c0-0.3-0.3-0.6-0.6-0.6h-3.2c-0.4,0-0.7,0.3-0.7,0.7v17.8c0,0.3,0.3,0.6,0.6,0.6h3.4c0.4,0,0.7-0.3,0.7-0.7v-9.4
		c0-2.1-0.1-4.9,2.3-4.9c2.4,0,2.1,2.9,2.1,4.9v9.4c0,0.3,0.3,0.6,0.6,0.7h3.4c0.4,0,0.7-0.3,0.7-0.7v-9.4c0-1,0-2.5,0.3-3.4
		s1.2-1.5,2-1.5c1,0,1.7,0.3,2,1.5c0.2,0.7,0.1,2.6,0.1,3.3v9.4c0,0.3,0.3,0.6,0.6,0.7h3.4c0.4,0,0.7-0.3,0.7-0.7V72.5
		c0-1.9,0.2-4.1-0.9-5.6c-0.9-1.3-2.5-1.9-3.9-1.9c-2,0-3.8,1-4.6,3.3C141.8,66,140.4,65,138.3,65L138.3,65z M195.8,65
		c-4.9,0-7.6,4.3-7.6,9.8s2.7,9.9,7.6,9.9c4.7,0,7.7-4.3,7.7-9.7C203.5,69.4,200.8,65,195.8,65L195.8,65z M215,65
		c-2.3,0-3.7,1.2-4.6,3.6l0,0v-2.7c-0.1-0.3-0.3-0.5-0.6-0.5h-3.1c-0.3,0-0.6,0.2-0.7,0.6v17.8c0,0.3,0.3,0.6,0.6,0.7h3.3
		c0.4,0,0.7-0.3,0.7-0.7v-9.6c0-1.2,0.1-2.3,0.6-3.4c0.4-0.9,1.1-1.4,1.9-1.4c2.3,0,2.1,2.8,2.1,4.8v9.7c0,0.3,0.3,0.5,0.6,0.6h3.4
		c0.3,0,0.6-0.3,0.7-0.6V72.6c0-1.7,0-4.1-0.9-5.5C218,65.5,216.5,65,215,65L215,65z M174.5,65.3c-0.3,0-0.6,0.3-0.6,0.7v2.5
		c0,0.4,0.3,0.7,0.6,0.7h5.8l-6.6,9.8c-0.4,0.6-0.4,1.3-0.4,1.8v2.6c0,0.4,0.4,0.8,0.8,0.6c3.8-2.1,8.3-1.9,11.7,0
		c0.4,0.2,0.8-0.2,0.8-0.6v-2.7c0-0.4-0.3-0.8-0.6-1c-1.9-1.1-4.2-1.5-6.3-1.4l5.7-8.4c0.5-0.8,0.8-1.2,0.8-1.6v-2.2
		c0-0.4-0.3-0.7-0.6-0.7h-11.1L174.5,65.3L174.5,65.3z M195.8,68.6c1.1,0,1.9,0.5,2.2,1.7c0.4,1.4,0.5,3.2,0.5,4.7
		c0,2.3-0.1,6.1-2.7,6.1c-2.6,0-2.6-4.7-2.6-6.8C193.1,72.1,193.3,68.6,195.8,68.6z M120.8,75.1v0.7c0,1.3,0,2.5-0.6,3.7
		c-0.5,1-1.4,1.6-2.3,1.6c-1.3,0-2.1-1-2.1-2.5C115.8,75.6,118.3,75.1,120.8,75.1z M165,75.1v0.7c0,1.3,0,2.5-0.6,3.7
		c-0.5,1-1.4,1.6-2.3,1.6c-1.3,0-2.1-1-2.1-2.5C160,75.6,162.6,75.1,165,75.1z"/>
	<path class="st0" d="M186.9,84.9v2.5h1.7v-2.5H186.9z M137.3,85.4v18.1h1.6v-1.6c0.3,0.6,0.7,1.1,1.2,1.4s1,0.5,1.6,0.5
		c1.2,0,2.2-0.6,3-1.8c0.9-1.2,1.3-3,1.3-5.2c0-1.5-0.2-2.7-0.6-3.7c-0.4-1-0.9-1.8-1.5-2.3s-1.4-0.8-2.1-0.8
		c-0.5,0-1.1,0.1-1.5,0.4c-0.5,0.3-0.8,0.8-1.2,1.4v-6.5L137.3,85.4L137.3,85.4z M153.5,89.6c-1.2,0-2.1,0.4-2.8,1.1s-1,1.6-1,2.7
		c0,0.6,0.1,1.2,0.4,1.7c0.2,0.5,0.6,0.9,1.1,1.2c0.4,0.3,1.3,0.7,2.7,1.1c0.9,0.3,1.5,0.5,1.7,0.7c0.3,0.3,0.5,0.7,0.5,1.2
		c0,0.6-0.2,1.1-0.6,1.5c-0.4,0.4-1,0.6-1.7,0.6s-1.4-0.2-1.8-0.7c-0.4-0.5-0.7-1.1-0.8-2.1l-1.7,0.4c0.4,2.8,1.8,4.2,4.2,4.2
		c1.3,0,2.3-0.4,3-1.1c0.7-0.8,1.1-1.8,1.1-3.1c0-0.7-0.1-1.3-0.4-1.8c-0.2-0.5-0.6-0.9-1-1.1c-0.4-0.3-1.3-0.7-2.8-1.1
		c-1-0.4-1.6-0.6-1.8-0.8c-0.3-0.3-0.5-0.7-0.5-1.1c0-0.5,0.2-0.9,0.5-1.2c0.4-0.3,0.9-0.5,1.7-0.5c1.3,0,2,0.7,2.2,2.1l1.7-0.3
		c-0.1-0.9-0.3-1.6-0.6-2.1s-0.7-0.9-1.3-1.2C154.9,89.7,154.3,89.6,153.5,89.6L153.5,89.6z M164,89.6c-1.4,0-2.5,0.6-3.4,1.8
		c-0.9,1.2-1.3,2.9-1.3,5.2c0,2.2,0.4,3.9,1.3,5c0.9,1.2,2,1.7,3.5,1.7c1.1,0,2.1-0.3,2.9-1.1c0.8-0.7,1.3-1.8,1.6-3.2l-1.8-0.3
		c-0.5,1.8-1.4,2.7-2.7,2.7c-0.8,0-1.5-0.3-2.1-1.1c-0.6-0.7-0.9-1.9-1-3.3h7.5v-0.6c0-2.2-0.4-3.9-1.3-5
		C166.4,90.2,165.3,89.6,164,89.6L164,89.6z M174.4,89.6c-0.4,0-0.8,0.1-1.1,0.4s-0.7,0.9-1.1,1.8v-2h-1.5V103h1.7v-6.8
		c0-1,0.1-1.9,0.3-2.7c0.1-0.5,0.4-0.9,0.7-1.1c0.3-0.3,0.6-0.4,1-0.4s0.8,0.2,1.2,0.5l0.6-2.1C175.5,89.9,175,89.6,174.4,89.6
		L174.4,89.6z M195.4,89.6c-1.4,0-2.5,0.6-3.3,1.7c-0.9,1.1-1.3,2.9-1.3,5.1c0,2.3,0.5,4,1.3,5.1c0.9,1.2,1.9,1.7,3.2,1.7
		c1.1,0,2-0.4,2.8-1.2s1.3-2,1.4-3.6l-1.7-0.3c-0.1,1.1-0.4,1.9-0.9,2.5c-0.5,0.5-1,0.8-1.7,0.8c-0.8,0-1.5-0.4-2.1-1.2
		c-0.5-0.8-0.8-2.1-0.8-3.9c0-1.7,0.3-3,0.8-3.8c0.6-0.8,1.3-1.2,2.1-1.2c0.6,0,1,0.2,1.4,0.7c0.4,0.4,0.7,1.1,0.8,2l1.7-0.4
		c-0.2-1.4-0.6-2.4-1.4-3.1C197.3,89.9,196.4,89.6,195.4,89.6L195.4,89.6z M205.1,89.6c-1.4,0-2.5,0.6-3.4,1.8
		c-0.9,1.2-1.3,2.9-1.3,5.2c0,2.2,0.4,3.9,1.3,5c0.9,1.2,2,1.7,3.5,1.7c1.1,0,2.1-0.3,2.9-1.1c0.8-0.7,1.3-1.8,1.6-3.2l-1.8-0.3
		c-0.5,1.8-1.4,2.7-2.7,2.7c-0.8,0-1.5-0.3-2.1-1.1c-0.6-0.7-0.9-1.9-1-3.3h7.5v-0.6c0-2.2-0.4-3.9-1.3-5
		C207.5,90.2,206.4,89.6,205.1,89.6L205.1,89.6z M215.3,89.6c-1.2,0-2.1,0.4-2.8,1.1s-1,1.6-1,2.7c0,0.6,0.1,1.2,0.4,1.7
		c0.2,0.5,0.6,0.9,1.1,1.2c0.4,0.3,1.3,0.7,2.7,1.1c0.9,0.3,1.5,0.5,1.8,0.7c0.3,0.3,0.5,0.7,0.5,1.2c0,0.6-0.2,1.1-0.6,1.5
		c-0.4,0.4-1,0.6-1.7,0.6s-1.4-0.2-1.8-0.7c-0.4-0.5-0.7-1.1-0.8-2.1l-1.7,0.4c0.4,2.8,1.8,4.2,4.2,4.2c1.3,0,2.3-0.4,3.1-1.1
		s1.1-1.8,1.1-3.1c0-0.7-0.1-1.3-0.4-1.8c-0.2-0.5-0.6-0.9-1-1.1c-0.4-0.3-1.3-0.7-2.7-1.1c-1-0.4-1.7-0.6-1.9-0.8
		c-0.3-0.3-0.5-0.7-0.5-1.1c0-0.5,0.2-0.9,0.6-1.2c0.4-0.3,0.9-0.5,1.7-0.5c1.3,0,2,0.7,2.2,2.1l1.7-0.3c-0.1-0.9-0.3-1.6-0.6-2.1
		s-0.8-0.9-1.3-1.2C216.7,89.7,216,89.6,215.3,89.6L215.3,89.6z M176.1,89.9L180,103h1.6l3.8-13.1h-1.8l-2.2,8
		c-0.3,1-0.5,1.8-0.7,2.5c-0.2-0.9-0.4-1.8-0.6-2.7l-2.2-7.9L176.1,89.9L176.1,89.9z M186.9,89.9V103h1.7V89.9H186.9L186.9,89.9z
		 M130.6,90.1c-1.4,0-2.4,0.6-3.3,1.8c-0.9,1.2-1.4,2.9-1.4,5.2c0,2.2,0.4,3.8,1.3,5s2,1.8,3.5,1.8c1.1,0,2-0.4,2.8-1.1
		s1.3-1.8,1.6-3.2l-1.7-0.3c-0.5,1.8-1.4,2.7-2.7,2.7c-0.8,0-1.5-0.3-2.1-1.1c-0.6-0.7-0.9-1.9-1-3.3h7.5V97c0-2.2-0.4-3.9-1.3-5.1
		C133,90.6,131.9,90.1,130.6,90.1L130.6,90.1z M111.4,90.4l3.1,13.1h1.8l2-10.1l0.4,2.2l1.6,7.9h1.8l3.1-13.1h-1.6l-1.7,7.6
		l-0.6,2.5l-0.5-2.5l-1.5-7.6h-1.8l-1.6,7.7l-0.5,2.7l-0.6-2.8l-1.6-7.6L111.4,90.4L111.4,90.4z M220.6,90.5v0.6h1.7v4.4h0.7v-4.4
		h1.7v-0.6H220.6L220.6,90.5z M225.2,90.5v5h0.6v-4.3l1.4,4.3h0.6l1.4-4.2v4.2h0.7v-5H229l-1.2,3.5c-0.1,0.4-0.2,0.6-0.3,0.8
		l-0.3-0.7l-1.2-3.6L225.2,90.5L225.2,90.5z M163.9,91.4c0.9,0,1.6,0.4,2.1,1.2c0.4,0.6,0.6,1.4,0.7,2.5H161c0.1-1.2,0.4-2,0.9-2.7
		C162.6,91.8,163.2,91.4,163.9,91.4z M205.1,91.4c0.8,0,1.6,0.4,2.1,1.2c0.4,0.6,0.6,1.4,0.7,2.5h-5.7c0.1-1.2,0.4-2,0.9-2.7
		C203.7,91.8,204.3,91.4,205.1,91.4z M130.6,91.9c0.8,0,1.5,0.4,2.1,1.2c0.4,0.6,0.6,1.4,0.7,2.5h-5.6c0.1-1.2,0.3-2.1,0.9-2.8
		C129.3,92.2,129.9,91.9,130.6,91.9z M141.5,91.9c0.8,0,1.4,0.4,1.9,1.2c0.5,0.8,0.7,2.1,0.7,3.8c0,1.7-0.2,2.9-0.8,3.8
		c-0.5,0.8-1.2,1.3-1.9,1.3c-0.5,0-1-0.2-1.4-0.5c-0.4-0.4-0.7-0.9-1-1.5c-0.2-0.7-0.4-1.7-0.4-3.1c0-1.6,0.3-2.8,0.8-3.6
		S140.8,91.9,141.5,91.9L141.5,91.9z"/>
	<path class="st0" d="M86.8,78l-6.5,2.8l6.1,2.6l7-2.6L86.8,78z M77,81.5l-0.2,12.6l9.6,4.2V85.2L77,81.5L77,81.5z M96.6,81.5
		L88,84.8v12.4l8.6-3.5V81.5L96.6,81.5z M106.9,42.2l-6.6,2.8l6.1,2.6l7-2.6L106.9,42.2L106.9,42.2z M97.8,45.9v12.6l8.2,2.4
		l0.3-11.5L97.8,45.9z M116.1,46.6l-7.7,3.3v12.4l7.7-3.5V46.6z M76,60l-6.5,2.8l6.1,2.6l7-2.6L76,60L76,60z M66.2,63.5L66,76.1
		l9.6,4.2V67.2L66.2,63.5z M85.9,63.5l-8.6,3.3v12.4l8.6-3.5V63.5z M97.1,59.5l-6.5,2.8l6.1,2.6l7-2.6L97.1,59.5L97.1,59.5z
		 M87.3,63L87,75.7l9.6,4.2V66.8L87.3,63z M106.9,63l-8.6,3.3v12.4l8.6-3.5V63z M127.5,42.2L121,45l6.1,2.6l7-2.6L127.5,42.2z
		 M117.7,45.7l-0.2,12.6l9.6,4.2V49.4L117.7,45.7L117.7,45.7z M137.3,45.7l-8.6,3.3v12.4l8.6-3.5V45.7L137.3,45.7z"/>
</g>
</svg>
