<?xml version="1.0" encoding="utf-8"?>
<!-- Generator: Adobe Illustrator 21.0.2, SVG Export Plug-In . SVG Version: 6.00 Build 0)  -->
<svg version="1.1" id="Layer_1" xmlns="http://www.w3.org/2000/svg" xmlns:xlink="http://www.w3.org/1999/xlink" x="0px" y="0px"
	 width="300px" height="150px" viewBox="0 0 300 150" style="enable-background:new 0 0 300 150;" xml:space="preserve">
<style type="text/css">
	.st0{fill:#2F3C40;}
</style>
<g>
	<g>
		<g>
			<path class="st0" d="M100.7,82.3l0.9-0.1l0.1,1.8c-2.3,0.3-4.3,0.5-5.9,0.5c-2.2,0-3.8-0.6-4.7-1.9c-0.9-1.3-1.4-3.2-1.4-5.9
				c0-5.3,2.1-8,6.4-8c2.1,0,3.6,0.6,4.6,1.7s1.5,3,1.5,5.4l-0.1,1.7H92c0,1.7,0.3,2.9,0.9,3.8c0.6,0.8,1.7,1.2,3.2,1.2
				S99.2,82.4,100.7,82.3z M99.9,75.7c0-1.9-0.3-3.2-0.9-4s-1.6-1.2-2.9-1.2c-1.4,0-2.4,0.4-3,1.2c-0.7,0.8-1,2.1-1.1,3.9L99.9,75.7
				L99.9,75.7z"/>
			<path class="st0" d="M105.9,84.2V62.3h2.3v21.9H105.9z"/>
			<path class="st0" d="M123.6,73.5v7.8c0.1,0.8,0.7,1.2,1.8,1.3l-0.1,1.8c-1.6,0-2.8-0.4-3.6-1.2c-1.8,0.8-3.7,1.2-5.5,1.2
				c-1.4,0-2.5-0.4-3.2-1.2c-0.7-0.8-1.1-1.9-1.1-3.4s0.4-2.6,1.1-3.3c0.8-0.7,1.9-1.1,3.5-1.3l4.8-0.5v-1.3c0-1-0.2-1.8-0.7-2.2
				c-0.4-0.4-1.1-0.7-1.8-0.7c-1.6,0-3.3,0.1-5.1,0.3l-0.9,0.1l-0.1-1.7c2.2-0.4,4.2-0.7,5.9-0.7c1.7,0,3,0.4,3.8,1.2
				C123.2,70.6,123.6,71.9,123.6,73.5z M114.2,79.8c0,1.9,0.8,2.8,2.3,2.8c1.4,0,2.7-0.2,4.1-0.7l0.7-0.2v-5l-4.5,0.4
				c-0.9,0.1-1.6,0.3-2,0.8C114.4,78.3,114.2,78.9,114.2,79.8z"/>
			<path class="st0" d="M132.9,70.7c-2.2,0-3.3,0.8-3.3,2.3c0,0.7,0.3,1.2,0.8,1.5s1.7,0.6,3.5,0.9s3.1,0.8,3.8,1.3
				c0.8,0.6,1.1,1.6,1.1,3.2s-0.5,2.7-1.5,3.4c-1,0.7-2.5,1.1-4.4,1.1c-1.3,0-2.7-0.1-4.5-0.4l-0.9-0.2l0.1-2
				c2.3,0.3,4.1,0.5,5.2,0.5c1.2,0,2.1-0.2,2.7-0.6c0.6-0.4,0.9-1,0.9-1.9s-0.3-1.5-0.8-1.8s-1.7-0.6-3.5-0.9s-3.1-0.7-3.8-1.2
				c-0.8-0.5-1.1-1.6-1.1-3c0-1.5,0.5-2.6,1.6-3.3c1-0.7,2.4-1.1,3.9-1.1c1.2,0,2.8,0.1,4.7,0.4l0.9,0.2l-0.1,2
				C135.9,70.8,134.2,70.7,132.9,70.7z"/>
			<path class="st0" d="M150.1,70.9h-4.8v7.3c0,1.7,0.1,2.9,0.4,3.4c0.3,0.5,0.9,0.8,1.8,0.8l2.7-0.2l0.2,1.9
				c-1.4,0.2-2.4,0.3-3.1,0.3c-1.6,0-2.7-0.4-3.3-1.2c-0.6-0.8-0.9-2.2-0.9-4.4v-8h-2.2v-2h2.2v-4.7h2.3v4.7h4.8L150.1,70.9
				L150.1,70.9z"/>
			<path class="st0" d="M153,65.5v-2.7h2.3v2.7H153z M153,84.2V68.9h2.3v15.2L153,84.2L153,84.2z"/>
			<path class="st0" d="M165.3,68.6c0.7,0,1.8,0.1,3.4,0.4l0.7,0.1l-0.1,1.9c-1.6-0.2-2.8-0.3-3.6-0.3c-1.7,0-2.9,0.4-3.5,1.2
				c-0.6,0.8-0.9,2.3-0.9,4.6c0,2.2,0.3,3.8,0.9,4.6c0.6,0.9,1.8,1.3,3.6,1.3l3.6-0.3l0.1,1.9c-1.9,0.3-3.3,0.4-4.2,0.4
				c-2.4,0-4-0.6-4.9-1.8c-0.9-1.2-1.4-3.3-1.4-6.2s0.5-4.9,1.5-6.1C161.4,69.2,163.1,68.6,165.3,68.6z"/>
			<path class="st0" d="M177.7,70.7c-2.2,0-3.3,0.8-3.3,2.3c0,0.7,0.3,1.2,0.8,1.5s1.7,0.6,3.5,0.9s3.1,0.8,3.8,1.3
				c0.8,0.6,1.1,1.6,1.1,3.2s-0.5,2.7-1.5,3.4c-1,0.7-2.5,1.1-4.4,1.1c-1.3,0-2.7-0.1-4.5-0.4l-0.9-0.2l0.1-2
				c2.3,0.3,4.1,0.5,5.2,0.5c1.2,0,2.1-0.2,2.7-0.6c0.6-0.4,0.9-1,0.9-1.9s-0.3-1.5-0.8-1.8s-1.7-0.6-3.5-0.9s-3.1-0.7-3.8-1.2
				c-0.8-0.5-1.1-1.6-1.1-3c0-1.5,0.5-2.6,1.6-3.3c1-0.7,2.4-1.1,3.9-1.1c1.2,0,2.8,0.1,4.7,0.4l0.9,0.2l-0.1,2
				C180.8,70.8,179,70.7,177.7,70.7z"/>
			<path class="st0" d="M197.5,82.3l0.9-0.1l0.1,1.8c-2.3,0.3-4.3,0.5-5.9,0.5c-2.2,0-3.8-0.6-4.7-1.9s-1.4-3.2-1.4-5.9
				c0-5.3,2.1-8,6.4-8c2.1,0,3.6,0.6,4.6,1.7s1.5,3,1.5,5.4l-0.1,1.7h-10.1c0,1.7,0.3,2.9,0.9,3.8c0.6,0.8,1.7,1.2,3.2,1.2
				S195.9,82.4,197.5,82.3z M196.6,75.7c0-1.9-0.3-3.2-0.9-4c-0.6-0.8-1.6-1.2-2.9-1.2c-1.4,0-2.4,0.4-3,1.2c-0.7,0.8-1,2.1-1.1,3.9
				L196.6,75.7L196.6,75.7z"/>
			<path class="st0" d="M213.3,73.5v7.8c0.1,0.8,0.7,1.2,1.8,1.3l-0.1,1.8c-1.6,0-2.8-0.4-3.6-1.2c-1.8,0.8-3.7,1.2-5.5,1.2
				c-1.4,0-2.5-0.4-3.2-1.2c-0.7-0.8-1.1-1.9-1.1-3.4s0.4-2.6,1.1-3.3c0.8-0.7,1.9-1.1,3.5-1.3l4.8-0.5v-1.3c0-1-0.2-1.8-0.7-2.2
				c-0.4-0.4-1.1-0.7-1.8-0.7c-1.6,0-3.3,0.1-5.1,0.3l-0.9,0.1l-0.1-1.7c2.2-0.4,4.2-0.7,5.9-0.7s3,0.4,3.8,1.2
				C212.9,70.6,213.3,71.9,213.3,73.5z M203.9,79.8c0,1.9,0.8,2.8,2.3,2.8c1.4,0,2.7-0.2,4.1-0.7l0.7-0.2v-5l-4.5,0.4
				c-0.9,0.1-1.6,0.3-2,0.8C204.1,78.3,203.9,78.9,203.9,79.8z"/>
			<path class="st0" d="M217.8,84.2V68.9h2.3V71c1.8-1.2,3.6-2,5.6-2.4v2.3c-0.9,0.2-1.7,0.4-2.7,0.8c-0.9,0.3-1.6,0.7-2.1,0.9
				l-0.8,0.4v11.2C220.1,84.2,217.8,84.2,217.8,84.2z"/>
			<path class="st0" d="M233.7,68.6c0.7,0,1.8,0.1,3.4,0.4l0.7,0.1l-0.1,1.9c-1.6-0.2-2.8-0.3-3.6-0.3c-1.7,0-2.9,0.4-3.5,1.2
				c-0.6,0.8-0.9,2.3-0.9,4.6c0,2.2,0.3,3.8,0.9,4.6c0.6,0.9,1.8,1.3,3.6,1.3l3.6-0.3l0.1,1.9c-1.9,0.3-3.3,0.4-4.2,0.4
				c-2.4,0-4-0.6-4.9-1.8c-0.9-1.2-1.4-3.3-1.4-6.2s0.5-4.9,1.5-6.1C229.8,69.2,231.4,68.6,233.7,68.6z"/>
			<path class="st0" d="M243.6,84.2h-2.3V62.3h2.3v7.5c1.6-0.8,3.2-1.2,4.7-1.2c2,0,3.4,0.5,4.1,1.6c0.7,1.1,1.1,3,1.1,5.9v8h-2.3
				v-8c0-2.1-0.2-3.6-0.6-4.3c-0.4-0.8-1.3-1.2-2.6-1.2s-2.5,0.2-3.7,0.7l-0.6,0.2L243.6,84.2L243.6,84.2z"/>
		</g>
	</g>
	<g>
		<path class="st0" d="M80.2,63.6c-3.4-4.5-8.8-7.3-14.9-7.3c-7.4,0-13.8,4.3-16.9,10.5h24.9C76.1,66.8,78.6,65.5,80.2,63.6z"/>
		<path class="st0" d="M73.5,83.2h-25c3,6.2,9.5,10.5,16.9,10.5c6.1,0,11.5-2.9,14.9-7.4C78.6,84.4,76.2,83.2,73.5,83.2z"/>
		<path class="st0" d="M71.2,80.3c2.9,0,5.3-2.4,5.3-5.3s-2.4-5.3-5.3-5.3H63H47.3c-0.5,1.7-0.8,3.4-0.8,5.3s0.3,3.6,0.8,5.3H63
			H71.2z"/>
	</g>
</g>
</svg>
