<?xml version="1.0" encoding="utf-8"?>
<!-- Generator: Adobe Illustrator 21.0.2, SVG Export Plug-In . SVG Version: 6.00 Build 0)  -->
<svg version="1.1" id="Layer_1" xmlns="http://www.w3.org/2000/svg" xmlns:xlink="http://www.w3.org/1999/xlink" x="0px" y="0px"
	 width="300px" height="150px" viewBox="0 0 300 150" style="enable-background:new 0 0 300 150;" xml:space="preserve">
<style type="text/css">
	.st0{fill:#2F3C40;}
</style>
<g>
	<g>
		<path class="st0" d="M81,98.4h4.5v-18l7.1,15.7c0.8,1.9,2,2.6,4.2,2.6s3.3-0.7,4.2-2.6l7.1-15.7v18h4.6v-18c0-1.7-0.7-2.6-2.2-3
			c-3.5-1-5.8-0.1-6.8,2.2l-7,15.5L90,79.5c-1-2.3-3.4-3.3-6.9-2.2c-1.4,0.5-2.1,1.3-2.1,3V98.4L81,98.4L81,98.4z M116.4,83.7h4.6
			v9.9c0,0.6,0.2,1.8,2.7,1.9c1.3,0,9.9,0,9.9,0V83.7h4.6v16.2c0,4-4.9,4.9-7.2,4.9h-14.4v-3H131c2.9-0.3,2.6-1.8,2.6-2.3v-1.2h-9.7
			c-4.5,0-7.4-2-7.4-4.3C116.4,93.7,116.5,83.8,116.4,83.7L116.4,83.7z M214.7,72.3c-2.8-0.1-5,0.2-6.8,1c-0.5,0.2-1.4,0.2-1.4,0.9
			c0.3,0.3,0.3,0.7,0.6,1.1c0.4,0.7,1.2,1.6,1.8,2.1c0.7,0.6,1.5,1.1,2.2,1.6c1.4,0.8,2.9,1.3,4.2,2.2c0.8,0.5,1.5,1.1,2.3,1.6
			c0.4,0.3,0.6,0.7,1.1,0.9v-0.1c-0.2-0.3-0.3-0.8-0.6-1.1c-0.4-0.3-0.7-0.7-1.1-1c-1-1.4-2.3-2.6-3.6-3.5c-1.1-0.8-3.6-1.8-4-3.1
			l-0.1-0.1c0.8-0.1,1.7-0.4,2.4-0.6c1.2-0.3,2.3-0.2,3.5-0.6c0.6-0.1,1.1-0.3,1.7-0.5v-0.3c-0.6-0.6-1.1-1.5-1.7-2.1
			c-1.8-1.5-3.7-3-5.8-4.3c-1.1-0.7-2.5-1.2-3.6-1.7c-0.4-0.2-1.1-0.3-1.4-0.7c-0.6-0.8-1-1.8-1.4-2.7c-1-1.9-2-4.1-2.9-6.1
			c-0.6-1.4-1-2.7-1.8-4c-3.6-5.9-7.5-9.5-13.5-13.1c-1.3-0.7-2.8-1-4.5-1.4c-0.9,0-1.7-0.1-2.6-0.1c-0.6-0.2-1.1-0.9-1.6-1.2
			c-2-1.3-7.1-4-8.6-0.4c-0.9,2.3,1.4,4.5,2.2,5.7c0.6,0.8,1.4,1.7,1.8,2.6c0.2,0.6,0.3,1.2,0.6,1.9c0.6,1.5,1.1,3.3,1.8,4.7
			c0.4,0.7,0.8,1.5,1.3,2.2c0.3,0.4,0.8,0.6,0.9,1.2c-0.5,0.7-0.5,1.7-0.8,2.6c-1.3,4-0.8,8.8,1,11.8c0.6,0.9,1.9,2.8,3.7,2.1
			c1.6-0.6,1.2-2.6,1.7-4.4c0.1-0.4,0-0.7,0.2-1v0.1c0.5,1,1,1.9,1.4,2.9c1.1,1.7,3,3.5,4.5,4.7c0.8,0.6,1.5,1.7,2.6,2.1V74h-0.1
			c-0.2-0.3-0.5-0.5-0.8-0.7c-0.6-0.6-1.3-1.4-1.8-2.1c-1.5-2-2.8-4.1-3.9-6.4c-0.6-1.1-1.1-2.3-1.5-3.4c-0.2-0.4-0.2-1-0.6-1.3
			c-0.5,0.8-1.3,1.4-1.7,2.4c-0.7,1.5-0.7,3.4-1,5.3c-0.1,0-0.1,0-0.1,0.1c-1.1-0.3-1.5-1.4-1.9-2.4c-1-2.5-1.2-6.5-0.3-9.3
			c0.2-0.7,1.3-3,0.9-3.7c-0.2-0.7-0.9-1-1.3-1.6c-0.5-0.7-0.9-1.5-1.3-2.2c-0.8-2-1.3-4.1-2.2-6.1c-0.4-0.9-1.2-1.9-1.7-2.7
			c-0.7-0.9-1.4-1.6-1.9-2.7c-0.2-0.4-0.4-1-0.1-1.4c0.1-0.3,0.2-0.4,0.5-0.5c0.5-0.4,1.7,0.1,2.2,0.3c1.3,0.5,2.4,1,3.5,1.7
			c0.5,0.3,1,1,1.6,1.2h0.7c1.1,0.2,2.4,0.1,3.4,0.4c1.9,0.6,3.5,1.5,5,2.4c4.6,2.9,8.4,7,10.9,12c0.4,0.8,0.6,1.5,1,2.4
			c0.7,1.7,1.6,3.5,2.4,5.1c0.7,1.6,1.4,3.3,2.5,4.7c0.5,0.7,2.6,1.1,3.6,1.5c0.7,0.3,1.8,0.6,2.4,1c1.2,0.7,2.4,1.6,3.5,2.4
			C212.8,70.7,214.6,71.6,214.7,72.3L214.7,72.3z"/>
		<path class="st0" d="M179,41.9c-0.6,0-1,0.1-1.4,0.2v0.1h0.1c0.3,0.6,0.8,0.9,1.1,1.4c0.3,0.6,0.5,1.1,0.8,1.7l0.1-0.1
			c0.5-0.3,0.7-0.9,0.7-1.7c-0.2-0.2-0.2-0.5-0.4-0.7C179.8,42.3,179.3,42.2,179,41.9L179,41.9z"/>
		<path class="st0" d="M141.7,98.4h13.2c1.5,0,3-0.3,4.2-0.9c2-0.9,2.9-2.1,2.9-3.7v-3.4c0-1.3-1.1-2.5-3.3-3.4
			c-1.1-0.4-2.5-0.7-3.9-0.7h-5.5c-1.9,0-2.7-0.6-3-1.8c0-0.1,0-0.3,0-0.4V82c0-0.1,0-0.2,0-0.4c0.2-0.9,0.7-1.2,2.3-1.4h13.5v-3
			h-12.8c-1.9,0-2.8,0.1-3.7,0.4c-2.7,0.8-3.9,2.2-3.9,4.5v2.7c0,2.1,2.3,3.8,6.2,4.2c0.4,0,0.9,0,1.3,0h4.7c0.2,0,0.3,0,0.5,0
			c1.4,0.1,2.1,0.4,2.5,0.9c0.3,0.3,0.4,0.5,0.4,0.8v2.7c0,0.3-0.2,0.7-0.6,1.1c-0.4,0.3-1.1,0.6-2,0.6c-0.2,0-0.3,0-0.5,0h-12.6
			v3.3C141.6,98.4,141.7,98.4,141.7,98.4z M190.4,93.1c0,3.1,2.3,4.9,7,5.2c0.5,0,0.9,0.1,1.3,0.1h11.9v-3h-12
			c-2.7,0-3.7-0.7-3.7-2.3V77.3h-4.6L190.4,93.1L190.4,93.1L190.4,93.1z M164.9,93.3V82.4c0-2.8,2-4.4,5.8-5c0.4,0,0.8-0.1,1.2-0.1
			h8.7c0.5,0,0.8,0,1.3,0.1c3.8,0.5,5.7,2.2,5.7,5v10.8c0,2.2-0.8,3.4-2.7,4.2l4.5,4.1h-5.3l-3.6-3.3l-3.7,0.2h-4.9
			c-0.8,0-1.7-0.1-2.7-0.3C166.3,97.3,164.9,95.8,164.9,93.3L164.9,93.3z M169.8,93c0,0.1,0.1,0.3,0.1,0.5c0.2,1.3,1.4,2,3.3,2h4.1
			l-3.8-3.4h5.3l3.3,3c0.6-0.4,1-0.8,1.2-1.5c0-0.1,0-0.3,0-0.5V82.7c0-0.1,0-0.3,0-0.4c-0.2-1.2-1.4-1.9-3.2-1.9h-6.9
			c-2,0-3.4,0.9-3.4,2.3L169.8,93L169.8,93z M212.8,98.4h0.7v-2.6h0.9v-0.5H212v0.5h0.9L212.8,98.4L212.8,98.4z M217.8,98.4h0.6
			v-3.1h-0.9l-0.8,2.1l-0.8-2.1H215v3.1h0.6v-2.3l0,0l0.9,2.3h0.5l0.9-2.3L217.8,98.4L217.8,98.4L217.8,98.4z"/>
		<g id="Layer_2_6_">
		</g>
	</g>
	<g id="Layer_2_4_">
	</g>
</g>
</svg>
