<?xml version="1.0" encoding="utf-8"?>
<!-- Generator: Adobe Illustrator 21.0.2, SVG Export Plug-In . SVG Version: 6.00 Build 0)  -->
<svg version="1.1" id="Layer_1" xmlns="http://www.w3.org/2000/svg" xmlns:xlink="http://www.w3.org/1999/xlink" x="0px" y="0px"
	 width="300px" height="150px" viewBox="0 0 300 150" style="enable-background:new 0 0 300 150;" xml:space="preserve">
<style type="text/css">
	.st0{fill:#2F3C40;}
</style>
<g id="Layer_2_8_">
	<g>
		<path class="st0" d="M166.6,70h-8.2v0.9c2.6,0,3,0.5,3,3.8v5.8c0,3.2-0.4,3.8-3,3.8c-2-0.3-3.3-1.3-5.1-3.3l-2.1-2.3
			c2.8-0.5,4.3-2.3,4.3-4.3c0-2.5-2.1-4.4-6.2-4.4h-8v0.9c2.6,0,3,0.5,3,3.8v5.8c0,3.2-0.4,3.8-3,3.8v0.9h9.1v-0.9
			c-2.6,0-3-0.6-3-3.8v-1.6h0.8l5.1,6.3h13.3c6.5,0,9.3-3.5,9.3-7.6C175.9,73.4,173.1,70,166.6,70z M147.5,77.4v-6.1h1.9
			c2.1,0,3,1.4,3,3.1c0,1.6-0.9,3-3,3H147.5L147.5,77.4z M166.7,83.8h-0.3c-1.6,0-1.9-0.4-1.9-2.5v-9.9c0,0,2,0,2.2,0
			c4.7,0,5.6,3.5,5.6,6.2C172.3,80.3,171.5,83.8,166.7,83.8z"/>
		<path class="st0" d="M116,79.1l3.1-9.3c0.9-2.7,0.5-3.5-2.4-3.5v-0.9h8.6v0.9c-2.9,0-3.6,0.7-4.7,4L115.4,86h-0.6l-4.7-14.3
			L105.4,86h-0.6l-5.1-15.6c-1.1-3.3-1.8-4-4.5-4v-0.9h10.1v0.9c-2.7,0-3.4,0.6-2.5,3.5l3.1,9.3l4.6-13.7h0.9L116,79.1z"/>
		<path class="st0" d="M131.5,85.8c-5,0-9.1-3.7-9.1-8.2s4.1-8.2,9.1-8.2s9.1,3.7,9.1,8.2C140.6,82.1,136.5,85.8,131.5,85.8z
			 M131.5,70.8c-4.2,0-5.7,3.8-5.7,6.7c0,3,1.5,6.7,5.7,6.7s5.7-3.7,5.7-6.7C137.2,74.6,135.7,70.8,131.5,70.8z"/>
		<path class="st0" d="M187.2,84.3v0.9h-10.4v-0.9c3.1,0,3.6-0.8,3.6-5.3v-7.3c0-4.6-0.5-5.3-3.6-5.3v-0.9h9.4
			c4.7,0,7.3,2.4,7.3,5.7c0,3.1-2.6,5.6-7.3,5.6h-2.6V79C183.6,83.5,184.1,84.3,187.2,84.3z M186.2,67.1h-2.6V75h2.6
			c2.6,0,3.7-1.8,3.7-3.9C189.9,68.9,188.7,67.1,186.2,67.1z"/>
		<path class="st0" d="M224.8,80.9l-0.2,0.8c-0.4,1.5-0.9,2.1-4.1,2.1h-0.6c-2.4,0-2.8-0.5-2.8-3.8v-2.1c3.6,0,3.8,0.3,3.8,2.7h0.9
			v-6.8h-0.9c0,2.4-0.3,2.7-3.8,2.7v-5.1h2.5c3.2,0,3.7,0.5,4.1,2.1l0.2,0.9h0.7l-0.3-4.3h-13.4V71c2.6,0,3,0.5,3,3.8v5.8
			c0,3-0.3,3.7-2.4,3.8c-1.9-0.3-3.2-1.3-5-3.3l-2.1-2.3c2.8-0.5,4.3-2.3,4.3-4.3c0-2.5-2.1-4.4-6.2-4.4h-8V71c2.6,0,3,0.5,3,3.8
			v5.8c0,3.2-0.4,3.8-3,3.8v0.9h9.1v-0.9c-2.6,0-3-0.6-3-3.8V79h0.8l5.1,6.3h18.7l0.3-4.3L224.8,80.9L224.8,80.9z M200.6,77.4v-6.1
			h1.9c2.1,0,3,1.4,3,3.1c0,1.6-0.9,3-3,3H200.6L200.6,77.4z"/>
		<path class="st0" d="M234.1,85.8c-1.8,0-3.4-1-4.1-1.6c-0.2,0.2-0.6,0.9-0.7,1.6h-0.9v-6.3h0.9c0.4,3,2.5,4.8,5.2,4.8
			c1.5,0,2.6-0.8,2.6-2.2c0-1.2-1-2.1-2.9-3l-2.6-1.2c-1.8-0.9-3.2-2.4-3.2-4.4c0-2.2,2.1-4.1,4.9-4.1c1.5,0,2.8,0.5,3.6,1.2
			c0.2-0.2,0.5-0.7,0.6-1.2h0.9v5.4h-1c-0.3-2.1-1.5-3.9-3.9-3.9c-1.3,0-2.5,0.7-2.5,1.9c0,1.2,1,1.8,3.1,2.8l2.5,1.2
			c2.2,1,3.1,2.7,3.1,4.1C239.6,83.8,237.1,85.8,234.1,85.8z"/>
		<path class="st0" d="M248.1,85.8c-1.8,0-3.4-1-4.1-1.6c-0.2,0.2-0.6,0.9-0.7,1.6h-0.9v-6.3h0.9c0.4,3,2.5,4.8,5.2,4.8
			c1.5,0,2.6-0.8,2.6-2.2c0-1.2-1-2.1-2.9-3l-2.6-1.2c-1.8-0.9-3.2-2.4-3.2-4.4c0-2.2,2.1-4.1,4.9-4.1c1.5,0,2.8,0.5,3.6,1.2
			c0.2-0.2,0.5-0.7,0.6-1.2h0.9v5.4h-1c-0.3-2.1-1.5-3.9-3.9-3.9c-1.3,0-2.5,0.7-2.5,1.9c0,1.2,1,1.8,3.1,2.8l2.5,1.2
			c2.2,1,3.1,2.7,3.1,4.1C253.7,83.8,251.2,85.8,248.1,85.8z"/>
		<g>
			<path class="st0" d="M49.7,75c0,8,4.6,14.9,11.4,18.2l-9.6-26.4C50.3,69.3,49.7,72.1,49.7,75z"/>
			<path class="st0" d="M83.5,74c0-2.5-0.9-4.2-1.7-5.6c-1-1.7-2-3.1-2-4.7c0-1.9,1.4-3.6,3.4-3.6c0.1,0,0.2,0,0.3,0
				c-3.6-3.3-8.4-5.3-13.6-5.3c-7,0-13.3,3.6-16.9,9.1c0.5,0,0.9,0,1.3,0c2.1,0,5.4-0.3,5.4-0.3c1.1-0.1,1.2,1.5,0.1,1.7
				c0,0-1.1,0.1-2.3,0.2l7.3,21.9l4.4-13.2l-3.1-8.6C65,65.5,64,65.3,64,65.3c-1.1-0.1-1-1.7,0.1-1.7c0,0,3.3,0.3,5.3,0.3
				c2.1,0,5.4-0.3,5.4-0.3c1.1-0.1,1.2,1.5,0.1,1.7c0,0-1.1,0.1-2.3,0.2l7.3,21.7l2-6.7C82.8,77.7,83.5,75.7,83.5,74z"/>
			<path class="st0" d="M70.2,76.8l-6.1,17.6c1.8,0.5,3.7,0.8,5.7,0.8c2.3,0,4.6-0.4,6.7-1.1c-0.1-0.1-0.1-0.2-0.1-0.3L70.2,76.8z"
				/>
			<path class="st0" d="M87.6,65.3c0.1,0.6,0.1,1.3,0.1,2.1c0,2-0.4,4.3-1.5,7.2L80,92.4c6-3.5,10-10,10-17.4
				C90,71.5,89.1,68.2,87.6,65.3z"/>
			<path class="st0" d="M69.8,51.5c-13,0-23.5,10.6-23.5,23.5c0,13,10.6,23.5,23.5,23.5c13,0,23.5-10.6,23.5-23.5
				C93.4,62,82.8,51.5,69.8,51.5z M69.8,97.4c-12.4,0-22.4-10.1-22.4-22.4c0-12.4,10.1-22.4,22.4-22.4c12.4,0,22.4,10.1,22.4,22.4
				C92.3,87.4,82.2,97.4,69.8,97.4z"/>
		</g>
	</g>
</g>
</svg>
