<?xml version="1.0" encoding="utf-8"?>
<!-- Generator: Adobe Illustrator 21.0.2, SVG Export Plug-In . SVG Version: 6.00 Build 0)  -->
<svg version="1.1" baseProfile="basic" id="Layer_1"
	 xmlns="http://www.w3.org/2000/svg" xmlns:xlink="http://www.w3.org/1999/xlink" x="0px" y="0px" width="2500px" height="531.1px"
	 viewBox="0 0 2500 531.1" xml:space="preserve">
<style type="text/css">
	.st0{fill:#FFCB01;}
	.st1{fill:#D80613;}
</style>
<path class="st0" d="M0.1,3h2499.8v531.1H0.1V3z"/>
<g>
	<path class="st1" d="M464.6,101.4l-77.4,105.2h421.9c21.3,0,21.1,8,10.6,22.2c-10.6,14.4-28.3,39.2-39.1,53.8
		c-5.5,7.4-15.4,20.9,17.4,20.9h172.5l51.1-69.5c31.7-43,2.8-132.6-110.6-132.6L464.6,101.4L464.6,101.4z"/>
	<path class="st1" d="M355.9,444.1l155.5-211.3h193c21.3,0,21.1,8.1,10.6,22.2l-39.4,53.6c-5.5,7.4-15.4,20.9,17.4,20.9h258.5
		C930,359,860.2,444.1,735.1,444.1H355.9z M1246.4,329.5l-84.3,114.7H939.6l84.3-114.7H1246.4z M1587.1,303.5h-544l148.8-202.1
		h222.3L1329,217.3h99.2l85.3-115.9h222.3L1587.1,303.5z M1568,329.5l-84.3,114.7h-222.3l84.3-114.7H1568z M38.5,374.7h327.6
		L348.2,399H38.5V374.7z M38.5,329.5h360.9l-17.9,24.3h-343V329.5z M38.5,419.9h294.4L315,444.1H38.5V419.9z M2461.6,399h-326.5
		l17.9-24.3h308.5V399z M2461.6,444.1H2102l17.8-24.2h341.8V444.1z M2186.3,329.5h275.3v24.4h-293.2L2186.3,329.5z M2043.8,101.4
		L1895,303.5h-235.6l148.9-202.1H2043.8z M1640.4,329.5c0,0-16.2,22.2-24.2,32.9c-27.9,37.8-3.2,81.7,87.9,81.7h357.1l84.3-114.6
		L1640.4,329.5L1640.4,329.5z"/>
</g>
</svg>
