<?xml version="1.0" encoding="utf-8"?>
<!-- Generator: Adobe Illustrator 21.0.2, SVG Export Plug-In . SVG Version: 6.00 Build 0)  -->
<svg version="1.1" baseProfile="basic" id="Layer_1"
	 xmlns="http://www.w3.org/2000/svg" xmlns:xlink="http://www.w3.org/1999/xlink" x="0px" y="0px" width="193px" height="90px"
	 viewBox="0 0 193 90" xml:space="preserve">
<style type="text/css">
	.st0{fill-rule:evenodd;clip-rule:evenodd;fill:#472F92;}
	.st1{fill-rule:evenodd;clip-rule:evenodd;fill:#F26522;}
</style>
<path class="st0" d="M8.4,80.6v-0.8c1.6-0.1,1.9-0.4,1.9-1.7V65.5c0-1.3-0.3-1.6-1.9-1.7V63h12v6.7h-0.8c-0.4-3.3-1.4-5.7-4.4-5.7
	c-1.9,0-2.4,0.4-2.4,1.6v5.3h0.7c1.6,0,2.2-1,2.6-3.2h0.8V75h-0.8c-0.4-2.2-1-3.2-2.6-3.2h-0.7V78c0,1.3,0.3,1.6,2.3,1.7v0.8H8.4
	L8.4,80.6z"/>
<path class="st0" d="M23.2,74.4c0,3.6,1.3,5.5,3,5.5c2.2,0,3-1.9,3.3-3.7l0.8,0.2c-0.2,2.3-1.5,4.5-4.3,4.5c-3.2,0-5.3-3.2-5.3-6.4
	c0-3.8,2-6.4,4.9-6.4c2.8,0,4.6,2.7,4.6,6.3H23.2L23.2,74.4z M27.7,73.4c0-3.3-0.8-4.5-2.1-4.5c-1.5,0-2.4,1.3-2.4,4.5H27.7
	L27.7,73.4z"/>
<path class="st0" d="M37.5,63l3.9-0.2v15c0,1.4,0.5,1.8,1.5,1.8v0.8l-3.6,0.2v-1.8h-0.1c-0.6,1.2-1.4,2.1-3,2.1
	c-2.3,0-4.4-2.3-4.4-6.4c0-3.7,2-6.5,4.7-6.5c1.2,0,2.1,0.7,2.6,1.7l0.1,0v-4.6c0-1.1-0.3-1.3-1.7-1.3V63L37.5,63z M36.5,80
	c1.4,0,2.7-1.1,2.7-5.5c0-3.6-0.9-5.5-2.5-5.5c-1.4,0-2.3,1.6-2.3,5.5C34.4,78.5,35.2,80,36.5,80L36.5,80z"/>
<path class="st0" d="M46.1,74.4c0,3.6,1.3,5.5,3,5.5c2.2,0,3-1.9,3.3-3.7l0.8,0.2c-0.2,2.3-1.5,4.5-4.3,4.5c-3.2,0-5.3-3.2-5.3-6.4
	c0-3.8,2-6.4,4.9-6.4c2.8,0,4.6,2.7,4.6,6.3H46.1L46.1,74.4z M50.7,73.4c0-3.3-0.8-4.5-2.1-4.5c-1.5,0-2.4,1.3-2.4,4.5H50.7
	L50.7,73.4z"/>
<path class="st0" d="M54.8,80.6v-0.8c1.1-0.1,1.5-0.5,1.5-1.3v-6.9c0-1.7-0.3-2.3-1.6-2.3v-0.8l3.5-0.2v3h0.1
	c0.3-1.3,1.3-3.1,2.8-3.1c0.9,0,1.9,0.8,1.9,2.2c0,1.1-0.5,1.7-1.2,1.7c-0.6,0-1.1-0.4-1.1-1.5c0-0.6,0.4-1.3,1.1-1.3
	c-0.1-0.2-0.4-0.3-0.7-0.3c-1.7,0-2.5,3.8-2.5,6v3.6c0,0.8,0.4,1.2,2.1,1.3v0.8H54.8L54.8,80.6z"/>
<path class="st0" d="M74.3,77c0,2.7-0.5,3.8-2.1,3.8c-1.2,0-1.9-0.6-2.1-2H70c-0.6,1.1-1.4,2-3.2,2c-2,0-3.1-1.2-3.1-2.9
	c0-2.9,4-4.1,6.2-4.9V71c0-1.5-0.7-2.1-2-2.1c-0.9,0-1.6,0.3-2.2,0.9c0.8,0.1,1.1,0.7,1.1,1.4c0,0.9-0.6,1.5-1.3,1.5
	c-0.7,0-1.2-0.5-1.2-1.5c0-1.7,1.6-3.1,3.9-3.1c2.9,0,4,1.3,4,3.2v7.1c0,0.7,0.2,1.1,0.5,1.1c0.5,0,0.7-0.6,0.7-2.4H74.3L74.3,77z
	 M70,74c-2,0.7-3.9,1.7-3.9,3.9c0,1.4,0.6,2,1.4,2c1.3,0,2.5-1.5,2.5-4.4V74L70,74z"/>
<path class="st0" d="M75,80.6v-0.8c1.2-0.1,1.6-0.5,1.6-1.3V65.2c0-0.9-0.4-1.3-1.7-1.4V63l3.9-0.2v15.6c0,0.8,0.4,1.2,1.6,1.3v0.8
	H75L75,80.6z"/>
<path class="st0" d="M87.9,80.6v-0.8c1.6-0.1,1.9-0.4,1.9-1.7V65.5c0-1.3-0.3-1.6-1.9-1.7V63h12v6.7h-0.8c-0.6-3.5-1.5-5.9-4.5-5.9
	c-1.8,0-2.3,0.6-2.3,1.7v5.3h0.8c1.8,0,2.3-0.9,2.6-3.1h0.8v7h-0.8c-0.4-2.1-1-3-2.6-3h-0.7V78c0,1,0.4,1.7,1.9,1.7
	c3.3,0,5.1-2.2,5.3-6.1h0.8v6.9H87.9L87.9,80.6z"/>
<path class="st0" d="M101.9,80.6v-0.8c1.1-0.2,1.8-0.5,2.6-1.7l2.1-3.3l-3.3-4.9c-0.3-0.5-0.6-0.6-1.4-0.7v-0.8h5.1v0.8
	c-0.8,0-1.1,0.1-1.1,0.5c0,0.4,0.3,0.6,2.1,3.3c1.6-2.5,1.8-2.8,1.8-3.3c0-0.4-0.3-0.6-1.2-0.6v-0.8h4.6v0.8c-1,0-1.7,0.4-2.3,1.3
	l-2.3,3.4l3.1,4.8c0.5,0.8,0.9,0.9,1.9,1.1v0.8h-5.4v-0.8c1,0,1.2-0.2,1.2-0.6c0-0.4-0.2-0.6-2.1-3.5c-1.6,2.6-1.9,3-1.9,3.4
	c0,0.4,0.4,0.7,1.2,0.7v0.8H101.9L101.9,80.6z"/>
<path class="st0" d="M114.1,85.2v-0.8c1.2,0,1.6-0.5,1.6-1.3V70.3c0-1.1-0.3-1.3-1.6-1.3v-0.8l3.7-0.2v2.4h0.1
	c0.4-1.2,1.4-2.4,3.1-2.4c2.9,0,4.4,3.8,4.4,6.4c0,3.5-1.8,6.4-4.6,6.4c-1.3,0-2.2-0.7-2.7-1.7h-0.1v3.9c0,0.8,0.4,1.2,1.9,1.3v0.8
	H114.1L114.1,85.2z M120.5,80c1.4,0,2.3-1.6,2.3-5.5c0-3.9-0.9-5.5-2.2-5.5c-1.3,0-2.6,1.6-2.6,5.9C117.9,78.9,119.4,80,120.5,80
	L120.5,80z"/>
<path class="st0" d="M126.3,80.6v-0.8c1.1-0.1,1.5-0.5,1.5-1.3v-6.9c0-1.7-0.3-2.3-1.6-2.3v-0.8l3.5-0.2v3h0.1
	c0.3-1.3,1.2-3.1,2.8-3.1c0.9,0,1.9,0.8,1.9,2.2c0,1.1-0.5,1.7-1.2,1.7c-0.6,0-1.1-0.4-1.1-1.5c0-0.6,0.4-1.3,1.1-1.3
	c-0.1-0.2-0.4-0.3-0.7-0.3c-1.7,0-2.5,3.8-2.5,6v3.6c0,0.8,0.4,1.2,2.1,1.3v0.8H126.3L126.3,80.6z"/>
<path class="st0" d="M137.9,74.4c0,3.6,1.3,5.5,3,5.5c2.2,0,3-1.9,3.3-3.7l0.8,0.2c-0.2,2.3-1.5,4.5-4.3,4.5c-3.2,0-5.3-3.2-5.3-6.4
	c0-3.8,2-6.4,4.9-6.4c2.8,0,4.6,2.7,4.6,6.3H137.9L137.9,74.4z M142.5,73.4c0-3.3-0.8-4.5-2.1-4.5c-1.5,0-2.4,1.3-2.4,4.5H142.5
	L142.5,73.4z"/>
<path class="st0" d="M147.1,80.6V76h0.8c0.3,1.6,1.1,4.1,3.2,4.1c1.3,0,2.2-0.8,2.2-2.2c0-3.3-6.1-1.8-6.1-6.3
	c0-1.6,1.2-3.4,3.4-3.4c1.4,0,2,0.8,2.4,0.8c0.3,0,0.3-0.3,0.4-0.5h0.8v4h-0.8c-0.3-1.4-1-3.5-2.7-3.5c-1.1,0-1.9,0.7-1.9,1.8
	c0,3.1,6.3,1.7,6.3,6.4c0,1.6-1.2,3.8-4,3.8c-1.7,0-2.2-0.9-2.8-0.9c-0.3,0-0.4,0.4-0.5,0.6H147.1L147.1,80.6z"/>
<path class="st0" d="M157.1,80.6V76h0.8c0.3,1.6,1.1,4.1,3.2,4.1c1.3,0,2.2-0.8,2.2-2.2c0-3.3-6.1-1.8-6.1-6.3
	c0-1.6,1.2-3.4,3.4-3.4c1.4,0,2,0.8,2.4,0.8c0.3,0,0.3-0.3,0.4-0.5h0.8v4h-0.8c-0.3-1.4-1-3.5-2.7-3.5c-1.1,0-1.9,0.7-1.9,1.8
	c0,3.1,6.3,1.7,6.3,6.4c0,1.6-1.2,3.8-4,3.8c-1.7,0-2.2-0.9-2.8-0.9c-0.3,0-0.4,0.4-0.5,0.6H157.1L157.1,80.6z"/>
<polygon class="st1" points="151.7,54.4 145.3,47.2 139,54.4 125.6,54.4 138.7,39.7 125.6,25 139.4,25 145.8,32.2 152.1,25 
	165.4,25 152.4,39.6 165.6,54.4 151.7,54.4 "/>
<polygon class="st1" points="99.9,54.4 99.9,8.1 125.6,8.1 125.6,18.5 110.8,18.5 110.8,25 125.6,25 125.6,34.9 110.8,34.9 
	110.8,44 125.6,44 125.6,54.4 99.9,54.4 "/>
<path class="st0" d="M89.1,8.1v18.9H89c-2.4-2.8-5.4-3.7-8.9-3.7c-7.2,0-12.5,4.9-14.3,11.4c-2.1-7.1-7.6-11.6-15.9-11.6
	c-6.7,0-11.9,3.1-14.7,8V25H21.4v-6.6h15V8.1H9.2v46.2h12.3V34.9h12.3c-0.4,1.4-0.6,2.9-0.6,4.6c0,9.6,7.4,16.4,16.8,16.4
	c7.9,0,13.1-3.7,15.9-10.5H55.2c-1.4,2-2.5,2.6-5.4,2.6c-3.3,0-6.1-2.9-6.1-6.3h21.5c0.9,7.7,6.8,14.3,15,14.3
	c3.5,0,6.8-1.7,8.7-4.7h0.1v3h10.8V8.1H89.1L89.1,8.1z M44.1,35.1c0.7-2.9,3-4.9,5.8-4.9c3.1,0,5.3,1.9,5.9,4.9
	C56,35.1,44.1,35.1,44.1,35.1L44.1,35.1z M82.5,47.3c-4,0-6.5-3.7-6.5-7.6c0-4.1,2.2-8.1,6.5-8.1c4.5,0,6.3,4,6.3,8.1
	C88.8,43.7,86.9,47.3,82.5,47.3L82.5,47.3z"/>
<path class="st1" d="M171.6,48.7c0-3.7,3-6.6,6.7-6.6c3.7,0,6.6,3,6.6,6.6c0,3.7-3,6.7-6.6,6.7C174.6,55.3,171.6,52.4,171.6,48.7
	L171.6,48.7z M183.8,48.7c0-3-2.4-5.5-5.5-5.5c-3,0-5.5,2.5-5.5,5.5c0,3,2.5,5.5,5.5,5.5C181.3,54.2,183.8,51.7,183.8,48.7
	L183.8,48.7z M176.9,49.1v3.4h-1.2v-7.8h2.5c1.4,0,2.9,0.4,2.9,2.2c0,0.9-0.5,1.6-1.6,1.8v0c1.1,0.2,1.2,0.7,1.3,1.5
	c0.1,0.7,0.2,1.6,0.5,2.3h-1.6c-0.1-0.4-0.2-0.9-0.3-1.4c-0.1-0.7-0.1-1.3-0.4-1.7c-0.3-0.3-0.7-0.3-1.1-0.3H176.9L176.9,49.1z
	 M178.2,47.9c1.2,0,1.4-0.5,1.4-1.1c0-0.6-0.3-0.9-1.2-0.9h-1.5v2H178.2L178.2,47.9z"/>
</svg>
