<?xml version="1.0" encoding="utf-8"?>
<!-- Generator: Adobe Illustrator 21.0.2, SVG Export Plug-In . SVG Version: 6.00 Build 0)  -->
<svg version="1.1" id="Layer_1" xmlns="http://www.w3.org/2000/svg" xmlns:xlink="http://www.w3.org/1999/xlink" x="0px" y="0px"
	 viewBox="0 0 282 282" style="enable-background:new 0 0 282 282;" xml:space="preserve">
<g id="XMLID_19_">
	<g id="XMLID_18_">
		<path id="XMLID_16_" style="fill:#D1D3D4;" d="M65.636,9.555c32.119,0,83.724,20.284,118.075,39.12
			c37.767,20.71,90.966,62.99,91.007,92.16c-0.045,31.021-54.445,72.104-91.007,92.154c-33.188,18.202-83.724,39.456-116.906,39.456
			c-8.799,0-15.973-1.489-21.343-4.435C19.237,253.625,7.282,192.005,7.282,140.835c0-25.724,3.342-53.358,9.154-75.828
			c6.987-27.021,17.022-44.778,29.025-51.356C50.423,10.932,57.206,9.555,65.636,9.555"/>
	</g>
	<g>
		<defs>
			<path id="XMLID_14_" d="M50.214,21.645C28.244,33.689,16.21,93.873,16.201,140.839c0.009,47.331,11.341,106.749,34.014,119.181
				c20.54,11.259,76.499-5.357,129.19-34.249c45.27-24.824,86.391-61.711,86.432-84.932c-0.034-22.155-41.867-60.507-86.432-84.942
				C138.616,33.523,93.355,18.44,66.771,18.44C59.849,18.44,54.194,19.463,50.214,21.645"/>
		</defs>
		<clipPath id="XMLID_21_">
			<use xlink:href="#XMLID_14_"  style="overflow:visible;"/>
		</clipPath>
		<g id="XMLID_15_" style="clip-path:url(#XMLID_21_);">
			<g>
				<defs>
					<rect id="SVGID_1_" x="16.201" y="18.44" width="249.635" height="252.84"/>
				</defs>
				<clipPath id="SVGID_2_">
					<use xlink:href="#SVGID_1_"  style="overflow:visible;"/>
				</clipPath>
				<g style="clip-path:url(#SVGID_2_);">
					<defs>
						<rect id="SVGID_3_" x="16.201" y="18.44" width="249.635" height="252.84"/>
					</defs>
					<clipPath id="SVGID_4_">
						<use xlink:href="#SVGID_3_"  style="overflow:visible;"/>
					</clipPath>
					<g style="clip-path:url(#SVGID_4_);">
						
							<image style="overflow:visible;" width="522" height="528" xlink:href="C1ACC51B1BFC3C29.jpg"  transform="matrix(0.48 0 0 0.48 16.04 18.44)">
						</image>
					</g>
				</g>
			</g>
		</g>
	</g>
	<g id="XMLID_17_">
		<path id="XMLID_13_" style="fill:#FFFFFF;" d="M207.507,163.868c-0.126,0-0.225-0.102-0.225-0.227v-22.007
			c0-4.896-1.668-6.984-5.583-6.984c-1.397,0-3.091,0.525-4.768,1.463c-1.661,0.97-2.975,1.764-3.442,2.04
			c-0.125,0.09-0.27,0.304-0.27,0.487v25.001c0,0.125-0.1,0.227-0.229,0.227h-9.862c-0.126,0-0.235-0.102-0.235-0.227v-35.412
			c0-0.58,0.48-1.041,1.066-1.041h9.041c0.122,0,0.229,0.099,0.229,0.224v2.773c0,0.176,0.142,0.311,0.312,0.311
			c0.064,0,0.145-0.035,0.174-0.058l0.299-0.218c1.098-0.836,2.791-1.8,3.934-2.232c2.476-0.941,5.139-1.479,7.302-1.479
			c8.062,0,12.328,4.605,12.328,13.319l0.003,23.813c0,0.125-0.097,0.227-0.229,0.227H207.507z"/>
		<path id="XMLID_12_" style="fill:#FFFFFF;" d="M225.721,163.868c-0.129,0-0.226-0.102-0.226-0.227l-0.003-54.222
			c0-0.199,0.039-0.25,0.309-0.25c0.615,0,6.111,3.439,7.895,5.386c1.323,1.447,2.077,3.414,2.077,5.402l0.003,43.683
			c0,0.125-0.097,0.227-0.229,0.227H225.721z"/>
		<path style="fill:#17479E;" d="M116.493,145.527c0,12.95-8.603,19.134-19.241,19.134c-10.673,0-19.263-6.184-19.263-19.14
			c0-13.267,8.59-19.156,19.263-19.156C107.891,126.364,116.493,132.259,116.493,145.527 M105.572,145.52
			c0-6.997-3.577-10.062-8.32-10.062c-4.772,0-8.345,3.065-8.345,10.062c0,6.434,3.574,10.039,8.345,10.039
			C101.995,155.56,105.572,151.954,105.572,145.52"/>
		<path id="XMLID_9_" style="fill:#17479E;" d="M166.627,117.124c0-0.295-0.123-0.387-0.435-0.387c-0.715,0-6.272,3.548-7.991,5.434
			c-1.298,1.422-2.119,3.398-2.119,5.479v23.55c0,10.215,5.934,13.408,12.315,13.408c3.654,0,6.137-0.538,7.605-1.326
			c0.309-0.17,0.605-0.512,0.605-1.015v-6.683c0-0.205-0.164-0.355-0.364-0.355c-0.354,0-2.779,0.941-4.337,0.941
			c-3.3,0-5.274-1.537-5.274-6.731V135.9c0-0.189,0.154-0.349,0.354-0.349l8.915-0.006c0.2,0,0.357-0.163,0.357-0.362h0.006
			l-0.006-6.981c0-0.624-0.522-1.15-1.162-1.15h-8.11c-0.2,0-0.354-0.151-0.354-0.352L166.627,117.124z"/>
		<path style="fill:#17479E;" d="M37.808,128.23c0-0.653,0.534-1.178,1.194-1.178h14.041c13.793,0,20.934,8.24,20.934,18.891
			c0,10.667-7.991,18.061-21.16,18.061h-4.105c-0.203,0-0.361,0.16-0.361,0.355v17.277c0,0.295-0.122,0.381-0.431,0.381
			c-0.718,0-6.272-3.542-7.994-5.428c-1.294-1.422-2.119-3.407-2.119-5.492V128.23z M63.565,145.423
			c0-4.538-2.946-8.787-10.728-8.787h-4.124c-0.203,0-0.361,0.16-0.361,0.359v17.046c0,0.202,0.158,0.362,0.361,0.362h4.33
			C62.316,154.402,63.565,147.998,63.565,145.423"/>
		<path id="XMLID_6_" style="fill:#17479E;" d="M146.182,143.9c-2.19-1.419-4.843-1.995-7.415-2.559
			c-0.451-0.093-2.167-0.487-2.553-0.57c-3.136-0.695-5.621-1.249-5.621-3.276c0-1.742,1.694-2.869,4.321-2.869
			c3.297,0,7.891,0.65,12.924,2.527c0.245,0.09,0.596-0.064,0.612-0.4l0.003-7.228c-0.003-0.5-0.319-0.986-0.873-1.169
			c-1.748-0.548-6.98-1.995-11.391-1.995c-4.907,0-8.999,1.089-11.829,3.177c-2.846,2.066-4.363,5.063-4.363,8.672
			c0,8.131,6.694,9.674,13.036,11.163c0.979,0.224,0.824,0.189,1.188,0.269c2.894,0.631,5.892,1.287,5.892,3.667
			c0,0.701-0.257,1.287-0.805,1.829c-0.805,0.797-2.048,1.146-4.44,1.146c-4.034,0-11.62-1.87-13.967-2.623
			c-0.01,0-0.113-0.022-0.148-0.022c-0.251,0-0.454,0.199-0.454,0.432v7.26c0,0.5,0.315,0.941,0.818,1.121
			c0.048,0.026,6.681,2.206,12.953,2.206c10.963,0,16.585-4.266,16.585-12.044C150.654,148.723,149.182,145.87,146.182,143.9"/>
		<path style="fill:#FFFFFF;" d="M80.99,117.613c-0.885,0-1.265-0.439-1.265-1.463v-3.971c0-0.9,0.776-1.659,1.674-1.659h31.72
			c0.905,0,1.668,0.759,1.668,1.659v3.971c0,1.025-0.373,1.463-1.256,1.463H80.99z M109.658,106.478
			c-0.335,0-0.563-0.083-0.692-0.256c-0.135-0.189-0.142-0.487-0.016-0.868c1.046-3.254,4.601-13.139,4.64-13.242
			c0.232-0.637-0.013-1.531-0.686-1.774l-1.79-0.589c-0.129-0.032-0.245-0.051-0.351-0.051c-0.351,0-0.551,0.183-0.628,0.349
			c-0.74,1.627-1.159,2.77-1.726,4.698c-0.103,0.336-0.367,0.496-0.824,0.496h-3.497c-0.258,0-0.447-0.077-0.541-0.208
			c-0.106-0.134-0.119-0.33-0.051-0.586c0.908-3.218,1.832-5.79,3.113-8.627c0.219-0.493,0.773-1.319,1.958-1.319
			c0.219,0,0.444,0.026,0.686,0.083l0.029,0.003c1.188,0.275,2.534,0.592,3.947,1.015c1.104,0.336,2.267,0.737,3.448,1.162
			c3.58,1.323,3.426,3.897,2.73,6.482c-0.422,1.582-2.518,7.385-3.767,10.853c-0.261,0.737-0.493,1.348-0.641,1.781
			c-0.151,0.41-0.473,0.599-1.027,0.599H109.658z M95.015,106.478c-0.786,0-0.844-0.861-0.844-0.897
			c-0.007-0.179-0.238-18.647-0.277-21.155c0-0.189,0.064-0.608,0.319-0.858c0.142-0.151,0.328-0.224,0.551-0.224
			c0.364-0.019,1.33-0.058,2.482-0.058c1.149,0,2.112,0.038,2.476,0.058c0.229,0,0.409,0.074,0.547,0.218
			c0.258,0.256,0.322,0.676,0.319,0.865c-0.035,2.507-0.267,20.975-0.267,21.158c-0.006,0.006-0.058,0.893-0.837,0.893H95.015z
			 M80.507,106.478c-0.547,0-0.876-0.189-1.027-0.599c-0.151-0.432-0.373-1.044-0.641-1.781c-1.252-3.468-3.348-9.271-3.773-10.853
			c-0.692-2.584-0.837-5.159,2.74-6.482c1.185-0.426,2.341-0.826,3.442-1.162c1.417-0.423,2.762-0.74,3.954-1.015l0.026-0.003
			c0.241-0.058,0.467-0.083,0.679-0.083c1.191,0,1.745,0.826,1.964,1.319c1.275,2.837,2.202,5.409,3.113,8.627
			c0.068,0.256,0.055,0.452-0.048,0.586c-0.1,0.138-0.28,0.208-0.541,0.208h-3.497c-0.464,0-0.728-0.16-0.827-0.496
			c-0.567-1.934-0.988-3.071-1.729-4.698c-0.074-0.167-0.277-0.349-0.621-0.349c-0.106,0-0.229,0.019-0.354,0.051l-1.79,0.589
			c-0.673,0.243-0.918,1.137-0.686,1.774c0.039,0.102,3.593,9.988,4.646,13.242c0.119,0.381,0.113,0.679-0.026,0.868
			c-0.122,0.173-0.354,0.256-0.692,0.256H80.507z M97.246,79.565c-0.203,0-0.402-0.083-0.612-0.25
			c-1.484-1.156-2.84-2.52-4.031-4.048c-0.132-0.163-0.402-0.519-0.019-0.938c1.24-1.598,2.682-3.013,4.279-4.201
			c0.18-0.106,0.283-0.134,0.383-0.134c0.093,0,0.206,0.029,0.39,0.134c1.597,1.194,3.033,2.607,4.266,4.195
			c0.338,0.381,0.18,0.698-0.016,0.945c-1.185,1.521-2.544,2.892-4.031,4.048c-0.206,0.167-0.412,0.25-0.602,0.25H97.246z"/>
	</g>
</g>
</svg>
