<?xml version="1.0" encoding="utf-8"?>
<!DOCTYPE svg PUBLIC "-//W3C//DTD SVG 1.1//EN" "http://www.w3.org/Graphics/SVG/1.1/DTD/svg11.dtd">
<svg version="1.1" xmlns="http://www.w3.org/2000/svg" xmlns:xlink="http://www.w3.org/1999/xlink" x="0px" y="0px" width="200px"
	 height="53.5px" viewBox="0 0 200 53.5" enable-background="new 0 0 200 53.5" xml:space="preserve">
<polygon fill="#B5D334" points="15.1,33.6 0,1.4 14,1.4 21.6,21.7 29.2,1.4 43.1,1.4 28.1,33.6 28.1,52.1 15.1,52.1 "/>
<path fill="#B5D334" d="M92.9,1.4h16.8c5.7,0,15.8,0,22.4,9.4c3.5,4.8,4.7,10.2,4.7,15.7c0,13.8-6.9,25.5-26.1,25.5H92.9V1.4z
	 M105.9,40.7h5.5c9.7,0,12.4-6.7,12.4-13.9c0-2.9-0.6-6.5-2.5-9.4c-1.5-2.3-4.1-4.7-9.9-4.7h-5.6V40.7z"/>
<polygon fill="#B5D334" points="139.8,1.4 168.5,1.4 168.5,12.8 152.8,12.8 152.8,20.6 168,20.6 168,32 152.8,32 152.8,40.7 
	168.5,40.7 168.5,52.1 139.8,52.1 "/>
<polygon fill="#B5D334" points="172.1,1.4 185,1.4 185,40.7 200,40.7 200,52.1 172.1,52.1 "/>
<path fill="#B5D334" d="M37.2,26.7C37.2,12,49.2,0,63.9,0s26.7,12,26.7,26.7c0,14.8-12,26.7-26.7,26.7S37.2,41.5,37.2,26.7
	 M63.9,41.8C72.2,41.8,79,35,79,26.7c0-8.3-6.7-15.1-15.1-15.1c-8.3,0-15.1,6.7-15.1,15.1C48.9,35,55.6,41.8,63.9,41.8"/>
</svg>
