<?xml version="1.0" encoding="utf-8"?>
<!-- Generator: Adobe Illustrator 21.0.2, SVG Export Plug-In . SVG Version: 6.00 Build 0)  -->
<svg version="1.1" id="Layer_1" xmlns="http://www.w3.org/2000/svg" xmlns:xlink="http://www.w3.org/1999/xlink" x="0px" y="0px"
	 width="300px" height="150px" viewBox="0 0 300 150" style="enable-background:new 0 0 300 150;" xml:space="preserve">
<style type="text/css">
	.st0{fill:#2F3C40;}
</style>
<g>
	<g>
		<polygon class="st0" points="103.8,77.1 113.2,77.1 113.2,69.9 103.2,69.9 		"/>
		<path class="st0" d="M84.9,51l5.1,57.7l23.1,6.4l23.1-6.4l5.1-57.7C141.3,51,84.9,51,84.9,51z M131.9,105l-18.7,5.2v-7.3l0,0
			l-14.5-4l-1-11.1h7.1l0.5,5.6l7.9,2.1l0,0V84.2H97.4l-1.7-19.5l-0.2-1.9h17.7v-7.1h23.1L131.9,105z"/>
	</g>
	<path class="st0" d="M90.2,35.3h3.6v3.6h3.3v-3.6h3.6v10.8h-3.6v-3.6h-3.3v3.6h-3.6V35.3L90.2,35.3z M105.4,38.9h-3.2v-3.6h9.9v3.6
		H109v7.2h-3.6V38.9z M113.7,35.3h3.7l2.3,3.8l2.3-3.8h3.8v10.8h-3.6v-5.3l-2.5,3.8h-0.1l-2.5-3.8v5.3h-3.5L113.7,35.3L113.7,35.3z
		 M127.6,35.3h3.6v7.2h5.1v3.6h-8.7C127.6,46.1,127.6,35.3,127.6,35.3z"/>
	<g>
		<path class="st0" d="M113.2,77.1v7.1h8.7l-0.8,9.2l-7.9,2.1v7.4l14.5-4l0.1-1.2l1.7-18.6l0.2-1.9h-1.9L113.2,77.1z M113.2,62.8
			v7.1h17.1l0.1-1.6l0.3-3.6l0.2-1.9C130.9,62.8,113.2,62.8,113.2,62.8z"/>
	</g>
	<path class="st0" d="M173.7,42.1v-3.4h5V35H170v10.6h8.7v-3.4L173.7,42.1L173.7,42.1z M187.6,38.6h3.5v-3.7h-8.8v3.7
		c1.2,1.2,1.8,1.7,3.5,3.4c-1,0-3.5,0-3.5,0v3.4h8.8V42L187.6,38.6L187.6,38.6z M200,38.6h3.5v-3.7h-8.8v3.7
		c1.2,1.2,1.8,1.7,3.5,3.4c-1,0-3.5,0-3.5,0v3.4h8.8V42L200,38.6L200,38.6z"/>
	<g>
		<polygon class="st0" points="186.7,69.2 186.7,69.6 187.7,69.2 		"/>
		<path class="st0" d="M186.7,76.4L186.7,76.4L186.7,76.4z"/>
		<path class="st0" d="M158.4,50.5l5.3,57.6l23,6.2l23-6.2l5.3-57.6H158.4z M205.4,104.3l-18.6,5h-0.1v-7.1l-14.5-4.3L171.3,87h7.2
			l0.5,5.6l7.7,2h0.1V83.3l-15.9-0.1l0,0l0,0l-0.5-6.8l16.5-6.9l0,0v-0.4h-17.1l-0.9-7h18v-7h23L205.4,104.3z"/>
		<polygon class="st0" points="201.2,98 203.1,76.4 186.7,76.4 186.7,83.3 195.2,83.3 194.7,92.4 186.7,94.6 186.7,102.2 
			186.7,102.2 		"/>
		<polygon class="st0" points="203.7,69.2 203.7,69.2 204.4,62.2 186.7,62.2 186.7,69.2 187.7,69.2 186.7,69.6 186.7,76.4 		"/>
	</g>
</g>
</svg>
