<?xml version="1.0" encoding="UTF-8"?>
<svg width="78px" height="77px" viewBox="0 0 78 77" version="1.1" xmlns="http://www.w3.org/2000/svg" xmlns:xlink="http://www.w3.org/1999/xlink">
    <!-- Generator: Sketch 48.2 (47327) - http://www.bohemiancoding.com/sketch -->
    <title>Page 1</title>
    <desc>Created with Sketch.</desc>
    <defs>
        <polygon id="path-1" points="4.61560168e-05 0.0237391304 46.5243717 0.0237391304 46.5243717 24.9031957 4.61560168e-05 24.9031957"></polygon>
        <polygon id="path-3" points="0.30191087 0.838076087 54.7391283 0.838076087 54.7391283 63.5869565 0.30191087 63.5869565"></polygon>
    </defs>
    <g id="Artboard" stroke="none" stroke-width="1" fill="none" fill-rule="evenodd">
        <g id="Page-1">
            <g id="Group-3" transform="translate(0.000000, 0.824172)">
                <mask id="mask-2" fill="white">
                    <use xlink:href="#path-1"></use>
                </mask>
                <g id="Clip-2"></g>
                <path d="M16.7750022,6.71563043 C14.9004587,7.52869565 14.65035,9.46513043 15.961937,10.6537826 C17.5253283,12.0281087 20.212937,10.8403043 19.9619804,8.65376087 C22.0874804,8.7783913 23.4626543,6.5291087 23.1498065,5.02845652 C24.0875022,4.2153913 24.1493935,2.46632609 23.0243283,1.7778913 C21.7746326,1.02841304 20.6495674,1.27852174 19.9000891,2.71558696 C17.9619587,2.59095652 16.0874152,4.09076087 16.7750022,6.71563043 L15.9000457,6.3408913 C14.7122413,3.77876087 16.7750022,1.21578261 19.3371326,1.84063043 C19.900937,0.591782609 21.7746326,-0.7215 23.9001326,0.529043478 C25.5245674,1.52863043 25.9001543,4.15434783 24.1502413,5.40404348 C24.9624587,7.77880435 23.2752848,9.77882609 20.7750457,9.52871739 C20.4630457,12.6538043 17.5880674,13.0285435 15.6507848,11.5906304 C14.5876109,10.7156739 14.1501326,9.59145652 13.962763,8.7165 C13.7126543,7.77880435 13.7126543,6.96658696 12.8376978,6.0288913 C12.1501109,5.34130435 10.9004152,5.34130435 10.9004152,5.34130435 C10.9004152,3.09202174 8.83850217,1.02926087 6.21278478,2.02969565 C5.27593696,1.21747826 4.08813261,1.1538913 3.27506739,2.15432609 C2.83843696,2.71728261 2.5247413,4.21708696 4.02539348,4.90467391 C3.96350217,6.96658696 5.52519783,8.27902174 7.83806739,8.09165217 C7.8999587,9.15397826 9.08861087,10.2163043 10.2128283,10.3417826 L10.150937,10.9038913 C9.02587174,10.7792609 8.40102391,11.1548478 7.65069783,12.0916957 C4.96308913,11.9662174 3.08769783,13.2167609 3.15128478,15.1548913 C1.27589348,15.4660435 0.900306522,17.466913 1.96348043,18.5292391 C3.02580652,19.592413 4.58919783,19.154087 5.15130652,17.9043913 C7.08858913,18.2799783 8.77576304,16.9048043 8.83850217,15.341413 C10.5884152,15.341413 11.4006326,14.5919348 11.7126326,12.9666522 L12.3383283,13.0293913 C12.5256978,14.7793043 11.7126326,16.4664783 9.58798043,16.2799565 C9.52608913,18.4046087 7.52606739,19.5296739 5.58878478,18.842087 C4.71298043,20.5301087 2.65106739,21.1549565 0.963893478,19.5296739 C-0.724128261,17.9671304 -0.0984326087,15.2803696 2.0889587,14.5927826 C2.0889587,12.5291739 3.65065435,10.5927391 6.58837174,11.3422174 C6.58837174,11.3422174 6.96311087,10.4053696 7.90080652,10.3417826 C7.2759587,10.0925217 6.83763261,9.77967391 6.71385,9.09208696 C4.46371957,9.59230435 2.58917609,7.52954348 3.08854565,5.46763043 C1.08852391,4.40445652 1.02663261,2.40528261 2.02621957,1.21747826 C3.08854565,-0.0322173913 4.8384587,-0.282326087 6.33826304,1.0301087 C9.02587174,-0.406956522 11.9635891,1.40484783 11.7762196,4.40445652 C13.6499152,4.27982609 14.7758283,5.84236957 14.5257196,7.52954348 C14.8377196,6.78006522 15.2124587,6.46721739 15.9000457,6.34258696 L16.7750022,6.71563043 Z M24.4622413,24.9031957 L24.0875022,24.5284565 C25.1506761,23.5280217 26.2121543,22.0282174 26.4003717,21.152413 C26.5250022,20.2774565 27.7755457,20.4656739 27.525437,21.3406304 C27.2125891,22.527587 25.8374152,23.9027609 24.4622413,24.9031957 Z M33.5246543,6.40278261 C33.9621326,6.40278261 34.2749804,6.02804348 34.2749804,5.65330435 C34.2749804,5.21582609 33.9621326,4.90297826 33.5246543,4.90297826 C33.0871761,4.90297826 32.7743283,5.21582609 32.7743283,5.65330435 C32.7743283,6.02804348 33.0871761,6.40278261 33.5246543,6.40278261 Z M45.5866761,7.96617391 C46.0868935,7.96617391 46.5243717,7.59058696 46.5243717,7.09036957 C46.5243717,6.591 46.0868935,6.21541304 45.5866761,6.21541304 C45.0873065,6.21541304 44.7125674,6.59015217 44.7125674,7.09036957 C44.7125674,7.59058696 45.0873065,7.96617391 45.5866761,7.96617391 Z" id="Fill-1" fill="#2B5692" mask="url(#mask-2)"></path>
            </g>
            <path d="M8.40026087,32.41485 C8.58763043,33.2270674 8.40026087,34.1639152 9.15058696,35.0397196 C9.40069565,35.3525674 10.8377609,37.2271109 11.900087,38.1648065 C10.4630217,38.7269152 7.64993478,39.9147196 5.65076087,40.1648283 C5.21243478,40.2267196 4.77580435,40.4768283 4.40021739,40.726937 C4.1501087,41.1644152 3.9,41.9147413 3.77536957,42.7896978 C3.71263043,43.4145457 3.71263043,44.1021326 3.71263043,44.7897196 C3.71263043,45.4145674 4.02547826,47.4145891 4.71306522,48.7261761 C5.40065217,50.0394587 6.0873913,50.6643065 6.90045652,51.0398935 C7.08782609,50.9763065 7.46341304,50.9135674 8.02552174,50.9135674 C9.52532609,50.8516761 10.7131304,51.7257848 11.276087,52.4142196 C11.4626087,52.7253717 11.9009348,52.7889587 12.4011522,52.7889587 C13.65,52.7889587 15.0251739,52.3514804 16.2757174,51.8521109 C16.5877174,51.6638935 17.3371957,51.1017848 18.0875217,50.5388283 C18.900587,49.9139804 23.1498913,46.2886761 25.0244348,45.4137196 C26.0248696,45.913937 27.6501522,46.6015239 29.3373261,46.6015239 C29.4000652,46.6015239 29.712913,46.664263 30.0876522,46.5387848 C30.5878696,46.4141543 31.2746087,46.225937 32.1512609,46.0394152 C33.6502174,45.7265674 35.4009783,45.4756109 35.963087,45.4756109 C37.3382609,45.5391978 41.4001957,45.601937 42.4014783,45.601937 C43.3993696,45.601937 44.8381304,45.5391978 45.4002391,45.4756109 C46.2751957,45.1644587 48.2133261,44.6633935 50.0259783,43.8520239 C51.8377826,43.0398065 55.6496087,40.35135 56.2753043,39.7265022 C56.5873043,39.4763935 56.8993043,39.1643935 57.0875217,38.9142848 C57.1502609,38.7896543 57.213,38.7269152 57.213,38.6641761 C57.213,38.601437 57.1502609,35.9765674 57.1502609,35.9765674 C57.1502609,35.9765674 58.0871087,34.9761326 58.4635435,34.6013935 L58.4635435,34.476763 C58.2753261,33.9765457 58.1506957,32.3521109 58.2134348,30.7268283 L57.3384783,30.28935 C57.2748913,32.2902196 56.525413,34.0392848 55.8378261,35.16435 C54.4635,35.3517196 51.7758913,36.163937 50.8381957,37.2890022 L51.4003043,37.4136326 C52.2752609,36.914263 53.2129565,36.6014152 54.3380217,36.6014152 C55.2757174,36.6014152 55.7140435,36.8515239 55.7140435,37.1016326 C55.7140435,37.2890022 55.5258261,37.7273283 55.463087,37.91385 C55.4003478,38.0393283 55.3376087,38.289437 55.1502391,38.4140674 C53.8378043,39.8511326 52.3998913,41.0397848 50.588087,42.0393717 C49.4002826,42.7261109 48.2133261,43.1635891 46.4642609,43.7256978 C45.9004565,43.8511761 45.1509783,44.0385457 44.7135,44.226763 C44.0267609,44.226763 40.526087,44.1012848 38.4633261,44.1012848 C36.4005652,44.1012848 32.1521087,44.412437 30.8388261,44.7261326 C30.2139783,44.9135022 30.0266087,45.162763 29.3390217,45.162763 C28.026587,45.162763 26.2766739,44.4760239 25.2143478,43.9758065 C25.0261304,43.9758065 24.6522391,44.1631761 24.2775,44.3505457 C23.5271739,44.7252848 21.8391522,47.1000457 20.8395652,46.3505674 C20.3393478,47.4128935 18.1528043,48.351437 17.4643696,49.413763 C17.5271087,48.9135457 18.4020652,45.2890891 18.4639565,44.538763 C18.4639565,44.412437 18.5266957,44.2886543 18.4020652,44.1631761 C17.652587,42.8515891 15.4024565,42.0393717 14.1527609,41.789263 C13.839913,41.7265239 13.6516957,41.662937 13.4024348,41.6010457 L11.402413,41.038937 L9.58976087,41.6010457 L11.714413,41.974937 L9.02680435,43.788437 C9.52702174,43.6002196 12.402,42.78885 12.5893696,42.725263 C12.8394783,42.6633717 13.1514783,42.6014804 13.4651739,42.725263 C13.9018043,42.8515891 14.9649783,43.10085 15.6525652,43.3509587 C16.0273043,43.476437 16.6521522,44.1631761 16.8395217,44.538763 C16.9022609,44.7261326 16.9022609,45.0389804 16.965,45.7884587 C16.965,46.2250891 16.9022609,46.9135239 16.7776304,47.4128935 C16.4647826,48.7253283 15.839087,49.7249152 15.6525652,50.1005022 C15.4024565,50.6007196 15.0896087,50.7880891 14.7148696,50.9127196 C14.1527609,51.2255674 13.4024348,51.3510457 12.6529565,51.412937 C12.09,51.412937 11.714413,51.3510457 11.4643043,51.0390457 C10.7775652,50.0386109 8.96491304,49.1009152 7.15226087,49.4756543 C6.02719565,48.7880674 4.90213043,46.6006761 4.90213043,44.8516109 C4.90213043,43.7892848 5.40234783,42.101263 5.71434783,41.2890457 C7.52784783,41.038937 11.2141957,39.663763 12.9649565,38.8515457 C13.3396957,38.8515457 14.4028696,38.4759587 15.4024565,38.4759587 C17.7772174,38.4759587 20.1519783,40.5395674 21.5898913,41.9757848 C21.84,41.6018935 22.2766304,40.9761978 23.5271739,40.9761978 C25.2143478,40.9761978 26.2147826,42.5387413 26.651413,44.1012848 L27.5272174,43.4772848 C27.4017391,42.6023283 26.9015217,41.6018935 26.2147826,40.8515674 C25.6518261,40.2894587 24.5267609,39.7892413 23.6518043,39.7892413 C23.0888478,39.7892413 22.5886304,39.9138717 22.2147391,39.9138717 C21.0277826,39.9138717 20.5267174,39.351763 19.5898696,38.7260674 C18.6521739,38.1012196 16.8395217,37.1016326 15.527087,37.1016326 C14.7140217,37.1016326 14.3392826,37.4136326 13.6516957,37.4136326 C12.6529565,37.4136326 12.2773696,37.0397413 11.8398913,36.4148935 C11.5906304,36.163937 10.5901957,35.2898283 10.340087,34.9142413 C10.1527174,34.6641326 9.90176087,33.8519152 9.77713043,33.4152848 L8.40026087,32.41485 Z M11.0259783,8.54006739 L10.5257609,9.16491522 C9.08869565,8.22806739 6.2756087,5.72698043 5.65076087,4.79013261 L6.0873913,4.35265435 C7.46341304,5.03939348 10.0874348,7.41500217 11.0259783,8.54006739 Z M8.46215217,13.9152848 L8.71226087,14.4155022 C7.65078261,15.4778283 5.65076087,16.9776326 4.52569565,17.5405891 L4.1501087,17.0403717 C5.14969565,15.9153065 7.14971739,14.4773935 8.46215217,13.9152848 Z M21.338087,3.91517609 L21.7747174,4.22802391 C20.8997609,6.10256739 19.4008043,7.9779587 18.0875217,9.10302391 L17.5881522,8.66554565 C18.525,7.16489348 20.4631304,4.66550217 21.338087,3.91517609 Z" id="Fill-4" fill="#2B5692"></path>
            <path d="M65.0870152,18.1024435 C64.8369065,18.3525522 64.5867978,18.7272913 64.3366891,19.0392913 L63.6491022,18.0397043 C66.023863,14.8527261 72.3986674,13.3520739 76.1486022,13.0400739 L76.1486022,11.3520522 C75.6492326,11.4766826 75.1490152,11.6640522 74.6487978,11.7895304 C74.0247978,11.9141609 73.3991022,12.1015304 72.8988848,12.0396391 C72.3367761,12.0396391 71.8992978,11.8522696 71.7119283,11.5394217 C71.2117109,10.8526826 71.7119283,9.7895087 73.336363,8.78992174 L72.0247761,7.6640087 C71.0243413,8.9772913 70.0857978,10.4143565 69.0870587,11.2274217 C68.1485152,12.0396391 67.2125152,12.4143783 66.4621891,11.8514217 C66.023863,11.5394217 65.8983848,11.4147913 65.8364935,10.6017261 C65.8983848,9.41392174 66.5868196,7.60211739 67.2125152,6.41516087 L65.711863,6.2277913 C65.4609065,8.03959565 64.7131239,9.5394 63.8992109,10.7899435 C62.962363,12.352487 61.7126674,13.4767043 60.3993848,14.3516609 L59.5244283,13.5394435 C60.5859065,12.9145957 61.8983413,11.9141609 62.7741457,10.5398348 C63.8364717,8.91455217 64.7131239,6.91453043 64.7131239,5.16461739 L69.0870587,5.54020435 C68.461363,6.35242174 67.4626239,8.16507391 67.087037,9.41392174 C66.8996674,10.1015087 66.8996674,10.6644652 67.1497761,10.8526826 C67.5864065,11.1646826 68.3994717,10.6017261 69.2116891,9.7895087 C70.3367543,8.53981304 71.4626674,6.72716087 71.89845,6.10231304 L75.1490152,8.72718261 C73.7111022,9.4775087 72.3367761,10.3524652 72.5868848,10.8526826 C72.8369935,11.289313 73.7738413,11.1646826 74.7742761,10.8526826 C75.5864935,10.6017261 76.4606022,10.226987 77.149037,9.7895087 L77.149037,14.1024 C75.5864935,14.1024 72.9607761,14.4144 70.460537,15.1647261 C71.0862326,15.9777913 72.7734065,16.2897913 73.8357326,16.4771609 L73.3355152,19.976987 C70.586863,18.7900304 68.4605152,18.1651826 65.0870152,18.1024435 L66.2112326,17.1028565 C68.6487326,17.1647478 71.1489717,17.9150739 72.5241457,18.6026609 L72.7106674,17.2902261 C71.4626674,17.1028565 69.8992761,16.4152696 69.2116891,15.6030522 C68.1485152,15.9777913 67.087037,16.4771609 66.2112326,17.1028565 L65.0870152,18.1024435 Z M9.77568913,33.4141826 C10.0876891,33.7270304 10.3386457,34.0390304 10.712537,34.3518783 C11.0872761,34.6011391 11.5256022,34.8512478 11.9003413,35.1013565 C12.5251891,35.4133565 13.2119283,35.7897913 13.8376239,36.0390522 C14.4624717,36.1636826 15.21195,36.2264217 15.899537,36.2264217 C16.8999717,36.2264217 18.0869283,36.0390522 19.087363,36.5392696 C19.7757978,36.7893783 19.7757978,37.5388565 20.3379065,37.7262261 C21.1501239,38.0390739 23.3994065,38.1009652 24.6507978,38.1009652 C27.1501891,38.1009652 29.8377978,37.7881174 31.4630804,37.4142261 L30.7127543,36.5392696 C29.5876891,36.7257913 26.3379717,37.1013783 24.8373196,37.1013783 C22.7754065,37.1013783 20.774537,36.7266391 20.774537,35.9135739 C20.774537,35.2887261 21.4002326,34.4146174 22.6499283,34.4146174 C23.962363,34.4146174 25.9632326,35.2268348 26.3379717,35.3514652 C26.711863,35.4133565 26.8373413,35.4133565 27.0882978,35.2895739 L27.8377761,34.9148348 C26.8381891,34.4146174 23.2756239,33.226813 22.0259283,33.226813 C21.4629717,33.226813 21.0882326,33.2904 20.7126457,33.7897696 C20.2760152,34.4146174 18.9627326,34.9767261 16.9627109,34.9767261 C15.8376457,34.9767261 14.212363,34.7266174 13.900363,34.601987 C13.2755152,34.3527261 12.0877109,33.6642913 11.3382326,33.1021826 C10.3386457,32.4145957 9.4628413,31.6023783 8.90073261,30.6655304 C8.71251522,30.4145739 8.58788478,30.1025739 8.58788478,29.7905739 C8.58788478,29.5396174 8.71336304,29.3522478 8.71336304,29.1648783 C8.90073261,29.414987 9.08810217,29.6023565 9.33821087,29.7905739 C10.400537,30.8529 11.9639283,31.6015304 13.588363,31.9152261 C14.0894283,32.0398565 14.4633196,32.1017478 14.963537,32.1017478 C15.6502761,32.1017478 16.2759717,31.7278565 16.71345,31.3514217 L16.025863,30.6019435 C15.8384935,30.6638348 15.4010152,30.6638348 15.1509065,30.6638348 C12.7761457,30.6638348 9.77653696,29.1640304 9.08810217,27.3522261 C9.02621087,27.1640087 8.90073261,27.1012696 9.02621087,26.9139 C9.08810217,26.7265304 9.1508413,26.4136826 9.21358043,26.1016826 C9.33821087,26.2271609 9.6510587,26.4764217 9.9630587,26.7265304 C10.838863,27.2886391 12.526037,28.0389652 12.9007761,28.2890739 C13.7129935,28.0389652 14.3386891,27.7261174 14.8380587,27.4768565 C15.3382761,27.2267478 16.025863,26.9766391 16.7761891,26.9766391 C18.5261022,26.9766391 20.5252761,27.9770739 22.4015152,28.9139217 L23.6512109,28.4145522 C21.9631891,27.2267478 18.4014717,25.602313 16.40145,25.602313 C15.2136457,25.602313 14.0894283,26.4764217 13.276363,26.4764217 C12.3395152,26.4764217 9.58916739,25.1012478 9.58916739,23.9770304 C9.58916739,23.1020739 11.3382326,22.6018565 14.27595,22.2890087 C13.7757326,22.9774435 13.276363,23.7896609 12.8388848,24.5391391 L13.5892109,24.9766174 C18.0886239,18.4144435 22.8389935,14.1642913 26.7762978,11.5394217 C28.2142109,10.6017261 28.5262109,10.0396174 29.0264283,9.03918261 C30.2761239,6.47705217 31.4639283,4.60166087 33.46395,4.60166087 C34.4016457,4.60166087 35.1511239,5.10187826 35.7132326,5.72672609 L37.1511457,6.16335652 L35.6513413,7.1637913 L37.1511457,7.78863913 C35.213863,8.35159565 32.5262543,10.2888783 31.402037,13.1011174 C29.3384283,13.1638565 28.3379935,14.9137696 27.6512543,16.2889435 C27.1518848,17.2885304 26.46345,17.6632696 25.3383848,18.3517043 L16.7753413,24.3526174 L17.9622978,24.5391391 L25.8996457,19.2275087 C27.4621891,18.1643348 28.2125152,17.3521174 28.5872543,16.6645304 C29.2756891,15.1647261 30.0870587,14.0396609 31.65045,14.0396609 C32.3999283,14.0396609 33.2121457,14.4135522 33.9005804,15.0392478 L35.2749065,15.4767261 L33.7742543,16.4144217 L35.0247978,17.1639 C31.4011891,18.2889652 29.1502109,20.9138348 27.8377761,25.9134652 L28.7754717,26.1008348 C29.2756891,24.4764 29.7750587,22.9765957 30.5881239,21.6005739 C32.7119283,21.6005739 34.8374283,21.5386826 36.9620804,21.5386826 C42.5246674,21.5386826 47.1504065,21.7887913 49.6497978,22.4772261 L48.7748413,20.9765739 C46.0872326,20.4772043 42.2135152,20.288987 36.9620804,20.288987 C35.1494283,20.288987 33.400363,20.3517261 31.586863,20.3517261 C32.7746674,19.1639217 34.39995,18.1024435 36.9620804,17.3521174 L35.1494283,16.3525304 L37.1502978,15.2266174 L34.4007978,14.2270304 C33.9624717,13.7895522 33.3376239,13.3520739 32.5881457,13.1647043 C33.4631022,10.4770957 36.4627109,8.91455217 39.3376891,7.85222609 L37.3385152,7.03916087 L39.3376891,5.91494348 L36.2126022,4.9145087 C35.4003848,3.97681304 34.6509065,3.53933478 33.400363,3.53933478 C30.5253848,3.53933478 29.3375804,6.03957391 28.1514717,8.22696522 C27.5885152,9.41392174 27.2129283,9.91413913 26.1506022,10.6017261 C23.9632109,12.0396391 21.0882326,14.2889217 18.4006239,17.1020087 C17.02545,16.1015739 14.0885804,13.102813 13.3382543,11.4766826 C13.0262543,11.8514217 12.7134065,12.7272261 12.7134065,12.7272261 C13.0262543,13.0392261 16.4006022,16.4144217 17.6511457,17.9142261 C17.5884065,17.9769652 17.4637761,18.1024435 17.401037,18.2270739 C16.025863,18.4771826 12.526037,18.8519217 11.3382326,18.6645522 L10.7133848,19.8515087 C11.5883413,19.7887696 15.0254283,19.3512913 16.5260804,19.2885522 C16.0886022,19.7887696 15.6502761,20.3508783 15.2136457,20.9138348 C10.7133848,21.4140522 7.77566739,22.3509 7.77566739,23.9753348 C7.77566739,24.2262913 7.83925435,24.5382913 7.83925435,24.8502913 C7.83925435,25.5387261 7.58829783,25.7888348 7.08892826,26.1008348 C6.77608043,26.2890522 6.77608043,26.4755739 6.90071087,26.6637913 C7.02618913,26.8520087 7.71292826,27.8515957 7.71292826,28.0389652 C7.71292826,28.4137043 7.40092826,28.7265522 7.15081957,29.0385522 C6.90071087,29.2895087 6.90071087,29.3514 7.08892826,29.6634 L8.40136304,32.4129 L9.77568913,33.4141826 Z" id="Fill-6" fill="#2B5692"></path>
            <path d="M15.5877065,29.7902348 L15.02475,29.4154957 C15.3375978,29.165387 15.9615978,28.7279087 16.5872935,28.4769522 C16.8865761,28.3608 17.203663,28.297213 17.5241413,28.2895826 C18.1489891,28.2895826 18.7119457,28.5396913 19.2113152,28.853387 C20.0243804,29.2900174 20.9620761,29.7902348 21.7124022,29.7902348 C21.9625109,29.7902348 22.2117717,29.7274957 22.5246196,29.7274957 C23.2740978,29.7274957 23.9616848,30.0403435 24.3364239,30.0403435 C24.5865326,30.0403435 24.7120109,29.8521261 24.8993804,29.6020174 C25.2741196,29.0399087 25.8370761,28.6032783 26.5238152,28.3523217 C27.2114022,28.0403217 28.1490978,27.9148435 29.0867935,27.9148435 C29.8990109,27.9148435 30.5865978,28.0403217 30.9621848,28.102213 C30.9621848,28.102213 30.3992283,28.7889522 30.2745978,28.9771696 C29.4615326,28.9771696 28.0244674,28.9152783 27.0867717,29.2900174 C26.4619239,29.5401261 26.2745543,29.9148652 26.2745543,30.3523435 C26.2745543,31.0399304 27.0867717,31.3527783 27.8989891,31.602887 C28.4627935,31.7275174 29.0249022,31.7894087 29.4615326,31.7894087 C30.0872283,31.7894087 31.2122935,31.5393 32.3373587,31.290887 C33.7125326,31.0399304 34.9622283,30.6651913 35.3369674,30.5405609 L35.8371848,31.4155174 C34.3373804,31.914887 32.7739891,32.4151043 31.3369239,32.665213 C30.5247065,32.8525826 29.7743804,32.9780609 29.0876413,32.9780609 C27.899837,32.9780609 26.6501413,32.4778435 25.6497065,31.9776261 C24.77475,31.6037348 24.0244239,31.1654087 23.2740978,31.1654087 C22.5246196,31.1654087 21.7751413,31.4155174 21.0867065,31.8529957 C20.7119674,32.0403652 19.6496413,32.7906913 18.7127935,33.1654304 C17.9624674,33.4155391 17.4003587,33.6029087 16.6500326,33.6029087 C16.0251848,33.6029087 15.5868587,33.4782783 15.2748587,33.2290174 L16.3990761,32.5405826 C16.5872935,32.6660609 16.8365543,32.7279522 16.9620326,32.7279522 C17.1494022,32.7279522 17.3367717,32.6660609 17.77425,32.4778435 C18.0243587,32.4159522 18.3990978,32.1658435 18.6492065,32.0403652 C19.0866848,31.7275174 19.2113152,31.5401478 19.3995326,31.4155174 C19.7742717,31.1645609 19.89975,30.7906696 19.4614239,30.4150826 C19.2113152,30.2285609 19.0247935,30.0403435 18.7746848,29.8521261 C18.3363587,29.6020174 18.0870978,29.4154957 17.3367717,29.4154957 C16.5245543,29.4146478 15.8997065,29.6020174 15.5877065,29.7902348 Z M51.9619891,29.2272783 L52.9624239,26.9779957 C51.7542717,25.5561913 50.6478587,24.0521478 49.6499674,22.4777348 L48.7750109,20.9770826 C46.71225,17.1033652 47.4625761,15.2279739 46.3994022,13.4780609 C45.4625543,12.102887 41.0869239,12.9778435 40.4001848,13.1033217 L41.6490326,11.0405609 L39.1496413,11.2279304 L41.2751413,8.7276913 C41.52525,8.35295217 41.5862935,8.10284348 41.83725,7.22788696 C42.2119891,5.85356087 43.3362065,3.60343043 46.71225,3.60343043 C50.3994457,3.60343043 51.58725,6.60303913 53.1489457,7.91547391 C55.3583804,9.69251739 57.4855761,11.5704522 59.5245978,13.5408 L60.3987065,14.3530174 C61.5610761,15.5111478 62.6471413,16.7421913 63.6492717,18.0410609 L64.3368587,19.0406478 C68.8371196,25.5400826 74.3369674,37.9776913 76.8372065,43.6649087 C77.0254239,44.2278652 77.2127935,44.7899739 77.3993152,45.2266043 C75.7129891,44.2906043 73.8994891,43.1638435 71.9622065,41.8531043 L70.8990326,41.1027783 L68.8371196,39.6029739 L67.7120543,38.6652783 C67.0185326,38.1582783 66.3504457,37.6156696 65.7120326,37.0408435 L67.9604674,49.9778217 C68.0867935,50.790887 68.7743804,50.6654087 69.2745978,49.9778217 C69.7739674,49.2902348 70.0249239,49.1020174 69.7739674,48.2270609 L67.7112065,38.6661261 L68.8371196,39.6029739 L70.8362935,47.6649522 C71.0245109,48.4152783 71.3365109,48.665387 72.2123152,48.665387 C73.0864239,48.7272783 73.2119022,48.4152783 73.0864239,47.8531696 L70.8990326,41.1027783 L71.9622065,41.8531043 L74.0249674,47.9150609 C74.5870761,49.4776043 74.0249674,49.6649739 73.0872717,49.6649739 C72.2123152,49.6649739 71.3373587,49.4140174 70.8379891,49.727713 C70.3377717,50.1024522 69.7129239,50.9774087 68.8998587,51.7277348 C68.2758587,52.4153217 67.2754239,52.2906913 67.0872065,50.9774087 L64.5878152,36.0404087 C63.0252717,34.6033435 61.4627283,33.1026913 60.0875543,31.5401478 C59.5254457,31.290887 58.8378587,30.9780391 58.2130109,30.7279304 L57.3380543,30.2913 C56.9633152,30.1030826 56.7132065,30.0403435 56.6504674,29.9784522 C55.9628804,30.7906696 55.2761413,31.7283652 54.5258152,32.353213 C54.1502283,32.7279522 53.8373804,32.9161696 53.2752717,32.9161696 C53.0870543,32.9161696 52.8386413,32.9161696 52.6504239,32.7906913 C52.4003152,32.6660609 52.2137935,32.4159522 51.962837,32.0403652 C51.7754674,31.7902565 51.5262065,31.4155174 51.2760978,31.0416261 C50.7758804,30.2285609 50.275663,29.1662348 49.7754457,28.3540174 C49.2752283,27.4154739 48.7767065,26.7287348 48.7131196,26.6032565 C48.6503804,26.4167348 48.4002717,26.2285174 48.4002717,26.2285174 C48.0882717,26.6032565 47.9000543,27.4154739 47.9000543,27.9165391 L47.0259457,27.6036913 C47.087837,26.9788435 47.3379457,26.1666261 47.526163,25.7910391 C47.526163,25.4790391 47.1514239,25.040713 46.8377283,25.040713 C46.40025,25.040713 45.9636196,25.4790391 45.7754022,26.3531478 L44.8385543,26.7914739 C44.9012935,25.3544087 45.400663,23.7918652 46.8385761,23.7918652 C47.9644891,23.7918652 48.7139674,24.6668217 49.2141848,25.4790391 C49.7745978,26.2895609 51.58725,28.7270609 51.9619891,29.2272783 L52.6495761,30.101387 C52.7742065,30.6643435 53.0243152,30.9763435 53.1497935,31.1645609 C53.3999022,31.5393 53.649163,31.5393 54.02475,31.1645609 C54.2129674,31.0399304 54.7114891,30.6016043 55.2744457,30.0394957 C55.7119239,29.6020174 56.1494022,28.9771696 56.3367717,28.7270609 C56.8361413,28.9144304 57.8365761,29.4146478 58.5869022,29.7274957 C55.2744457,25.6028217 52.0247283,20.6023435 50.6487065,17.2279957 C50.08575,15.7900826 51.2125109,15.3526043 51.7110326,16.7277783 C53.2116848,20.477713 57.5237283,27.1645174 60.7124022,30.6643435 C64.3360109,34.664387 71.0245109,40.5398217 75.3984457,42.8518435 C74.7744457,41.6021478 73.9613804,39.8522348 72.9609457,37.7903217 C67.6476196,34.7890174 62.3359891,29.2891696 59.83575,24.5396478 L60.8980761,24.6642783 C63.2117935,28.7889522 68.7735326,34.2896478 72.0859891,35.8521913 C69.0863804,29.477387 65.1482283,21.4145609 62.1486196,17.9774739 C58.3359457,13.6645826 54.2112717,10.289387 52.21125,8.60221304 C50.2739674,6.8523 49.46175,4.72764783 46.7114022,4.72764783 C44.3976848,4.72764783 43.148837,6.41566957 42.7113587,8.04010435 C42.5867283,8.41484348 42.5239891,8.60306087 42.3366196,8.91506087 L41.2124022,10.2274957 L43.5863152,9.97738696 L42.2111413,11.8519304 C42.2111413,11.8519304 45.898337,11.039713 47.2124674,12.7896261 C48.5867935,14.6650174 47.711837,16.7896696 50.0238587,20.9770826 C51.0242935,22.7897348 53.4617935,26.0394522 54.2740109,26.7897783 L52.6487283,30.101387 L51.9619891,29.2272783 Z" id="Fill-8" fill="#2B5692"></path>
            <path d="M38.1494609,31.6647783 C38.1494609,31.6647783 37.9620913,30.9144522 37.8374609,30.6016043 C37.8374609,30.6016043 38.0875696,30.539713 38.3995696,30.539713 C38.8378957,30.539713 40.0867435,30.6643435 40.5869609,30.6643435 C42.4623522,30.6643435 43.1490913,30.101387 43.7128957,29.6020174 C44.2122652,29.1645391 44.7124826,28.7889522 45.9621783,28.7889522 C47.0863957,28.7889522 48.3988304,29.2272783 48.7744174,29.4146478 L48.7125261,30.4778217 C48.1487217,30.1641261 47.3983957,29.9776043 46.7125043,29.9776043 C46.2741783,29.9776043 45.8367,29.9776043 45.5238522,30.1641261 C45.2118522,30.3523435 44.9617435,30.6024522 44.6497435,30.851713 C44.3368957,31.1026696 43.8985696,31.3519304 43.2737217,31.6020391 C42.711613,31.8521478 41.961287,31.9767783 40.8362217,31.9767783 C39.4008522,31.9767783 38.587787,31.7266696 38.1494609,31.6647783 M30.4630696,35.7894522 L29.1506348,35.1646043 C30.9615913,34.2896478 33.712787,33.3519522 34.8997435,33.1645826 C36.0248087,32.977213 37.3372435,32.8517348 38.0875696,32.6007783 C38.4623087,33.4765826 39.1498957,34.3515391 40.0867435,34.3515391 C40.4623304,34.3515391 41.0244391,34.1014304 41.649287,33.8513217 C42.3360261,33.5393217 42.9625696,33.2273217 43.3364609,33.1009957 C43.7120478,32.9144739 44.8998522,32.4142565 45.9621783,31.9140391 C46.3360696,31.7266696 47.3992435,31.2264522 47.4619826,31.2264522 L48.1487217,31.6020391 C47.9622,32.4769957 47.586613,33.6020609 47.2118739,34.4142783 C47.0863957,34.7262783 46.8990261,34.976387 46.7752435,35.1646043 C46.4632435,35.4766043 45.9621783,35.9768217 45.3373304,36.4151478 C44.6497435,36.9136696 43.774787,37.413887 42.8998304,37.9141043 C42.2122435,38.2888435 41.5238087,38.7263217 40.7751783,39.0391696 L40.4631783,38.3524304 C41.5619609,37.7013 42.6259826,36.9916696 43.6493087,36.2269304 C44.0706783,35.9251043 44.4683087,35.5910609 44.8379609,35.2273435 C45.0880696,35.0391261 45.2127,34.8517565 45.3373304,34.664387 C45.6493304,34.2896478 46.1503957,33.4138435 46.2750261,33.0399522 C45.8367,33.2273217 44.3368957,33.9768 43.6493087,34.2896478 C42.8362435,34.7262783 41.5865478,35.3528217 40.8370696,35.7275609 C40.3368522,35.9776696 39.8366348,36.1023 39.4627435,36.1023 C38.6496783,36.1023 38.2740913,35.5393435 38.0875696,35.1646043 C37.5873522,34.2896478 37.0871348,34.2269087 35.6500696,34.2269087 C34.024787,34.1641696 31.7746565,34.8517565 30.4630696,35.7894522 M31.4618087,30.227713 C31.4618087,30.227713 30.7742217,30.0394957 30.5868522,30.0394957 C31.0251783,29.4146478 31.6500261,28.9144304 32.0875043,28.6024304 C33.0243522,27.9767348 33.9620478,27.6019957 35.4618522,27.5401043 C35.8357435,27.4773652 36.6488087,27.4137783 37.086287,27.4137783 C37.524613,27.4773652 38.2113522,27.4773652 38.8370478,27.6019957 C39.2736783,27.663887 39.7120043,27.7893652 40.0858957,27.8521043 C40.274113,27.9139957 41.0235913,27.9139957 41.2737,27.8521043 C42.3351783,27.6647348 43.5857217,27.2891478 44.2114174,26.9144087 L44.4615261,27.9139957 C43.0855043,28.6643217 41.5238087,29.3510609 40.0240043,29.3510609 C39.3355696,29.3510609 38.5233522,29.2891696 37.7738739,29.2264304 C36.5233304,29.1018 35.399113,28.9144304 35.0235261,28.9144304 C33.9628957,28.9144304 32.4622435,29.4146478 31.4618087,30.227713" id="Fill-10" fill="#2B5692"></path>
            <g id="Group-14" transform="translate(20.347826, 14.389389)">
                <mask id="mask-4" fill="white">
                    <use xlink:href="#path-3"></use>
                </mask>
                <g id="Clip-13"></g>
                <path d="M44.6771283,54.7750761 C44.8009109,53.2125326 46.1769326,52.0255761 47.8013674,52.0255761 C49.4893891,52.0255761 50.8637152,53.2125326 50.9891935,54.7750761 L44.6771283,54.7750761 Z M54.7391283,56.2748804 C54.7391283,52.7123152 52.6136283,49.14975 47.8013674,49.14975 C43.3629978,49.14975 40.9271935,52.6495761 40.9271935,56.2748804 C40.9271935,60.1485978 43.552063,63.5873804 47.8649543,63.5873804 C50.8018239,63.5873804 53.6768022,62.0875761 54.2389109,59.5254457 C54.30165,59.2125978 54.0515413,58.7123804 53.614063,58.7123804 L51.4894109,58.7123804 C51.128237,58.7089891 50.7941935,58.89975 50.6136065,59.21175 C49.9896065,60.0875543 49.11465,60.5241848 47.8022152,60.5241848 C45.989563,60.5241848 44.7390196,59.0871196 44.615237,57.4626848 L53.5521717,57.4626848 C54.3643891,57.4626848 54.7391283,57.0243587 54.7391283,56.2748804 Z M4.05184565,54.7750761 C4.17647609,53.2125326 5.55165,52.0255761 7.17693261,52.0255761 C8.86495435,52.0255761 10.2392804,53.2125326 10.42665,54.7750761 L4.05184565,54.7750761 Z M14.1146935,56.2748804 C14.1146935,52.7123152 11.9891935,49.14975 7.17693261,49.14975 C2.73941087,49.14975 0.30191087,52.6495761 0.30191087,56.2748804 C0.30191087,60.1485978 2.92678043,63.5873804 7.23967174,63.5873804 C10.1773891,63.5873804 13.0515196,62.0875761 13.6136283,59.5254457 C13.6763674,59.2125978 13.4271065,58.7123804 12.9887804,58.7123804 L10.8641283,58.7123804 C10.4893891,58.7123804 10.1773891,58.89975 9.98917174,59.21175 C9.36432391,60.0875543 8.48936739,60.5241848 7.23967174,60.5241848 C5.36428043,60.5241848 4.11373696,59.0871196 3.98910652,57.4626848 L12.9260413,57.4626848 C13.7399543,57.4626848 14.1146935,57.0243587 14.1146935,56.2748804 Z M32.8643674,63.3372717 C30.1148674,63.3372717 28.4268457,61.2745109 28.4268457,58.9616413 L28.4268457,52.274837 L27.6146283,52.274837 C27.2390413,52.274837 26.8643022,51.89925 26.8643022,51.5245109 L26.8643022,50.3985978 C26.8643022,49.9619674 27.2390413,49.6491196 27.6146283,49.6491196 L28.4268457,49.6491196 L28.4268457,45.5244457 C28.4268457,44.962337 28.8643239,44.4621196 29.4891717,44.4621196 L31.0508674,44.4621196 C31.6146717,44.4621196 32.0504543,44.962337 32.0504543,45.5244457 L32.0504543,49.6491196 L34.4879543,49.6491196 C34.9262804,49.6491196 35.2382804,49.9611196 35.2382804,50.3985978 L35.2382804,51.5245109 C35.2382804,51.89925 34.9262804,52.274837 34.4879543,52.274837 L32.0504543,52.274837 L32.0504543,58.4622717 C32.0504543,59.6492283 32.8007804,60.5241848 34.114063,60.5241848 L34.3641717,60.5241848 C34.8008022,60.5241848 35.1763891,60.8361848 35.1763891,61.33725 L35.1763891,62.5250543 C35.1763891,62.9625326 34.80165,63.3372717 34.3641717,63.3372717 L32.8643674,63.3372717 Z M41.8013022,46.024663 L41.8013022,46.7741413 C41.8013022,47.1497283 42.0514109,47.4006848 42.4269978,47.4006848 L53.4258457,47.4006848 C53.926063,47.4006848 54.3643891,46.9623587 54.3643891,46.4621413 L54.3643891,45.1497065 C54.3643891,44.650337 53.926063,44.1509674 53.4258457,44.2128587 C53.4258457,44.2128587 42.8008891,45.2751848 42.4269978,45.3370761 C42.050563,45.3370761 41.8013022,45.6499239 41.8013022,46.024663 Z M39.8012804,45.5244457 C39.8012804,44.962337 39.301063,44.4621196 38.677063,44.4621196 L37.1145196,44.4621196 C36.4896717,44.4621196 35.9894543,44.962337 35.9894543,45.5244457 L36.0513457,62.2749457 C36.0513457,62.8370543 36.4896717,63.3372717 37.1145196,63.3372717 L38.677063,63.3372717 C39.301063,63.3372717 39.8012804,62.8370543 39.8012804,62.2749457 L39.8012804,45.5244457 Z M11.4889761,2.33788043 C11.864563,2.33788043 12.2393022,1.9631413 12.2393022,1.58840217 C12.2393022,1.15007609 11.864563,0.838076087 11.4889761,0.838076087 C11.0523457,0.838076087 10.7394978,1.15007609 10.7394978,1.58840217 C10.7394978,1.9631413 11.0523457,2.33788043 11.4889761,2.33788043 Z M5.8017587,25.08675 L6.67756304,24.7128587 C7.4270413,25.0248587 8.61484565,25.4004457 9.42706304,25.4004457 C9.92728043,25.4004457 10.3028674,25.2122283 10.6140196,25.08675 C10.8649761,24.9629674 13.8018457,23.5259022 15.2389109,23.0256848 C15.677237,22.8374674 16.1774543,22.7755761 16.3639761,22.7755761 C16.739563,22.7755761 16.739563,22.9002065 16.8641935,23.0875761 C17.1143022,23.5259022 19.3016935,26.5874022 19.489063,26.7756196 C21.3017152,26.2135109 23.1771065,25.4004457 24.2394326,24.4000109 C25.3644978,23.3376848 26.3013457,22.0871413 27.2390413,21.0875543 C27.5510413,20.7119674 27.9885196,20.3999674 28.176737,20.275337 C29.1144326,19.7751196 32.0504543,19.7123804 33.2382587,19.7751196 L32.5506717,20.7747065 C30.3641283,20.7747065 29.1763239,21.0248152 28.6142152,21.4004022 C28.4259978,21.5869239 28.0512587,21.9625109 27.7384109,22.3991413 C26.9889326,23.3376848 26.1767152,24.6501196 25.8647152,24.9002283 C26.4887152,25.3360109 27.1763022,25.7124457 28.3013674,25.7124457 C30.1140196,25.7124457 31.4264543,24.5873804 32.1148891,23.9625326 L32.7388891,24.2745326 C32.2954761,24.906163 31.745237,25.4555543 31.1144543,25.8998152 C30.3641283,26.4000326 29.4272804,26.7756196 28.927063,26.90025 C27.864737,26.7120326 25.5510196,26.212663 24.9889109,26.1499239 C22.989737,26.9621413 19.6772804,28.2737283 18.6149543,28.5865761 C18.3733239,28.669663 18.1198239,28.7120543 17.8646283,28.7129022 C16.9896717,28.7747935 15.8018674,28.7747935 14.6768022,28.7129022 C13.9273239,28.7129022 13.1778457,28.7129022 12.8022587,28.650163 L11.8026717,27.6505761 C12.6767804,27.8370978 12.9896283,27.8370978 13.8018457,27.8370978 C15.677237,27.8370978 16.9277804,27.5250978 17.3016717,27.4623587 C17.6764109,27.3385761 17.7399978,27.1503587 17.6145196,26.8375109 C17.4263022,26.4000326 17.1761935,25.900663 16.739563,25.4004457 C16.4894543,25.150337 15.989237,24.7128587 15.8010196,24.5873804 C15.5509109,24.4000109 15.3024978,24.3381196 14.5521717,24.5873804 C13.9264761,24.77475 11.864563,25.8998152 10.9896065,26.4000326 C10.5521283,26.5874022 10.1773891,26.7120326 9.42706304,26.524663 C8.55210652,26.3372935 6.55208478,25.5878152 5.8017587,25.08675 Z" id="Fill-12" fill="#2B5692" mask="url(#mask-4)"></path>
            </g>
            <path d="M45.7741304,59.0394717 L16.8997174,59.0394717 C16.2129783,59.0394717 15.711913,59.6015804 15.711913,60.2264283 L15.7746522,71.6017109 C15.7746522,71.6017109 9.58636957,60.3519065 9.27436957,59.7897978 C8.96236957,59.2268413 8.27478261,58.7266239 7.39897826,58.7266239 L5.02506522,58.7266239 C4.33747826,58.7266239 3.83726087,59.2904283 3.83726087,59.9144283 L3.83726087,76.53945 C3.83726087,77.2261891 4.33747826,77.7264065 5.02506522,77.7264065 L6.52402174,77.7264065 C7.2116087,77.7264065 7.71097826,77.2261891 7.71097826,76.53945 L7.64908696,64.9149065 C7.64908696,64.9149065 13.898413,76.2266022 14.2112609,76.6640804 C14.5241087,77.2889283 15.1489565,77.7264065 16.023913,77.7264065 L18.2104565,77.7264065 C18.8988913,77.7264065 19.3991087,77.227037 19.3991087,76.53945 L19.3991087,61.8517109 L45.7732826,61.8517109 C46.2107609,61.8517109 46.5855,61.4769717 46.5855,61.0394935 L46.5855,59.852537 C46.5871957,59.4142109 46.2133043,59.0394717 45.7741304,59.0394717" id="Fill-15" fill="#2B5692"></path>
            <path d="M41.0870935,66.2889783 C42.3367891,66.2889783 43.2744848,66.7264565 43.6492239,67.5395217 C43.7747022,67.913413 44.0867022,67.9761522 44.5250283,67.9761522 L46.2740935,67.9761522 C46.5242022,67.9761522 46.8989413,67.7251957 46.8989413,67.3513043 C46.8989413,65.3512826 44.4614413,63.5394783 41.0870935,63.5394783 C37.5864196,63.5394783 35.2752457,65.2258043 35.2752457,67.8515217 C35.2752457,69.9134348 36.8996804,71.102087 38.836963,71.6641957 C39.7746587,71.852413 41.3363543,72.2263043 42.0866804,72.476413 C42.8361587,72.6646304 43.5864848,72.9130435 43.5864848,73.6014783 C43.5864848,74.7256957 42.4622674,75.0393913 41.148137,75.0393913 C39.9620283,75.0393913 38.7733761,74.5383261 38.4613761,73.6633696 C38.2740065,73.164 37.8984196,73.1012609 37.39905,73.1012609 L35.649137,73.1012609 C35.337137,73.1012609 34.96155,73.4132609 34.96155,73.7896957 L34.96155,74.0389565 C34.96155,75.977087 37.5864196,77.9762609 41.2117239,77.9762609 C43.711963,77.9762609 47.2745283,76.9139348 47.2745283,73.539587 C47.2745283,71.5378696 45.9620935,70.1635435 43.7747022,69.6014348 C42.961637,69.4140652 40.962463,68.8511087 40.524137,68.7892174 C39.7119196,68.5391087 38.9615935,68.289 38.9615935,67.6641522 C38.9615935,66.6018261 39.900137,66.2889783 41.0870935,66.2889783" id="Fill-17" fill="#2B5692"></path>
        </g>
    </g>
</svg>