<?xml version="1.0" encoding="UTF-8"?>
<svg width="72px" height="80px" viewBox="0 0 72 80" version="1.1" xmlns="http://www.w3.org/2000/svg" xmlns:xlink="http://www.w3.org/1999/xlink">
    <!-- Generator: Sketch 48.2 (47327) - http://www.bohemiancoding.com/sketch -->
    <title>Page 1</title>
    <desc>Created with Sketch.</desc>
    <defs>
        <polygon id="path-1" points="0 0.000106666667 71.576 0.000106666667 71.576 79.1965936 0 79.1965936"></polygon>
    </defs>
    <g id="Artboard" stroke="none" stroke-width="1" fill="none" fill-rule="evenodd">
        <g id="Page-1">
            <mask id="mask-2" fill="white">
                <use xlink:href="#path-1"></use>
            </mask>
            <g id="Clip-2"></g>
            <path d="M0.00858666667,73.20064 C-0.03248,71.5131733 0.0501866667,69.83104 0.749386667,67.4491733 C1.11845333,66.17824 1.44858667,65.7233067 2.59632,65.47904 C3.49978667,65.31424 3.41925333,66.2571733 3.21392,67.36704 C2.76325333,69.8305067 2.55418667,71.02144 2.72058667,73.8161067 C2.88218667,76.77184 4.24005333,77.9227733 5.71738667,77.9227733 C7.93552,77.9649067 8.92165333,76.11744 9.33232,73.4459733 C9.65925333,71.3105067 9.41285333,70.2811733 9.20698667,69.62624 C9.08538667,69.25664 8.75632,68.43424 8.63258667,67.81984 C8.46992,66.2577067 9.20698667,65.5217067 9.82512,65.3147733 C10.5648533,65.1083733 10.8533867,65.4795733 11.13872,66.3435733 C11.5093867,67.6561067 11.5509867,69.3787733 11.42672,71.84224 C11.2629867,75.2091733 9.57818667,79.2795733 5.38938667,79.1953067 C1.77445333,79.1153067 0.174986667,76.7723733 0.00858666667,73.20064 Z M56.5024533,72.5435733 C57.3648533,72.5435733 57.6133867,73.5675733 57.4080533,74.1851733 C57.20112,74.80064 56.4640533,75.49824 55.3120533,75.7035733 C55.0661867,75.0865067 54.9413867,72.5435733 56.5024533,72.5435733 Z M40.4437867,73.93824 C40.4437867,73.2427733 40.0736533,72.66464 39.6224533,72.66464 C39.2512533,72.66464 38.3909867,73.07584 38.3909867,74.38944 C38.3909867,75.41664 38.7584533,75.90784 38.92592,76.1169067 C40.1136533,75.7451733 40.4437867,74.75904 40.4437867,73.93824 Z M27.6677867,65.5611733 C27.6288533,64.9019733 27.0949867,64.4513067 26.3968533,64.4513067 C25.6160533,64.4513067 24.87472,65.2721067 24.9600533,66.2987733 C24.9600533,66.9137067 25.4101867,67.5313067 26.19312,67.5313067 C27.09552,67.5313067 27.7525867,66.5067733 27.6677867,65.5611733 Z M34.3461867,67.97184 C34.2752533,66.8251733 33.9968533,66.3073067 33.38192,66.34784 C32.5632533,66.3985067 32.1861867,68.9707733 32.3520533,71.6747733 C32.4581867,73.44064 32.7205867,73.71104 32.9664533,73.69504 C33.4192533,73.66784 34.50352,70.5147733 34.3461867,67.97184 Z M59.3776533,73.3643733 C59.3776533,72.3377067 58.43472,70.8987733 57.03792,70.8987733 C55.1893867,70.8987733 53.3845867,72.9115733 53.3845867,75.7041067 C53.3845867,78.2075733 54.9413867,79.0331733 56.5024533,79.0331733 C59.2133867,79.0331733 60.8581867,76.81024 61.71952,74.9643733 C62.1317867,76.1963733 62.3744533,79.0331733 63.40432,79.0331733 C63.8144533,79.0331733 64.10192,78.8267733 64.5973867,77.71744 C65.8256533,74.9643733 67.01712,71.8017067 68.6624533,71.8017067 C69.2757867,71.8017067 68.90832,72.9115733 70.3861867,72.9115733 C71.0848533,72.9115733 71.5760533,72.3377067 71.5760533,71.6769067 C71.5760533,70.7323733 70.7141867,69.99424 69.39952,69.99424 C65.5413867,69.99424 64.71952,75.7867733 64.10192,75.7867733 C63.0752533,75.7867733 63.40432,71.1457067 62.6640533,71.1457067 C62.0064533,71.1457067 61.6773867,71.92704 61.5952533,72.2945067 C61.06032,74.4305067 59.5429867,77.51264 57.2405867,77.51264 C56.7077867,77.51264 55.7632533,77.3067733 55.7632533,76.7723733 C55.7632533,76.1963733 59.3776533,76.1169067 59.3776533,73.3643733 Z M28.7365867,77.2241067 C29.35312,77.2241067 30.4112533,77.0235733 31.24432,75.68864 C30.7685867,74.63264 30.4288533,72.4923733 30.38032,71.71424 C30.1349867,67.7345067 31.6688533,63.9899733 33.3477867,63.8875733 C34.5792533,63.81344 35.5637867,64.9787733 35.6768533,66.8619733 C35.9808533,71.82464 34.32592,73.8961067 33.5008533,75.6795733 C33.6405867,76.3745067 34.81392,77.5531733 35.92432,77.5531733 C36.3344533,77.5531733 36.8288533,77.3483733 36.9525867,77.1819733 C36.83792,76.79584 36.78192,76.3947733 36.7861867,75.9921067 C36.7861867,73.11904 38.6368533,70.6923733 40.2368533,70.6923733 C41.5120533,70.6923733 42.24752,72.3761067 42.24752,73.4891733 C42.24752,74.80064 41.1392533,75.8705067 39.4976533,76.8971733 C39.7872533,77.1819733 40.31792,77.38944 40.7728533,77.38944 C43.11312,77.38944 44.34352,74.5569067 45.24912,71.9659733 C45.4128533,71.4731733 45.7024533,70.7755733 46.27472,70.7755733 C47.2613867,70.7755733 47.6736533,77.26464 49.31312,77.26464 C50.0128533,77.26464 50.5861867,75.8267733 50.5861867,74.7211733 C50.5861867,73.8987733 50.2997867,73.81664 50.2997867,72.6235733 C50.2997867,71.31104 50.9973867,70.2017067 51.9445867,70.2017067 C52.51792,70.2017067 52.72432,70.7761067 52.72432,71.4737067 C52.72432,74.1035733 50.8352533,78.9915733 48.0437867,78.9915733 C45.9461867,78.9915733 46.1093867,75.3739733 45.3728533,75.3739733 C44.5493867,75.3739733 43.3989867,79.03424 39.33392,79.03424 C38.67472,79.03424 37.9776533,78.7051733 37.40432,78.0443733 C36.4181867,78.7051733 35.59472,78.9915733 34.6496533,78.9915733 C33.1312533,78.9915733 32.4736533,77.42944 31.8592533,77.42944 C31.1184533,77.42944 30.2997867,79.03424 27.83312,79.03424 C25.86032,79.03424 25.53232,76.40544 24.8357867,76.40544 C24.2192533,76.40544 23.27472,79.03424 22.2485867,79.03424 C20.51952,79.03424 20.1536533,74.4747733 18.63312,74.4747733 C17.44112,74.4747733 13.6784533,79.1041067 12.65552,78.9985067 C12.2448533,78.9547733 12.07312,78.6481067 12.11632,78.2363733 C12.17392,77.6689067 12.6624533,76.14784 12.8624533,75.42624 C13.19472,74.17984 13.4992533,72.8081067 13.6693867,72.37184 C13.83792,71.93184 14.2960533,71.61824 14.66032,71.65184 C14.8448533,71.66944 14.8997867,72.01344 14.9573867,72.2961067 C15.1637867,73.3153067 15.4549867,74.34944 15.7824533,74.34944 C16.3584533,74.34944 18.2645867,70.6923733 19.37232,70.6923733 C20.72912,70.6923733 20.89232,76.4449067 22.74032,76.4449067 C23.3573867,76.4449067 23.8112533,75.70464 24.2197867,74.8011733 C24.2624533,73.2795733 24.6720533,71.1057067 25.9040533,71.1057067 C26.7680533,71.1057067 27.17872,73.0337067 26.5605867,74.72064 C26.5600533,76.73024 27.8741867,77.2241067 28.7365867,77.2241067 Z M24.2421867,30.59744 C24.2421867,29.2033067 27.5557867,28.4619733 27.5557867,26.7409067 C27.5557867,26.4571733 27.4464533,25.95744 27.2501867,25.58624 C28.4048533,26.2171733 29.2549867,27.2865067 29.2549867,28.1569067 C29.2549867,29.66144 27.6864533,30.3579733 27.6864533,31.2955733 C27.6864533,32.38624 29.36432,32.5601067 29.36432,33.9115733 C29.36432,35.0225067 27.77392,36.3083733 27.77392,37.7473067 C27.77392,38.8577067 28.55632,39.77344 29.75632,39.9265067 C29.36432,40.0139733 29.0149867,40.07904 28.64432,40.07904 C26.4437867,40.07904 24.1765867,38.2699733 24.1765867,36.11264 C24.1765867,35.0449067 24.6352533,34.1073067 25.33232,33.4321067 C25.94192,33.9547733 26.55312,34.3041067 26.9440533,34.3041067 C27.29392,34.3041067 27.4464533,34.1291733 27.4464533,33.8683733 C27.4464533,33.0603733 24.2421867,32.32064 24.2421867,30.59744 Z M31.1941867,41.60544 C30.4325867,41.9099733 30.1493867,41.8875733 30.1493867,42.6491733 C30.1493867,42.9329067 30.08432,43.3035733 30.08432,43.49984 C30.08432,43.7617067 30.12752,43.91424 30.43312,43.91424 C31.2165867,43.91424 32.4581867,42.5851733 32.4581867,41.4523733 C32.4581867,41.1473067 32.2848533,41.01664 32.08912,41.01664 C31.9136533,41.01664 31.7173867,41.36544 31.1941867,41.60544 Z M31.1072533,40.03584 C31.1072533,39.05504 29.0805867,39.0331733 29.0805867,37.55104 C29.0805867,37.1803733 29.31952,36.54784 29.8005867,35.8721067 C29.99632,37.00544 30.4549867,37.59424 31.4341867,37.9649067 C33.37392,38.6833067 33.6357867,39.7729067 33.6357867,40.9291733 C33.6357867,42.8891733 32.2629867,45.33184 28.73232,45.33184 C25.8981867,45.33184 23.87152,42.80224 23.87152,40.6673067 C23.87152,40.0785067 24.0245867,39.4241067 24.3957867,39.4241067 C24.7216533,39.4241067 24.8309867,39.6859733 25.0928533,39.94784 C26.07312,40.92864 27.1413867,41.1899733 28.6885867,41.1899733 C30.0837867,41.1905067 31.1072533,40.6241067 31.1072533,40.03584 Z M20.1664533,42.6929067 C21.9109867,43.1297067 22.78192,44.0667733 22.95632,45.17824 C23.13072,46.24704 23.34832,47.1201067 23.7632533,47.5553067 C24.30832,48.1633067 25.3765867,48.7083733 26.3125867,48.7083733 C27.0976533,48.7083733 27.73072,48.4475733 27.73072,47.73024 C27.73072,46.94464 26.66192,45.1787733 25.09232,45.1787733 C24.94032,45.1787733 24.74352,45.2011733 24.52592,45.2011733 C24.3301867,45.2011733 24.0453867,45.15744 23.8709867,45.0049067 C23.5216533,44.7003733 23.4133867,43.06464 22.7589867,42.0859733 C22.04112,40.9953067 21.2560533,40.69024 20.18832,40.69024 C19.42512,40.69024 18.57552,41.10464 18.57552,41.7153067 C18.5760533,42.0849067 18.77232,42.34464 20.1664533,42.6929067 Z M26.2469867,47.5771733 C25.5936533,47.5771733 24.6133867,46.87904 24.6133867,46.48704 C24.6133867,46.1595733 24.9189867,45.9851733 25.15792,45.9851733 C25.70352,45.9851733 26.6832533,46.66144 26.6832533,47.2283733 C26.6832533,47.3809067 26.5744533,47.5771733 26.2469867,47.5771733 Z M32.1104533,46.7499733 C32.1104533,46.94464 32.04432,47.1633067 31.86992,47.3809067 C31.6309867,46.94464 30.9536533,46.7265067 30.6512533,46.7265067 C28.4048533,46.7265067 29.2549867,49.97344 26.85712,49.97344 C25.8544533,49.97344 25.7664533,49.8427733 25.39792,49.8427733 C25.24432,49.8427733 25.1573867,49.9083733 25.1573867,50.0385067 C25.1573867,50.6049067 25.9637867,52.0011733 28.2080533,52.0011733 C30.4544533,52.0011733 32.61072,50.6273067 32.61072,48.9259733 C32.60592,48.6177067 32.5392533,48.3137067 32.41392,48.0321067 C32.50192,47.90144 32.71952,47.8139733 32.9152533,47.8139733 C33.2640533,47.8139733 33.4608533,48.20704 33.7872533,48.20704 C34.1360533,48.20704 34.3973867,47.9457067 34.3973867,47.5995733 C34.3973867,47.31584 34.24432,47.1195733 33.9824533,46.9873067 C34.1573867,46.8571733 34.2880533,46.6395733 34.2880533,46.4001067 C34.2880533,46.02944 34.0261867,45.68064 33.59152,45.68064 C33.39472,45.68064 33.2640533,45.74624 33.1120533,45.89824 C33.06832,45.5057067 32.85072,45.13504 32.43632,45.13504 C32.1104533,45.13504 31.86992,45.3755733 31.86992,45.7457067 C31.86992,46.0945067 32.1104533,46.3777067 32.1104533,46.7499733 Z M46.8645867,9.04437333 C45.3376533,9.04437333 44.3360533,8.28117333 44.3360533,7.88970667 C44.3360533,7.69397333 44.4672533,7.56277333 44.6400533,7.56277333 C45.1205867,7.56277333 46.1669867,8.30250667 46.5157867,8.30250667 C46.60272,8.30250667 46.66832,8.25984 46.66832,8.12917333 C46.66832,7.73717333 46.2976533,7.08277333 46.2976533,6.75637333 C46.2976533,6.66890667 46.3632533,6.60330667 46.4944533,6.60330667 C47.0821867,6.60330667 47.95472,6.84384 48.41232,6.84384 C48.56592,6.84384 48.6080533,6.75584 48.6080533,6.66890667 C48.6080533,6.18837333 47.1920533,5.25237333 47.1920533,4.96917333 C47.1920533,4.70784 48.9552533,4.31530667 48.9552533,3.90090667 C48.9552533,3.46464 46.5584533,3.76970667 46.5584533,3.35530667 C46.5584533,3.05024 47.0160533,2.52757333 47.0160533,2.28864 C47.0160533,2.17877333 46.92912,2.13557333 46.77712,2.13557333 C46.5813867,2.13557333 45.5333867,2.54997333 45.09872,2.54997333 C44.8805867,2.54997333 44.61872,2.50624 44.61872,2.20064 C44.61872,1.69984 45.4693867,1.15424 46.7989867,1.15424 C48.9552533,1.15424 50.2421867,2.63690667 50.2421867,5.12170667 C50.2421867,8.25984 48.0416533,9.04437333 46.8645867,9.04437333 Z M42.6133867,4.90357333 C42.6133867,4.66410667 41.76432,4.20597333 41.76432,3.94517333 C41.76432,3.90090667 41.8085867,3.87904 41.8725867,3.87904 C42.11152,3.87904 42.52592,3.96650667 42.85392,3.96650667 C43.1365867,3.96650667 43.1797867,2.74677333 43.39952,2.74677333 C43.55152,2.74677333 43.8133867,3.90090667 44.0528533,3.90090667 C44.33552,3.90090667 44.8576533,3.57397333 45.0768533,3.57397333 C45.1200533,3.57397333 45.16272,3.59584 45.16272,3.63957333 C45.16272,3.79264 44.6181867,4.38037333 44.6181867,4.55584 C44.6181867,4.75157333 45.8405867,4.99104 45.8405867,5.16650667 C45.8405867,5.38357333 44.59632,5.36277333 44.59632,5.55690667 C44.59632,5.70997333 45.0544533,6.32010667 45.0544533,6.51690667 C45.0544533,6.56064 45.0320533,6.58197333 44.9888533,6.58197333 C44.8149867,6.58197333 44.14032,6.27690667 43.94352,6.27690667 C43.7045867,6.27690667 43.31152,7.17077333 43.1152533,7.17077333 C43.0496533,7.17077333 43.00592,7.08277333 43.00592,6.97397333 L42.9616533,6.10250667 C42.9616533,6.01504 42.9189867,5.92810667 42.8085867,5.92810667 C42.5472533,5.92810667 42.0464533,5.90570667 41.8933867,5.90570667 C41.7856533,5.90570667 41.74192,5.88384 41.74192,5.84010667 C41.7429867,5.66624 42.6133867,5.05610667 42.6133867,4.90357333 Z M58.2197867,21.53344 C58.2197867,21.0753067 57.0640533,21.0321067 56.95472,19.7451733 C56.9328533,19.54944 56.8677867,19.20064 56.6277867,19.20064 C56.2357867,19.20064 56.5397867,20.3995733 56.1045867,20.3995733 C55.1008533,20.3995733 54.7744533,18.4385067 54.4037867,18.4385067 C54.3168533,18.4385067 54.2080533,18.5041067 54.2080533,18.76544 C54.2080533,19.0049067 54.2517867,19.15744 54.2517867,19.44064 C54.2517867,19.7233067 54.1861867,19.9201067 53.92752,19.9201067 C53.33872,19.9201067 52.81552,18.5467733 52.31312,18.5467733 C52.2037867,18.5467733 52.0965867,18.6129067 52.0965867,18.7217067 C52.0965867,18.9835733 52.5317867,19.4619733 52.5317867,19.70144 C52.5317867,20.2251733 51.1136533,19.9409067 51.1136533,20.3777067 C51.1136533,20.5745067 51.3104533,20.6395733 51.57232,20.6395733 C52.0309867,20.6395733 52.7504533,20.4427733 53.11952,20.4427733 C53.33872,20.4427733 53.6656533,20.4875733 53.6656533,20.7697067 C53.6656533,21.0753067 52.8800533,21.4683733 52.8800533,21.75104 C52.8800533,21.88224 53.0112533,21.9467733 53.11952,21.9467733 C53.7077867,21.9467733 54.7525867,20.9227733 55.49392,20.9227733 C55.6256533,20.9227733 55.9536533,20.9889067 55.9536533,21.1851733 C55.9536533,21.4683733 55.2112533,21.9681067 55.2112533,22.3825067 C55.2112533,22.49184 55.2768533,22.6225067 55.4069867,22.6225067 C55.8000533,22.6225067 56.3232533,21.5985067 57.0645867,21.5985067 C57.3472533,21.5985067 57.76272,21.70784 57.9797867,21.70784 C58.15472,21.70784 58.2197867,21.5985067 58.2197867,21.53344 Z M60.2880533,4.00970667 C60.2880533,5.94944 58.8741867,7.43210667 56.32272,7.84650667 C56.6053867,7.86837333 56.86832,7.86837333 57.1301867,7.86837333 C60.11472,7.86837333 61.20432,6.51637333 61.20432,5.38357333 C61.20432,4.75104 60.8560533,4.18464 60.2880533,4.00970667 Z M56.6053867,6.21077333 C56.6053867,4.66410667 52.90192,4.27157333 52.90192,3.92224 C52.90192,3.63904 54.9717867,3.15904 56.0400533,3.13717333 C54.4037867,1.04597333 52.0741867,1.26410667 52.0741867,0.89344 C52.0741867,0.674773333 53.8181867,0.237973333 55.4293867,0.237973333 C56.78032,0.237973333 58.0464533,0.544106667 58.0464533,1.56810667 C58.0464533,2.13504 57.5872533,2.72437333 57.5872533,3.59530667 C57.5872533,4.07477333 57.82672,4.48917333 58.46032,4.48917333 C59.1360533,4.48917333 59.2885867,3.76970667 59.2885867,3.00650667 C59.2885867,2.37610667 59.1792533,1.89557333 59.1792533,1.59050667 C59.1792533,0.674773333 59.8096533,0.0651733333 60.70352,0.0651733333 C61.4448533,0.0651733333 61.6192533,0.39104 62.7088533,0.39104 C62.12112,0.73984 61.9024533,1.37290667 61.9024533,1.67797333 C61.9024533,2.59317333 62.49232,3.22517333 62.49232,5.10037333 C62.49232,8.54304 59.2672533,9.76384 55.3200533,9.76384 C54.2304533,9.76384 53.0768533,9.67637333 51.94352,9.50144 C51.7680533,9.47957333 51.7248533,9.43690667 51.7248533,9.32757333 C51.7248533,9.04384 53.27312,8.89184 53.27312,7.49664 C53.27312,6.95210667 53.0976533,6.42784 53.0976533,6.23264 C53.0965867,6.13664 53.1733867,6.05824 53.26832,6.05717333 L53.27312,6.05717333 C53.6000533,6.05717333 54.2517867,7.32277333 55.4720533,7.32277333 C55.79952,7.32277333 56.60592,7.21397333 56.60592,6.21077333 L56.6053867,6.21077333 Z M25.15792,7.99904 C25.15792,8.76064 27.8821867,12.4881067 28.4048533,12.4881067 C28.8400533,12.4881067 29.1669867,11.7249067 29.1669867,11.0705067 C29.1669867,10.8971733 29.1237867,10.7227733 29.0368533,10.5921067 C28.6437867,10.04704 25.8757867,7.86784 25.26672,7.86784 C25.2016533,7.86837333 25.15792,7.93344 25.15792,7.99904 Z M40.3040533,14.3403733 C40.87152,14.88544 41.3717867,15.1249067 41.98192,15.1249067 C42.2213867,15.1249067 42.5056533,15.0593067 42.65872,15.0593067 C42.8544533,15.0593067 42.98512,15.1467733 42.98512,15.2987733 C42.98512,15.5393067 42.7669867,15.9313067 42.50512,16.14944 C42.7664533,16.2587733 43.05072,16.30144 43.3552533,16.30144 C44.5968533,16.30144 46.01392,15.5169067 46.01392,13.5563733 C46.2752533,13.9035733 46.4293867,14.62304 46.4293867,14.9499733 C46.4293867,17.3249067 44.6837867,18.2411733 43.0725867,18.2411733 C42.02672,18.2411733 41.5029867,17.8923733 41.37232,17.8923733 C40.9589867,17.8923733 40.98032,18.72064 40.6965867,18.6987733 C40.1952533,18.61184 39.7381867,17.49984 39.7381867,16.3233067 C39.73712,15.62624 39.9120533,14.88544 40.3040533,14.3403733 Z M43.59472,12.74944 C43.4208533,12.46624 42.7664533,12.3137067 42.4613867,12.3137067 C41.5029867,12.3137067 40.84912,12.9899733 40.7184533,13.6001067 C40.6213867,13.3643733 40.56912,13.1131733 40.56432,12.8587733 C40.56432,11.8993067 41.2192533,10.7227733 42.8096533,10.7227733 C44.2053867,10.7227733 44.7504533,11.4635733 44.9456533,11.4635733 C45.16272,11.4635733 45.3824533,11.24544 45.5557867,11.24544 C45.7957867,11.24544 45.7957867,11.61664 45.7957867,11.8779733 C45.7957867,12.7499733 45.4032533,14.2529067 44.42352,14.79904 C44.2485867,14.4273067 43.8997867,14.0145067 43.3333867,13.7521067 C43.19952,13.7003733 43.1125867,13.5697067 43.1157867,13.42624 C43.1157867,13.18624 43.3333867,12.8801067 43.59472,12.74944 Z M59.76592,35.0443733 C60.8560533,35.0443733 61.72752,36.4609067 61.72752,38.1179733 C61.72752,39.88224 60.8992533,41.8017067 59.4197867,43.1073067 C59.3973867,40.1665067 55.8000533,41.1035733 55.8000533,38.96704 C55.8000533,38.0523733 56.4533867,37.4417067 57.2389867,37.4417067 C57.9360533,37.4417067 58.48272,37.6379733 58.87472,38.0305067 C58.48272,37.6603733 58.2848533,37.1371733 58.2848533,36.6353067 C58.2837867,35.80704 58.8085867,35.0443733 59.76592,35.0443733 Z M9.13872,5.75317333 C9.13872,6.18837333 7.48165333,7.64970667 6.89392,7.64970667 C6.67578667,7.64970667 6.61018667,7.38784 6.61018667,7.14837333 C6.61018667,6.71210667 6.80645333,6.10197333 7.04592,5.90517333 C7.32912,5.64384 7.98352,5.51424 8.48485333,5.51424 C8.79045333,5.51477333 9.13872,5.57824 9.13872,5.75317333 Z M23.0432533,19.3313067 C22.1061867,19.3313067 22.06352,20.4657067 22.06352,22.7531733 C21.3653867,21.2497067 20.2096533,19.6363733 18.8592533,19.6363733 C17.94352,19.6363733 17.59472,20.24704 17.59472,21.3147733 C17.59472,21.5339733 17.6165867,21.8609067 17.6592533,22.0561067 C17.76912,21.68704 18.1173867,21.5345067 18.5541867,21.5345067 C19.4912533,21.5345067 20.6240533,22.2529067 21.3653867,23.2337067 C20.5152533,23.08064 19.6869867,22.9281067 18.98992,22.9281067 C18.5541867,22.9281067 18.1616533,22.97184 17.83472,23.1243733 C17.2032533,23.4075733 16.3520533,24.3451733 16.3520533,25.7617067 C16.3520533,25.9793067 16.3744533,26.2177067 16.41872,26.4795733 C17.1813867,24.7793067 19.2085867,24.01824 20.5157867,24.01824 C20.7760533,24.01824 20.9733867,24.0395733 21.12592,24.0619733 C20.4496533,24.6705067 20.2976533,25.7393067 20.25392,26.4577067 C20.2320533,26.80704 20.1008533,26.8289067 19.8624533,26.8289067 C19.8624533,27.5467733 20.4277867,28.61504 20.4277867,29.1601067 C20.4277867,29.3563733 20.31952,29.5313067 20.2101867,29.5745067 C20.2101867,30.5329067 21.1685867,31.2299733 21.1685867,31.84064 C21.1685867,31.9931733 21.12592,32.12384 21.06032,32.1899733 C21.12592,32.5819733 22.17232,33.25664 22.3029867,33.5403733 C22.52112,33.9985067 22.6736533,34.0411733 22.78192,34.0411733 C23.1520533,34.0411733 23.7408533,33.6059733 23.7408533,33.2123733 C23.7408533,33.08224 23.6320533,32.9297067 23.54512,32.8641067 C23.13072,32.5595733 22.91312,31.9051733 22.7392533,31.46944 C22.54832,31.4715733 22.3797867,31.3467733 22.3253867,31.1643733 C22.2373867,30.88064 22.19312,29.85664 22.0197867,29.35584 C21.73552,29.29024 21.60592,29.18144 21.60592,28.59264 C21.60592,28.30944 21.7797867,27.1979733 21.7797867,26.8059733 C21.6480533,26.8059733 21.4741867,26.7185067 21.4741867,26.45664 C21.4741867,25.76064 22.17232,25.21504 22.3680533,24.3227733 C23.6101867,25.2369067 23.9152533,26.1739733 23.9152533,27.00224 C23.9152533,27.4369067 23.8496533,27.8513067 23.76272,28.2443733 C24.6789867,27.78624 26.05072,27.1115733 26.05072,25.7387733 C26.05072,24.9329067 25.6800533,24.0395733 23.21712,23.69024 C23.9797867,23.40704 24.9397867,23.2545067 25.7456533,23.2545067 C27.1408533,23.2545067 27.9472533,23.69024 28.1221867,24.6705067 C28.40432,24.23584 28.62192,23.7339733 28.62192,23.2769067 C28.62192,22.2081067 27.7301867,21.5121067 26.5952533,21.5121067 C25.2661867,21.5121067 24.0885867,22.20864 22.8240533,23.0587733 C23.39152,21.88224 23.7840533,21.1851733 24.4816533,21.1851733 C24.5904533,21.1851733 24.69872,21.2059733 24.8080533,21.22784 C24.5472533,20.2689067 23.5664533,19.3313067 23.0432533,19.3313067 Z M20.6677867,17.6753067 C21.40912,17.6753067 22.2597867,13.6657067 22.2597867,12.98944 C22.2597867,12.81504 22.1936533,12.68384 22.0421867,12.68384 C21.36592,12.68384 20.4277867,16.4977067 20.4277867,17.3473067 C20.4277867,17.5003733 20.47152,17.6753067 20.6677867,17.6753067 Z M26.0080533,18.8737067 C26.55312,18.8737067 27.16272,16.7809067 27.16272,15.4737067 C27.16272,15.1905067 27.11952,14.8859733 26.9888533,14.8859733 C26.5312533,14.8859733 25.7664533,17.0427733 25.7664533,18.2209067 C25.7669867,18.6779733 25.87632,18.8737067 26.0080533,18.8737067 Z M22.4544533,16.93344 C22.6949867,16.93344 22.99952,16.6721067 23.5664533,16.04064 C23.6101867,15.75744 23.6101867,15.49504 23.6101867,15.1681067 C23.6101867,14.7323733 23.4352533,14.2523733 23.1733867,14.2523733 C22.52112,14.2523733 22.1936533,15.9969067 22.1936533,16.4539733 C22.1936533,16.7163733 22.3253867,16.93344 22.4544533,16.93344 Z M25.4421867,16.04064 C25.4421867,15.6699733 25.3541867,15.58304 25.26672,15.58304 C25.0496533,15.58304 24.8085867,15.8443733 24.4608533,16.4321067 C24.5045867,17.21664 24.6352533,17.5659733 24.85232,17.5659733 C25.09232,17.5665067 25.4421867,16.8027733 25.4421867,16.04064 Z M41.2192533,38.3569067 C42.2208533,38.4881067 42.4613867,38.8363733 42.4613867,39.1195733 C42.4613867,39.6001067 42.0261867,39.7521067 41.6117867,39.7521067 C41.3072533,39.7521067 40.9584533,39.68704 40.58672,39.68704 C40.1072533,39.68704 39.6288533,39.79584 39.2357867,40.2539733 C39.5184533,40.2971733 39.9333867,40.4929067 39.9333867,40.9291733 C39.9333867,42.19424 36.42352,41.1467733 36.42352,44.39424 C36.42352,46.1169067 38.2117867,47.98944 40.9141867,47.98944 C42.3088533,47.98944 43.2016533,47.53344 43.2016533,47.01024 C43.2016533,46.59584 42.4613867,46.87904 42.4613867,46.5307733 C42.4613867,46.3771733 42.72272,46.0945067 42.72272,45.85504 C42.72272,45.7457067 42.6357867,45.5499733 42.4613867,45.5499733 C42.06832,45.5499733 41.32912,46.18144 39.8240533,46.18144 C38.64752,46.18144 37.4917867,45.5057067 37.4917867,44.5899733 C37.4917867,44.39424 37.5797867,44.2843733 37.70992,44.2843733 C37.8400533,44.2843733 38.0149867,44.3723733 38.16752,44.3723733 C38.29872,44.3723733 38.3200533,44.2843733 38.3200533,44.0449067 C38.3200533,43.80544 38.3200533,43.1291733 38.73552,43.1291733 C39.1477867,43.1291733 39.9333867,44.6555733 42.9413867,44.6555733 C43.9440533,44.6555733 45.8832533,44.4593067 46.60272,43.8049067 C46.5813867,46.20384 44.7056533,49.36224 40.7840533,49.36224 C36.7077867,49.36224 34.52912,46.0945067 34.52912,43.0849067 C34.52912,39.7515733 37.25232,36.72224 40.98032,36.72224 C41.93872,36.72224 42.7456533,37.0497067 42.7456533,37.46304 C42.74512,38.0305067 41.32912,37.6817067 41.2192533,38.3569067 Z M47.90992,39.5121067 C48.0629867,39.7515733 48.1280533,39.9921067 48.1280533,40.21024 C48.1280533,40.8203733 47.7141867,41.3873067 47.7141867,42.0193067 C47.7141867,42.73664 48.26032,43.3259733 49.0853867,43.3259733 C49.98032,43.3259733 50.5904533,42.6059733 50.5904533,41.7579733 C50.5909867,40.6027733 49.5445867,39.62144 47.90992,39.5121067 Z M40.6960533,40.90784 C40.9141867,41.1249067 40.9797867,41.3435733 40.9797867,41.5611733 C40.9797867,41.8875733 40.8272533,42.2369067 40.8272533,42.60544 C40.8272533,43.1291733 41.2192533,43.5857067 41.7861867,43.5857067 C42.39632,43.5857067 42.80912,43.10624 42.80912,42.53984 C42.8096533,41.71424 41.95952,40.90784 40.6960533,40.90784 Z M43.59472,37.20224 C45.8832533,37.6379733 47.1264533,39.3595733 47.1264533,40.9729067 C47.1264533,42.0849067 46.4288533,43.1067733 45.2064533,43.1067733 C44.0965867,43.1067733 43.28912,42.3441067 43.28912,41.1249067 C43.28912,40.2097067 44.0085867,39.25024 44.0085867,38.3121067 C44.0085867,37.94304 43.90032,37.5723733 43.59472,37.20224 Z M44.7280533,40.1003733 C44.7280533,40.4059733 44.9456533,40.6459733 45.2501867,40.6459733 C45.59952,40.6459733 45.81872,40.3409067 45.81872,39.9921067 C45.81872,39.5339733 45.4037867,38.9019733 45.01072,38.9019733 C44.8368533,38.9019733 44.9024533,39.1627733 44.8576533,39.4459733 C44.8373867,39.66464 44.7280533,39.9265067 44.7280533,40.1003733 Z M40.58672,25.9355733 C40.8272533,27.7867733 43.3120533,26.8491733 43.3120533,29.0939733 C43.3120533,29.42144 43.2240533,29.9009067 43.2240533,30.31424 C43.2240533,30.79424 43.2672533,31.20864 43.6384533,31.20864 C44.0085867,31.20864 44.09712,30.9467733 44.09712,30.59744 C44.09712,30.2481067 44.0085867,29.81344 44.0085867,29.5739733 C44.0085867,28.8113067 44.5541867,28.6363733 44.8805867,28.6363733 C45.7088533,28.6363733 46.3413867,29.48704 47.5845867,29.48704 C47.3008533,30.8811733 44.4240533,30.5105067 44.4240533,32.03744 C44.4240533,32.7995733 45.1856533,32.9745067 45.68752,32.9745067 C46.14512,32.9745067 46.2976533,32.90784 46.2976533,32.5169067 C46.2976533,32.2987733 46.25392,32.0593067 46.25392,31.90624 C46.25392,31.8193067 46.3189867,31.7329067 46.4293867,31.7329067 C46.9088533,31.7329067 49.2608533,33.51904 49.2608533,34.06464 C49.2608533,34.5659733 46.77712,35.0667733 46.05712,35.0667733 C45.84112,35.0667733 45.7968533,34.9147733 45.7968533,34.82784 C45.7968533,34.67424 46.16752,34.21664 46.16752,33.9547733 C46.16752,33.75904 45.8416533,33.6283733 44.9685867,33.6283733 C44.5541867,33.6283733 44.2496533,33.6715733 44.2496533,33.99904 C44.2496533,34.5867733 45.20752,35.3067733 45.20752,35.8513067 C45.20752,36.2865067 44.94672,36.54784 44.2496533,36.54784 C43.6608533,36.54784 42.7669867,36.09024 42.7669867,35.32864 C42.7669867,34.7179733 43.4000533,34.1073067 43.4000533,33.7371733 C43.4000533,33.6283733 43.3120533,33.4539733 43.05072,33.4539733 C42.2432533,33.4539733 42.02672,35.58944 39.1696533,35.82944 C39.6288533,35.4155733 40.0213867,34.95744 40.0213867,34.0203733 C40.0213867,33.56224 39.9120533,33.19104 39.9120533,32.6907733 C39.9120533,32.03744 40.2160533,31.7099733 40.6528533,31.7099733 C41.4597867,31.7099733 41.8517867,32.8427733 42.3744533,32.8427733 C42.6581867,32.8427733 42.9621867,32.5825067 42.9621867,32.1905067 C42.9621867,30.5329067 39.78032,30.7723733 39.78032,28.4411733 C39.7808533,27.8081067 39.9973867,27.0241067 40.58672,25.9355733 Z M50.98192,32.32064 C50.98192,32.86464 51.1573867,33.4961067 51.7029867,33.4961067 C52.1605867,33.4961067 52.55312,32.79904 52.55312,32.0369067 C52.55312,31.1643733 52.39952,30.4891733 52.39952,30.1393067 C52.39952,29.9883733 52.46512,29.9227733 52.55312,29.9227733 C52.87952,29.9441067 53.1845867,30.8379733 53.53392,30.8379733 C53.9269867,30.8379733 54.5136533,30.1185067 54.7525867,30.1185067 C54.8181867,30.1185067 54.8400533,30.20544 54.8400533,30.2273067 C54.8400533,30.5547733 54.3381867,31.2737067 54.3381867,31.55744 C54.3381867,31.7969067 55.6037867,31.84064 55.6037867,32.0587733 C55.6037867,32.38624 54.2741867,32.38624 53.6432533,32.6689067 C53.03312,32.9297067 52.66192,33.2561067 52.66192,33.6923733 C52.66192,34.1281067 53.09712,34.2155733 53.70832,34.2155733 C55.16752,34.2155733 56.1925867,33.43104 56.5189867,33.43104 C56.58512,33.43104 56.62832,33.4737067 56.62832,33.53984 C56.62832,33.7579733 55.8869867,34.4779733 55.8869867,34.8049067 C55.8869867,35.1755733 57.2389867,35.61024 57.21712,35.8283733 C57.1957867,35.8929067 57.1088533,35.9147733 56.9552533,35.9147733 C56.71632,35.9147733 56.3456533,35.85024 56.0613867,35.85024 C55.8864533,35.85024 55.7344533,35.87104 55.6693867,35.9585067 C55.5157867,36.13344 55.71312,37.28864 55.4069867,37.28864 C55.12432,37.28864 54.38192,34.7163733 52.7061867,34.7163733 C52.4656533,34.7163733 52.29072,34.91264 52.29072,35.2395733 C52.29072,36.11104 53.1424533,37.1131733 53.9488533,37.5931733 C54.3173867,37.8337067 54.9280533,38.0731733 54.9280533,38.20384 C54.9280533,38.4641067 53.5344533,38.2251733 53.5344533,38.6603733 C53.5344533,39.05344 53.70832,39.6417067 53.70832,39.9905067 C53.70832,40.09984 53.6880533,40.2299733 53.5557867,40.2299733 C53.29552,40.2299733 52.66192,39.0315733 52.3568533,39.0315733 C52.0965867,39.0315733 51.5285867,39.7505067 51.28912,39.7505067 C51.22352,39.7505067 51.17872,39.68544 51.17872,39.61984 C51.17872,39.1179733 51.9861867,37.9857067 51.9861867,36.8737067 C51.9861867,36.3505067 51.92112,35.2177067 51.28912,35.2177067 C50.7648533,35.2177067 50.17712,36.0443733 49.91472,36.8737067 C49.7621867,37.3537067 49.8725867,39.20544 49.52272,39.20544 C49.1968533,39.20544 49.28272,37.9633067 48.8469867,37.9633067 C48.5221867,37.9633067 47.82512,38.55104 47.5845867,38.55104 C47.5413867,38.55104 47.4976533,38.5291733 47.4976533,38.4859733 C47.4976533,38.22464 48.1285867,37.37504 48.1285867,37.20064 C48.1285867,36.8737067 46.6896533,36.8305067 46.6896533,36.5681067 C46.6896533,36.41504 47.2560533,36.3067733 47.78032,36.2193067 C48.8912533,36.02304 50.5253867,35.2177067 50.5253867,34.08384 C50.5253867,32.8193067 49.30352,32.2753067 48.50032,31.7521067 C48.0853867,31.49024 47.6277867,31.2715733 47.6277867,31.0977067 C47.6277867,30.9227733 48.1520533,30.9227733 48.3685867,30.9227733 C48.6928533,30.9227733 49.0213867,30.90144 49.0213867,30.6395733 C49.0213867,30.4433067 48.97552,30.0523733 48.97552,29.7473067 C48.97552,29.5291733 48.99792,29.3553067 49.08592,29.3553067 C49.4128533,29.3553067 49.8720533,30.4219733 50.0896533,30.4219733 C50.4373867,30.4219733 50.91792,29.55104 51.2453867,29.55104 C51.35312,29.55104 51.3968533,29.61664 51.3968533,29.8123733 C51.3968533,30.6193067 50.98192,31.53504 50.98192,32.32064 Z M50.22032,50.6497067 C49.6528533,51.0849067 48.32432,52.0667733 46.12272,52.0667733 C44.9456533,52.0667733 44.42352,51.6961067 44.24912,51.6961067 C44.0320533,51.6961067 43.79152,51.9131733 43.55152,52.1969067 C43.0277867,52.8075733 42.3520533,53.9393067 42.3520533,55.1809067 C42.3520533,56.0545067 43.0277867,56.9265067 44.29232,56.9265067 C48.3685867,56.9265067 51.4192533,54.37504 51.4192533,52.30624 C51.4192533,51.12864 50.72112,50.6497067 50.22032,50.6497067 Z M49.08592,50.4097067 C49.2608533,50.25664 49.3029867,50.0177067 49.3029867,49.7777067 L49.3029867,49.27584 C49.3029867,48.64384 48.3461867,48.27264 47.0384533,48.27264 C45.44752,48.27264 44.59632,48.9921067 44.59632,49.2977067 L44.59632,50.3003733 C44.59632,50.7147733 45.5557867,51.12864 46.7333867,51.12864 C47.6709867,51.12864 48.5216533,50.8891733 49.08592,50.4097067 Z M48.9125867,52.5681067 C49.0213867,52.5681067 49.1520533,52.6337067 49.1520533,53.0257067 C49.1520533,53.5035733 48.93392,54.1355733 48.1520533,54.63744 C47.60592,55.0081067 46.8645867,55.31264 45.7744533,55.33504 C45.94832,54.8113067 46.0789867,54.2673067 46.0789867,53.7435733 C46.0789867,53.5691733 46.0565867,53.43744 46.0357867,53.2443733 L46.3184533,53.2443733 C48.0416533,53.2443733 48.7808533,52.5681067 48.9125867,52.5681067 Z M48.34672,27.5025067 C48.34672,27.06784 48.7376533,26.69664 49.17392,26.69664 C49.6528533,26.69664 50.0245867,27.06784 50.0245867,27.5025067 C50.0245867,28.00384 49.6528533,28.35264 49.17392,28.35264 C48.7376533,28.35264 48.34672,28.00384 48.34672,27.5025067 Z M9.57445333,14.81984 C9.57445333,14.81984 8.94352,15.2993067 8.15792,15.2993067 C7.22085333,15.2993067 6.47952,14.6011733 6.47952,13.62144 C6.47952,12.9457067 6.82725333,12.24864 7.63472,11.89984 C7.61338667,12.0305067 7.61338667,12.1393067 7.61338667,12.2699733 C7.61338667,13.51264 8.31098667,14.44864 9.57445333,14.81984 Z M14.23952,19.0049067 C13.7600533,19.57024 13.2576533,20.5297067 13.2576533,21.5115733 C13.2576533,22.6875733 13.9765867,23.6683733 15.0880533,23.6683733 C16.1568533,23.6683733 16.6581867,22.75264 16.6581867,21.81664 C16.6581867,20.35584 15.32752,19.3313067 14.23952,19.0049067 Z M11.9280533,15.4955733 C11.7984533,15.4737067 11.62352,15.4737067 11.44912,15.4737067 C10.7301867,15.4737067 9.77018667,15.6049067 8.92112,16.17184 C7.00218667,17.4139733 7.30725333,19.3745067 7.00218667,19.8763733 C6.95792,19.9483733 6.93498667,20.0321067 6.93712,20.1169067 C6.93712,20.31264 7.15525333,20.53024 7.35098667,20.53024 C7.52645333,20.53024 7.63472,20.4875733 7.72165333,20.4875733 C8.24538667,20.4875733 8.83365333,20.85824 9.68378667,20.85824 C10.1845867,20.85824 10.7733867,20.7051733 11.51472,20.3345067 C13.0837867,19.5499733 13.6949867,17.61024 13.6949867,17.2833067 C13.6949867,16.8689067 13.36752,16.9339733 13.08432,16.5419733 C12.77872,16.08544 12.93072,15.9115733 12.73552,15.64864 C12.6032533,15.5393067 12.3205867,15.5393067 11.9280533,15.4955733 Z M12.6912533,17.7841067 C12.6912533,18.0891733 12.51632,18.48224 12.16752,18.48224 C11.40592,18.48224 10.7952533,17.3259733 10.7952533,16.6721067 C10.7952533,16.2593067 11.03472,16.21504 11.3621867,16.21504 C11.5141867,16.21504 11.57872,16.2369067 11.68912,16.3019733 C11.88432,16.4113067 11.88432,16.8465067 12.1232533,17.17344 C12.2549867,17.3915733 12.6912533,17.6315733 12.6912533,17.7841067 Z M10.1189867,19.8331733 C9.40005333,19.8331733 8.61605333,18.93984 8.61605333,18.13344 C8.61605333,17.6971733 8.94352,17.1515733 9.18085333,17.1515733 C9.26885333,17.1515733 9.31258667,17.2171733 9.33445333,17.3697067 C9.46512,18.4385067 10.1632533,19.04864 10.81712,19.35264 C10.88272,19.3963733 10.9264533,19.4187733 10.9264533,19.4619733 C10.9264533,19.6145067 10.51152,19.8331733 10.1189867,19.8331733 Z M11.9717867,14.3403733 C12.0997867,13.9313067 12.16592,13.5051733 12.16752,13.0763733 C12.16752,12.02944 11.68912,10.4395733 10.20592,10.4395733 C9.35578667,10.4395733 8.74672,11.11424 8.74672,11.9211733 C8.74725333,13.64384 10.46832,14.3403733 11.9717867,14.3403733 Z M58.78672,32.1025067 C59.13552,31.01184 59.5701867,30.2481067 60.2880533,29.0721067 C59.5701867,28.7019733 57.6752533,27.91744 57.6752533,26.6321067 C57.6752533,25.12864 59.5509867,23.95264 59.9397867,23.95264 C60.11472,23.95264 60.1584533,24.1051733 60.1584533,24.3889067 C60.1584533,25.1723733 59.78672,26.4363733 59.78672,27.1115733 C59.78672,27.72064 60.1797867,28.3099733 60.52752,28.3099733 C60.89872,28.3099733 61.92272,27.00224 61.92272,25.7169067 C61.92272,23.40704 59.89552,22.7099733 59.2661867,22.7099733 C58.6768533,22.7099733 57.6085867,23.6683733 55.10032,23.6683733 C50.4149867,23.6683733 49.3477867,19.0257067 49.3477867,16.99904 C49.3477867,16.9121067 49.3680533,16.89024 49.3904533,16.89024 C49.50032,16.89024 49.95792,17.45664 51.43952,17.45664 C52.2032533,17.45664 52.9008533,17.2609067 54.0128533,17.2609067 C56.62672,17.2609067 57.78352,19.0705067 59.39632,21.3809067 C60.3749867,21.9899733 62.7072533,22.9713067 62.7072533,25.7387733 C62.7072533,28.1787733 60.1136533,29.5307733 59.4832533,32.1451733 C60.48432,32.03744 61.0736533,30.24864 62.0981867,30.24864 C62.62192,30.24864 62.8608533,30.6635733 62.8608533,31.3169067 C62.8608533,32.27744 62.31632,33.7147733 61.2688533,34.60864 C61.2912533,34.5211733 61.2912533,34.41184 61.2912533,34.2817067 C61.2912533,33.67104 61.0512533,32.7995733 60.35312,32.7995733 C59.2661867,32.7995733 58.9173867,33.9761067 58.3056533,34.9569067 C57.67472,32.7339733 56.8229867,30.72864 55.2976533,29.5089067 C53.75152,28.2657067 51.0912533,28.9419733 51.0912533,26.67584 C51.0912533,26.0651733 51.4832533,25.1937067 51.4832533,24.4971733 C51.4832533,24.25824 51.43952,24.0395733 51.3088533,23.8651733 C53.4016533,24.64864 52.66032,26.0433067 53.9472533,27.4811733 C54.75152,28.3969067 56.97552,29.2683733 58.2629867,33.0385067 C58.2832533,32.93024 58.30512,32.64704 58.30512,32.4513067 C58.30512,29.22624 54.03472,26.0657067 53.6640533,24.7585067 C56.1461867,25.04224 56.5829867,25.6523733 57.7605867,28.9201067 C58.00112,29.5963733 58.78672,31.2737067 58.78672,32.1025067 Z M29.0373867,7.01770667 C29.0373867,5.70944 25.4640533,3.29024 25.4640533,2.31104 C25.4640533,2.26730667 25.4640533,2.24490667 25.4848533,2.20117333 C25.74672,1.48170667 28.70992,0.980373333 28.70992,0.391573333 C28.70992,0.10784 28.1877867,0.10784 27.9264533,0.10784 C25.8981867,0.10784 22.9349867,0.849173333 22.9349867,1.56917333 C22.9349867,2.31104 25.5941867,4.11957333 25.5941867,5.01344 C25.5941867,5.25290667 25.4421867,5.34090667 25.20272,5.34090667 C24.46192,5.34090667 22.84752,4.44650667 22.08592,4.44650667 C21.7365867,4.44650667 21.6069867,4.68597333 21.6069867,5.03477333 C21.6069867,6.08010667 22.84752,8.06464 22.84752,8.65237333 C22.84752,8.71744 22.8261867,8.80490667 22.7397867,8.80490667 C22.3477867,8.80490667 20.4949867,6.62570667 19.8416533,6.62570667 C19.6016533,6.62570667 19.5792533,6.95317333 19.5792533,7.43210667 L19.5792533,8.17344 C19.5792533,8.67370667 19.5573867,8.97877333 19.31792,8.97877333 C18.7509867,8.97877333 18.48912,7.38837333 17.9445867,7.38837333 C17.37712,7.38837333 17.26992,10.2225067 16.7248533,10.2225067 C16.0928533,10.2225067 16.6368533,7.10464 16.0261867,7.10464 C15.3509867,7.10464 14.5872533,9.17557333 14.1093867,9.17557333 C13.9344533,9.17557333 13.89072,9.00064 13.89072,8.84757333 C13.89072,8.21717333 14.26192,7.19210667 14.26192,6.58197333 C14.26192,6.27637333 14.1744533,6.10250667 13.9125867,6.10250667 C13.2368533,6.10250667 11.7557867,7.19264 11.18832,7.19264 C11.1013867,7.19264 10.9925867,7.14890667 10.9925867,7.06090667 C10.9925867,6.53770667 13.3685867,4.88224 13.3685867,4.14090667 C13.3685867,3.42144 10.09872,3.90090667 10.09872,3.07210667 C10.09872,2.37610667 12.4304533,1.65610667 12.4304533,0.936106667 C12.4304533,0.30464 9.66245333,0.0219733333 8.59578667,0.0219733333 C7.30885333,0.0219733333 6.61125333,0.17344 6.61125333,0.54464 C6.61125333,1.11104 9.53178667,1.28597333 9.53178667,1.78677333 C9.53178667,2.26730667 6.50245333,3.55210667 6.50245333,4.29344 C6.50245333,4.94677333 10.7744533,4.33610667 10.7744533,5.01290667 C10.7744533,5.75317333 7.04698667,8.95637333 7.04698667,10.0257067 C7.04698667,10.2657067 7.22192,10.3745067 7.46032,10.3745067 C8.59525333,10.3745067 11.53712,8.21717333 12.3424533,8.21717333 C12.6256533,8.21717333 12.6480533,8.56490667 12.6480533,8.86944 C12.6480533,9.43690667 12.45232,10.3083733 12.45232,10.9409067 C12.45232,11.4417067 12.5824533,11.7899733 13.0192533,11.7899733 C13.82512,11.7899733 14.56592,10.4177067 15.1104533,10.4177067 C15.8085867,10.4177067 15.3936533,14.4481067 16.44112,14.4481067 C17.3328533,14.4481067 17.7040533,10.09024 18.2709867,10.09024 C18.8384533,10.09024 19.2960533,11.3537067 19.8192533,11.3537067 C20.4720533,11.3537067 20.1669867,9.15210667 20.8645867,9.15210667 C21.6272533,9.15210667 23.8064533,11.7675733 24.7872533,11.7675733 C25.0928533,11.7675733 25.2021867,11.5275733 25.2021867,11.2225067 C25.2021867,10.0683733 23.5893867,7.45290667 23.5893867,6.62410667 C23.5893867,6.40597333 23.65392,6.34037333 23.8944533,6.34037333 C24.7440533,6.34037333 27.2288533,7.51850667 28.4053867,7.51850667 C28.7968533,7.51957333 29.0373867,7.30144 29.0373867,7.01770667 Z M26.7696533,2.70197333 C26.7696533,3.09450667 28.14352,3.94517333 28.7749867,3.94517333 C29.1456533,3.94517333 29.2544533,3.44330667 29.2544533,2.91957333 C29.2544533,2.26730667 28.97072,2.24437333 28.40432,2.24437333 C27.6864533,2.24437333 26.7696533,2.44117333 26.7696533,2.70197333 Z M55.0581867,42.04064 C54.7525867,42.04064 54.42512,42.2811733 54.42512,42.8673067 C54.42512,43.52224 54.9280533,43.9361067 55.21072,44.0667733 C55.4037867,44.1761067 55.6208533,44.23584 55.84272,44.2411733 C56.4752533,44.2411733 56.9760533,44.0667733 56.9760533,43.5435733 C56.9760533,42.8673067 55.9957867,42.04064 55.0581867,42.04064 Z M52.7056533,43.3915733 C52.2469867,43.3915733 49.71792,46.77024 48.0848533,46.77024 C47.6928533,46.77024 47.3653867,46.02944 47.3653867,45.46304 C47.3653867,45.15744 47.56112,44.93824 48.2608533,44.7873067 C52.0080533,43.93664 51.17872,41.1259733 54.3813867,41.1259733 C56.1477867,41.1259733 58.1104533,42.3259733 58.1104533,45.0273067 C58.1104533,47.9025067 54.01392,51.47904 53.4032533,51.47904 C52.90192,51.47904 52.3568533,50.75904 52.3568533,50.2795733 C52.3568533,50.1265067 52.4224533,49.9313067 52.85872,49.75584 C54.9493867,48.9265067 56.14832,47.0107733 56.14832,46.02944 C56.14832,45.81184 56.0400533,45.5937067 55.75632,45.5937067 C55.38512,45.5937067 53.7957867,49.2107733 52.0304533,49.2107733 C50.8085867,49.2107733 49.5664533,48.0993067 49.5664533,47.5777067 C49.5664533,46.7051733 53.0976533,45.0913067 53.0976533,43.8705067 C53.0965867,43.4129067 52.87952,43.3915733 52.7056533,43.3915733 Z M21.6485867,0.47904 C21.6485867,0.34784 20.9952533,0.217173333 20.1008533,0.217173333 C18.6848533,0.217173333 18.8816533,1.39477333 17.79152,1.39477333 C16.65872,1.39477333 16.94192,0.173973333 15.50352,0.173973333 C14.6309867,0.173973333 13.8256533,0.32704 13.8256533,0.522773333 C13.8256533,0.78464 14.84912,0.67584 14.84912,1.39530667 C14.84912,2.15850667 12.6485867,2.37717333 12.6485867,2.83317333 C12.6485867,2.98570667 12.8229867,3.05130667 13.04112,3.05130667 C13.5200533,3.05130667 14.2837867,2.83317333 14.82672,2.83317333 C15.1328533,2.83317333 15.4160533,2.89930667 15.4160533,3.18250667 C15.4160533,3.72757333 14.2405867,4.70837333 14.2405867,5.14464 C14.2405867,5.27637333 14.3493867,5.31957333 14.4581867,5.31957333 C14.8933867,5.31957333 15.63472,4.20704 16.33232,4.20704 C17.4869867,4.20704 16.7253867,6.66997333 17.3557867,6.66997333 C18.0096533,6.66997333 17.7264533,4.25077333 18.6640533,4.25077333 C19.4272533,4.25077333 19.99472,5.92917333 20.5168533,5.92917333 C20.6469867,5.92917333 20.75632,5.82037333 20.75632,5.66730667 C20.75632,5.21024 20.10192,4.27264 20.10192,3.66197333 C20.10192,3.29130667 20.3637867,3.11690667 20.7125867,3.11690667 C21.2144533,3.11690667 21.8901867,3.42250667 22.26032,3.42250667 C22.39152,3.42250667 22.5216533,3.37877333 22.5216533,3.22570667 C22.5216533,2.70250667 20.58192,2.13664 20.58192,1.46037333 C20.5808533,0.784106667 21.6485867,0.784106667 21.6485867,0.47904 Z M27.1189867,13.46944 C28.5557867,13.46944 29.21072,14.7115733 29.21072,16.10624 C29.21072,16.7163733 29.0368533,17.6097067 28.7536533,17.6097067 C28.46992,17.6097067 28.5136533,17.1083733 28.46992,16.65024 C28.42672,16.06304 28.3173867,15.93184 28.1221867,15.93184 C27.7520533,15.93184 27.5120533,16.8027733 27.5120533,17.6097067 C27.5120533,18.1115733 27.59792,18.6779733 27.9909867,18.6779733 C28.2080533,18.6779733 28.4048533,18.56864 28.53552,18.4385067 C28.4480533,19.44064 27.7077867,20.3121067 26.66192,20.3121067 C24.7429867,20.3121067 24.0240533,18.0673067 23.80592,16.7595733 C22.65232,17.9803733 21.58352,18.87424 19.66512,18.87424 C17.8784533,18.87424 17.0725867,17.5665067 17.0725867,16.3243733 C17.0725867,15.9531733 17.2032533,14.99424 17.6592533,14.99424 C18.2048533,14.99424 17.72432,16.78144 18.7936533,16.78144 C19.0549867,16.78144 19.5344533,16.56384 19.79632,15.8449067 C19.9488533,15.4091733 20.0352533,14.95104 20.0352533,14.5579733 C20.0352533,13.9691733 19.90512,13.6001067 19.4688533,13.6001067 C19.0976533,13.6001067 18.6400533,13.8827733 18.48752,14.0347733 C19.01072,12.46624 20.2741867,11.6593067 21.6693867,11.6593067 C23.39152,11.6593067 24.3072533,13.1857067 24.3072533,14.88544 C24.30672,15.13344 24.2848533,15.38144 24.2416533,15.62624 C24.9840533,14.40544 26.0080533,13.46944 27.1189867,13.46944 Z M39.49712,57.2753067 C40.5429867,57.2753067 40.4773867,57.18784 40.80592,57.18784 C41.1328533,57.18784 41.15312,57.3841067 41.15312,57.51424 C41.15312,57.9947733 40.0848533,58.5825067 38.18992,58.5825067 C37.0768533,58.5825067 36.4021867,57.9947733 36.2069867,57.3403733 C35.1157867,58.0379733 33.4608533,58.6699733 31.8272533,58.6699733 C27.3589867,58.6699733 26.2245867,56.7297067 24.8304533,56.0971733 C23.76272,55.6177067 22.1280533,56.5547733 19.8405867,54.0043733 C20.1440533,54.06944 20.5584533,54.0913067 20.8864533,54.0913067 C22.8912533,54.0913067 23.9589867,53.1121067 23.9589867,51.5435733 C23.9589867,51.3467733 23.9376533,51.1281067 23.9157867,50.9329067 C24.5264533,51.17184 25.9205867,52.2193067 26.2469867,54.0699733 C26.29072,54.2881067 27.1845867,54.4843733 27.7520533,54.4843733 C28.53552,54.4843733 29.53872,54.1569067 29.6912533,52.87264 C32.30672,52.6555733 34.0704533,51.1067733 34.44112,49.14464 C35.37872,49.45024 36.4453867,50.3003733 36.7077867,50.73664 C37.0773867,50.6049067 37.5136533,50.5403733 38.01552,50.5403733 C38.71312,50.5403733 39.49712,50.6715733 40.43472,50.9553067 C40.47792,50.6715733 40.52272,50.3227733 40.9589867,50.3227733 C41.61232,50.3227733 41.43792,51.04224 41.65552,51.4561067 C41.7648533,51.67424 42.3088533,51.8043733 42.3088533,52.2417067 C42.3088533,52.6561067 41.9600533,52.8081067 41.7429867,52.8081067 C41.65552,52.8081067 41.54672,52.7867733 41.48112,52.7649067 C41.0453867,52.9179733 41.0229867,56.0545067 39.1920533,56.0545067 C37.84112,56.0545067 36.5984533,54.94304 36.0549867,53.54784 C35.90192,53.1345067 35.5749867,52.8731733 35.2693867,52.8731733 C34.9200533,52.8731733 34.7248533,52.93984 34.3104533,53.39584 C33.1349867,54.6817067 31.17392,55.7931733 28.75472,55.7931733 C28.01392,55.7931733 27.4256533,55.7281067 27.2720533,55.7281067 C27.18512,55.7281067 27.18512,55.7499733 27.18512,55.77184 C27.18512,55.9243733 27.9264533,56.51264 29.5392533,56.51264 C33.3744533,56.51264 34.3104533,54.35424 34.9205867,54.35424 C35.00912,54.35424 35.26992,54.35424 35.4224533,54.70304 C36.31632,56.7963733 38.2560533,57.2763733 39.47632,57.2763733 L39.49712,57.2763733 L39.49712,57.2753067 Z M6.32805333,23.0587733 C6.32805333,24.7147733 6.82725333,25.4993067 7.72218667,25.4993067 C8.41978667,25.4993067 9.35685333,24.9979733 10.4688533,24.0395733 C9.61818667,24.23584 8.96538667,24.3665067 8.37658667,24.3665067 C7.59152,24.3665067 6.98085333,24.06144 6.32805333,23.0587733 Z M7.08965333,21.11904 C7.06832,21.2273067 7.06832,21.33664 7.06832,21.44544 C7.06832,22.46944 7.61338667,23.0363733 8.33338667,23.0363733 C8.87738667,23.0363733 9.50938667,22.70944 10.0757867,21.98944 C9.81712,22.0337067 9.55418667,22.0561067 9.29178667,22.05504 C8.48485333,22.0555733 7.61338667,21.8385067 7.08965333,21.11904 Z M12.4293867,20.8139733 C11.9280533,20.94464 10.88272,21.5553067 10.88272,22.6443733 C10.88272,23.42944 11.49232,23.9313067 12.2549867,23.9313067 C12.64752,23.9313067 12.93072,23.8433067 13.10512,23.71264 C12.4949867,23.1243733 12.2768533,22.4699733 12.2768533,21.8171733 C12.2768533,21.35904 12.34192,21.0753067 12.4293867,20.8139733 Z M14.6080533,44.50304 C13.88912,44.6779733 12.7344533,45.8113067 12.7344533,47.6001067 C12.7344533,49.73344 15.0224533,53.0257067 18.7936533,53.0257067 C21.97552,53.0257067 22.7589867,50.8235733 22.7589867,49.3409067 C22.7589867,46.0513067 20.73232,43.73984 18.0960533,43.73984 C16.65712,43.73984 15.3712533,44.7867733 15.3712533,46.3339733 C15.3712533,47.77344 16.4608533,49.93024 19.0544533,49.93024 C20.2741867,49.93024 20.9936533,49.0571733 20.9936533,48.0545067 C20.9936533,47.07584 20.0992533,45.72384 18.7925867,45.72384 C18.39952,45.72384 18.11632,45.9851733 18.11632,46.4001067 C18.11632,46.9227733 18.83632,47.4459733 19.7301867,47.4459733 C19.94832,47.4459733 20.12112,47.4027733 20.20912,47.3585067 C20.2528533,47.4241067 20.2741867,47.53344 20.2741867,47.6209067 C20.2741867,48.1201067 19.7957867,48.4251733 19.0544533,48.4251733 C17.9424533,48.4251733 16.8752533,47.59904 16.8752533,46.29024 C16.8752533,45.5051733 17.54992,44.9377067 18.5312533,44.9377067 C20.46992,44.9377067 21.6261867,46.66144 21.6261867,48.3809067 C21.6261867,49.93024 20.77552,50.82304 19.0325867,50.82304 C15.5461867,50.8235733 13.8464533,47.6859733 14.6080533,44.50304 Z M47.1696533,11.7467733 C47.4528533,11.5723733 48.6720533,11.8555733 50.2645867,11.0705067 C50.4373867,10.97344 50.63152,10.9211733 50.82992,10.91904 C51.5941867,10.91904 51.3968533,11.7905067 52.0960533,11.7905067 C52.6405867,11.7905067 53.3381867,11.3329067 53.7525867,11.3329067 C54.4037867,11.3329067 55.3424533,13.3819733 55.3424533,14.3403733 C55.3424533,15.45184 53.66512,16.1275733 51.68112,16.1275733 C48.7813867,16.1275733 47.0389867,13.5995733 47.0389867,11.9643733 C47.0389867,11.8337067 47.1040533,11.7905067 47.1696533,11.7467733 Z M51.9205867,14.5147733 C52.8789867,14.5147733 53.5989867,14.0785067 53.5989867,13.8171733 C53.5989867,13.7297067 53.4677867,13.66624 53.1840533,13.66624 C52.9013867,13.66624 52.3333867,13.6443733 51.2656533,13.46944 C50.34992,13.3169067 49.6517867,12.96864 49.3904533,12.96864 C49.3024533,12.96864 49.2597867,13.0113067 49.2597867,13.0769067 C49.2608533,13.64384 50.3072533,14.5147733 51.9205867,14.5147733 Z M14.1520533,36.2865067 C15.06672,36.2865067 15.8304533,35.6107733 15.8304533,34.1073067 L15.8304533,31.8849067 C15.8304533,31.03424 15.8944533,30.0747733 16.46192,29.4001067 C16.3968533,29.68384 16.3968533,29.9889067 16.3968533,30.27104 C16.3968533,32.1457067 17.4421867,33.4321067 17.4421867,35.2417067 C17.4421867,35.9163733 17.2464533,36.28704 16.7237867,36.28704 C16.2213867,36.28704 16.2656533,35.82944 16.1568533,35.82944 C16.06992,35.82944 15.9392533,36.11264 15.9392533,36.4171733 C15.9392533,36.87584 16.2661867,37.5947733 17.18192,37.5947733 C17.9653867,37.5947733 18.59792,36.87584 18.59792,36.0683733 C18.59792,34.10784 17.0736533,31.9291733 17.0736533,29.8363733 C17.0736533,28.92064 17.31152,28.31104 17.50832,27.8305067 C17.50832,32.16864 21.19152,35.3291733 21.19152,37.1377067 C21.19152,37.5515733 20.8864533,37.87904 20.42832,37.87904 C19.9285867,37.87904 19.6880533,37.4865067 19.6880533,37.1809067 C19.6880533,37.02784 19.6661867,36.9851733 19.60112,36.9851733 C19.46992,36.9851733 19.0773867,37.4209067 19.0773867,37.98784 C19.0773867,38.7057067 19.6656533,39.57824 20.7557867,39.57824 C21.99792,39.57824 22.67472,38.53184 22.67472,37.5947733 C22.67472,35.3067733 18.20592,31.84064 18.20592,28.1355733 C18.20592,27.50304 18.31472,26.4795733 18.7728533,25.6955733 C15.8949867,27.5467733 15.0016533,30.0107733 15.0016533,32.1681067 C15.0016533,34.0417067 14.9360533,34.9793067 13.9776533,34.9793067 C13.4768533,34.9793067 13.3461867,34.5217067 13.1717867,34.5217067 C13.04112,34.5217067 12.9749867,34.9147733 12.9749867,35.02304 C12.97392,35.8289067 13.56272,36.2865067 14.1520533,36.2865067 Z M13.2144533,14.8417067 C13.21552,15.3227733 13.60592,15.71264 14.0869867,15.7137067 C14.5653867,15.7137067 14.9568533,15.3217067 14.9568533,14.8417067 C14.9568533,14.36224 14.5653867,13.9691733 14.0869867,13.9691733 C13.60592,13.97024 13.21552,14.3601067 13.2144533,14.8417067 Z M14.34832,16.8027733 C14.34832,17.2827733 14.7397867,17.6753067 15.21872,17.6753067 C15.70032,17.67424 16.0901867,17.2843733 16.0917867,16.8027733 C16.0896533,16.32224 15.6997867,15.93344 15.21872,15.93184 C14.7397867,15.93184 14.34832,16.3243733 14.34832,16.8027733 Z M37.79792,52.91744 C37.79792,53.3953067 38.18992,53.7873067 38.66992,53.7873067 C39.1477867,53.7873067 39.5408533,53.3953067 39.5408533,52.91744 C39.5397867,52.4363733 39.1509867,52.0465067 38.66992,52.0443733 C38.18992,52.0443733 37.79792,52.4363733 37.79792,52.91744 Z M40.6960533,20.7921067 C40.6960533,21.2715733 41.08912,21.66464 41.5685867,21.66464 C42.0496533,21.6625067 42.4384533,21.27264 42.43952,20.7921067 C42.43952,20.3121067 42.04752,19.9201067 41.5685867,19.9201067 C41.08752,19.9211733 40.6976533,20.31104 40.6960533,20.7921067 Z M39.9557867,23.8651733 C39.9557867,24.54144 40.5221867,25.1073067 41.19792,25.1073067 C41.87312,25.1073067 42.43952,24.54144 42.43952,23.8651733 C42.43952,23.18944 41.87312,22.6225067 41.19792,22.6225067 C40.5221867,22.6225067 39.9557867,23.18944 39.9557867,23.8651733 Z M42.70032,22.46944 C42.70032,23.2107733 43.28912,23.8001067 44.03152,23.8001067 C44.7616533,23.80384 45.35632,23.21504 45.3600533,22.48544 L45.3600533,22.46944 C45.36432,21.73984 44.77712,21.14464 44.04752,21.1403733 C44.0421867,21.13984 44.0368533,21.13984 44.03152,21.1403733 C43.3013867,21.13504 42.7056533,21.7227733 42.70032,22.45344 L42.70032,22.46944 Z M42.8096533,19.63584 C42.8101867,20.0939733 43.18192,20.46464 43.6400533,20.4635733 C44.0965867,20.46304 44.46672,20.0929067 44.4672533,19.63584 C44.4672533,19.17824 44.09712,18.8091733 43.6384533,18.8091733 C43.18032,18.8091733 42.8096533,19.17824 42.8096533,19.63584 Z M46.7557867,17.5441067 C46.7440533,18.0011733 47.1056533,18.38144 47.56272,18.3931733 C48.0197867,18.4049067 48.4000533,18.0433067 48.4117867,17.58624 C48.41232,17.5723733 48.41232,17.55904 48.4117867,17.5457067 C48.40112,17.08864 48.0213867,16.7259733 47.56432,16.7371733 C47.12272,16.7473067 46.7669867,17.1025067 46.7557867,17.5441067 Z M45.1205867,20.2251733 C45.12592,20.9937067 45.7472533,21.6155733 46.5157867,21.6203733 C47.2837867,21.61504 47.90512,20.9937067 47.90992,20.2251733 C47.9056533,19.4571733 47.2837867,18.8353067 46.5157867,18.8305067 C45.7472533,18.8353067 45.12592,19.4571733 45.1205867,20.2251733 Z M42.87472,25.3243733 C42.8752533,25.8065067 43.2656533,26.1969067 43.7477867,26.1963733 C44.2288533,26.19584 44.61872,25.8059733 44.6192533,25.3243733 C44.60272,24.8427733 44.1989867,24.4657067 43.7173867,24.4817067 C43.25872,24.4971733 42.8901867,24.8657067 42.87472,25.3243733 Z M45.73072,23.58144 C45.73072,24.0619733 46.12272,24.4539733 46.60272,24.4539733 C47.0821867,24.4539733 47.4752533,24.0619733 47.4752533,23.58144 C47.4752533,23.1019733 47.0821867,22.7099733 46.60272,22.7099733 C46.12272,22.7099733 45.73072,23.1019733 45.73072,23.58144 Z M44.9248533,26.6539733 C44.92592,27.48384 45.5984533,28.15584 46.4288533,28.15744 C47.2581867,28.1553067 47.9296533,27.4833067 47.9312533,26.6539733 C47.9296533,25.8241067 47.2576533,25.15264 46.4288533,25.1505067 C45.5984533,25.1515733 44.92592,25.8235733 44.9248533,26.6539733 Z M48.0629867,24.80064 C48.06192,25.3665067 48.51952,25.8257067 49.0853867,25.82624 C49.65072,25.8273067 50.10992,25.3697067 50.1109867,24.8043733 L50.1109867,24.8027733 C50.1109867,24.23744 49.6528533,23.7787733 49.0869867,23.77824 C48.5221867,23.77824 48.0640533,24.23584 48.0629867,24.80064 Z M47.99792,22.0555733 C47.99792,22.5569067 48.41232,22.9713067 48.9125867,22.9713067 C49.41712,22.9681067 49.82512,22.5595733 49.8277867,22.0555733 C49.8240533,21.5515733 49.4165867,21.1435733 48.9125867,21.1403733 C48.41232,21.1403733 47.99792,21.5553067 47.99792,22.0555733 Z M60.1584533,1.39477333 C60.15472,1.69237333 60.39312,1.93664 60.69072,1.93984 L60.7029867,1.93984 C61.0080533,1.93984 61.2485867,1.70090667 61.2485867,1.39477333 C61.2485867,1.08970667 61.0085867,0.849173333 60.7029867,0.849173333 C60.3973867,0.849173333 60.1584533,1.08970667 60.1584533,1.39477333 Z M11.6021867,41.36544 C11.6896533,42.1067733 12.3861867,42.6715733 13.17072,42.5851733 C13.45392,42.5627733 13.71632,42.47584 13.8896533,42.3659733 C14.0645867,43.06464 14.6085867,43.5003733 15.4149867,43.4129067 C16.2213867,43.34784 16.7888533,42.6715733 16.7013867,41.8667733 C16.7013867,41.6491733 16.63632,41.5185067 16.5712533,41.36544 L16.7237867,41.3435733 C17.48592,41.2561067 18.0741867,40.5585067 18.0085867,39.7953067 C17.9216533,39.01024 17.2032533,38.44384 16.46192,38.5089067 C16.1781867,38.57504 15.93872,38.66144 15.76432,38.8139733 C15.56752,38.1611733 15.0005867,37.6379733 14.1952533,37.7249067 C13.4320533,37.76864 12.8432533,38.5089067 12.93072,39.3153067 C12.93072,39.42464 12.97392,39.5995733 13.0400533,39.7515733 L12.8869867,39.7729067 C12.1237867,39.88224 11.5365867,40.5153067 11.6021867,41.36544 Z M14.0208533,40.6897067 C13.9984533,40.2539733 14.3040533,39.83904 14.76112,39.7953067 C15.21872,39.7297067 15.6336533,40.0785067 15.67632,40.5361067 C15.72112,40.9947733 15.39312,41.3873067 14.9349867,41.4523733 C14.4784533,41.4747733 14.0645867,41.1473067 14.0208533,40.6897067 Z M41.9813867,8.47744 C42.33072,8.47744 42.3968533,9.32810667 42.4613867,9.82944 C42.50512,10.0907733 42.54832,10.11264 42.6581867,10.11264 C42.91952,10.11264 43.3333867,9.10997333 43.6160533,9.10997333 C44.0320533,9.10997333 45.1429867,10.2657067 46.99472,10.2657067 C49.63152,10.2657067 52.1173867,8.41237333 52.1173867,5.14357333 C52.1173867,1.98304 49.8928533,0.13024 46.82032,0.13024 C45.3600533,0.13024 44.29232,0.849173333 43.7253867,0.849173333 C43.37712,0.87104 42.85392,0.000106666667 42.59152,0.000106666667 C42.4821867,0.000106666667 42.3744533,0.217173333 42.3744533,0.58784 C42.3744533,0.827306667 42.3744533,1.59104 42.1120533,1.59104 C41.5893867,1.59104 39.56272,0.0865066667 39.56272,0.632106667 C39.56272,1.13344 40.9141867,2.65984 40.9141867,3.05130667 C40.9141867,3.44384 39.58512,3.81397333 39.58512,4.07584 C39.58512,4.55584 41.0021867,4.64277333 41.0021867,5.25290667 C41.0021867,5.86197333 39.5184533,6.34197333 39.5184533,6.80010667 C39.5184533,7.17077333 41.0021867,6.90890667 41.0021867,7.36704 C41.0021867,7.82464 39.9120533,9.34944 39.9120533,9.78570667 C39.9120533,9.89557333 39.9333867,9.89557333 40.0213867,9.89557333 C40.4341867,9.89504 41.6773867,8.47744 41.9813867,8.47744 Z M8.59472,29.9009067 C9.33445333,29.9009067 9.18085333,25.3681067 10.38032,25.3681067 C10.6645867,25.3681067 10.75152,25.65184 10.75152,26.0001067 C10.75152,27.0241067 10.2501867,28.5281067 10.2501867,29.3563733 C10.2501867,29.77024 10.3589867,29.9009067 10.55472,29.9009067 C11.0784533,29.9009067 11.9936533,24.9105067 12.88752,24.9105067 C13.17072,24.9105067 13.3013867,25.1937067 13.3013867,25.47744 C13.3013867,26.5227733 11.9717867,29.5307733 11.9717867,30.3793067 C11.9717867,30.5105067 12.0160533,30.6193067 12.1237867,30.6193067 C12.6693867,30.6193067 13.7600533,28.2657067 14.10832,27.0891733 C14.3040533,26.47904 14.5653867,26.15264 14.8048533,26.15264 C15.0224533,26.15264 15.21872,26.39264 15.21872,26.89344 C15.21872,28.0699733 14.1301867,30.8379733 13.1701867,32.69024 C12.4288533,34.1281067 11.27472,36.1995733 11.27472,37.3553067 C11.27472,37.94304 11.3840533,38.5531733 12.2325867,39.2945067 C10.83792,39.2075733 10.2720533,39.0769067 9.74832,37.9873067 C7.41605333,42.62784 14.0421867,42.1723733 11.77552,46.2907733 C11.36272,45.5499733 8.09285333,44.7867733 8.09285333,40.4721067 C8.09285333,36.7441067 11.36272,34.56544 11.36272,33.0177067 C11.36272,32.71264 11.2528533,32.4513067 10.9701867,32.21184 C10.2501867,31.6017067 10.2288533,31.1003733 9.66192,31.1003733 C9.24805333,31.1003733 8.74725333,32.0593067 9.26938667,32.9083733 C9.44378667,33.1915733 9.59738667,33.36704 9.59738667,33.6283733 C9.59738667,34.23904 8.63898667,35.87264 7.96272,35.87264 C7.28698667,35.87264 6.76378667,34.1953067 6.76378667,31.4929067 C6.76378667,29.09504 7.30832,26.6769067 7.98458667,26.6769067 C8.18032,26.6769067 8.24592,26.8075733 8.24592,26.9819733 C8.24592,27.2651733 8.15845333,27.8305067 8.15845333,28.7899733 C8.15792,29.81344 8.39792,29.9009067 8.59472,29.9009067 Z M57.34672,12.8155733 C57.04272,12.8155733 56.6053867,12.8155733 56.36752,12.3361067 C56.1696533,11.9435733 56.2357867,11.3115733 55.86512,11.02784 C56.2357867,11.13664 56.6277867,11.13664 56.9328533,11.13664 C57.9141867,11.13664 58.8517867,10.4619733 59.5701867,10.4619733 C60.0496533,10.4619733 60.20112,10.76704 60.20112,11.07104 C60.20112,12.0299733 58.2640533,12.8155733 57.34672,12.8155733 Z M57.82672,15.2779733 C60.09232,15.2779733 62.16432,13.46944 62.16432,11.8779733 C62.16432,11.13664 61.8149867,10.52704 60.92112,10.41824 C61.0741867,10.6145067 61.1392533,10.76704 61.1392533,11.1147733 C61.1392533,12.31424 59.30992,13.6443733 57.3253867,13.6443733 C56.6053867,13.6443733 56.3877867,14.14464 56.3877867,14.4059733 C56.38832,15.0161067 56.9760533,15.2779733 57.82672,15.2779733 Z M57.6528533,16.1931733 C57.93552,18.2635733 61.0741867,21.05344 61.9232533,20.9883733 C62.4917867,20.9883733 62.70832,18.28544 62.70832,16.1931733 C62.70832,14.99424 62.7749867,14.05664 62.1424533,13.83904 C61.1397867,15.8667733 58.5024533,16.28064 57.6528533,16.1931733 Z" id="Fill-1" fill="#2267AE" mask="url(#mask-2)"></path>
        </g>
    </g>
</svg>