<?xml version="1.0" encoding="utf-8"?>
<!-- Generator: Adobe Illustrator 21.0.2, SVG Export Plug-In . SVG Version: 6.00 Build 0)  -->
<svg version="1.1" id="Layer_1" xmlns="http://www.w3.org/2000/svg" xmlns:xlink="http://www.w3.org/1999/xlink" x="0px" y="0px"
	 width="142px" height="139px" viewBox="0 0 142 139" style="enable-background:new 0 0 142 139;" xml:space="preserve">
<style type="text/css">
	.st0{fill:none;stroke:#9E9FA1;stroke-width:0.5;stroke-miterlimit:10;}
</style>
<g>
	<path class="st0" d="M112.8,18.3c-6,0-9.2-2.3-11.9-4.2c-2.6-1.8-4.8-3.4-9.4-3.4c-4.6,0-6.8,1.6-9.4,3.4c-2.8,2-5.9,4.2-11.9,4.2
		c-6,0-9.2-2.3-11.9-4.2c-2.6-1.8-4.8-3.4-9.4-3.4c-4.6,0-6.8,1.6-9.4,3.4c-2.8,2-5.9,4.2-11.9,4.2c-6,0-9.2-2.3-11.9-4.2
		c-2.6-1.8-4.8-3.4-9.4-3.4V6.2c6,0,9.2,2.3,11.9,4.2c2.6,1.8,4.8,3.4,9.4,3.4c4.6,0,6.8-1.6,9.4-3.4c2.8-2,5.9-4.2,11.9-4.2
		c6,0,9.2,2.3,11.9,4.2c2.6,1.8,4.8,3.4,9.4,3.4s6.8-1.6,9.4-3.4c2.8-2,5.9-4.2,11.9-4.2c6,0,9.2,2.3,11.9,4.2
		c2.6,1.8,4.8,3.4,9.4,3.4c4.6,0,6.8-1.6,9.4-3.4c2.8-2,5.9-4.2,11.9-4.2v4.5c-4.6,0-6.8,1.6-9.4,3.4
		C122,16.1,118.9,18.3,112.8,18.3z"/>
	<path class="st0" d="M112.8,28.9c-6,0-9.2-2.3-11.9-4.2c-2.6-1.8-4.8-3.4-9.4-3.4c-4.6,0-6.8,1.6-9.4,3.4c-2.8,2-5.9,4.2-11.9,4.2
		c-6,0-9.2-2.3-11.9-4.2c-2.6-1.8-4.8-3.4-9.4-3.4c-4.6,0-6.8,1.6-9.4,3.4c-2.8,2-5.9,4.2-11.9,4.2c-6,0-9.2-2.3-11.9-4.2
		c-2.6-1.8-4.8-3.4-9.4-3.4v-4.5c6,0,9.2,2.3,11.9,4.2c2.6,1.8,4.8,3.4,9.4,3.4c4.6,0,6.8-1.6,9.4-3.4c2.8-2,5.9-4.2,11.9-4.2
		c6,0,9.2,2.3,11.9,4.2c2.6,1.8,4.8,3.4,9.4,3.4s6.8-1.6,9.4-3.4c2.8-2,5.9-4.2,11.9-4.2c6,0,9.2,2.3,11.9,4.2
		c2.6,1.8,4.8,3.4,9.4,3.4c4.6,0,6.8-1.6,9.4-3.4c2.8-2,5.9-4.2,11.9-4.2v4.5c-4.6,0-6.8,1.6-9.4,3.4
		C122,26.6,118.9,28.9,112.8,28.9z"/>
	<path class="st0" d="M112.8,39.4c-6,0-9.2-2.3-11.9-4.2c-2.6-1.8-4.8-3.4-9.4-3.4c-4.6,0-6.8,1.6-9.4,3.4c-2.8,2-5.9,4.2-11.9,4.2
		c-6,0-9.2-2.3-11.9-4.2c-2.6-1.8-4.8-3.4-9.4-3.4c-4.6,0-6.8,1.6-9.4,3.4c-2.8,2-5.9,4.2-11.9,4.2c-6,0-9.2-2.3-11.9-4.2
		c-2.6-1.8-4.8-3.4-9.4-3.4v-4.5c6,0,9.2,2.3,11.9,4.2c2.6,1.8,4.8,3.4,9.4,3.4c4.6,0,6.8-1.6,9.4-3.4c2.8-2,5.9-4.2,11.9-4.2
		c6,0,9.2,2.3,11.9,4.2c2.6,1.8,4.8,3.4,9.4,3.4s6.8-1.6,9.4-3.4c2.8-2,5.9-4.2,11.9-4.2c6,0,9.2,2.3,11.9,4.2
		c2.6,1.8,4.8,3.4,9.4,3.4c4.6,0,6.8-1.6,9.4-3.4c2.8-2,5.9-4.2,11.9-4.2v4.5c-4.6,0-6.8,1.6-9.4,3.4
		C122,37.1,118.9,39.4,112.8,39.4z"/>
	<path class="st0" d="M112.8,49.9c-6,0-9.2-2.3-11.9-4.2c-2.6-1.8-4.8-3.4-9.4-3.4c-4.6,0-6.8,1.6-9.4,3.4c-2.8,2-5.9,4.2-11.9,4.2
		c-6,0-9.2-2.3-11.9-4.2c-2.6-1.8-4.8-3.4-9.4-3.4c-4.6,0-6.8,1.6-9.4,3.4c-2.8,2-5.9,4.2-11.9,4.2c-6,0-9.2-2.3-11.9-4.2
		c-2.6-1.8-4.8-3.4-9.4-3.4v-4.5c6,0,9.2,2.3,11.9,4.2c2.6,1.8,4.8,3.4,9.4,3.4c4.6,0,6.8-1.6,9.4-3.4c2.8-2,5.9-4.2,11.9-4.2
		c6,0,9.2,2.3,11.9,4.2c2.6,1.8,4.8,3.4,9.4,3.4s6.8-1.6,9.4-3.4c2.8-2,5.9-4.2,11.9-4.2c6,0,9.2,2.3,11.9,4.2
		c2.6,1.8,4.8,3.4,9.4,3.4c4.6,0,6.8-1.6,9.4-3.4c2.8-2,5.9-4.2,11.9-4.2v4.5c-4.6,0-6.8,1.6-9.4,3.4
		C122,47.7,118.9,49.9,112.8,49.9z"/>
	<path class="st0" d="M112.8,60.4c-6,0-9.2-2.3-11.9-4.2c-2.6-1.8-4.8-3.4-9.4-3.4c-4.6,0-6.8,1.6-9.4,3.4c-2.8,2-5.9,4.2-11.9,4.2
		c-6,0-9.2-2.3-11.9-4.2c-2.6-1.8-4.8-3.4-9.4-3.4c-4.6,0-6.8,1.6-9.4,3.4c-2.8,2-5.9,4.2-11.9,4.2c-6,0-9.2-2.3-11.9-4.2
		c-2.6-1.8-4.8-3.4-9.4-3.4v-4.5c6,0,9.2,2.3,11.9,4.2c2.6,1.8,4.8,3.4,9.4,3.4c4.6,0,6.8-1.6,9.4-3.4c2.8-2,5.9-4.2,11.9-4.2
		c6,0,9.2,2.3,11.9,4.2c2.6,1.8,4.8,3.4,9.4,3.4s6.8-1.6,9.4-3.4c2.8-2,5.9-4.2,11.9-4.2c6,0,9.2,2.3,11.9,4.2
		c2.6,1.8,4.8,3.4,9.4,3.4c4.6,0,6.8-1.6,9.4-3.4c2.8-2,5.9-4.2,11.9-4.2v4.5c-4.6,0-6.8,1.6-9.4,3.4
		C122,58.2,118.9,60.4,112.8,60.4z"/>
	<path class="st0" d="M112.8,71c-6,0-9.2-2.3-11.9-4.2c-2.6-1.8-4.8-3.4-9.4-3.4c-4.6,0-6.8,1.6-9.4,3.4c-2.8,2-5.9,4.2-11.9,4.2
		c-6,0-9.2-2.3-11.9-4.2c-2.6-1.8-4.8-3.4-9.4-3.4c-4.6,0-6.8,1.6-9.4,3.4c-2.8,2-5.9,4.2-11.9,4.2c-6,0-9.2-2.3-11.9-4.2
		c-2.6-1.8-4.8-3.4-9.4-3.4v-4.5c6,0,9.2,2.3,11.9,4.2c2.6,1.8,4.8,3.4,9.4,3.4c4.6,0,6.8-1.6,9.4-3.4c2.8-2,5.9-4.2,11.9-4.2
		c6,0,9.2,2.3,11.9,4.2c2.6,1.8,4.8,3.4,9.4,3.4s6.8-1.6,9.4-3.4c2.8-2,5.9-4.2,11.9-4.2c6,0,9.2,2.3,11.9,4.2
		c2.6,1.8,4.8,3.4,9.4,3.4c4.6,0,6.8-1.6,9.4-3.4c2.8-2,5.9-4.2,11.9-4.2v4.5c-4.6,0-6.8,1.6-9.4,3.4C122,68.7,118.9,71,112.8,71z"
		/>
	<path class="st0" d="M112.8,81.5c-6,0-9.2-2.3-11.9-4.2c-2.6-1.8-4.8-3.4-9.4-3.4c-4.6,0-6.8,1.6-9.4,3.4c-2.8,2-5.9,4.2-11.9,4.2
		c-6,0-9.2-2.3-11.9-4.2c-2.6-1.8-4.8-3.4-9.4-3.4c-4.6,0-6.8,1.6-9.4,3.4c-2.8,2-5.9,4.2-11.9,4.2c-6,0-9.2-2.3-11.9-4.2
		c-2.6-1.8-4.8-3.4-9.4-3.4v-4.5c6,0,9.2,2.3,11.9,4.2c2.6,1.8,4.8,3.4,9.4,3.4c4.6,0,6.8-1.6,9.4-3.4c2.8-2,5.9-4.2,11.9-4.2
		c6,0,9.2,2.3,11.9,4.2c2.6,1.8,4.8,3.4,9.4,3.4c4.6,0,6.8-1.6,9.4-3.4c2.8-2,5.9-4.2,11.9-4.2c6,0,9.2,2.3,11.9,4.2
		c2.6,1.8,4.8,3.4,9.4,3.4c4.6,0,6.8-1.6,9.4-3.4c2.8-2,5.9-4.2,11.9-4.2v4.5c-4.6,0-6.8,1.6-9.4,3.4
		C122,79.3,118.9,81.5,112.8,81.5z"/>
	<path class="st0" d="M112.8,92c-6,0-9.2-2.3-11.9-4.2c-2.6-1.8-4.8-3.4-9.4-3.4c-4.6,0-6.8,1.6-9.4,3.4c-2.8,2-5.9,4.2-11.9,4.2
		c-6,0-9.2-2.3-11.9-4.2c-2.6-1.8-4.8-3.4-9.4-3.4c-4.6,0-6.8,1.6-9.4,3.4c-2.8,2-5.9,4.2-11.9,4.2c-6,0-9.2-2.3-11.9-4.2
		c-2.6-1.8-4.8-3.4-9.4-3.4v-4.5c6,0,9.2,2.3,11.9,4.2c2.6,1.8,4.8,3.4,9.4,3.4c4.6,0,6.8-1.6,9.4-3.4c2.8-2,5.9-4.2,11.9-4.2
		c6,0,9.2,2.3,11.9,4.2c2.6,1.8,4.8,3.4,9.4,3.4c4.6,0,6.8-1.6,9.4-3.4c2.8-2,5.9-4.2,11.9-4.2c6,0,9.2,2.3,11.9,4.2
		c2.6,1.8,4.8,3.4,9.4,3.4c4.6,0,6.8-1.6,9.4-3.4c2.8-2,5.9-4.2,11.9-4.2v4.5c-4.6,0-6.8,1.6-9.4,3.4C122,89.8,118.9,92,112.8,92z"
		/>
	<path class="st0" d="M112.8,102.6c-6,0-9.2-2.3-11.9-4.2c-2.6-1.8-4.8-3.4-9.4-3.4c-4.6,0-6.8,1.6-9.4,3.4c-2.8,2-5.9,4.2-11.9,4.2
		c-6,0-9.2-2.3-11.9-4.2c-2.6-1.8-4.8-3.4-9.4-3.4c-4.6,0-6.8,1.6-9.4,3.4c-2.8,2-5.9,4.2-11.9,4.2c-6,0-9.2-2.3-11.9-4.2
		c-2.6-1.8-4.8-3.4-9.4-3.4v-4.5c6,0,9.2,2.3,11.9,4.2c2.6,1.8,4.8,3.4,9.4,3.4c4.6,0,6.8-1.6,9.4-3.4c2.8-2,5.9-4.2,11.9-4.2
		c6,0,9.2,2.3,11.9,4.2c2.6,1.8,4.8,3.4,9.4,3.4c4.6,0,6.8-1.6,9.4-3.4c2.8-2,5.9-4.2,11.9-4.2c6,0,9.2,2.3,11.9,4.2
		c2.6,1.8,4.8,3.4,9.4,3.4c4.6,0,6.8-1.6,9.4-3.4c2.8-2,5.9-4.2,11.9-4.2v4.5c-4.6,0-6.8,1.6-9.4,3.4
		C122,100.3,118.9,102.6,112.8,102.6z"/>
	<path class="st0" d="M112.8,113.1c-6,0-9.2-2.3-11.9-4.2c-2.6-1.8-4.8-3.4-9.4-3.4c-4.6,0-6.8,1.6-9.4,3.4c-2.8,2-5.9,4.2-11.9,4.2
		c-6,0-9.2-2.3-11.9-4.2c-2.6-1.8-4.8-3.4-9.4-3.4c-4.6,0-6.8,1.6-9.4,3.4c-2.8,2-5.9,4.2-11.9,4.2c-6,0-9.2-2.3-11.9-4.2
		c-2.6-1.8-4.8-3.4-9.4-3.4v-4.5c6,0,9.2,2.3,11.9,4.2c2.6,1.8,4.8,3.4,9.4,3.4c4.6,0,6.8-1.6,9.4-3.4c2.8-2,5.9-4.2,11.9-4.2
		c6,0,9.2,2.3,11.9,4.2c2.6,1.8,4.8,3.4,9.4,3.4c4.6,0,6.8-1.6,9.4-3.4c2.8-2,5.9-4.2,11.9-4.2c6,0,9.2,2.3,11.9,4.2
		c2.6,1.8,4.8,3.4,9.4,3.4c4.6,0,6.8-1.6,9.4-3.4c2.8-2,5.9-4.2,11.9-4.2v4.5c-4.6,0-6.8,1.6-9.4,3.4
		C122,110.8,118.9,113.1,112.8,113.1z"/>
	<path class="st0" d="M112.8,123.6c-6,0-9.2-2.3-11.9-4.2c-2.6-1.8-4.8-3.4-9.4-3.4c-4.6,0-6.8,1.6-9.4,3.4c-2.8,2-5.9,4.2-11.9,4.2
		c-6,0-9.2-2.3-11.9-4.2c-2.6-1.8-4.8-3.4-9.4-3.4c-4.6,0-6.8,1.6-9.4,3.4c-2.8,2-5.9,4.2-11.9,4.2c-6,0-9.2-2.3-11.9-4.2
		c-2.6-1.8-4.8-3.4-9.4-3.4v-4.5c6,0,9.2,2.3,11.9,4.2c2.6,1.8,4.8,3.4,9.4,3.4c4.6,0,6.8-1.6,9.4-3.4c2.8-2,5.9-4.2,11.9-4.2
		c6,0,9.2,2.3,11.9,4.2c2.6,1.8,4.8,3.4,9.4,3.4c4.6,0,6.8-1.6,9.4-3.4c2.8-2,5.9-4.2,11.9-4.2c6,0,9.2,2.3,11.9,4.2
		c2.6,1.8,4.8,3.4,9.4,3.4c4.6,0,6.8-1.6,9.4-3.4c2.8-2,5.9-4.2,11.9-4.2v4.5c-4.6,0-6.8,1.6-9.4,3.4
		C122,121.4,118.9,123.6,112.8,123.6z"/>
	<path class="st0" d="M112.8,134.2c-6,0-9.2-2.3-11.9-4.2c-2.6-1.8-4.8-3.4-9.4-3.4c-4.6,0-6.8,1.6-9.4,3.4c-2.8,2-5.9,4.2-11.9,4.2
		c-6,0-9.2-2.3-11.9-4.2c-2.6-1.8-4.8-3.4-9.4-3.4c-4.6,0-6.8,1.6-9.4,3.4c-2.8,2-5.9,4.2-11.9,4.2c-6,0-9.2-2.3-11.9-4.2
		c-2.6-1.8-4.8-3.4-9.4-3.4V122c6,0,9.2,2.3,11.9,4.2c2.6,1.8,4.8,3.4,9.4,3.4c4.6,0,6.8-1.6,9.4-3.4c2.8-2,5.9-4.2,11.9-4.2
		c6,0,9.2,2.3,11.9,4.2c2.6,1.8,4.8,3.4,9.4,3.4c4.6,0,6.8-1.6,9.4-3.4c2.8-2,5.9-4.2,11.9-4.2c6,0,9.2,2.3,11.9,4.2
		c2.6,1.8,4.8,3.4,9.4,3.4c4.6,0,6.8-1.6,9.4-3.4c2.8-2,5.9-4.2,11.9-4.2v4.5c-4.6,0-6.8,1.6-9.4,3.4
		C122,131.9,118.9,134.2,112.8,134.2z"/>
</g>
</svg>
