<?xml version="1.0" encoding="utf-8"?>
<!-- Generator: Adobe Illustrator 21.0.2, SVG Export Plug-In . SVG Version: 6.00 Build 0)  -->
<svg version="1.1" id="Layer_1" xmlns="http://www.w3.org/2000/svg" xmlns:xlink="http://www.w3.org/1999/xlink" x="0px" y="0px"
	 viewBox="0 0 82 41" style="enable-background:new 0 0 82 41;" xml:space="preserve">
<style type="text/css">
	.st0{fill:#FFFFFF;}
	.st1{fill:#DEDEDE;}
</style>
<g id="Layer_2">
</g>
<g>
	<rect class="st0" width="82" height="41"/>
	<g>
		<g>
			<path class="st1" d="M19.4,9.9C19.4,10,19.5,10,19.4,9.9c0.3,0.1,0.4,0.2,0.5,0.3c0.2,0.3,0.4,0.7,0.6,1
				c2.1,3.4,4.1,6.9,6.2,10.4c0.1,0.1,0.1,0.1,0.2,0.1c2.1-0.5,4.2-1,6.4-1.5c0.6-0.1,1.3-0.3,1.9-0.5c0.1,0,0.1,0,0.1-0.1
				c-0.1-0.1-0.1-0.1-0.1-0.1c-0.9-1.3-1.7-2.5-2.6-3.8c-0.3-0.4-0.1-0.5,0.3-0.6c0.5-0.1,1.1-0.2,1.7-0.3c0.7-0.1,1.5-0.3,2.1-0.3
				c0.1,0,0.2-0.1,0.3-0.1c0.1,0,0.3,0,0.4,0.1s0.3,0.2,0.3,0.3c1.1,1.3,2.1,2.6,3.2,4c0.1,0.2,0.1,0.3-0.1,0.4
				c-0.4,0.1-0.8,0.2-1.2,0.3c-0.9,0.2-1.7,0.5-2.6,0.7c-0.1,0-0.1,0-0.1,0.1c0.1,0.1,0.1,0.1,0.1,0.1c1.1,1.5,2.1,2.9,3.2,4.4
				c0.1,0.1,0.1,0.2,0.2,0.3c0.1,0.1,0.1,0.3-0.1,0.3c-0.1,0.1-0.3,0.1-0.4,0.2c-1.9,0.7-3.8,1.3-5.7,2.1c-1.1,0.4-2.2,0.8-3.3,1.1
				c-0.2,0.1-0.5,0.1-0.7,0.1c-0.2,0-0.4-0.1-0.5-0.2c-0.1-0.2-0.3-0.4-0.4-0.6c-0.8-1.3-1.5-2.8-2.4-4.2c-0.2-0.3-0.4-0.7-0.5-1
				C26.3,23,26.3,23,26.1,23c-1.6,0.4-3.3,0.9-4.9,1.3c-0.3,0.1-0.7,0.2-1.1,0.3c-0.5,0.1-0.9-0.1-1.1-0.6c-0.1-0.2-0.2-0.4-0.3-0.5
				c-1.8-3.9-3.6-7.8-5.4-11.7c-0.1-0.3-0.2-0.5-0.3-0.8c0-0.1,0-0.1,0-0.1c0.1-0.3,0.2-0.3,0.5-0.4c0.1,0,0.2,0,0.3,0
				c0.7-0.1,1.4-0.1,2.1-0.2c0.9-0.1,1.8-0.1,2.7-0.2c0.1,0,0.3,0,0.4-0.1C19.2,9.9,19.4,9.9,19.4,9.9z M19,10.7c-0.1,0-0.1,0-0.2,0
				c-0.9,0.1-1.7,0.2-2.5,0.3c-0.6,0-1.2,0.1-1.8,0.1c-0.2,0-0.2,0.1-0.1,0.3c0,0,0,0,0,0.1c0.9,1.7,1.7,3.6,2.6,5.4
				c1,2.1,2,4.2,3,6.3c0.1,0.3,0.1,0.3,0.4,0.2c1.7-0.4,3.3-0.8,5-1.2c0.3-0.1,0.3-0.1,0.1-0.4c-2.1-3.6-4.2-7.2-6.2-10.8
				C19.2,10.8,19.2,10.7,19,10.7z M27.4,22.8c0,0.1,0.1,0.1,0.1,0.1c0.2,0.4,0.5,0.7,0.7,1.1c0.7,1.1,1.3,2.2,1.9,3.4
				c0.2,0.3,0.3,0.3,0.7,0.2c2.5-0.9,5-1.7,7.4-2.6c0.2-0.1,0.5-0.1,0.7-0.3c0.1-0.1,0.2-0.1,0.1-0.3c0-0.1-0.1-0.1-0.1-0.1
				c-0.9-1.2-1.7-2.4-2.7-3.6c-0.2-0.3-0.2-0.3-0.5-0.2c-2.5,0.7-5,1.3-7.5,1.9C27.9,22.6,27.7,22.7,27.4,22.8z M37,15.3L37,15.3
				c-1.1,0.2-2.1,0.4-3.2,0.6c-0.1,0-0.2,0.1-0.1,0.2l0.1,0.1c0.8,1.1,1.6,2.2,2.4,3.3c0.1,0.1,0.1,0.1,0.2,0.1
				c0.8-0.2,1.6-0.4,2.4-0.6c0.3-0.1,0.5-0.1,0.9-0.2c0.2-0.1,0.2-0.1,0.1-0.3c-0.3-0.3-0.6-0.7-0.9-1.1c-0.5-0.6-1-1.3-1.5-1.9
				C37.2,15.4,37.1,15.3,37,15.3z"/>
		</g>
		<path class="st1" d="M43.1,22.7v5.7h-0.4v-5.7H43.1z"/>
		<path class="st1" d="M48,24.3h0.4v4.1H48v-0.7c-0.4,0.6-1.1,0.9-1.6,0.9c-1.1,0-2-0.8-2-2.1c0-1.3,0.8-2.1,2-2.1
			c0.7,0,1.2,0.3,1.6,0.8V24.3z M44.8,26.3c0,0.9,0.5,1.8,1.6,1.8c1,0,1.6-0.9,1.6-1.8c0-1.2-0.9-1.7-1.6-1.7
			C45.5,24.6,44.8,25.2,44.8,26.3z"/>
		<path class="st1" d="M49.8,24.3h0.4v0.5c0.1-0.3,0.5-0.6,0.9-0.6c0.1,0,0.3,0,0.4,0.1l-0.2,0.3c-0.1,0-0.1-0.1-0.3-0.1
			c-0.8,0-0.8,1.1-0.8,1.6v2.2h-0.4C49.8,28.4,49.8,24.3,49.8,24.3z"/>
		<path class="st1" d="M55.6,24.3H56v4.1h-0.4v-0.7c-0.4,0.6-1.1,0.9-1.6,0.9c-1.1,0-2-0.8-2-2.1c0-1.3,0.8-2.1,2-2.1
			c0.7,0,1.2,0.3,1.6,0.8V24.3z M52.5,26.3c0,0.9,0.5,1.8,1.6,1.8c1,0,1.6-0.9,1.6-1.8c0-1.2-0.9-1.7-1.6-1.7
			C53.2,24.6,52.5,25.2,52.5,26.3z"/>
		<path class="st1" d="M57.5,24.3l1.4,3.4l1.4-3.4h0.5l-1.9,4.4L57,24.3C57,24.3,57.5,24.3,57.5,24.3z"/>
		<path class="st1" d="M62,26.4c0,1.1,0.7,1.7,1.6,1.7c0.7,0,1.1-0.4,1.4-0.9l0.3,0.2c-0.3,0.5-0.8,1.1-1.8,1.1c-1.3,0-2-0.9-2-2.1
			c0-1.4,1-2.1,2-2.1c1.1,0,1.9,0.9,1.9,2.2L62,26.4L62,26.4z M65.1,26c-0.1-0.8-0.7-1.4-1.5-1.4c-0.8,0-1.4,0.6-1.5,1.4H65.1z"/>
		<path class="st1" d="M67,22.7v5.7h-0.4v-5.7H67z"/>
	</g>
</g>
</svg>
