<?xml version="1.0" encoding="utf-8"?>
<!-- Generator: Adobe Illustrator 19.0.0, SVG Export Plug-In . SVG Version: 6.00 Build 0)  -->
<svg version="1.1"
	 id="svg2" xmlns:rdf="http://www.w3.org/1999/02/22-rdf-syntax-ns#" xmlns:cc="http://creativecommons.org/ns#" xmlns:dc="http://purl.org/dc/elements/1.1/"
	 xmlns="http://www.w3.org/2000/svg" xmlns:xlink="http://www.w3.org/1999/xlink" x="0px" y="0px" width="82px" height="41px"
	 viewBox="453 376.7 82 41" style="enable-background:new 453 376.7 82 41;" xml:space="preserve">
<style type="text/css">
	.st0{fill:#DEDEDE;}
</style>
<g id="g4" transform="translate(-44.632 -141.55)">
	<g id="g6" transform="matrix(8.3528 0 0 8.3119 -727.13 -3759.5)">
		<path id="path8" class="st0" d="M147.4,515.7h1.5c0.4,0,0.7,0.1,0.9,0.4s0.3,0.6,0.2,1c0,0.2-0.1,0.4-0.2,0.6
			c-0.1,0.2-0.2,0.4-0.3,0.5c-0.2,0.2-0.4,0.3-0.6,0.4s-0.4,0.1-0.6,0.1h-0.7l-0.2,1h-0.8L147.4,515.7 M148,516.3l-0.3,1.6
			c0,0,0,0,0.1,0h0.1c0.3,0,0.6,0,0.9-0.1c0.2-0.1,0.4-0.3,0.5-0.8c0.1-0.4,0-0.6-0.2-0.7c-0.2-0.1-0.4-0.1-0.7-0.1c0,0-0.1,0-0.1,0
			C148.1,516.3,148.1,516.3,148,516.3L148,516.3"/>
		<path id="path10" class="st0" d="M150.8,514.7h0.7l-0.2,1h0.7c0.4,0,0.6,0.1,0.8,0.2c0.2,0.1,0.2,0.4,0.2,0.8l-0.4,1.8h-0.8
			l0.3-1.7c0-0.2,0-0.3,0-0.4c-0.1-0.1-0.2-0.1-0.4-0.1l-0.6,0l-0.4,2.2h-0.7L150.8,514.7"/>
		<path id="path12" class="st0" d="M153.8,515.7h1.5c0.4,0,0.7,0.1,0.9,0.4c0.2,0.2,0.3,0.6,0.2,1c0,0.2-0.1,0.4-0.2,0.6
			c-0.1,0.2-0.2,0.4-0.3,0.5c-0.2,0.2-0.4,0.3-0.6,0.4c-0.2,0.1-0.4,0.1-0.6,0.1H154l-0.2,1h-0.8L153.8,515.7 M154.5,516.3l-0.3,1.6
			c0,0,0,0,0.1,0h0.1c0.3,0,0.6,0,0.9-0.1c0.2-0.1,0.4-0.3,0.5-0.8c0.1-0.4,0-0.6-0.2-0.7c-0.2-0.1-0.4-0.1-0.7-0.1c0,0-0.1,0-0.1,0
			C154.6,516.3,154.5,516.3,154.5,516.3L154.5,516.3"/>
	</g>
</g>
</svg>
