<?xml version="1.0" encoding="utf-8"?>
<!-- Generator: Adobe Illustrator 21.0.2, SVG Export Plug-In . SVG Version: 6.00 Build 0)  -->
<svg version="1.1" id="Layer_1" xmlns="http://www.w3.org/2000/svg" xmlns:xlink="http://www.w3.org/1999/xlink" x="0px" y="0px"
	 width="300px" height="150px" viewBox="0 0 300 150" style="enable-background:new 0 0 300 150;" xml:space="preserve">
<style type="text/css">
	.st0{fill:#ffffff;}
</style>
<g id="Layer_2">
</g>
<g id="Layer_2_3_">
</g>
<g id="Layer_2_4_">
</g>
<g id="Layer_2_6_">
</g>
<g id="Layer_2_2_">
</g>
<g id="Layer_2_7_">
</g>
<g id="Layer_2_8_">
</g>
<g id="Layer_2_9_">
</g>
<g id="Layer_2_10_">
</g>
<g id="Layer_2_11_">
</g>
<g id="Layer_2_12_">
</g>
<g>
	<path class="st0" d="M107.6,92.6c1.8,1.3,3.8,2.3,6,2.8c9,2.3,18.4-4.1,19.1-13.4c0.7-7.8-1.8-14.8-6.6-20.9
		c-3.5-4.6-8-7.8-13.8-9.3S101,51,95.9,54c-0.2,0-0.3,0.2-0.5,0.2c2-2,4-3.6,6.3-5c12.1-7,27.2-5.1,37.2,4.5
		c7.5,7.3,10.5,16.1,9.3,26.4c-0.5,4.5-2,8.8-4.5,12.6c-3.3,5-8.1,7.8-14.1,8.8c-6.5,1.2-12.4-0.2-17.7-4.3
		C110.1,96,108.7,94.4,107.6,92.6z"/>
	<path class="st0" d="M134.1,102.3c-2.8,2-5.8,3.3-9.1,4.1c-17.4,4.3-34.8-6.5-38.3-24.2c-1.2-5.5-0.8-10.8,1.2-15.9
		c2.8-7.3,8.3-11.9,16.1-13.1c4.5-0.7,8.6,0,12.6,2.2c0.2,0,0.3,0,0.5,0.2c-0.2,0-0.3,0.2-0.5,0.2c-2.7,0.2-4.6,1.5-6.5,3.3
		c-6,6.5-8.8,14.1-8.3,22.9c0.5,8.5,6.6,18.7,18.1,21.2c4.6,1,9.1,0.8,13.6-0.7C133.6,102.3,133.9,102.3,134.1,102.3z"/>
	<g>
		<path class="st0" d="M172.9,85.1l-2-4.7h-11l-2,4.7h-1.5l8.2-19.3h1.5l8.2,19.3C174.3,85.1,172.9,85.1,172.9,85.1z M170.3,78.9
			l-4.9-11.8l-4.9,11.8H170.3z"/>
		<path class="st0" d="M188.4,69.5c-1.3-2.3-3.5-2.6-5.6-2.6s-5.6,0.8-5.6,3.9c0,2.5,2.5,3,5.6,3.6c3.5,0.7,7.2,1.4,7.2,5.6
			c0,4.4-4.2,5.4-7.3,5.4c-2.9,0-6.1-1.2-7.5-4.2l1.3-0.7c1.1,2.3,4,3.5,6.3,3.5s5.8-0.7,5.8-4.1c0-2.9-3-3.5-6-4.1
			c-3.4-0.7-6.8-1.4-6.8-5c-0.1-4.1,4-5.4,7-5.4c2.6,0,4.9,0.4,6.7,3.3L188.4,69.5z"/>
		<path class="st0" d="M207.5,69.3c-1.6-1.7-3.8-2.5-5.9-2.5c-5.4,0-8.1,4.1-8.1,8.6c0,4.6,2.8,8.5,8.1,8.5c2,0,4-0.7,5.6-2.2v-5.4
			h-6.4V75h7.7v7.2c-1.9,2-4.2,3.1-6.9,3.1c-6.2,0-9.5-4.6-9.5-9.9c0-6,3.9-10,9.5-10c2.4,0,4.8,1,6.7,2.9L207.5,69.3z"/>
	</g>
</g>
</svg>
