<?xml version="1.0" encoding="utf-8"?>
<!-- Generator: Adobe Illustrator 21.0.2, SVG Export Plug-In . SVG Version: 6.00 Build 0)  -->
<svg version="1.1" id="Layer_1" xmlns="http://www.w3.org/2000/svg" xmlns:xlink="http://www.w3.org/1999/xlink" x="0px" y="0px"
	 width="300px" height="150px" viewBox="0 0 300 150" style="enable-background:new 0 0 300 150;" xml:space="preserve">
<style type="text/css">
	.st0{fill:#ffffff;}
</style>
<g id="Layer_2">
</g>
<g id="Layer_2_3_">
</g>
<g id="Layer_2_4_">
</g>
<g id="Layer_2_6_">
</g>
<g id="Layer_2_2_">
</g>
<g id="Layer_2_7_">
</g>
<g id="Layer_2_8_">
</g>
<g id="Layer_2_9_">
</g>
<g id="Layer_2_10_">
</g>
<g id="Layer_2_11_">
</g>
<g id="Layer_2_12_">
</g>
<path class="st0" d="M107.1,56.1C99.6,64.9,92.4,75.8,92.4,84c0,3.1,1,5.8,3.3,7.8c3.4,2.9,7.1,4,10.8,4c5.4,0,10.8-2.2,15-3.9
	c7.1-2.8,85.6-36.9,85.6-36.9c0.8-0.4,0.6-0.9-0.3-0.6c-0.4,0.1-85.5,23.2-85.5,23.2c-1.6,0.5-3.3,0.7-5,0.7
	c-6.5,0-12.4-3.6-12.3-11.2C104.1,64,105,60.3,107.1,56.1L107.1,56.1z"/>
</svg>