<?xml version="1.0" encoding="utf-8"?>
<!-- Generator: Adobe Illustrator 21.0.2, SVG Export Plug-In . SVG Version: 6.00 Build 0)  -->
<svg version="1.1" id="Layer_1" xmlns="http://www.w3.org/2000/svg" xmlns:xlink="http://www.w3.org/1999/xlink" x="0px" y="0px"
	 width="300px" height="150px" viewBox="0 0 300 150" style="enable-background:new 0 0 300 150;" xml:space="preserve">
<style type="text/css">
	.st0{fill:#ffffff;}
</style>
<g id="Layer_2">
</g>
<g id="Layer_2_3_">
</g>
<g id="Layer_2_4_">
</g>
<g id="Layer_2_6_">
</g>
<g id="Layer_2_2_">
</g>
<g id="Layer_2_7_">
</g>
<g id="Layer_2_8_">
</g>
<g id="Layer_2_9_">
</g>
<g id="Layer_2_10_">
</g>
<g id="Layer_2_11_">
</g>
<g id="Layer_2_12_">
</g>
<g>
	<path class="st0" d="M170.4,91.5c-1.3-1.2-2.6-2.4-4-3.7c-3.7,3.7-8.2,5.8-13.5,5.8s-9.8-2-13.6-5.8c-1.3,1.2-2.7,2.5-4,3.7
		C144.2,101.6,161.1,101.8,170.4,91.5z"/>
	<path class="st0" d="M207.8,72.5c0,4,0,7.9,0,11.9c-1.4,0-2.7,0-4.1,0c0-6.4,0-12.7,0-19.1c0.2,0,0.3,0,0.5,0c1.5,0,3,0,4.5,0
		c0.4,0,0.5,0.1,0.6,0.4c1.5,3.7,3,7.4,4.6,11.1c0.1,0.2,0.1,0.3,0.2,0.5c0.5-1.2,0.9-2.3,1.4-3.4c1.1-2.8,2.3-5.5,3.4-8.3
		c0.1-0.3,0.3-0.4,0.6-0.4c1.5,0,3,0,4.5,0c0.1,0,0.2,0,0.4,0c0,6.4,0,12.8,0,19.2c-1.4,0-2.7,0-4.1,0c0-4,0-8,0-11.9h-0.1
		c-0.1,0.1-0.1,0.3-0.2,0.4c-1.3,3.2-2.6,6.3-3.9,9.5c-0.1,0.4-0.3,0.5-0.7,0.4c-0.9,0-1.8,0-2.7,0c-0.4,0-0.5-0.1-0.6-0.4
		c-1.3-3.2-2.6-6.3-3.9-9.5c-0.1-0.1-0.1-0.3-0.2-0.4C207.9,72.5,207.8,72.5,207.8,72.5z"/>
	<path class="st0" d="M138.1,84.5c-1.7,0-3.4,0-5.1,0c-0.1,0-0.3-0.2-0.4-0.4c-1.9-3.9-3.9-7.9-5.8-11.8c-0.1-0.1-0.1-0.3-0.3-0.4
		c0,4.2,0,8.4,0,12.6c-1.4,0-2.7,0-4.1,0c0-6.4,0-12.7,0-19.1c0.2,0,0.3,0,0.5,0c1.4,0,2.8,0,4.2,0c0.4,0,0.6,0.1,0.7,0.5
		c1.9,4.1,3.9,8.3,5.8,12.4c0.1,0.1,0.1,0.2,0.3,0.3c0-4.4,0-8.8,0-13.2c1.4,0,2.7,0,4.1,0C138.1,71.7,138.1,78,138.1,84.5z"/>
	<path class="st0" d="M182.5,84.5c-1.6,0-3.2,0-4.7,0c-0.1,0-0.3-0.2-0.4-0.4c-1-1.9-2-3.7-3-5.6c-0.2-0.4-0.4-0.5-0.8-0.5
		c-0.6,0-1.2,0-1.9,0c0,2.1,0,4.3,0,6.4c-1.4,0-2.8,0-4.3,0c0-6.4,0-12.7,0-19.1c0.1,0,0.2,0,0.2,0c3,0,6.1,0,9.1,0.1
		c1,0,1.9,0.3,2.8,0.8c1.3,0.8,1.9,2,2.1,3.4c0.1,1.4,0.2,2.8,0,4.1c-0.2,1.7-1.2,3.1-2.8,3.9C180,79.8,181.2,82.1,182.5,84.5z
		 M171.6,74.3c0.1,0,0.1,0,0.2,0c1.4,0,2.8,0,4.3,0c0.7,0,1.1-0.5,1.2-1.2c0.1-0.9,0.1-1.8,0-2.7c-0.1-1-0.5-1.4-1.5-1.4
		c-1.3,0-2.6,0-3.8,0c-0.1,0-0.2,0-0.4,0C171.6,70.9,171.6,72.6,171.6,74.3z"/>
	<path class="st0" d="M164.1,74.9c-0.1,5.8-4.5,10.7-10.2,11.2c-5.8,0.6-11.1-3.3-12.2-9c-0.8-3.8,0.3-7.2,2.9-10.1
		c0.6-0.6,1.3-0.9,2.2-0.7c0.8,0.2,1.3,0.7,1.5,1.5s0,1.5-0.6,2.1c-1.3,1.4-2,3.1-2,5c0,3.6,2.7,6.6,6.4,7c3.4,0.4,6.9-2,7.7-5.4
		c0.6-2.5,0-4.7-1.8-6.6c-0.6-0.7-0.9-1.4-0.6-2.2c0.5-1.5,2.3-2,3.5-0.8c1.6,1.6,2.6,3.5,3,5.6C164,73.3,164,74.1,164.1,74.9z"/>
	<path class="st0" d="M170.3,58.5c-1.3,1.2-2.6,2.4-4,3.7c-3.7-3.7-8.2-5.8-13.5-5.8s-9.8,2-13.6,5.8c-1.3-1.2-2.7-2.5-4-3.7
		C144.2,48.4,161.1,48.2,170.3,58.5z"/>
	<path class="st0" d="M107.8,65.3c0,2.6,0,5.1,0,7.6c2.1,0,4.1,0,6.2,0c0-2.5,0-5,0-7.6c1.5,0,2.9,0,4.3,0c0,6.4,0,12.7,0,19.1
		c-1.4,0-2.8,0-4.3,0c0-2.5,0-5.1,0-7.7c-2.1,0-4.1,0-6.2,0c0,2.5,0,5.1,0,7.7c-1.4,0-2.8,0-4.3,0c0-0.1,0-0.3,0-0.5
		c0-6.1,0-12.2,0-18.2c0-0.4,0.1-0.5,0.5-0.5C105.2,65.3,106.5,65.3,107.8,65.3z"/>
	<path class="st0" d="M201.3,84.5c-1.4,0-2.8,0-4.2,0c-0.3,0-0.3-0.2-0.4-0.4c-0.3-1-0.6-2-0.8-3c-0.1-0.3-0.2-0.4-0.6-0.4
		c-1.9,0-3.7,0-5.6,0c-0.3,0-0.5,0.1-0.6,0.4c-0.3,1-0.5,2-0.8,3c0,0.1-0.2,0.4-0.3,0.4c-1.4,0-2.8,0-4.3,0c0.2-0.8,0.5-1.6,0.7-2.3
		c1.7-5.5,3.3-10.9,5-16.4c0.1-0.4,0.3-0.5,0.7-0.5c1.6,0,3.2,0,4.8,0c0.3,0,0.5,0.1,0.6,0.4c1.9,6.1,3.7,12.3,5.6,18.4
		C201.2,84.2,201.3,84.3,201.3,84.5z M192.6,69.3h-0.1c-0.7,2.6-1.4,5.2-2.2,7.8c1.5,0,2.9,0,4.4,0C194,74.5,193.3,71.9,192.6,69.3z
		"/>
	<path class="st0" d="M226.7,84.5c0.2-0.6,0.3-1.1,0.5-1.6c1.7-5.7,3.5-11.4,5.2-17.1c0.1-0.4,0.3-0.6,0.8-0.6c1.6,0,3.2,0,4.8,0
		c0.3,0,0.4,0.1,0.5,0.3c1.9,6.2,3.8,12.3,5.6,18.5c0,0.1,0,0.2,0.1,0.4c-1.4,0-2.8,0-4.2,0c-0.1,0-0.3-0.2-0.3-0.3
		c-0.3-1-0.6-2-0.8-3c-0.1-0.3-0.2-0.4-0.5-0.4c-1.9,0-3.8,0-5.6,0c-0.3,0-0.4,0.1-0.5,0.4c-0.3,1-0.5,2-0.8,3
		c0,0.1-0.2,0.3-0.3,0.3C229.6,84.5,228.2,84.5,226.7,84.5z M237.6,77.1c-0.7-2.7-1.4-5.3-2.1-7.9h-0.1c-0.7,2.6-1.4,5.2-2.2,7.9
		C234.7,77.1,236.1,77.1,237.6,77.1z"/>
	<path class="st0" d="M85,84.5c-4,0-8,0-12,0c0-6.4,0-12.8,0-19.2c0.1,0,0.3,0,0.4,0c3.7,0,7.4,0,11.1,0c0.4,0,0.5,0.1,0.5,0.5
		c0,1.1,0,2.2,0,3.3c-2.6,0-5.2,0-7.7,0c0,1.3,0,2.5,0,3.7c2.4,0,4.7,0,7.1,0c0,1.3,0,2.5,0,3.8c-2.3,0-4.7,0-7.1,0
		c0,1.4,0,2.7,0,4.1c2.6,0,5.1,0,7.7,0C85,82,85,83.2,85,84.5z"/>
	<path class="st0" d="M99.7,69.3c-1-0.1-2-0.3-3-0.3c-0.8-0.1-1.7-0.1-2.5,0c-1.2,0-2,0.7-2,2c0,2.6,0,5.2,0,7.8
		c0,1.2,0.7,1.8,1.9,1.9c1.6,0.2,3.2-0.1,4.8-0.3c0.3,0,0.6-0.1,0.9-0.1c0.2,1.2,0.4,2.4,0.6,3.7c-0.7,0.1-1.3,0.2-2,0.3
		c-1.9,0.3-3.9,0.4-5.8,0.1c-2.2-0.4-3.8-1.5-4.5-3.7c-0.2-0.6-0.3-1.2-0.3-1.8c0-2.8,0-5.6,0-8.4c0-3,1.7-4.9,4.6-5.5
		c2-0.4,4.1-0.3,6.1,0c0.5,0.1,1,0.2,1.5,0.2c0.2,0,0.3,0.1,0.3,0.4C100.1,67,99.9,68.1,99.7,69.3z"/>
	<path class="st0" d="M70.5,69.1c-1.8,0-3.5,0-5.2,0c0,5.1,0,10.2,0,15.3c-1.4,0-2.8,0-4.3,0c0-5.1,0-10.2,0-15.3
		c-1.8,0-3.4,0-5.2,0c0-1.3,0-2.5,0-3.8c0.2,0,0.3,0,0.5,0c4.5,0,9.1,0,13.6,0c0.4,0,0.5,0.1,0.5,0.5C70.4,66.9,70.5,68,70.5,69.1z"
		/>
	<path class="st0" d="M154.8,70.3c0,1.5,0,3,0,4.5c0,1.2-0.9,2.2-2.1,2.2c-1.2,0-2.1-0.9-2.1-2.1c0-3,0-6,0-9c0-1.3,0.9-2.2,2.1-2.2
		c1.2,0,2,0.9,2.1,2.2C154.8,67.3,154.8,68.8,154.8,70.3z"/>
</g>
</svg>
