<?xml version="1.0" encoding="utf-8"?>
<!-- Generator: Adobe Illustrator 21.0.2, SVG Export Plug-In . SVG Version: 6.00 Build 0)  -->
<svg version="1.1" id="Layer_1" xmlns="http://www.w3.org/2000/svg" xmlns:xlink="http://www.w3.org/1999/xlink" x="0px" y="0px"
	 width="300px" height="150px" viewBox="0 0 300 150" style="enable-background:new 0 0 300 150;" xml:space="preserve">
<g id="Layer_2">
</g>
<g id="Layer_2_3_">
</g>
<g id="Layer_2_4_">
</g>
<g id="Layer_2_6_">
</g>
<g id="Layer_2_2_">
</g>
<g id="Layer_2_7_">
</g>
<g id="Layer_2_8_">
</g>
<g id="Layer_2_9_">
</g>
<g id="Layer_2_10_">
</g>
<g id="Layer_2_11_">
</g>
<g id="Layer_2_12_">
</g>
<g>
	<path d="M149.9,67l0.3-0.8h1.6l0.3,0.8H149.9z M146.9,63.9h-2.4v-0.1c0-0.7,0.8-1,1.1-1s0.6,0,0.9,0.4
		C146.7,63.4,146.8,63.7,146.9,63.9L146.9,63.9z"/>
	<path d="M143.4,63.9h-5c-3.4,0-3.1-2.2-3.1-2.2H162c0,0-0.2,2.2-2.8,2.2h-7.3l-0.6-1.3c0,0,0-0.1-0.1-0.1c-0.1,0-0.1,0.1-0.1,0.1
		l-0.5,1.3l0,0h-3.4v-1.3c0-0.3-0.3,0-0.3,0l-0.2,0.3c0,0-0.6-0.3-1.1-0.3C145.3,62.5,144,62.6,143.4,63.9L143.4,63.9L143.4,63.9z
		 M143.2,64.7h-4.6c0,0-0.2,2.2,3.1,2.2h1.7l0,0c-0.2-0.4-0.3-1-0.3-1.7C143.1,65.1,143.2,64.9,143.2,64.7L143.2,64.7L143.2,64.7
		L143.2,64.7z M149.9,67h2.2H149.9z M153.3,67h2.5c2.6,0,2.8-2.2,2.8-2.2h-6.4l0,0L153.3,67L153.3,67z M150.7,64.7h0.5l0,0l0.5,1.2
		h-1.4L150.7,64.7L150.7,64.7L150.7,64.7z M150.4,64.7h-5.9v2.1c0,0,0,0.1,0,0.2l0,0h2.1v-0.8h-0.6v-0.3h2.5v0.3h-0.7V67h1.8l0,0
		L150.4,64.7L150.4,64.7L150.4,64.7z M145,67.8h1.3l0,0c0,0-0.2,0.3-0.7,0.3C145.2,68.1,145,67.8,145,67.8L145,67.8L145,67.8z"/>
	<path d="M147.3,67.8l0.3,0.4h0.2v-0.4h1.5h0l-0.1,0.2h-0.4v0.2h1.3V68h-0.6l0.1-0.2l0,0h2.7l0,0l0.1,0.2h-0.6v0.2h2.4V68h-0.5
		l-0.1-0.2l0,0h1.7c0,0-0.2,2.2-2.8,2.2h-6.7c-3.4,0-3.1-2.2-3.1-2.2h1.4l0,0c0.5,0.4,1.1,0.6,1.6,0.6c0.9,0,1.3-0.5,1.5-0.6l0,0
		L147.3,67.8L147.3,67.8L147.3,67.8z M137.5,52.4h-12.4c0,0,0,2.3,3.4,2.3h11.4L137.5,52.4z M160.1,52.4h10.3c0,0,1.2,0.1,1.2,1.1
		s-1,1.2-1,1.2h-12.9L160.1,52.4z M140.7,55.5h-13c0,0-0.2,2.2,3.1,2.2h12.3L140.7,55.5z M151.7,57.8h-6l0.2-2.2h4.6L151.7,57.8z
		 M154.8,57.8h11.5c2.6,0,2.8-2.2,2.8-2.2H157L154.8,57.8z M143.9,58.6h-12.7c0,0-0.2,2.2,3.1,2.2h28.6c2.6,0,2.8-2.2,2.8-2.2H154
		l-1.3,1.2l-0.7-1.2h-6.2l-0.3,1.3L143.9,58.6z M151,54.9h-5c0,0-0.4-2.1,2.1-2.1h3.1c0,0,1.2,0.1,1.7,0.7c0.5,0.6,0.7,1,0.7,1h-1.7
		C151.8,54.5,151.6,54.9,151,54.9C151,54.9,151.6,54.9,151,54.9z M78.1,91.1v-0.5h1.6l4.7-14.2h0.7l4.5,14.2h1.6v0.5H85v-0.5H87
		l-1.2-3.8h-4.3l-1.2,3.8h2v0.5H78.1z M81.7,86.2h3.9l-1.9-6L81.7,86.2z M96.7,90.6h2v0.5h-6.5v-0.5h2V77.3h-2v-0.5h6.7
		c2.2,0,4.7,0.3,4.7,3.3c0,2.4-2.4,3.3-4.2,3.5v0c3.1,0.5,3.8,2.3,3.8,5.8c0,0.8,0.1,1.6,2,1.2v0.5c-0.6,0.2-1.1,0.3-1.7,0.3
		c-2,0-3.1-1.1-3.1-3.3c0-1.8-0.3-3.1-0.8-3.6c-0.6-0.5-1.2-0.8-1.8-0.8h-1.1V90.6L96.7,90.6z M96.7,83.2h1.6c1.8,0,2.5-0.9,2.5-2.9
		c0-2.4-0.7-3-2.4-3h-1.7V83.2L96.7,83.2z M154.8,77.3v-0.5h-10.9v0.5h1.9v8.9l-5.9-9.4h-5.1v0.5h1.9v13.3h-3.5l-4.5-14.2h-0.7
		l-4.7,14.2h-3.5V77.3h2v-0.5h-5l-2.9,9.9l-2.8-9.9H106v0.5h2v13.3h-2v0.5h4.5v-0.5h-1.9v-13h0l4,13.5h0.7l4-13.5h0.1v13h-2v0.5H126
		v-0.5h-2l1.2-3.8h4.3l1.2,3.8h-2.1v0.5h10.7v-0.5h-1.9V77.7l8.4,13.7h0.6V77.3h3.9v13.3h-2v0.5h6.5v-0.5h-2V77.3H154.8z
		 M125.4,86.2l2-6l1.9,6H125.4z M165.2,90.6c0.2,0.4,0.5,0.5,0.7,0.5c1.1,0,1.3-1,1.3-1.9V77.3h-2.1v-0.5h6.6v0.5h-1.9v8.9
		c0,1.2,0.1,1.9-0.3,3c-0.7,1.5-1.9,2.5-3.5,2.5c-0.7,0-1.1-0.1-1.8-0.4c-0.5-0.3-1-1.3-1-1.9l2.2,0
		C165.3,89.3,165.1,90.4,165.2,90.6C165.2,90.6,165.1,90.4,165.2,90.6L165.2,90.6z M177.6,77.3v6.2c1.9,0,3.6-2.6,3.6-2.6l0,6
		c-0.2-2.4-1.4-2.9-3.6-2.8v6.6h2.8c2.6,0,4-4.1,4-4.1l0,4.6H173v-0.5h2V77.3h-2v-0.5h11l0,3.9c-0.4-2.1-1.6-2.9-2.6-3.2
		c-0.5-0.1-1.1-0.2-1.7-0.2L177.6,77.3L177.6,77.3z M207.9,76.7v0.5h1.9v8.9l-5.9-9.4h-5.1v0.5h1.9v13.3h-3.5l-4.5-14.2H192
		l-4.7,14.2h-1.6v0.5h4.2v-0.5h-2l1.2-3.8h4.3l1.2,3.8h-2.1v0.5h10.8v-0.5h-1.9V77.7l8.4,13.7h0.6V77.3h2v-0.5H207.9L207.9,76.7z
		 M189.3,86.2l2-6l1.9,6H189.3L189.3,86.2z M213.6,91.2l0-4.3c0.4,2,2.1,3.9,4.2,3.9c1.6,0,3-1.3,3-3c0-2-1.6-2.4-3.1-3
		c-0.4-0.2-0.8-0.3-1.2-0.4c-1.8-0.6-2.8-2.1-2.8-4.2c0-2.3,1.6-3.8,3.6-3.9c1.6-0.1,2.3,1,2.8,0.9c0.5-0.2,1.2-0.7,1.2-0.7l0,4.1
		c-0.8-2.4-2.1-3.8-4.1-3.8c-1.3,0-2.5,1-2.5,2.5c0,1.7,1.1,1.8,2.3,2.2c0.5,0.2,0.9,0.3,1.2,0.4c0.4,0.1,0.9,0.3,1.3,0.5
		c1.7,0.9,2.3,2.3,2.3,4.2c0,2.7-1.6,4.7-4.2,4.7c-0.9,0-2.2-0.9-2.8-0.9S213.6,91.2,213.6,91.2L213.6,91.2z"/>
</g>
</svg>
