<?xml version="1.0" encoding="utf-8"?>
<!-- Generator: Adobe Illustrator 21.0.2, SVG Export Plug-In . SVG Version: 6.00 Build 0)  -->
<svg version="1.1" id="Layer_1" xmlns="http://www.w3.org/2000/svg" xmlns:xlink="http://www.w3.org/1999/xlink" x="0px" y="0px"
	 width="300px" height="150px" viewBox="0 0 300 150" style="enable-background:new 0 0 300 150;" xml:space="preserve">
<style type="text/css">
	.st0{clip-path:url(#SVGID_2_);fill:#2B2422;}
	.st1{clip-path:url(#SVGID_4_);fill:#2B2422;}
	.st2{fill:#2B2422;}
	.st3{clip-path:url(#SVGID_6_);fill:#2B2422;}
	.st4{clip-path:url(#SVGID_8_);fill:#9F191C;}
	.st5{fill:#FFFFFF;}
</style>
<g id="Layer_2">
</g>
<g id="Layer_2_3_">
</g>
<g id="Layer_2_4_">
</g>
<g id="Layer_2_6_">
</g>
<g id="Layer_2_2_">
</g>
<g id="Layer_2_7_">
</g>
<g id="Layer_2_8_">
</g>
<g id="Layer_2_9_">
</g>
<g id="Layer_2_10_">
</g>
<g id="Layer_2_11_">
</g>
<g id="Layer_2_12_">
</g>
<g>
	<g>
		<g>
			<defs>
				<rect id="SVGID_1_" x="64.6" y="66.2" width="170.8" height="17.7"/>
			</defs>
			<clipPath id="SVGID_2_">
				<use xlink:href="#SVGID_1_"  style="overflow:visible;"/>
			</clipPath>
			<path class="st0" d="M116.7,72.5l6.5-6.1h4.9l-6.9,6.1l3.4,7.7h-5.1L116.7,72.5 M115.8,72.9l-2.1,7.4h-4.2l3.9-13.8h4.2l-1.7,6.1
				"/>
		</g>
	</g>
	<g>
		<g>
			<defs>
				<rect id="SVGID_3_" x="64.6" y="66.2" width="170.8" height="17.7"/>
			</defs>
			<clipPath id="SVGID_4_">
				<use xlink:href="#SVGID_3_"  style="overflow:visible;"/>
			</clipPath>
			<path class="st1" d="M69.3,74.7c-0.2,0.6-1.6,3.4,0.5,3.2c1.5-0.1,1.9-1.3,2.1-2.1l2.6-9.3h4.2l-2.6,9.2c-0.2,0.6-0.7,2.3-2,3.3
				c-1.7,1.4-3.8,1.6-5.1,1.6c-1.8,0-3.6-0.4-4.3-1.9c-0.4-0.9,0-3.1,0.5-4.1H69.3"/>
		</g>
	</g>
	<path class="st2" d="M157.2,74.7c-0.2,0.6-1.6,3.4,0.5,3.2c1.5-0.1,1.9-1.3,2.1-2.1l2.6-9.3h4.2l-2.6,9.2c-0.2,0.6-0.7,2.3-2,3.3
		c-1.7,1.4-3.8,1.6-5.1,1.6c-1.8,0-3.6-0.4-4.3-1.9c-0.4-0.9,0-3.1,0.5-4.1H157.2"/>
	<path class="st2" d="M75.8,80.4h4.1l1.8-2.8h6l0.2,2.8h4.7l-2-13.8h-5L75.8,80.4 M83.4,75.1l3.7-5.8h0.1l0.3,5.8H83.4z"/>
	<path class="st2" d="M105.5,70.9c0.2-1.4-0.7-1.9-1.9-1.9c-2.5,0-3.9,2.1-4.6,4.7c-0.2,0.8-1.2,4.3,2,4.3c2.2,0,2.8-1.5,3.1-2h4.3
		c-1.2,4.3-6.1,4.7-8,4.7c-1.4,0-3.9-0.2-5.1-1.8c-1.2-1.6-0.8-3.8-0.4-5.3c0.5-1.9,1.5-3.8,3.4-5.3c2-1.6,4.1-2,6.2-2
		c2.4,0,4.1,0.5,4.9,1.7c0.9,1.2,0.5,2.4,0.4,3H105.5"/>
	<path class="st2" d="M166.7,73.5c-1.5,5.2,1.7,7.2,5.6,7.2c3.5,0,8.2-1.7,9.8-7.2c0.9-3.4,0.5-7.3-5.5-7.3c-1.1,0-4,0.2-6.3,1.9
		C167.9,69.8,167,72.6,166.7,73.5 M170.9,73.5c0.7-2.4,2-4.6,4.7-4.6c0.9,0,1.8,0.2,2.2,1c0.3,0.6,0.5,1.6,0,3.5
		c-0.5,1.9-1.8,4.4-4.7,4.4C170.4,77.9,170.3,75.7,170.9,73.5z"/>
	<polyline class="st2" points="186.4,66.5 192.1,66.5 194.2,76.8 197.1,66.5 200.7,66.5 196.8,80.4 191.2,80.4 189.1,69.6 
		186.1,80.4 182.5,80.4 186.4,66.5 	"/>
	<polyline class="st2" points="203.6,66.6 214.7,66.6 214,69.2 206.9,69.2 206.1,72.1 212.8,72.1 212,74.7 205.4,74.7 204.5,77.7 
		211.8,77.7 211,80.4 199.7,80.4 203.6,66.6 	"/>
	<g>
		<g>
			<defs>
				<rect id="SVGID_5_" x="64.6" y="66.2" width="170.8" height="17.7"/>
			</defs>
			<clipPath id="SVGID_6_">
				<use xlink:href="#SVGID_5_"  style="overflow:visible;"/>
			</clipPath>
			<path class="st3" d="M218.3,76c-0.1,0.6-0.5,2.1,1.9,2.1c0.4,0,2.2,0,2.7-1.6c0.2-0.7,0-1.1-0.9-1.3l-3.4-0.9
				c-1-0.2-3.4-0.9-2.6-3.8c0.6-2.2,3-4.3,7.5-4.3c5.8,0,5.2,2.9,4.8,4.4H224c0.1-0.4,0.6-1.9-1.4-1.9c-1.2,0-2.1,0.6-2.4,1.5
				c-0.3,1,0.5,1.3,1.1,1.4l2.6,0.7c1.8,0.5,4,1.1,3.2,4c-0.9,3.1-4.1,4.5-7.8,4.5c-1.5,0-4-0.2-4.9-1.6c-0.8-1.1-0.4-2.5-0.3-3.1
				L218.3,76"/>
		</g>
	</g>
	<g>
		<g>
			<defs>
				<rect id="SVGID_7_" x="64.6" y="66.2" width="170.8" height="17.7"/>
			</defs>
			<clipPath id="SVGID_8_">
				<use xlink:href="#SVGID_7_"  style="overflow:visible;"/>
			</clipPath>
			<path class="st4" d="M147.9,80.1c0.6,0.7-20.5,0.7-19.5,0c-1,0.7,3.2-14,3.8-13.3c-0.6-0.7,20.5-0.7,19.5,0
				C152.7,66,148.5,80.8,147.9,80.1"/>
		</g>
	</g>
	<path class="st5" d="M131.2,75.1l1.1-2.6c0,0,0.6-1.3,2.4-1.3h14.2l-0.6,1.5l-9.3,0c-1.8,0-2,1.2-2,1.2l-0.5,1.2L131.2,75.1"/>
	<path class="st5" d="M136.9,75.1l0.3-0.7c0,0,2.7,0,5.5,0c0,0,0.4,0,0.6-0.4l0.3-0.8c2.2,0,4.4,0,4.4,0l-0.6,1.4
		c-0.2,0.5-0.7,0.5-0.7,0.5L136.9,75.1"/>
</g>
</svg>
