<?xml version="1.0" encoding="utf-8"?>
<!-- Generator: Adobe Illustrator 21.0.2, SVG Export Plug-In . SVG Version: 6.00 Build 0)  -->
<svg version="1.1" id="Layer_1" xmlns="http://www.w3.org/2000/svg" xmlns:xlink="http://www.w3.org/1999/xlink" x="0px" y="0px"
	 width="300px" height="150px" viewBox="0 0 300 150" style="enable-background:new 0 0 300 150;" xml:space="preserve">
<style type="text/css">
	.st0{fill:#C41230;}
</style>
<g id="Layer_2">
</g>
<g id="Layer_2_3_">
</g>
<g id="Layer_2_4_">
</g>
<g id="Layer_2_6_">
</g>
<g id="Layer_2_2_">
</g>
<g id="Layer_2_7_">
</g>
<g id="Layer_2_8_">
</g>
<g id="Layer_2_9_">
</g>
<g id="Layer_2_10_">
</g>
<g id="Layer_2_11_">
</g>
<g id="Layer_2_12_">
</g>
<path class="st0" d="M188,95.8c-0.4-0.2-0.8-0.3-1.2-0.3c-0.4,0-0.8,0.1-1.2,0.3c-0.4,0.2-0.7,0.5-0.9,0.9c-0.2,0.4-0.3,0.8-0.3,1.3
	c0,0.4,0.1,0.9,0.3,1.3c0.2,0.4,0.5,0.7,0.9,0.9c0.4,0.2,0.8,0.3,1.2,0.3c0.4,0,0.9-0.1,1.2-0.3c0.4-0.2,0.7-0.5,0.9-0.9
	c0.2-0.4,0.3-0.8,0.3-1.3c0-0.4-0.1-0.9-0.3-1.3C188.7,96.4,188.4,96.1,188,95.8 M188.5,99.1c-0.2,0.3-0.5,0.6-0.8,0.8
	c-0.3,0.2-0.7,0.3-1,0.3c-0.4,0-0.7-0.1-1-0.3c-0.3-0.2-0.6-0.5-0.8-0.8c-0.2-0.3-0.3-0.7-0.3-1c0-0.4,0.1-0.7,0.3-1.1
	c0.2-0.3,0.4-0.6,0.8-0.8c0.3-0.2,0.7-0.3,1-0.3c0.3,0,0.7,0.1,1,0.3c0.3,0.2,0.6,0.4,0.8,0.8c0.2,0.3,0.3,0.7,0.3,1.1
	C188.8,98.4,188.7,98.8,188.5,99.1 M187.2,98.4c-0.1-0.1-0.1-0.1-0.2-0.1c0.2,0,0.4-0.1,0.6-0.3c0.1-0.1,0.2-0.3,0.2-0.5
	c0-0.1,0-0.3-0.1-0.4c-0.1-0.1-0.2-0.2-0.3-0.3c-0.1,0-0.4-0.1-0.7-0.1h-0.9v2.7h0.4v-1.1h0.3c0.2,0,0.3,0,0.3,0.1
	c0.1,0.1,0.3,0.3,0.4,0.6l0.2,0.4h0.5l-0.3-0.5C187.4,98.7,187.3,98.5,187.2,98.4 M186.6,97.9h-0.5v-0.8h0.5c0.2,0,0.3,0,0.4,0
	c0.1,0,0.2,0.1,0.2,0.1c0,0.1,0.1,0.1,0.1,0.2c0,0.1,0,0.2-0.1,0.3C187,97.9,186.9,97.9,186.6,97.9 M134.7,65.5
	c-1.6,0-2.2,1.5-2.2,3.1h4.4C136.9,66.8,136.4,65.5,134.7,65.5 M98.2,49.4l9.9,46.9l0.8-0.4c10.6-5.5,21.1-5.2,28.1-4
	c7.6,1.4,12.7,4.1,12.8,4.1l0.3,0.2l0.3-0.1c12.5-5.5,22.8-5.2,29.2-4c7,1.4,11.1,4,11.1,4.1l0.8,0.5l0.2-0.9l10.2-46.4H98.2
	L98.2,49.4z M125.6,78.1H111V62.7h5.8v11.5h8.8V78.1L125.6,78.1z M135,78.6c-6,0-9.1-3.1-9.1-8.2c0-5.1,3.3-8.2,8.8-8.2
	c5.9,0,8.8,3.8,8.8,8.2c0,0.4,0,0.7-0.1,0.9h-11.1c0,2.2,1.2,3.5,3.2,3.5c1.7,0,2.9-0.5,3.2-1.8h4.8C142.9,76.5,140.4,78.6,135,78.6
	 M154.3,78.1h-4.8l-7.6-15.6h6.7l4.1,9h0.1l4.1-9h4.8L154.3,78.1L154.3,78.1z M168.4,78h-5.8V62.5h5.8V78L168.4,78z M173.7,63.7
	l-2,2.4h-0.8l0.9-2.7H170V60h3.8L173.7,63.7L173.7,63.7z M181.3,78.4c-5.3,0-7.3-2.3-7.3-5.2v-0.1h4.9c0,1.3,1.1,2,2.6,2
	c1.3,0,2-0.4,2-1.3c0-2.2-9.3-0.1-9.3-6.4c0-3.4,3.1-5.3,8-5.3c4.4,0,7,2.2,7,4.7h-4.5c0-0.7-0.9-1.5-2.5-1.5
	c-1.6,0-2.2,0.6-2.2,1.1c0,2.4,9.7,0,9.7,6.4C189.6,76,187.3,78.4,181.3,78.4"/>
</svg>
