<?xml version="1.0" encoding="UTF-8"?>
<svg width="161px" height="57px" viewBox="0 0 161 57" version="1.1" xmlns="http://www.w3.org/2000/svg" xmlns:xlink="http://www.w3.org/1999/xlink">
    <!-- Generator: Sketch 48.2 (47327) - http://www.bohemiancoding.com/sketch -->
    <title>dfds</title>
    <desc>Created with Sketch.</desc>
    <defs></defs>
    <g id="Artboard" stroke="none" stroke-width="1" fill="none" fill-rule="evenodd">
        <g id="dfds" fill="#102232" fill-rule="nonzero">
            <g id="Layer_2">
                <g id="Group">
                    <path d="M78.1430212,40.7912025 C77.7430623,40.7912025 77.5430829,40.5904645 77.5430829,40.1889886 L77.5430829,15.6989552 C77.5430829,15.2974793 77.7430623,15.0967413 78.1430212,15.0967413 L89.9418079,15.0967413 C94.5413349,15.0967413 97.1410675,17.706335 97.1410675,21.9218326 L97.1410675,33.9661113 C97.1410675,38.3823468 94.3413554,40.7912025 89.9418079,40.7912025 L78.1430212,40.7912025 Z M89.3418696,35.7727531 C91.1416845,35.7727531 91.7416228,34.9698011 91.7416228,33.1631593 L91.7416228,23.1262604 C91.7416228,21.3196186 90.941705,20.5166667 89.3418696,20.5166667 L83.142507,20.5166667 L83.142507,35.973491 L89.3418696,35.7727531 Z M106.140142,40.3897266 C106.140142,40.7912025 105.940163,40.9919405 105.540204,40.9919405 L101.140656,40.9919405 C100.740697,40.9919405 100.540718,40.7912025 100.540718,40.3897266 L100.540718,15.6989552 C100.540718,15.2974793 100.740697,15.0967413 101.140656,15.0967413 L116.939032,15.0967413 C117.338991,15.0967413 117.53897,15.2974793 117.53897,15.6989552 L117.53897,19.7137148 C117.53897,20.1151908 117.338991,20.3159287 116.939032,20.3159287 L106.140142,20.3159287 L106.140142,25.9365921 L115.539176,25.9365921 C115.939134,25.9365921 116.139114,26.1373301 116.139114,26.5388061 L116.139114,30.5535656 C116.139114,30.9550416 115.939134,31.1557796 115.539176,31.1557796 L106.140142,31.1557796 L106.140142,40.3897266 Z M121.1386,40.7912025 C120.738641,40.7912025 120.538661,40.5904645 120.538661,40.1889886 L120.538661,15.6989552 C120.538661,15.2974793 120.738641,15.0967413 121.1386,15.0967413 L132.937387,15.0967413 C137.536914,15.0967413 140.136646,17.706335 140.136646,21.9218326 L140.136646,33.9661113 C140.136646,38.3823468 137.336934,40.7912025 132.937387,40.7912025 L121.1386,40.7912025 Z M132.337448,35.7727531 C134.137263,35.7727531 134.737201,34.9698011 134.737201,33.1631593 L134.737201,23.1262604 C134.737201,21.3196186 133.937284,20.5166667 132.337448,20.5166667 L126.138086,20.5166667 L126.138086,35.973491 L132.337448,35.7727531 Z M143.736276,40.9919405 C143.336317,40.9919405 143.136338,40.7912025 143.136338,40.3897266 L143.136338,36.374967 C143.136338,35.973491 143.336317,35.7727531 143.736276,35.7727531 C143.736276,35.7727531 148.935741,35.973491 152.93533,35.973491 C154.735145,35.973491 155.335083,35.7727531 155.335083,33.9661113 L155.335083,33.3638973 C155.335083,31.9587315 154.935124,31.5572555 153.735248,31.1557796 L148.135824,29.3491378 C145.536091,28.5461858 143.136338,27.7432339 143.136338,23.1262604 L143.136338,21.1188806 C143.136338,16.7026451 145.93605,14.6952653 150.335597,14.6952653 C154.335186,14.6952653 158.934713,14.8960033 158.934713,14.8960033 C159.334672,14.8960033 159.534651,15.0967413 159.534651,15.4982173 L159.534651,19.5129768 C159.534651,19.9144528 159.334672,20.1151908 158.934713,20.1151908 C158.934713,20.1151908 154.735145,19.9144528 150.935536,19.9144528 C149.135721,19.9144528 148.535782,19.9144528 148.535782,21.7210946 L148.535782,22.3233085 C148.535782,23.7284744 148.935741,23.9292123 150.135618,24.3306883 L155.935022,26.1373301 C158.334775,26.940282 160.934507,27.7432339 160.934507,32.3602074 L160.934507,34.3675872 C160.934507,38.7838227 158.134795,40.7912025 153.735248,40.7912025 C149.135721,40.9919405 143.736276,40.9919405 143.736276,40.9919405 Z" id="Shape"></path>
                    <path d="M77.3431034,0.041392927 L32.3477304,0.041392927 C32.147751,0.041392927 31.9477715,0.041392927 31.9477715,0.242130905 L0.151041292,55.4450749 C-0.0489381433,55.8465509 0.151041292,56.0472889 0.551000163,56.0472889 L45.1464143,56.0472889 C45.3463937,56.0472889 45.5463732,56.0472889 45.5463732,55.8465509 L77.5430829,0.442868883 C77.7430623,0.442868883 77.7430623,0.041392927 77.3431034,0.041392927 Z M51.7457357,36.374967 C51.7457357,36.575705 51.5457562,36.575705 51.7457357,36.374967 L41.346805,30.1520897 C41.346805,30.1520897 41.1468256,30.1520897 41.1468256,30.3528276 L47.3461881,40.5904645 C47.3461881,40.5904645 47.3461881,40.7912025 47.1462086,40.7912025 L30.5479155,40.7912025 C30.3479361,40.7912025 30.3479361,40.5904645 30.3479361,40.5904645 L36.747278,30.1520897 C36.747278,30.1520897 36.747278,29.9513517 36.5472986,29.9513517 L26.3483474,36.374967 C26.3483474,36.374967 26.1483679,36.374967 26.1483679,36.174229 L26.1483679,19.5129768 C26.1483679,19.3122388 26.3483474,19.3122388 26.3483474,19.3122388 L36.5472986,25.5351162 C36.5472986,25.5351162 36.747278,25.5351162 36.747278,25.3343782 L30.3479361,15.0967413 C30.3479361,15.0967413 30.3479361,14.8960033 30.5479155,14.8960033 L47.1462086,14.8960033 C47.3461881,14.8960033 47.3461881,15.0967413 47.3461881,15.0967413 L41.1468256,25.3343782 C41.1468256,25.3343782 41.1468256,25.5351162 41.346805,25.5351162 L51.5457562,19.3122388 C51.5457562,19.3122388 51.7457357,19.3122388 51.7457357,19.5129768 C51.7457357,19.5129768 51.7457357,36.374967 51.7457357,36.374967 Z" id="Shape"></path>
                </g>
            </g>
        </g>
    </g>
</svg>