<?xml version="1.0" encoding="utf-8"?>
<!-- Generator: Adobe Illustrator 21.0.2, SVG Export Plug-In . SVG Version: 6.00 Build 0)  -->
<svg version="1.1" id="Layer_1" xmlns="http://www.w3.org/2000/svg" xmlns:xlink="http://www.w3.org/1999/xlink" x="0px" y="0px"
	 viewBox="0 0 82 41" style="enable-background:new 0 0 82 41;" xml:space="preserve">
<style type="text/css">
	.st0{display:none;}
	.st1{display:inline;fill:#DEDEDE;}
	.st2{display:inline;}
	.st3{fill:#DEDEDE;}
</style>
<g id="coda_1_" xmlns:cc="http://creativecommons.org/ns#" xmlns:dc="http://purl.org/dc/elements/1.1/" xmlns:rdf="http://www.w3.org/1999/02/22-rdf-syntax-ns#" class="st0">
	<path class="st1" d="M55.3,15.5c0-2.7,0-5.3,0-8c1.9,0,3.7,0,5.6,0c0,0.1,0,0.2,0,0.3c0,8.3,0,16.5,0,24.8c0,0.2,0,0.2-0.3,0.2
		c-1.7,0-3.4,0-5.1,0c-0.2,0-0.2,0-0.2-0.2c0-0.4,0-0.8,0-1.3c-0.1,0-0.1,0.1-0.1,0.1c-1.3,1.2-2.8,1.7-4.6,1.8
		c-1.8,0-3.5-0.3-5.1-1.2c-2-1.1-3.4-2.8-4.3-5c-0.5-1.4-0.7-2.9-0.6-4.4c0.2-3.1,1.6-5.6,4.1-7.4c1.8-1.3,3.8-1.8,5.9-1.7
		c1.7,0.1,3.2,0.7,4.5,1.9C55.2,15.4,55.2,15.4,55.3,15.5z M50.9,28.1c0.2,0,0.3,0,0.4,0c1.3-0.1,2.4-0.7,3.2-1.8
		c1.1-1.5,1.2-3.1,0.6-4.8c-0.6-1.7-1.9-2.7-3.7-2.9c-1.9-0.2-3.3,0.6-4.3,2.1c-1.1,1.7-1,3.9,0.3,5.5
		C48.3,27.5,49.4,28.1,50.9,28.1z"/>
	<path class="st1" d="M76.6,15.1c0-0.5,0-1,0-1.5c1.8,0,3.6,0,5.4,0c0,6.4,0,12.8,0,19.2c-1.8,0-3.6,0-5.4,0c0-0.5,0-0.9,0-1.4
		c0,0,0,0-0.1,0c-0.1,0.1-0.2,0.1-0.2,0.2c-0.8,0.7-1.7,1.3-2.8,1.6c-0.8,0.2-1.6,0.2-2.4,0.2c-1.4-0.1-2.8-0.4-4.1-1.1
		c-1.9-1-3.3-2.5-4.2-4.4c-0.6-1.3-0.9-2.6-1-4c-0.1-1.7,0.1-3.3,0.8-4.8c1.2-2.7,3.1-4.6,5.9-5.5c1.3-0.4,2.6-0.6,4-0.4
		C74.1,13.4,75.4,14,76.6,15.1C76.5,15,76.5,15,76.6,15.1z M71.9,18.5c-1.2,0-2.2,0.4-3,1.3c-1.6,1.6-2,4.5-0.4,6.5
		c1.8,2.2,4.5,2.1,6.3,0.7c1.4-1.1,2-2.7,1.7-4.4C76.2,20.2,74.2,18.5,71.9,18.5z"/>
	<path class="st1" d="M19.5,21.1c-0.1,0-0.2,0-0.2,0c-1.8,0-3.7,0-5.5,0c-0.1,0-0.2,0-0.3-0.2c-0.4-1-1.1-1.8-2.2-2
		c-1.8-0.4-3.4-0.1-4.6,1.3C6,21,5.7,21.9,5.6,23c-0.1,0.8,0,1.7,0.4,2.4c0.6,1.5,1.8,2.3,3.4,2.5c0.9,0.1,1.7,0.1,2.5-0.3
		s1.4-1,1.8-1.8c0.1-0.2,0.2-0.3,0.5-0.3c1.7,0,3.4,0,5.1,0c0.1,0,0.1,0,0.2,0c0,0.2-0.1,0.5-0.1,0.7c-0.5,2.2-1.7,3.9-3.4,5.2
		c-1.5,1.1-3.2,1.8-5.1,2C8,33.7,5.5,32.9,3.4,31c-1.8-1.6-2.9-3.5-3.2-5.9c-0.6-4.1,0.6-7.5,3.9-10C5.4,14,7,13.4,8.7,13.2
		c2.5-0.3,4.7,0.3,6.8,1.7c1.3,0.9,2.4,2,3.2,3.4c0.4,0.8,0.7,1.6,0.8,2.5C19.5,20.9,19.5,21,19.5,21.1z"/>
	<path class="st1" d="M25.4,22.9c0-1.3,0.6-2.6,2-3.5c1.4-1,3.4-0.9,4.9,0.1c1.2,0.8,1.8,1.9,2,3.3c0.2,2-0.8,4-2.7,4.8
		c-2,0.8-4.4,0.1-5.5-1.9C25.6,24.9,25.4,24.1,25.4,22.9z"/>
	<path class="st1" d="M39.9,21.7c-4.6-2.6-9.3-5.1-13.9-7.7c0,0,0,0,0-0.1c2.8-1.1,5.5-1.1,8.2,0.2C37.7,15.7,39.6,19,39.9,21.7z"/>
	<path class="st1" d="M39.9,24.8c-0.6,3-2.1,5.3-4.7,6.9c-2.9,1.8-6,1.9-9.1,0.7c0,0,0,0,0-0.1C30.7,29.9,35.3,27.3,39.9,24.8
		L39.9,24.8z"/>
	<path class="st1" d="M23.5,30.9c-2.4-2.2-3.7-4.9-3.6-8.1c0.1-3.3,1.9-5.9,3.6-7.2C23.6,20.6,23.6,25.7,23.5,30.9L23.5,30.9z"/>
</g>
<g id="nike" class="st0">
	<g class="st2">
		<path class="st3" d="M11.5,6.1c-0.6,1.4-1.2,2.7-1.7,4.1C9.1,12,8.8,14,9,15.9c0.4,3.6,3,6.1,6.6,6.5c2.5,0.3,4.9,0,7.3-0.6
			C42.4,16.6,62,11.4,81.5,6.3c0.2,0,0.4-0.1,0.6,0c-0.7,0.3-1.5,0.6-2.2,1c-19.3,8.3-38.7,16.5-58,24.8c-3.6,1.5-7.3,2.7-11.3,2.9
			c-2.7,0.1-5.3-0.3-7.4-2.1c-2.8-2.3-3.6-5.4-2.8-8.9c0.4-2,1.1-4,2-5.8C4.5,13.5,8,9.8,11.5,6.1z"/>
	</g>
</g>
<g id="technorama" class="st0">
	<path class="st1" d="M50.7,28.8c-0.6-0.6-1.3-1.2-1.9-1.7c-1.8,1.8-3.9,2.7-6.4,2.7s-4.7-1-6.5-2.8c-0.6,0.6-1.3,1.2-1.9,1.8
		C38.3,33.6,46.3,33.7,50.7,28.8z"/>
	<path class="st1" d="M68.5,19.7c0,1.9,0,3.8,0,5.7c-0.7,0-1.3,0-2,0c0-3,0-6.1,0-9.1c0.1,0,0.2,0,0.2,0c0.7,0,1.4,0,2.1,0
		c0.2,0,0.2,0.1,0.3,0.2c0.7,1.8,1.4,3.5,2.2,5.3c0,0.1,0.1,0.1,0.1,0.3c0.2-0.6,0.4-1.1,0.7-1.6c0.5-1.3,1.1-2.6,1.6-3.9
		c0.1-0.1,0.1-0.2,0.3-0.2c0.7,0,1.4,0,2.1,0c0.1,0,0.1,0,0.2,0c0,3,0,6.1,0,9.1c-0.6,0-1.3,0-1.9,0c0-1.9,0-3.8,0-5.7l0,0
		c0,0.1-0.1,0.1-0.1,0.2c-0.6,1.5-1.2,3-1.9,4.5c-0.1,0.2-0.2,0.2-0.3,0.2c-0.4,0-0.9,0-1.3,0c-0.2,0-0.2-0.1-0.3-0.2
		c-0.6-1.5-1.2-3-1.9-4.5C68.6,19.8,68.6,19.8,68.5,19.7L68.5,19.7z"/>
	<path class="st1" d="M35.4,25.4c-0.8,0-1.6,0-2.4,0c-0.1,0-0.1-0.1-0.2-0.2c-0.9-1.9-1.8-3.7-2.8-5.6c0-0.1-0.1-0.1-0.1-0.2
		c0,2,0,4,0,6c-0.7,0-1.3,0-1.9,0c0-3,0-6.1,0-9.1c0.1,0,0.2,0,0.2,0c0.7,0,1.3,0,2,0c0.2,0,0.3,0.1,0.4,0.2c0.9,2,1.9,3.9,2.8,5.9
		c0,0.1,0.1,0.1,0.1,0.2c0-2.1,0-4.2,0-6.3c0.7,0,1.3,0,1.9,0C35.4,19.3,35.4,22.4,35.4,25.4z"/>
	<path class="st1" d="M56.4,25.4c-0.8,0-1.5,0-2.2,0c-0.1,0-0.2-0.1-0.2-0.2c-0.5-0.9-0.9-1.8-1.4-2.7c-0.1-0.2-0.2-0.3-0.4-0.2
		c-0.3,0-0.6,0-0.9,0c0,1,0,2,0,3.1c-0.7,0-1.4,0-2,0c0-3,0-6.1,0-9.1h0.1c1.4,0,2.9,0,4.3,0c0.5,0,0.9,0.1,1.3,0.4
		c0.6,0.4,0.9,1,1,1.6s0.1,1.3,0,2c-0.1,0.8-0.6,1.5-1.4,1.8C55.3,23.2,55.8,24.3,56.4,25.4z M51.3,20.6
		C51.3,20.6,51.4,20.6,51.3,20.6c0.8,0,1.4,0,2.1,0c0.3,0,0.5-0.2,0.6-0.6c0-0.4,0-0.9,0-1.3c0-0.5-0.2-0.7-0.7-0.7
		c-0.6,0-1.2,0-1.8,0c-0.1,0-0.1,0-0.2,0C51.3,19,51.3,19.8,51.3,20.6z"/>
	<path class="st1" d="M47.7,20.9c0,2.8-2.1,5.1-4.9,5.3c-2.8,0.3-5.3-1.6-5.8-4.3c-0.4-1.8,0.1-3.4,1.4-4.8c0.3-0.3,0.6-0.5,1-0.4
		s0.6,0.3,0.7,0.7c0.1,0.4,0,0.7-0.3,1c-0.6,0.7-1,1.5-1,2.4c0,1.7,1.3,3.1,3,3.4c1.6,0.2,3.3-0.9,3.6-2.6c0.3-1.2,0-2.2-0.8-3.1
		c-0.3-0.3-0.4-0.7-0.3-1.1c0.2-0.7,1.1-0.9,1.7-0.4c0.7,0.7,1.2,1.6,1.4,2.7C47.6,20.1,47.7,20.5,47.7,20.9z"/>
	<path class="st1" d="M50.7,13.1c-0.6,0.6-1.3,1.2-1.9,1.7c-1.8-1.8-3.9-2.7-6.4-2.7s-4.7,1-6.5,2.8c-0.6-0.6-1.3-1.2-1.9-1.8
		C38.2,8.3,46.3,8.2,50.7,13.1z"/>
	<path class="st1" d="M20.9,16.3c0,1.2,0,2.4,0,3.6c1,0,2,0,3,0c0-1.2,0-2.4,0-3.6c0.7,0,1.4,0,2,0c0,3,0,6.1,0,9.1
		c-0.7,0-1.3,0-2,0c0-1.2,0-2.4,0-3.6c-1,0-2,0-3,0c0,1.2,0,2.4,0,3.6c-0.7,0-1.3,0-2,0c0-0.1,0-0.1,0-0.2c0-2.9,0-5.8,0-8.7
		c0-0.2,0-0.2,0.2-0.2C19.7,16.3,20.3,16.3,20.9,16.3z"/>
	<path class="st1" d="M65.4,25.4c-0.7,0-1.3,0-2,0c-0.1,0-0.2-0.1-0.2-0.2c-0.1-0.5-0.3-0.9-0.4-1.4c0-0.1-0.1-0.2-0.3-0.2
		c-0.9,0-1.8,0-2.7,0c-0.2,0-0.2,0-0.3,0.2c-0.1,0.5-0.3,0.9-0.4,1.4c0,0.1-0.1,0.2-0.2,0.2c-0.7,0-1.3,0-2,0
		c0.1-0.4,0.2-0.7,0.3-1.1c0.8-2.6,1.6-5.2,2.4-7.8c0.1-0.2,0.1-0.2,0.3-0.2c0.8,0,1.5,0,2.3,0c0.2,0,0.2,0,0.3,0.2
		c0.9,2.9,1.8,5.8,2.7,8.8C65.4,25.3,65.4,25.3,65.4,25.4z M61.3,18.2C61.3,18.2,61.2,18.2,61.3,18.2c-0.4,1.2-0.7,2.5-1.1,3.7
		c0.7,0,1.4,0,2.1,0C61.9,20.7,61.6,19.4,61.3,18.2z"/>
	<path class="st1" d="M77.5,25.4c0.1-0.3,0.1-0.5,0.2-0.8c0.8-2.7,1.7-5.4,2.5-8.1c0.1-0.2,0.2-0.3,0.4-0.3c0.8,0,1.5,0,2.3,0
		c0.1,0,0.2,0,0.2,0.2c0.9,2.9,1.8,5.9,2.7,8.8c0,0,0,0.1,0,0.2c-0.7,0-1.3,0-2,0c-0.1,0-0.1-0.1-0.2-0.2c-0.1-0.5-0.3-0.9-0.4-1.4
		c0-0.1-0.1-0.2-0.3-0.2c-0.9,0-1.8,0-2.7,0c-0.1,0-0.2,0-0.2,0.2c-0.1,0.5-0.3,1-0.4,1.4c0,0.1-0.1,0.2-0.1,0.2
		C78.8,25.4,78.2,25.4,77.5,25.4z M82.7,21.9c-0.3-1.3-0.7-2.5-1-3.7l0,0c-0.3,1.2-0.7,2.5-1,3.7C81.3,21.9,82,21.9,82.7,21.9z"/>
	<path class="st1" d="M10.1,25.4c-1.9,0-3.8,0-5.7,0c0-3,0-6.1,0-9.1c0.1,0,0.1,0,0.2,0c1.8,0,3.5,0,5.3,0c0.2,0,0.2,0,0.2,0.2
		c0,0.5,0,1,0,1.6c-1.2,0-2.5,0-3.7,0c0,0.6,0,1.2,0,1.8c1.1,0,2.2,0,3.4,0c0,0.6,0,1.2,0,1.8c-1.1,0-2.2,0-3.4,0c0,0.7,0,1.3,0,1.9
		c1.2,0,2.4,0,3.7,0C10.1,24.2,10.1,24.8,10.1,25.4z"/>
	<path class="st1" d="M17.1,18.2c-0.5-0.1-0.9-0.1-1.4-0.2c-0.4,0-0.8,0-1.2,0c-0.6,0-1,0.4-1,1c0,1.2,0,2.5,0,3.7
		c0,0.6,0.3,0.9,0.9,0.9c0.8,0.1,1.5,0,2.3-0.1c0.1,0,0.3,0,0.4-0.1c0.1,0.6,0.2,1.2,0.3,1.8c-0.3,0.1-0.6,0.1-0.9,0.2
		c-0.9,0.1-1.8,0.2-2.8,0s-1.8-0.7-2.1-1.7c-0.1-0.3-0.1-0.6-0.1-0.8c0-1.3,0-2.7,0-4c0-1.4,0.8-2.3,2.2-2.6c1-0.2,1.9-0.1,2.9,0
		c0.2,0,0.5,0.1,0.7,0.1c0.1,0,0.2,0.1,0.1,0.2C17.3,17.1,17.2,17.6,17.1,18.2z"/>
	<path class="st1" d="M3.2,18.1c-0.8,0-1.6,0-2.5,0c0,2.4,0,4.9,0,7.3c-0.7,0-1.3,0-2,0c0-2.4,0-4.9,0-7.3c-0.8,0-1.6,0-2.5,0
		c0-0.6,0-1.2,0-1.8c0.1,0,0.1,0,0.2,0c2.2,0,4.3,0,6.5,0c0.2,0,0.3,0.1,0.3,0.3C3.2,17,3.2,17.6,3.2,18.1z"/>
	<path class="st1" d="M43.3,18.7c0,0.7,0,1.4,0,2.1c0,0.6-0.4,1-1,1s-1-0.4-1-1c0-1.4,0-2.9,0-4.3c0-0.6,0.4-1,1-1s1,0.4,1,1
		C43.3,17.2,43.3,18,43.3,18.7z"/>
</g>
<g id="Layer_5">
</g>
<g id="Layer_2">
</g>
<path class="st3" d="M21.6,26.5v-8.3h1.1l5.1,6.7v-6.7h1v8.3h-1.1l-5.1-6.7v6.7L21.6,26.5L21.6,26.5z M37,26.2
	c-0.7,0.3-1.4,0.4-2.2,0.4c-3,0-4.5-1.4-4.5-4.3c0-2.7,1.4-4.1,4.3-4.1c0.8,0,1.6,0.1,2.3,0.3v0.9c-0.7-0.3-1.4-0.4-2.2-0.4
	c-2.3,0-3.4,1.1-3.4,3.2c0,2.3,1.1,3.4,3.3,3.4c0.4,0,0.7,0,1.2-0.1v-2.8H37L37,26.2z M38.7,23.3v-5.1h1.1v5.1
	c0,1.6,0.8,2.4,2.4,2.4c1.6,0,2.4-0.8,2.4-2.4v-5.1h1.1v5.1c0,2.2-1.1,3.2-3.4,3.2C39.8,26.5,38.7,25.5,38.7,23.3z M48.6,18.2v7.4
	h4.3v0.9h-5.4v-8.3H48.6L48.6,18.2z M54.4,26.5h-1.1l4.1-9.4l4.1,9.4h-1.2l-1.1-2.6h-2.7l0.3-0.9h2.1l-1.5-3.7L54.4,26.5L54.4,26.5z
	 M62.7,26.5v-8.3h3.5c1.6,0,2.4,0.7,2.4,2c0,1.1-0.8,1.9-2.3,2.4l2.8,3.9h-1.4L65,22.8v-0.7c1.6-0.3,2.4-0.9,2.4-1.8
	c0-0.8-0.4-1.1-1.3-1.1h-2.4v7.4L62.7,26.5L62.7,26.5z"/>
<path class="st3" d="M73.1,18.2v5.9c0,1.6-0.9,2.4-2.8,2.4v-0.9c1.2,0,1.7-0.5,1.7-1.5v-5.9L73.1,18.2L73.1,18.2z M75,26.2v-1
	c0.9,0.3,1.8,0.5,2.8,0.5c1.4,0,2.1-0.5,2.1-1.6c0-0.9-0.5-1.3-1.6-1.3h-1.1c-1.7,0-2.6-0.8-2.6-2.3c0-1.6,1.1-2.4,3.3-2.4
	c1,0,1.9,0.1,2.7,0.3v1C79.9,19.2,79,19,78,19c-1.5,0-2.3,0.5-2.3,1.5c0,0.9,0.5,1.3,1.5,1.3h1.1c1.8,0,2.6,0.8,2.6,2.3
	c0,1.6-1.1,2.4-3.2,2.4C76.8,26.5,75.9,26.4,75,26.2L75,26.2z"/>
<g>
	<polygon class="st3" points="10.4,22.1 10.5,22.1 12.4,22.1 10.4,17.8 8.6,22.1 	"/>
	<path class="st3" d="M10.4,11.8L10.4,11.8l-9.7,3.4l1.5,12.6l8.1,4.5l8.2-4.5l1.5-12.6L10.4,11.8z M14.5,26.9l-1.3-3l-2.8,0l0,0
		H7.8l-1.2,3l-2.2,0l6-13.3v0l0,0h0l0,0l0,0l0,0l0,0l6.2,13.3L14.5,26.9z"/>
</g>
</svg>
