<?xml version="1.0" encoding="utf-8"?>
<!-- Generator: Adobe Illustrator 21.0.2, SVG Export Plug-In . SVG Version: 6.00 Build 0)  -->
<svg version="1.1" id="Layer_1" xmlns="http://www.w3.org/2000/svg" xmlns:xlink="http://www.w3.org/1999/xlink" x="0px" y="0px"
	 width="300px" height="150px" viewBox="0 0 300 150" enable-background="new 0 0 300 150" xml:space="preserve">
<g id="Layer_1-2">
	<path id="path7" fill="#FFFFFF" fill-opacity="0" d="M215.7,91.9H84.2V58.1h131.5V91.9z"/>
	<g id="g9">
		<g id="g11">
			<path id="path13" fill="#091C5A" d="M84.2,67.5c0.8-0.1,1.5,0.2,2.1,0.6c0.6,0.7,0.8,1.7,0.7,2.6V87c0,2.3-0.5,3.3-3.3,3.3h-0.4
				v1H96v-1h-0.4c-2.8,0-3.2-1-3.2-3.3V70.7c-0.1-0.9,0.1-1.9,0.7-2.6c0.6-0.5,1.4-0.7,2.2-0.6H96v-1H83.4v1H84.2z"/>
			<path id="path15" fill="#091C5A" d="M124.5,83c-0.1-0.5-0.2-1.1-0.3-1.6v-7.5c0-4.4,0.5-6.5-3.3-6.5v-1h8.8v1
				c-3.9,0-3.4,2.2-3.4,6.5v17.4H125l-18.9-19.8c0.1,0.5,0.2,1.1,0.2,1.6v12.2c-0.1,4.5,0.4,5,3.3,4.9v1h-9.1v-1
				c2.9,0,3.4-0.4,3.4-5.3V73.2v-1.9c0.1-2.5-0.8-3.9-3.6-3.9v-1h8.4L124.5,83z"/>
			<path id="path17" fill="#091C5A" d="M156.2,66h-0.9v0.3c-0.1,0.5-0.3,1.3-0.8,1.3c-0.4,0-0.7-0.1-1-0.3c-2.1-0.9-4.4-1.3-6.6-1.4
				c-4-0.1-7.9,1.4-10.7,4.2c-2.5,2.5-3.8,6-3.8,9.5c0,3.4,1.5,6.7,4.2,8.8c2.8,2.4,6,3.5,10.6,3.5c3.3,0.1,6.6-0.7,9.4-2.4l0.6-0.3
				v-6.5c0-2.8,0.3-3.2,2.6-3.3h0.4v-0.9h-11.1v0.9h0.4c2.5,0.1,3,0.5,3,2.8v6c-1.4,1.1-3.2,1.7-4.9,1.7c-2.4,0-4.8-1-6.5-2.7
				c-2.1-2.3-3.2-5.3-3-8.3c0-3.6,0.9-6.7,2.9-8.6c1.6-1.6,3.8-2.5,6-2.4c2.3,0.1,4.5,0.9,6.3,2.3c1.3,1,2.2,2.4,2.6,4l0.1,0.3h0.9
				L156.2,66z"/>
		</g>
		<g id="g19">
			<path id="path21" fill="#FFFFFF" d="M204.7,91.2c0.6,0,1.2-0.2,1.8-0.5c2,0.3,4.1-0.2,5.8-1.3c0.9-0.7,1.6-1.5,2.3-2.4
				c0.5-0.7,1-1.5,1.3-2.4c0.2-0.5,0.4-1.1,0.5-1.7c0.5-2.8,0.3-5.6-0.6-8.3c-0.2-0.5-0.3-0.9-0.5-1.4c-1.1-2.3-2.6-4.7-4.9-6.1
				c-1.3-0.8-2.4-2-3.2-3.3c-0.4-0.4-0.8-0.8-1.3-0.9c0.2,0.2,0.3,0.5,0.3,0.7l0,0c-0.5,0-1-0.2-1.3-0.6l0.4-0.4
				c-0.2-0.1-0.3-0.1-0.5-0.1c-1.6-0.2-2.9,0.5-4.3,0.9v0.1c0.9,0.4,1,1.3,1.5,2c0.1-0.1,0.3,0,0.5-0.1c0.2-0.1,0.5,0.2,0.7,0.1
				c0-0.2-0.1-0.4-0.1-0.6c0.2,0,0.3,0,0.5,0c0.5,0.3,1.2,0,1.5,0.6c-0.5,0-1,0.1-1.5,0.3c0,0.2,0.2,0.4,0.2,0.5
				c-0.4-0.2-0.9-0.3-1.3-0.3v0.1c0.6,0.6,1.4,1.1,2.2,1.3c1.2,0.3,2.2-0.3,3.3-0.1c2.9,1.5,5.1,3.9,6.2,7c0,0.1,0.1,0.3,0.1,0.4
				c0.9,2.7,1,5.6,0.2,8.3c-0.4,1.1-1,2.1-1.8,3c-0.3,0.4-0.6,0.7-1,1c-1.1,1-2.7,1.3-4.1,0.9c-0.1-0.1-0.3-0.1-0.3-0.2
				s0.1-0.4,0.1-0.7c0.3-1.3,0.4-2.6,0.3-3.9v-0.2c-0.1-1.8-0.5-3.6-1.2-5.3c-0.5-1-1-2-1.7-2.9c-0.8-1.1-1.8-2-3.1-2.6
				c-0.8-0.3-1.7-0.2-2.4,0.4c-0.4,0.4-0.6,0.9-0.5,1.4c-0.7,0.4-1.4,0.7-2.2,0.7c-0.2,0-0.4,0.1-0.6,0.1c-0.2,0-0.4,0-0.6,0
				c-1-0.2-2-0.6-2.8-1.3c0-0.4,0-0.8-0.1-1.2c-0.5-0.2-0.8-0.7-0.8-1.2l0,0c0.2,0.1,0.5,0.2,0.7,0.3c-0.1-0.6-0.2-1.2-0.5-1.7
				c-0.3-0.1-0.6-0.2-0.8-0.4c-0.3-0.2-0.5-0.6-0.5-0.9c0.3,0.3,0.7,0.2,0.9,0.5c-0.4-1.1-0.4-2.3-0.9-3.3c-0.3-0.7-1.1-1.1-1.6-1.6
				c-0.2-0.3-0.3-0.6-0.7-0.7c-0.4,0-0.3-0.4-0.4-0.6c0.2,0,0.4,0.2,0.5,0.2c-0.5-1.2-0.8-2.5-2.1-3.3l-0.2,0.1
				c-0.5,0.1-1,0.1-1.5,0.1c0.2-0.3,0.5-0.5,0.9-0.6c-0.3-0.2-0.7-0.4-1-0.4c-0.3,0.2-0.7,0.3-1.1,0.4l0,0c0-0.3-0.1-0.6,0.4-0.7
				c-0.5-0.2-1-0.2-1.5,0c-0.1,0.3-0.5,0.6-0.4,0.9c-0.2,0.3-0.4,0.5-0.7,0.8c0.1-0.6,0.2-1.1,0.4-1.7c-0.4,0.1-0.7,0.3-1,0.5
				c-0.6-0.3-1.1-0.6-1.7-0.9c-0.1,0-0.2,0-0.1,0.1c0.5,0.4,0.3,1,0.4,1.6l-0.3-0.3c-0.2-0.4-0.6-0.7-0.7-1.1
				c-0.5,0.1-0.9,0.2-1.4,0.5h-0.1c0.4,0,0.7,0.3,0.9,0.6c-0.5,0-1.1-0.1-1.6-0.2c-0.1-0.1-0.1-0.1-0.2-0.1
				c-0.3,0.1-0.5,0.3-0.7,0.5c-0.6,0.5-1,1.1-1.3,1.9c0.2,0,0.4,0,0.5,0.1c-0.3,0.2-0.6,0.5-0.8,0.6c-0.1,0.4-0.1,0.9-0.1,1.3
				c-0.3,0.3-0.5,0.7-0.7,1c-0.5,1.6-0.6,3.4-0.5,5.1c-0.2,0.1-0.4,0.2-0.5,0.4v1.6l0,0c0.1-0.3,0.5-0.5,0.7-0.7h0.1
				c0,0.4-0.1,0.7-0.1,1.1l-0.5,0.4c-0.5,0.4-0.1,1-0.1,1.5c0,0.1,0.1,0.3,0.1,0.4c0.1-0.2,0.2-0.4,0.3-0.5c0.2,0,0.4-0.2,0.5-0.2
				c-0.1,0.4-0.2,0.8-0.4,1.1c-0.1,0.1-0.2,0.1-0.2,0.2c-0.1,0.1-0.1,0.2-0.2,0.3c0.4,1.8,0.9,3.6,1.5,5.4c-0.4,0.7-0.7,1.6-1,2.3
				c-0.1,0.1-0.1,0.2-0.1,0.3c-0.4,0.9-0.5,1.9-0.9,2.8c-0.2-0.1-0.4-0.2-0.6-0.3c-0.8-0.3-1.8-0.1-2.4,0.5c-0.5-0.1-1.1,0-1.5,0.3
				c-0.3,0.2-0.5,0.5-0.7,0.8c-0.1,0.2-0.1,0.5-0.1,0.7c-0.3,0.2-0.5,0.6-0.6,1c-0.1,0.8,0.1,1.7,0.6,2.4L204.7,91.2L204.7,91.2z"/>
			<path id="path23" fill="#FFFFFF" d="M199.5,73.8c0,0.2-0.2,0.4,0,0.6c0.2-0.2,0.5-0.2,0.8-0.3c0.7,0,1.4,0.1,2,0.3
				c-0.2-0.3-0.3-0.5-0.5-0.8c-0.4-0.1-0.9,0.2-0.9-0.4c-0.2-0.2-0.6-0.1-0.8,0C199.9,73.4,199.7,73.6,199.5,73.8L199.5,73.8z"/>
			<path id="path25" fill="#FFFFFF" d="M175.7,67.1L175.7,67.1z"/>
			<path id="path27" fill="#FFFFFF" d="M178.6,74l0.5-0.5c0,0,0.1,0,0.1,0v0.9c0.2,0.2,0.5,0.3,0.8,0.3c0-0.2,0.2-0.4,0.3-0.6
				c0.1-0.2,0-0.4,0.2-0.5l0.1,0.1c0,0.3,0.1,0.5,0.2,0.8l0.1,0.4c0.3,0,0.6-0.1,0.9-0.2c0-0.3,0.1-0.5,0.1-0.8
				c0.1-0.1-0.1-0.3,0.1-0.3c0.1,0.2,0.3,0.5,0.4,0.7c0.4-0.5,0.7-1.1,0.8-1.7c-0.1-0.2-0.3-0.2-0.5-0.3c-1.4-0.5-2.9-0.4-4.3,0.1
				C178.1,72.9,178.2,73.5,178.6,74z"/>
			<path id="path29" fill="#FFFFFF" d="M166.2,88.6c0,0.6,0,1.2,0,1.8c0.1,0.2,0.3,0.4,0.6,0.4v-0.4c0.1-0.6-0.2-1.1,0.1-1.6
				c0.2,0.1,0.4,0.2,0.6,0.3c0.1-0.5-0.1-1.1-0.5-1.4L166.2,88.6z"/>
			<path id="path31" fill="#FFFFFF" d="M168.1,87.7c-0.4,0.9-0.4,2-0.2,3c0.2-0.1,0.4-0.3,0.6-0.5c-0.1-0.7,0-1.5,0.3-2.1
				c0.4,0.2,0.7,0.5,0.8,0.8c0.3-0.3,0.3-0.8,0.2-1.2c0-0.3-0.4-0.3-0.6-0.4c0.1-0.3,0.1-0.6,0.4-0.8l-0.9,0.1
				C168.5,87,168.3,87.3,168.1,87.7z"/>
			<path id="path33" fill="#FFFFFF" d="M170,90.4c0,0.1,0,0.2,0.1,0.2c0.1-0.6,0.6-1.1,0.9-1.7c0.1-0.2,0.1-0.5,0.4-0.6
				c0.3,0,0.5,0.2,0.8,0.2c0.1,0.1,0,0.1-0.1,0.2c-0.1,0.5-0.2,1-0.2,1.5h0.1c0.4-0.4,0.7-0.9,1-1.4l0.1-0.4
				c0.1-0.5-0.5-0.9-0.9-1.1l0.3-0.4l-0.5-0.2c-0.5,0-1.1,0.3-1.4,0.7C170.2,88.4,170,89.4,170,90.4z"/>
			<path id="path35" fill="#FFFFFF" d="M172.1,85.8c0.2,0.1,0.3-0.1,0.5,0c0.8,0.2,1.4,0.6,2,1.1l0.6,1.6l0.3-1l-0.2-0.5
				c-0.2-0.4-0.7-0.4-1-0.4c-0.1-0.2,0-0.3,0.1-0.5c0.2-0.5-0.5-0.5-0.8-0.7c0-0.3-0.4-0.2-0.6-0.3L173,85c-0.1-0.1-0.2-0.1-0.2,0
				c0,0,0,0,0-0.1h-0.2C172.3,85.2,172.2,85.5,172.1,85.8L172.1,85.8z"/>
			<path id="path37" fill="#FFFFFF" d="M172.6,84c0,0.1,0.1,0.2,0.2,0.3c0.4-0.1,0.7-0.3,1.1-0.2c0.5,0.5,1.1,0.9,1.7,1.2h0.2
				c0.1,0,0.3,0.1,0.4,0.2c0.1,0.2-0.1,0.3-0.2,0.5c0.4,0.3,0.2,0.7,0.4,1l0.6-0.7c-0.1-0.3,0-0.9-0.5-0.9c-0.2-0.1-0.3-0.3-0.3-0.5
				c-0.3-0.3-0.7-0.4-1.1-0.7c-0.3-0.3-0.4-0.6-0.8-0.6c-0.2-0.1-0.5-0.2-0.8-0.3C173,83.1,172.9,83.7,172.6,84z"/>
			<path id="path39" fill="#FFFFFF" d="M173.3,82.5l0.1,0.1c0.4,0,0.7-0.2,1.1-0.2c0.3,0.2,0.6,0.1,0.9,0.3c0.2,0.3,0.4,0.6,0.7,0.8
				c0.6,0.1,1,0.8,1.2,1.3v-0.2c0.1-0.3,0-0.7-0.1-1c-0.2-0.2-0.4-0.3-0.5-0.4c0-0.1,0-0.2,0-0.2c-0.3-0.2-0.6-0.4-0.9-0.6
				c-0.4-0.6-1.2-0.4-1.9-0.6L173.3,82.5L173.3,82.5z"/>
			<path id="path41" fill="#FFFFFF" d="M173.3,76.8c0.1,0.2,0.2,0.5,0.2,0.8c0.2-0.5,0.6-0.7,1-1.1c-0.2-0.1-0.5-0.2-0.7-0.3l0,0
				C173.6,76.4,173.4,76.5,173.3,76.8z"/>
			<path id="path43" fill="#FFFFFF" d="M174.7,79.3l0.4-0.4c0.4-0.3,0.6-0.8,0.7-1.2c-0.3-0.1-0.6-0.1-0.8,0
				C174.8,78.2,174.8,78.8,174.7,79.3L174.7,79.3z"/>
			<path id="path45" fill="#FFFFFF" d="M175,80.4c0.5,0.1,1,0.1,1.5-0.2l0.4-1.4c-0.1,0-0.3,0-0.4,0C176.2,79.5,175.7,80.1,175,80.4
				z"/>
			<path id="path47" fill="#FFFFFF" d="M175.1,75.5c0.4,0.6,0.9,1,1.5,1.3c-0.1-0.6-0.6-1.1-0.9-1.7v-0.2c-0.2-0.2-0.5-0.4-0.7-0.5
				C175,74.8,175.1,75.1,175.1,75.5L175.1,75.5z"/>
			<path id="path49" fill="#FFFFFF" d="M177,80.5c0.4,0.1,0.8,0,1.2-0.1c0.6-0.1,0.9-0.7,1-1.2h-0.7l-0.8,0.7
				C177.6,80,177.3,80.3,177,80.5L177,80.5z"/>
			<path id="path51" fill="#FFFFFF" d="M177,74.7c0.1,0.6,0.4,1.2,0.7,1.7l0.1-1.2L177,74.7z"/>
			<path id="path53" fill="#FFFFFF" d="M179.5,77.8c0-0.4-0.1-0.8-0.2-1.2c-0.2-0.2-0.6-0.1-0.8-0.3C178.6,76.9,179,77.4,179.5,77.8
				z"/>
			<path id="path55" fill="#FFFFFF" d="M178.8,81.7c0.5-0.1,1-0.3,1.4-0.6c0.3-0.4,0.7-0.8,0.8-1.3c-0.4,0.1-0.7,0-1,0.1
				c-0.1,0.4-0.4,0.8-0.7,1C179.2,81.3,178.9,81.5,178.8,81.7z"/>
			<path id="path57" fill="#FFFFFF" d="M179.6,82.7l0.6,0.8c0.3,0.1,0.6,0.1,0.9-0.1l-0.2-0.7C180.4,82.7,180,82.8,179.6,82.7z"/>
			<path id="path59" fill="#FFFFFF" d="M180.5,77.2l0.2,1c0.5-0.5,0.7-1.1,0.6-1.8C181.2,76.7,180.9,77,180.5,77.2L180.5,77.2z"/>
			<path id="path61" fill="#FFFFFF" d="M182.1,79c0,0.1,0,0.3,0.1,0.4c0.6,0.2,0.7,0.9,1.2,1.2c0.4,0.1,0.8,0,1.1-0.2
				c-0.2-0.3-0.5-0.5-0.8-0.8c-0.2-0.1-0.3-0.2-0.3-0.4L182.1,79L182.1,79z"/>
			<path id="path63" fill="#FFFFFF" d="M182.5,82.7c0.3,0.3,0.6,0.5,1,0.5c-0.1-0.1,0,0,0.1-0.1l-0.5-1c-0.2,0-0.5,0.1-0.7,0
				C182.5,82.3,182.5,82.5,182.5,82.7L182.5,82.7z"/>
			<path id="path65" fill="#FFFFFF" d="M183.4,77.9c-0.2-0.5-0.3-1.1-0.4-1.7c-0.2,0.3-0.5,0.5-0.7,0.7
				C182.2,77.5,183,77.6,183.4,77.9z"/>
			<path id="path67" fill="#FFFFFF" d="M184.3,77.3c0.3,0.4,0.9,0.2,1.2,0.1c-0.2-0.3-0.7-0.4-0.8-0.7c0-0.5-0.2-1-0.3-1.5
				C184,75.8,184,76.7,184.3,77.3z"/>
			<path id="path69" fill="#FFFFFF" d="M184.8,79c0.8,0.6,1.5,1.2,2.6,1c0.1-0.1,0.2,0,0.2-0.1c-0.3-0.2-0.7-0.4-1-0.5l-0.4-0.5
				h-0.2C185.7,78.9,185.3,78.9,184.8,79L184.8,79z"/>
			<path id="path71" fill="#FFFFFF" d="M184.8,85.3L184.8,85.3c0.5-0.3,1.1-0.5,1.6-0.6c0.1,0.1,0.1,0.2,0.2,0.3
				c0.3-0.1,0.7-0.1,1.1-0.2c0.4,0,0.7,0.1,1.1,0.2c0.3,0.4,0.8,0.3,1.1,0.5l-0.1-0.5c-0.8-0.7-1.8-1.1-2.9-0.9v-0.1
				c-0.3,0-0.5,0.1-0.8,0.2c-0.3,0.1-0.6,0.1-0.9,0.3C185.1,84.6,185,85,184.8,85.3z"/>
			<path id="path73" fill="#FFFFFF" d="M185.4,75.7c0.3,0.4,0.8,0.7,1.3,0.6c-0.3-0.2-0.5-0.6-0.6-0.9c0.1-0.7-0.7-0.7-1.1-1.1
				C185.1,74.8,185.2,75.3,185.4,75.7z"/>
			<path id="path75" fill="#FFFFFF" d="M185.4,86.7L185.4,86.7c0.5-0.3,1.1-0.1,1.5-0.3c0.2-0.1,0.2,0.2,0.4,0.3
				c0.4,0.2,0.4,0.9,0.9,0.8c0.6,0.3,0.5,1.1,0.5,1.7l0.6-0.4c-0.1-0.3,0.1-0.7-0.1-0.9c-0.2-0.3-0.5-0.4-0.7-0.6
				c0.2-0.4-0.3-0.6-0.4-0.9l0,0l0.8,0.1c0.2,0.2,0.4,0.5,0.5,0.8c0.6,0.1,0.8,0.8,1,1.3c0.1-0.3,0.2-0.7,0.3-0.9
				c0.1-0.3-0.3-0.3-0.5-0.4c0-0.4-0.2-0.8-0.6-1c-0.7-0.3-1.4-0.5-2.1-0.6l-0.7,0.2c-0.4,0.1-0.7,0-1,0.2
				C185.4,86,185.4,86.5,185.4,86.7L185.4,86.7z"/>
			<path id="path77" fill="#FFFFFF" d="M185.8,83.5l0.1,0.1c0.3-0.1,0.6-0.3,0.9-0.4c0.5-0.1,0.9,0.4,1.4,0.1
				c0.2-0.1,0.3,0.1,0.4,0.1c0.2,0.3,0.6,0.3,0.9,0.4c-0.2-0.4-0.4-1-0.9-1.1c-0.2,0-0.4-0.1-0.6-0.2c-0.6-0.7-1,0.5-1.6,0.3
				C186.1,82.9,185.9,83.1,185.8,83.5z"/>
			<path id="path79" fill="#FFFFFF" d="M185.9,87.2c0.3,0.2,0.5,0.6,0.9,0.5c0.5,0.2,0.3,0.9,0.5,1.2l0.3-0.3l0,0l0,0l0,0
				c0-0.3,0-0.6-0.2-0.9c-0.2-0.1-0.4,0-0.6-0.1c0-0.2-0.2-0.4-0.4-0.5c-0.1-0.1-0.3,0-0.4,0L185.9,87.2L185.9,87.2z"/>
			<path id="path81" fill="#FFFFFF" d="M186.9,77.8c0.3,0.4,0.7,0.7,1.1,1c0.3,0.1,0.7,0.2,1.1,0.1c-0.3-0.3-0.6-0.6-0.9-0.9
				c-0.1-0.2-0.1-0.4-0.3-0.5C187.6,77.5,187.2,77.6,186.9,77.8L186.9,77.8z"/>
			<path id="path83" fill="#FFFFFF" d="M187.3,75c0.4,0.4,0.9,0.3,1.4,0.3v-0.1l-0.8-0.7C187.7,74.7,187.5,74.8,187.3,75L187.3,75z"
				/>
			<path id="path85" fill="#FFFFFF" d="M173,67.7l0.5,1.4c0-0.8,0.4-1.5,0.3-2.3l0.3-0.5l-0.7,0.2C173.2,66.9,173,67.3,173,67.7z"/>
			<path id="path87" fill="#FFFFFF" d="M173.3,65.2l0.6-0.4V64c-0.2,0.2-0.4,0.4-0.6,0.6L173.3,65.2z"/>
			<path id="path89" fill="#FFFFFF" d="M185.9,66.7c-0.1,0.2-0.3,0.3-0.6,0.3c0.4-0.6,0.4-1.4,0.2-2.1c0.2,0,0.4-0.1,0.5-0.2l0,0
				l0.4-0.4c0.6-0.4,0.4-1.1,0.6-1.7c-0.3-0.4-0.4-0.9-0.8-1.3l0,0c-0.3-0.4-0.9-0.4-1.3-0.6s-1,0.2-1.4,0.5c-0.2,0-0.1,0.3-0.3,0.3
				c-0.1,0.3-0.2,0.6-0.3,0.9c-0.8-0.1-1.6,0-2.2,0.4c-0.3-0.2-0.7-0.3-1.1-0.4c-0.3-0.1-0.6,0-0.8-0.1c-0.3-0.3-0.4-0.9-0.9-1
				c-0.2-0.1-0.2-0.3-0.2-0.4c-0.3-0.1-0.6-0.2-0.9-0.3c-0.5-0.2-0.9,0.1-1.3,0.4c-0.2,0-0.3,0.1-0.5,0.2c-0.3,0.4-0.5,0.9-0.7,1.4
				c0.1,0.4,0.2,0.8,0.4,1.1c0.2,0.5,0.6,0.9,1.1,1.1c-0.2,0.8-0.2,1.7,0,2.5l0,0l0,0c-0.1,0-0.1,0-0.2,0l0,0c0.1,0.7,0.5,1.4,1,1.9
				c0.2,0.1,0.2,0.3,0.2,0.5c0,0.1,0,0.2,0,0.3c-1.1,0-2.3,0.2-3.3,0.8c-0.3,0.1-0.1,0.5-0.2,0.7c0.7-0.5,1.4-0.8,2.2-0.9
				c0.4,0,0.7,0,1.1,0V71c-1,0.4-1.9,0.9-2.7,1.6c0,0.2,0,0.5,0,0.7l0.7-0.6c0.7-0.5,1.4-0.9,2.2-1.3c0.2,0.3,0.4,0.5,0.7,0.7
				c0.5-0.3,1-0.5,1.5-0.7c0.3-0.2,0.7,0,0.9-0.4l0.1-0.7c0,0,0,0-0.1,0c-0.4-0.2-0.6-0.6-0.6-1c-0.1,0.1-0.3,0.1-0.4,0.1
				c-0.1,0-0.2-0.1-0.3-0.2s-0.1-0.4,0.1-0.5c0.6-0.3,1.2-0.4,1.8-0.3c0.5,0.1,1.2,0,1.3,0.6c0,0.2,0,0.3-0.2,0.5
				c-0.2,0.1-0.4,0-0.5-0.1c-0.1,0.4-0.4,0.8-0.8,0.9l0.1,0.5c0.1,0.2,0.1,0.5,0.4,0.5c0.7,0.2,1.4,0.5,2,0.9
				c0.2-0.2,0.4-0.4,0.5-0.7c1.1,0.5,2.2,1.2,3.1,2V73c-0.9-0.8-1.9-1.4-2.9-1.9c0-0.2,0.1-0.4,0.1-0.6c1.2,0.1,2.4,0.4,3.4,1V71
				c-1.1-0.6-2.3-0.9-3.5-0.9c0-0.1-0.1-0.2-0.1-0.2c0.7-0.1,1.2-0.7,1.4-1.3c0.3-0.4,0.8-0.8,0.7-1.3v-0.1
				C185.9,66.9,186,66.8,185.9,66.7z"/>
			<path id="path91" fill="#FFFFFF" d="M187,68.7l0.6-0.2l0.1-0.4c0.2-0.5-0.2-0.9-0.4-1.3L187,68.7L187,68.7z"/>
			<path id="path93" fill="#FFFFFF" d="M188.6,71.1c0.3,0.3,0.6,0.9,1.1,0.7c-0.1-0.2-0.1-0.4-0.2-0.6c-0.1-0.2-0.2-0.6-0.5-0.5
				c-0.2-0.1-0.3-0.4-0.4-0.6C188.6,70.5,188.6,70.8,188.6,71.1z"/>
			<path id="path95" fill="#FFFFFF" d="M188.7,73.4c0.1,0.2,0.1,0.4,0.3,0.5c0.2,0.1,0.5,0.1,0.8,0.1c0.2-0.1,0.4,0.2,0.6,0.1
				c-0.3-0.2-0.4-0.5-0.7-0.7C189.4,73.1,189.1,73.3,188.7,73.4z"/>
			<path id="path97" fill="#FFFFFF" d="M189.1,77c0.6,0.4,1.3,0.6,1.9,0.5c0.1,0,0.2,0,0.2-0.1c-0.4-0.3-0.9-0.5-1.4-0.7
				c-0.3-0.4-0.6,0.1-0.9,0.1C189,76.9,189.1,76.9,189.1,77z"/>
			<path id="path99" fill="#FFFFFF" d="M190.8,83.9l0.1,0.3c0.1,0.8,0.6,1.6,0.4,2.4c0.2,0.2,0.3,0.4,0.5,0.6l0,0
				c0.1-0.7,0.1-1.3,0-2C191.7,84.5,191.1,84.2,190.8,83.9z"/>
			<path id="path101" fill="#FFFFFF" d="M190.9,75.9c0.5,0.3,1,0.4,1.5,0.2c-0.3-0.2-0.6-0.3-0.9-0.6L190.9,75.9z"/>
			<path id="path103" fill="#FFFFFF" d="M192.8,78.3c0,0.3,0.1,0.6,0.4,0.8c0.1-0.2,0.2-0.4,0.2-0.6c-0.1-0.3-0.3-0.7-0.6-0.9
				C192.8,77.8,192.8,78.1,192.8,78.3z"/>
			<path id="path105" fill="#FFFFFF" d="M192.8,81.8c-0.1,0.4,0.4,0.4,0.5,0.6c0.2,0.2-0.1,0.3-0.1,0.5c0.3,0.4,0.5,0.8,0.5,1.3
				c0.1-0.5,0.3-0.9,0.4-1.4c0-0.3-0.6-0.3-0.5-0.6c0.1-0.4,0-0.8-0.1-1.1c0-0.1-0.1-0.2-0.2-0.1C193.2,81.2,192.8,81.5,192.8,81.8z
				"/>
			<path id="path107" fill="#FFFFFF" d="M193.9,80l0.4,0.8c0.2,0,0.3-0.2,0.4-0.3c0.1-0.3-0.2-0.5-0.3-0.8s0-0.4-0.1-0.6
				c-0.1-0.2-0.2-0.2-0.3-0.1L193.9,80L193.9,80z"/>
			<path id="path109" fill="#FFFFFF" d="M194.4,77.9c0.4,0.2,0.6,0.5,0.9,0.8c0.3,0.8,0.7,1.5,1,2.3c0.1,0.5,0.2,1,0.4,1.5
				c0.1,0.1,0,0.4,0.2,0.4c0.1-0.6,0.2-1.2,0.2-1.8c-0.2-0.2-0.4-0.4-0.7-0.5v-0.1c0-0.1,0.1-0.3,0.3-0.3c0.2,0,0.3-0.2,0.2-0.3
				c-0.4-0.4-0.4-1.1-1-1.2c-0.2-0.1-0.3-0.3-0.3-0.5C195.2,78,194.8,77.9,194.4,77.9z"/>
			<path id="path111" fill="#FFFFFF" d="M194.8,82.1c0.4,0.4,0.3,0.9,0.2,1.4c-0.1,0.3,0.3,0.1,0.4,0.3c0.2,0.4,0.2,0.9,0,1.3
				c0.2-0.3,0.4-0.6,0.6-0.9c0-0.1,0.2-0.2,0.2-0.4c0-0.2-0.2-0.1-0.3-0.1s-0.2-0.1-0.2-0.2c0.1-0.4,0.1-0.8-0.1-1.2
				c-0.1-0.3,0-0.7-0.1-1C195.3,81.5,194.6,81.6,194.8,82.1L194.8,82.1z"/>
			<path id="path113" fill="#FFFFFF" d="M195.5,76.6c0.7,0.7,1.2,1.4,1.9,2.1c0-0.3,0-0.6,0-0.9c-0.1-0.2-0.3-0.4-0.5-0.5
				C196.4,77.2,196.1,76.5,195.5,76.6z"/>
			<path id="path115" fill="#FFFFFF" d="M197.3,80.3c0,0.1,0,0.1,0.1,0.2c0.3,0.5,0.6,1,0.8,1.5c-0.1-0.6,0.3-1.3-0.2-1.7
				c-0.1-0.2-0.3-0.1-0.5-0.1L197.3,80.3z"/>
			<path id="path117" fill="#FFFFFF" d="M199.2,86c0.2,0.1,0.5-0.1,0.7-0.2c0.2,0,0.4,0,0.5,0.2c0.1,0.1,0,0.2,0,0.4
				c0.5,0.1,0.9,0.3,1.3,0.6l0.1-0.1c0-0.3-0.2-0.6-0.5-0.8c-0.2-0.1-0.4,0-0.5-0.2c0.1-0.1,0.1-0.3,0.1-0.5c-0.2,0-0.4-0.1-0.6-0.2
				c-0.1,0-0.3-0.1-0.4,0C199.6,85.4,199.6,85.8,199.2,86L199.2,86z"/>
			<path id="path119" fill="#FFFFFF" d="M199.7,76.2c0.2,0,0.4-0.1,0.6-0.3c0.5-0.5,1.3-0.2,1.9-0.2c-0.1-0.2-0.3-0.4-0.4-0.6
				c-0.2-0.1-0.4-0.2-0.7-0.2c-0.5-0.3-0.9,0.2-1.3,0.5C199.7,75.7,199.6,76,199.7,76.2z"/>
			<path id="path121" fill="#FFFFFF" d="M199.8,77.8C199.8,77.8,199.8,77.7,199.8,77.8c0-0.1,0,0.2,0.1,0.2c0.2-0.1,0.4-0.2,0.6-0.4
				c0.5,0,0.8-0.5,1.3-0.5c0.9,0.1,1.7,0.4,2.4,0.7c-0.1-0.5-0.4-1-0.9-1.2c-0.2-0.1-0.5,0-0.6,0.2c-0.5,0.3-0.3-0.5-0.6-0.5
				c-0.5,0.2-1,0.3-1.5,0.3c-0.3,0.1-0.5,0.4-0.9,0.4C199.7,77.2,199.7,77.5,199.8,77.8L199.8,77.8z"/>
			<path id="path123" fill="#FFFFFF" d="M200.1,79.5c0.2,0.2,0.4,0.1,0.7,0.2l0.7-0.3c0-0.1-0.2-0.2-0.2-0.3
				c0.2-0.2,0.4-0.1,0.7-0.1c0.2-0.1,0.7-0.4,1-0.1c0,0,0,0.1,0,0.1c-0.1,0.2,0.1,0.4,0.3,0.5c0.4,0.1,0.7,0.4,1.1,0.3
				c0-0.3-0.1-0.6-0.2-0.9c-0.3-0.1-0.5-0.3-0.8-0.4c-0.1,0.1-0.3,0.2-0.5,0.2c-0.6-0.1-1.3-0.5-1.9-0.1c-0.2,0.3-0.6,0.2-0.9,0.3
				C200,79,200.1,79.3,200.1,79.5z"/>
			<path id="path125" fill="#FFFFFF" d="M200.4,84.2c0,0.1-0.2,0.4,0.1,0.4c0.5,0,1.1-0.2,1.5,0.1c0.1,0.1,0.1,0.3,0.1,0.4l0.6,0.5
				c0.1-0.3,0.1-0.6,0.2-0.9c-0.1-0.3-0.2-0.5-0.4-0.6c-0.4,0-0.7-0.5-1.1-0.4c-0.2-0.1-0.5,0.2-0.7,0.2
				C200.5,84,200.5,84.1,200.4,84.2L200.4,84.2z"/>
			<path id="path127" fill="#FFFFFF" d="M200.6,80.5c0.1,0.2,0.2,0.5,0.4,0.6c0.5-0.2,1.1-0.3,1.6-0.1c0.2,0,0.2,0.2,0.1,0.4
				c0.3,0.2,0.6,0.3,0.9,0.5l-0.1-0.5c0-0.5-0.7-0.6-0.7-1c-0.5-0.2-1.1-0.2-1.7-0.1c-0.2,0.2-0.4,0.1-0.7,0.2
				C200.5,80.4,200.6,80.4,200.6,80.5z"/>
			<path id="path129" fill="#FFFFFF" d="M200.7,83c0.3-0.1,0.5-0.4,0.8-0.5c0.5,0,1,0.2,1.3,0.6c0.2,0.1,0.1,0.4,0.4,0.4
				c0-0.4,0-0.7,0-1.1c-0.3-0.5-1.1-0.1-1.4-0.8h-0.6c-0.4,0.1-0.3,0.6-0.4,0.9C200.7,82.8,200.7,82.9,200.7,83L200.7,83z"/>
			<path id="path131" fill="#FFFFFF" d="M203.5,86.4c0.2,0.5,0.8,0.8,0.8,1.4c0.1-0.1,0.2-0.3,0.3-0.5c0-0.2-0.2-0.2-0.3-0.3
				s0-0.4,0.1-0.6c-0.1-0.3-0.3-0.6-0.6-0.7L203.5,86.4z"/>
			<path id="path133" fill="#FFFFFF" d="M204.5,85.2l0.6,0.8c0.2-0.4,0.3-0.9,0.1-1.4c-0.1-0.1-0.2-0.2-0.3-0.2
				C204.7,84.6,204.7,84.9,204.5,85.2L204.5,85.2z"/>
			<path id="path135" fill="#FFFFFF" d="M202.2,63.9c0.2,0.1,0.4,0.2,0.6,0.2c0.2-0.1,0.4-0.1,0.6-0.1c0.3,0.2,0.6,0,0.9,0
				c-0.3-0.3-0.6-0.5-0.9-0.6C203,63.5,202.7,63.8,202.2,63.9z"/>
			<path id="path137" fill="#FFFFFF" d="M205.3,64.7c0.4,0,0.7,0.4,1,0.7c0.3,0.1,0.6,0.3,0.8,0.6l-0.1-0.4
				c-0.1-0.4-0.3-0.8-0.6-1.1C206,64.5,205.6,64.5,205.3,64.7z"/>
			<path id="path139" fill="#FF6600" d="M176.2,61.2h0.2c0.6,0.3,1.6,0.5,1.6,1.3c-0.6,0.2-1.2,0.6-1.7,1.1
				c-0.4-0.4-1.1-0.2-1.3-0.8C175.3,62.2,175.5,61.4,176.2,61.2L176.2,61.2z"/>
			<path id="path141" fill="#FF6600" d="M176.9,65.2c0.7-0.1,1.4,0,2.1,0c0.2,0.1,0.4,0.2,0.5,0.4c0,0.8-0.3,1.6-0.3,2.5
				c-0.3,0.1-0.6,0.4-0.7,0.8c-0.3,0.1-0.6,0.2-0.8,0.4c-0.1-0.3-0.1-0.6,0.1-0.9c0.3-0.4,1.1-0.3,1-1c0.2-0.3,0-0.8,0-1.1
				s-0.2,0.1-0.3,0.1c-0.2,0.1-0.5,0.1-0.7-0.1c-0.2-0.2-0.4-0.3-0.4-0.5c-0.2-0.1-0.4-0.3-0.6-0.5L176.9,65.2z"/>
			<path id="path143" fill="#FF6600" d="M177.7,70.3c0.3,0,0.7-0.1,0.9,0.1c-0.1,0.1-0.2,0.2-0.4,0.2l-0.5,0.2
				C177.6,70.7,177.7,70.4,177.7,70.3z"/>
			<path id="path145" fill="#FF6600" d="M179,63.8c0.3-0.1,0.7-0.3,1-0.2c-0.3,0.3-0.5,0.6-0.6,0.9h-1.1
				C178.5,64.2,178.7,63.9,179,63.8z"/>
			<path id="path147" fill="#FF6600" d="M182.2,63.5c0.4-0.1,0.4,0.5,0.8,0.5c0.1,0.1,0.2,0.2,0.1,0.3c-0.3,0.1-0.6,0.1-0.8,0.1
				c-0.4-0.2-0.1-0.8-0.7-0.8c0,0-0.1-0.1,0-0.2C181.8,63.5,182,63.5,182.2,63.5L182.2,63.5z"/>
			<path id="path149" fill="#FF6600" d="M181.9,65.6c0.2-0.2,0.5-0.3,0.8-0.4h2c0.1,0.1-0.1,0.1-0.1,0.2c0,0.1-0.3,0.1-0.4,0.3
				c-0.3,0-0.2,0.3-0.4,0.5c-0.3,0.3-0.7,0.2-1,0.1c-0.1-0.1-0.2-0.2-0.3-0.3l-0.1,0.1c0.1,0.4,0.1,0.9,0.2,1.4l0.5,0.3
				c0,0.7,0.9,0.5,1.2,0.9c-0.1,0.3-0.3,0.5-0.4,0.7c-0.3-0.3-0.6-0.5-1-0.6c0-0.4-0.5-0.7-0.8-0.9c-0.1-0.8-0.1-1.5-0.2-2.3
				L181.9,65.6z"/>
			<path id="path151" fill="#FF6600" d="M182.6,70.4h0.9l-0.1,0.5l-0.9-0.4C182.5,70.4,182.6,70.4,182.6,70.4z"/>
			<path id="path153" fill="#FF6600" d="M184.3,61.6l0.7-0.2c0.4,0.2,0.8,0.4,1.2,0.7c0.2,0.6,0.3,1.2,0.1,1.9
				c-0.2,0.2-0.7,0-0.8,0.4l0,0c-0.3-0.8-0.9-1.4-1.7-1.7C183.8,62.2,184,61.8,184.3,61.6L184.3,61.6z"/>
			<path id="path155" fill="#FFFFFF" d="M200.5,91.2h4.2c0.6,0,1.2-0.2,1.8-0.5c2,0.3,4.1-0.2,5.8-1.3c0.9-0.7,1.6-1.5,2.3-2.4
				c0.5-0.7,1-1.5,1.3-2.4c0.2-0.5,0.4-1.1,0.5-1.7c0.5-2.8,0.3-5.6-0.6-8.3c-0.2-0.5-0.3-0.9-0.5-1.4c-1.1-2.3-2.6-4.7-4.9-6.1
				c-1.3-0.8-2.4-2-3.2-3.3c-0.4-0.4-0.8-0.8-1.3-0.9c0.2,0.2,0.3,0.5,0.3,0.7l0,0c-0.5,0-1-0.2-1.3-0.6l0.4-0.4
				c-0.2-0.1-0.3-0.1-0.5-0.1c-1.6-0.2-2.9,0.5-4.3,0.9v0.1c0.9,0.4,1,1.3,1.5,2c0.1-0.1,0.3,0,0.5-0.1c0.2-0.1,0.5,0.2,0.7,0.1
				c0-0.2-0.1-0.4-0.1-0.6c0.2,0,0.3,0,0.5,0c0.5,0.3,1.2,0,1.5,0.6c-0.5,0-1,0.1-1.5,0.3c0,0.2,0.2,0.4,0.2,0.5
				c-0.4-0.2-0.9-0.3-1.3-0.3v0.1c0.6,0.6,1.4,1.1,2.2,1.3c1.2,0.3,2.2-0.3,3.3-0.1c2.9,1.5,5.1,3.9,6.2,7l0.1,0.4
				c0.9,2.7,1,5.6,0.2,8.3c-0.4,1.1-1,2.1-1.8,3c-0.3,0.4-0.6,0.7-1,1c-1.1,1-2.7,1.3-4.1,0.9c-0.1-0.1-0.3-0.1-0.3-0.2
				c0-0.2,0.1-0.4,0.1-0.7c0.3-1.3,0.4-2.6,0.3-3.9c0-0.1,0-0.1,0-0.2c-0.1-1.8-0.5-3.6-1.2-5.3c-0.5-1-1-2-1.7-2.9
				c-0.8-1.1-1.8-2-3.1-2.6c-0.8-0.3-1.7-0.2-2.4,0.4c-0.4,0.4-0.6,0.9-0.5,1.4c-0.7,0.4-1.4,0.7-2.2,0.7c-0.2,0-0.4,0.1-0.6,0.1
				c-0.2,0-0.4,0-0.6,0c-1-0.2-2-0.6-2.8-1.3c0-0.4,0-0.8-0.1-1.2c-0.5-0.2-0.8-0.7-0.8-1.2l0,0c0.2,0.1,0.5,0.2,0.7,0.3
				c-0.1-0.6-0.2-1.2-0.5-1.7c-0.3-0.1-0.6-0.2-0.8-0.4c-0.3-0.2-0.5-0.6-0.5-0.9c0.3,0.3,0.7,0.2,0.9,0.5c-0.4-1.1-0.4-2.3-0.9-3.3
				c-0.3-0.7-1.1-1.1-1.6-1.6c-0.2-0.3-0.3-0.6-0.7-0.6c-0.4,0-0.3-0.4-0.4-0.6c0.2,0,0.4,0.2,0.5,0.2c-0.5-1.2-0.9-2.5-2.1-3.3
				l-0.2,0.1c-0.5,0.1-1,0.1-1.5,0.1c0.2-0.3,0.5-0.5,0.9-0.6c-0.3-0.2-0.7-0.4-1.1-0.4c-0.3,0.2-0.6,0.4-1,0.4l0,0
				c0-0.3-0.1-0.6,0.3-0.7c-0.5-0.2-1-0.2-1.5,0c-0.1,0.3-0.4,0.6-0.4,0.9c-0.2,0.3-0.4,0.5-0.7,0.8c0.1-0.6,0.2-1.1,0.4-1.7
				c-0.4,0.1-0.7,0.3-1,0.5c-0.6-0.3-1.1-0.6-1.7-0.9c-0.1,0-0.2,0-0.1,0.1c0.5,0.4,0.3,1,0.4,1.6l-0.3-0.3
				c-0.2-0.4-0.6-0.7-0.7-1.1c-0.5,0.1-0.9,0.2-1.4,0.5h-0.1c0.4,0,0.7,0.3,0.9,0.6c-0.5,0-1.1-0.1-1.6-0.2
				c-0.1-0.1-0.1-0.1-0.2-0.1c-0.3,0.1-0.5,0.3-0.8,0.5c-0.6,0.5-1,1.1-1.3,1.9c0.2,0,0.4,0,0.5,0.1c-0.3,0.2-0.6,0.5-0.8,0.6
				c-0.1,0.4-0.1,0.9-0.1,1.3c-0.3,0.3-0.5,0.7-0.7,1c-0.5,1.6-0.6,3.4-0.5,5.1c-0.2,0.1-0.4,0.2-0.5,0.4v1.6l0,0
				c0.1-0.3,0.5-0.5,0.7-0.7h0.1c0,0.4-0.1,0.7-0.1,1.1l-0.5,0.4c-0.5,0.4-0.1,1-0.1,1.5c0,0.1,0.1,0.3,0.1,0.4
				c0.1-0.2,0.2-0.4,0.3-0.5c0.2,0,0.4-0.2,0.5-0.2c-0.1,0.4-0.2,0.8-0.4,1.1c-0.1,0.1-0.2,0.1-0.2,0.2c-0.1,0.1-0.1,0.2-0.2,0.3
				c0.4,1.8,0.9,3.6,1.5,5.4c-0.4,0.7-0.7,1.6-1,2.3c0,0.1-0.1,0.2-0.1,0.3c-0.4,0.9-0.5,1.9-0.9,2.8c-0.2-0.1-0.4-0.2-0.6-0.3
				c-0.8-0.3-1.8-0.1-2.4,0.5c-0.5-0.1-1.1,0-1.5,0.3c-0.3,0.2-0.5,0.5-0.7,0.8c-0.1,0.2-0.1,0.5-0.1,0.7c-0.3,0.2-0.6,0.6-0.6,1
				c-0.1,0.8,0.1,1.7,0.6,2.4h34.6V91.2z"/>
			<path id="path157" fill="#FF6600" d="M215.7,74.7c-0.2-0.5-0.3-0.9-0.5-1.4c-1.1-2.3-2.6-4.7-4.9-6.1c-1.3-0.8-2.4-2-3.2-3.3
				c-0.4-0.4-0.8-0.8-1.3-0.9c0.2,0.2,0.3,0.5,0.3,0.7l0,0c-0.5,0-1-0.2-1.3-0.6l0.4-0.4c-0.2-0.1-0.3-0.1-0.5-0.1
				c-1.6-0.2-2.9,0.5-4.3,0.9v0.1c0.9,0.4,1,1.3,1.5,2c0.1-0.1,0.3,0,0.5-0.1c0.2-0.1,0.5,0.2,0.7,0.1c0-0.2-0.1-0.4-0.1-0.6
				c0.2,0,0.3,0,0.5,0c0.5,0.3,1.2,0,1.5,0.6c-0.5,0-1,0.1-1.5,0.3c0,0.2,0.2,0.4,0.2,0.5c-0.4-0.2-0.9-0.3-1.3-0.3v0.1
				c0.6,0.6,1.4,1.1,2.2,1.3c1.2,0.3,2.2-0.3,3.3-0.1c2.9,1.5,5.1,3.9,6.2,7l0.1,0.4c0.9,2.7,1,5.6,0.2,8.3c-0.4,1.1-1,2.1-1.8,3
				c-0.3,0.4-0.6,0.7-1,1c-1.1,1-2.7,1.3-4.1,0.9c-0.1-0.1-0.3-0.1-0.3-0.2c0-0.2,0.1-0.4,0.1-0.7c0.3-1.3,0.4-2.6,0.3-3.9
				c0-0.1,0-0.1,0-0.2c-0.1-1.8-0.5-3.6-1.2-5.3c-0.5-1-1-2-1.7-2.9c-0.8-1.1-1.8-2-3.1-2.6c-0.8-0.3-1.7-0.2-2.4,0.4
				c-0.4,0.4-0.6,0.9-0.5,1.4c-0.7,0.4-1.4,0.7-2.2,0.7c-0.2,0-0.4,0.1-0.6,0.1c-0.2,0-0.4,0-0.6,0c-1-0.2-2-0.6-2.8-1.3
				c0-0.4,0-0.8-0.1-1.2c-0.5-0.2-0.8-0.7-0.8-1.2l0,0c0.2,0.1,0.5,0.2,0.7,0.3c-0.1-0.6-0.2-1.2-0.5-1.7c-0.3-0.1-0.6-0.2-0.8-0.4
				c-0.3-0.2-0.5-0.6-0.5-0.9c0.3,0.3,0.7,0.2,0.9,0.5c-0.4-1.1-0.4-2.3-0.9-3.3c-0.3-0.7-1.1-1.1-1.6-1.6c-0.2-0.3-0.3-0.6-0.7-0.6
				c-0.4,0-0.3-0.4-0.4-0.6c0.2,0,0.4,0.2,0.5,0.2c-0.5-1.2-0.9-2.5-2.1-3.3l-0.2,0.1c-0.5,0.1-1,0.1-1.5,0.1
				c0.2-0.3,0.5-0.5,0.9-0.6c-0.3-0.2-0.7-0.4-1.1-0.4c-0.3,0.2-0.6,0.4-1,0.4l0,0c0-0.3-0.1-0.6,0.3-0.7c-0.5-0.2-1-0.2-1.5,0
				c-0.1,0.3-0.4,0.6-0.4,0.9c-0.2,0.3-0.4,0.5-0.7,0.8c0.1-0.6,0.2-1.1,0.4-1.7c-0.4,0.1-0.7,0.3-1,0.5c-0.6-0.3-1.1-0.6-1.7-0.9
				c-0.1,0-0.2,0-0.1,0.1c0.5,0.4,0.3,1,0.4,1.6l-0.3-0.3c-0.2-0.4-0.6-0.7-0.7-1.1c-0.5,0.1-0.9,0.2-1.4,0.5h-0.1
				c0.4,0,0.7,0.3,0.9,0.6c-0.5,0-1.1-0.1-1.6-0.2c-0.1-0.1-0.1-0.1-0.2-0.1c-0.3,0.1-0.5,0.3-0.8,0.5c-0.6,0.5-1,1.1-1.3,1.9
				c0.2,0,0.4,0,0.5,0.1c-0.3,0.2-0.6,0.5-0.8,0.6c-0.1,0.4-0.1,0.9-0.1,1.3c-0.3,0.3-0.5,0.7-0.7,1c-0.5,1.6-0.6,3.4-0.5,5.1
				c-0.2,0.1-0.4,0.2-0.5,0.4v1.6l0,0c0.1-0.3,0.5-0.5,0.7-0.7h0.1c0,0.4-0.1,0.7-0.1,1.1l-0.5,0.4c-0.5,0.4-0.1,1-0.1,1.5
				c0,0.1,0.1,0.3,0.1,0.4c0.1-0.2,0.2-0.4,0.3-0.5c0.2,0,0.4-0.2,0.5-0.2c-0.1,0.4-0.2,0.8-0.4,1.1c-0.1,0.1-0.2,0.1-0.2,0.2
				c-0.1,0.1-0.1,0.2-0.2,0.3c0.4,1.8,0.9,3.6,1.5,5.4c-0.4,0.7-0.7,1.6-1,2.3c0,0.1-0.1,0.2-0.1,0.3c-0.4,0.9-0.5,1.9-0.9,2.8
				c-0.2-0.1-0.4-0.2-0.6-0.3c-0.8-0.3-1.8-0.1-2.4,0.5c-0.5-0.1-1.1,0-1.5,0.3c-0.3,0.2-0.5,0.5-0.7,0.8c-0.1,0.2-0.1,0.5-0.1,0.7
				c-0.3,0.2-0.6,0.6-0.6,1c-0.1,0.8,0.1,1.7,0.6,2.4h13.8c-0.2-0.3-0.4-0.6-0.5-0.9c-0.3-0.4-0.1-1.1-0.1-1.6
				c0.3-0.6,0.6-1.1,0.9-1.7l0.2-0.3l0.6-0.2c0.3,0,0.6-0.2,0.9-0.2c0.4,0.4,0.4-0.4,0.8-0.5c0.9-0.3,1.9,0.1,2.5,0.8
				c0,0.1,0.2,0.1,0.1,0.2c0,0.1-0.2,0-0.4,0c-0.6-0.1-1.3-0.5-1.9-0.2c0,0.1-0.1,0.3-0.1,0.4c0,0.1-0.1,0.3-0.1,0.4
				c0.4,0.1,0.7,0.4,1,0.7c0.2-0.3,0.5-0.6,0.9-0.7c0.3,0,0.6,0.1,0.9,0.3c0.5,0.5,0.3,1.2,0.2,1.8c0.4,0.3,0.9,0.4,1.4,0.6
				c-0.2,0.2-0.5,0.3-0.7,0.4l-0.8-0.1c-0.1-0.1-0.2-0.1-0.3-0.2c-0.3,0.3-0.5,0.6-0.7,0.9h10.7c-0.1-0.3-0.3-0.6-0.5-0.9
				c-0.2-0.5-0.2-1.1-0.2-1.6l1-1.5c0.6-0.1,1.2-0.1,1.8-0.1h0.1c0.2-0.2,0.3-0.6,0.7-0.5c0.6-0.1,1.2,0,1.6,0.4l0,0.1
				c-0.2,0.3-0.6,0-0.9,0.1c-0.1,0.1,0.1,0.3,0.1,0.4c0,0.1-0.1,0.1-0.2,0.1c-0.2,0-0.3,0-0.5-0.1c0,0,0-0.1-0.1-0.1
				c-0.2,0.2-0.3,0.4-0.4,0.7c0.2,0.2,0.4,0.3,0.5,0.6c0.2,0.3-0.1,0.5-0.2,0.7c0,0-0.1,0-0.1,0c0,0,0,0,0,0
				c-0.2-0.1-0.3-0.3-0.5-0.3c-0.2,0.7,0.1,1.4,0,2.1c0.3,0,0.7,0,1,0l0.1-1.5c0.1-1,0.6-1.9,1.3-2.7c0.7-0.5,1.2,0.5,1.7,0.8
				c0.1,0,0.1,0.1,0.1,0.2s-0.2,0.2-0.3,0.3c-0.3,0.1-0.6-0.2-0.8-0.5c-0.2,0.2-0.3,0.5-0.5,0.6h0.1c0.3,0.2,0.5,0.5,0.6,0.9
				c0,0.3-0.2,0.6-0.5,0.8c-0.2-0.4-0.4-0.7-0.5-1.1l0,0c-0.4,0.1-0.5,0.6-0.6,1c-0.1,0.4-0.3,0.5-0.2,0.9h5.6
				c0.6,0,1.2-0.2,1.8-0.5c2,0.3,4.1-0.2,5.8-1.3c0.9-0.7,1.6-1.5,2.3-2.4c0.5-0.7,1-1.5,1.3-2.3c0.2-0.5,0.4-1.1,0.5-1.7
				C216.8,80.2,216.6,77.3,215.7,74.7z"/>
			<path id="path159" fill="#FF6600" d="M180,89.1c0.3-0.2,0.8-0.2,0.9-0.7c-0.1-0.1-0.2-0.2-0.4-0.2l-0.3,0.1
				c0-0.2,0.1-0.4,0.2-0.6l1-0.3c-0.1,0.5-0.2,1.1-0.2,1.6c0,0.8,0.2,1.6,0.6,2.3h-1.1C180.5,90.5,179.7,89.9,180,89.1L180,89.1z"/>
			<path id="path161" fill="#FF6600" d="M182.4,88.1L182.4,88.1l0.8,0.7h0.1c-0.1,0.8-0.1,1.6-0.1,2.4h-0.8
				c-0.2-0.8-0.4-1.6-0.4-2.4C182.1,88.6,182.2,88.4,182.4,88.1L182.4,88.1z"/>
			<path id="path163" fill="#FF6600" d="M184,88.9c0.1-0.2,0.2-0.5,0.5-0.6c0.2,0,0.4,0.1,0.6,0.2c0.3,0.3,0,0.8-0.1,1.1
				c-0.1,0.5-0.3,1-0.5,1.6h-0.8L184,88.9L184,88.9z"/>
			<path id="path165" fill="#FF6600" d="M195.8,88.6c0.2,0.2,0.2,0.5,0.5,0.7c0.2-0.4,0.3-0.8,0.2-1.2l-0.2-0.2
				c0.3-0.1,0.6-0.1,0.9-0.1c-0.2,0.4-0.3,0.8-0.3,1.3c0,0.7,0.1,1.4,0.2,2.1h-0.9c-0.4-0.7-0.6-1.4-0.6-2.1
				C195.6,88.9,195.7,88.8,195.8,88.6L195.8,88.6z"/>
			<path id="path167" fill="#FFFFFF" d="M199.5,73.7c0,0.2-0.2,0.4,0,0.6c0.2-0.2,0.5-0.2,0.8-0.3c0.7,0,1.4,0.1,2,0.3
				c-0.2-0.3-0.3-0.5-0.5-0.8c-0.4-0.1-0.9,0.2-0.9-0.4c-0.2-0.2-0.6-0.1-0.8,0C199.9,73.3,199.7,73.5,199.5,73.7L199.5,73.7z"/>
			<path id="path169" fill="#FFFFFF" d="M175.7,67L175.7,67z"/>
			<path id="path171" fill="#FFFFFF" d="M178.6,73.9l0.5-0.5c0,0,0.1,0,0.1,0v0.9c0.2,0.2,0.5,0.3,0.8,0.3c0-0.2,0.2-0.4,0.3-0.6
				c0.1-0.2,0-0.4,0.2-0.5l0.1,0.1c0,0.3,0.1,0.5,0.2,0.8l0.1,0.4c0.3,0,0.6-0.1,0.9-0.2c0-0.3,0.1-0.5,0.1-0.8
				c0.1-0.1-0.1-0.3,0.1-0.3c0.1,0.2,0.3,0.5,0.4,0.7c0.4-0.5,0.7-1.1,0.7-1.7c-0.1-0.2-0.3-0.2-0.5-0.3c-1.4-0.5-2.9-0.4-4.3,0.1
				C178.1,72.9,178.2,73.5,178.6,73.9z"/>
			<path id="path173" fill="#FFFFFF" d="M166.2,88.5c0,0.6,0,1.2,0,1.8c0.1,0.2,0.3,0.4,0.6,0.4v-0.4c0.1-0.5-0.2-1.1,0.1-1.6
				c0.2,0.1,0.4,0.2,0.6,0.3c0.1-0.5-0.1-1.1-0.5-1.4L166.2,88.5z"/>
			<path id="path175" fill="#FFFFFF" d="M168.1,87.7c-0.4,0.9-0.4,2-0.2,3c0.2-0.1,0.4-0.3,0.6-0.5c-0.1-0.7,0-1.5,0.3-2.1
				c0.4,0.2,0.7,0.5,0.8,0.8c0.3-0.3,0.3-0.8,0.2-1.2c0-0.3-0.4-0.3-0.6-0.4c0.1-0.3,0.1-0.6,0.4-0.8l-0.9,0.1
				C168.5,86.9,168.3,87.3,168.1,87.7z"/>
			<path id="path177" fill="#FFFFFF" d="M170,90.3c0,0.1,0,0.2,0.1,0.2c0.1-0.6,0.6-1.1,0.9-1.7c0.1-0.2,0.1-0.5,0.4-0.6
				c0.3,0,0.5,0.2,0.8,0.2c0.1,0.1,0,0.1-0.1,0.2c-0.1,0.5-0.2,1-0.2,1.5h0.1c0.4-0.4,0.7-0.9,1-1.4l0.1-0.4
				c0.1-0.5-0.5-0.9-0.9-1.1l0.3-0.4l-0.5-0.2c-0.5,0-1.1,0.3-1.4,0.7C170.2,88.3,170,89.3,170,90.3L170,90.3z"/>
			<path id="path179" fill="#FFFFFF" d="M172.1,85.7c0.2,0.1,0.3-0.1,0.5,0c0.8,0.2,1.4,0.6,2,1.1l0.6,1.6l0.3-1l-0.2-0.5
				c-0.2-0.4-0.7-0.4-1-0.4c-0.1-0.2,0-0.3,0.1-0.5c0.2-0.6-0.5-0.5-0.8-0.8c0-0.3-0.4-0.2-0.6-0.3L173,85c-0.1-0.1-0.2-0.1-0.2,0
				c0,0,0,0,0-0.1h-0.2C172.4,85.1,172.2,85.4,172.1,85.7L172.1,85.7z"/>
			<path id="path181" fill="#FFFFFF" d="M172.6,83.9c0,0.1,0.1,0.2,0.2,0.3c0.4-0.1,0.7-0.3,1.1-0.2c0.5,0.5,1.1,0.9,1.7,1.2h0.2
				c0.1,0,0.3,0.1,0.4,0.2c0.1,0.2-0.1,0.3-0.2,0.5c0.4,0.3,0.2,0.7,0.4,1l0.6-0.7c-0.1-0.3,0-0.9-0.5-0.9c-0.2-0.1-0.3-0.3-0.3-0.5
				c-0.3-0.3-0.7-0.4-1.1-0.8c-0.3-0.3-0.4-0.5-0.8-0.6c-0.2-0.1-0.5-0.2-0.8-0.3C173,83.1,172.9,83.7,172.6,83.9z"/>
			<path id="path183" fill="#FFFFFF" d="M173.3,82.4l0.1,0.1c0.4,0,0.7-0.2,1.1-0.2c0.3,0.2,0.6,0.1,0.9,0.3
				c0.2,0.3,0.4,0.6,0.7,0.8c0.6,0.1,1,0.8,1.2,1.3v-0.2c0.1-0.3,0-0.7-0.1-1c-0.2-0.2-0.4-0.3-0.5-0.4c0-0.1,0-0.2,0-0.2
				c-0.3-0.2-0.6-0.4-0.9-0.6c-0.4-0.6-1.2-0.4-1.9-0.6L173.3,82.4L173.3,82.4z"/>
			<path id="path185" fill="#FFFFFF" d="M173.3,76.7c0.1,0.2,0.1,0.5,0.2,0.8c0.2-0.5,0.6-0.7,1-1.1c-0.2-0.1-0.5-0.2-0.7-0.3l0,0
				C173.7,76.3,173.4,76.5,173.3,76.7z"/>
			<path id="path187" fill="#FFFFFF" d="M174.7,79.3l0.4-0.4c0.4-0.3,0.6-0.8,0.7-1.2c-0.3-0.1-0.6-0.1-0.8,0
				C174.9,78.2,174.8,78.7,174.7,79.3L174.7,79.3z"/>
			<path id="path189" fill="#FFFFFF" d="M175,80.4c0.5,0.1,1,0.1,1.5-0.2l0.4-1.4c-0.1,0-0.3-0.1-0.4,0
				C176.2,79.5,175.7,80,175,80.4z"/>
			<path id="path191" fill="#FFFFFF" d="M175.2,75.4c0.4,0.6,0.9,1,1.5,1.3c-0.1-0.6-0.6-1.1-0.9-1.7v-0.2c-0.2-0.2-0.5-0.4-0.7-0.5
				C175,74.7,175.1,75.1,175.2,75.4L175.2,75.4z"/>
			<path id="path193" fill="#FFFFFF" d="M177,80.4c0.4,0.1,0.8,0,1.2-0.1c0.6-0.1,0.9-0.7,1-1.2h-0.7l-0.7,0.7
				C177.6,80,177.3,80.2,177,80.4L177,80.4z"/>
			<path id="path195" fill="#FFFFFF" d="M177,74.7c0.1,0.6,0.4,1.2,0.7,1.7l0.1-1.2L177,74.7z"/>
			<path id="path197" fill="#FFFFFF" d="M179.5,77.7c0-0.4-0.1-0.8-0.2-1.2c-0.2-0.2-0.6-0.1-0.8-0.3
				C178.7,76.8,179,77.4,179.5,77.7z"/>
			<path id="path199" fill="#FFFFFF" d="M178.8,81.7c0.5-0.1,1-0.3,1.4-0.6c0.3-0.4,0.7-0.8,0.8-1.3c-0.4,0.1-0.7,0-1,0.1
				c-0.1,0.4-0.4,0.8-0.7,1C179.2,81.3,178.9,81.5,178.8,81.7z"/>
			<path id="path201" fill="#FFFFFF" d="M179.6,82.6l0.6,0.8c0.3,0.1,0.6,0.1,0.9-0.1l-0.2-0.7C180.4,82.7,180,82.7,179.6,82.6z"/>
			<path id="path203" fill="#FFFFFF" d="M180.6,77.1l0.2,1c0.5-0.5,0.7-1.1,0.6-1.8C181.2,76.7,180.9,76.9,180.6,77.1L180.6,77.1z"
				/>
			<path id="path205" fill="#FFFFFF" d="M182.1,78.9c0,0.1,0,0.3,0.1,0.4c0.6,0.2,0.7,0.9,1.2,1.2c0.4,0.1,0.8,0,1.1-0.2
				c-0.2-0.3-0.5-0.5-0.7-0.7c-0.2-0.1-0.3-0.2-0.3-0.4L182.1,78.9L182.1,78.9z"/>
			<path id="path207" fill="#FFFFFF" d="M182.6,82.6c0.3,0.3,0.6,0.5,1,0.5c-0.1-0.1,0,0,0.1-0.1l-0.5-1c-0.2,0-0.5,0.1-0.7,0
				C182.5,82.2,182.5,82.4,182.6,82.6z"/>
			<path id="path209" fill="#FFFFFF" d="M183.4,77.8c-0.2-0.5-0.3-1.1-0.4-1.7c-0.2,0.3-0.5,0.5-0.7,0.7
				C182.2,77.5,183,77.6,183.4,77.8z"/>
			<path id="path211" fill="#FFFFFF" d="M184.3,77.3c0.3,0.4,0.9,0.2,1.2,0.1c-0.2-0.3-0.7-0.4-0.8-0.7c0-0.5-0.2-1-0.3-1.5
				C184,75.8,183.9,76.6,184.3,77.3z"/>
			<path id="path213" fill="#FFFFFF" d="M184.8,78.9c0.8,0.6,1.5,1.2,2.6,1c0.1-0.1,0.2,0,0.2-0.1c-0.3-0.2-0.7-0.4-1-0.5l-0.4-0.5
				h-0.2C185.7,78.8,185.3,78.9,184.8,78.9L184.8,78.9z"/>
			<path id="path215" fill="#FFFFFF" d="M184.8,85.2L184.8,85.2c0.5-0.3,1.1-0.5,1.6-0.6c0.1,0.1,0.1,0.2,0.2,0.3
				c0.3-0.1,0.7-0.1,1.1-0.2c0.4,0,0.7,0.1,1.1,0.2c0.3,0.4,0.8,0.3,1.1,0.5l-0.1-0.5c-0.8-0.7-1.8-1.1-2.9-0.9v-0.1
				c-0.3,0-0.5,0.1-0.8,0.2c-0.3,0.1-0.6,0.1-0.9,0.3C185.1,84.5,185,84.9,184.8,85.2z"/>
			<path id="path217" fill="#FFFFFF" d="M185.5,75.7c0.3,0.4,0.8,0.7,1.3,0.6c-0.3-0.3-0.6-0.5-0.6-0.9c0.1-0.7-0.7-0.8-1.1-1.1
				C185.1,74.7,185.3,75.2,185.5,75.7z"/>
			<path id="path219" fill="#FFFFFF" d="M185.4,86.6L185.4,86.6c0.5-0.3,1.1-0.1,1.5-0.3c0.2-0.1,0.2,0.2,0.4,0.3
				c0.4,0.2,0.4,0.9,0.9,0.8c0.6,0.3,0.5,1.1,0.5,1.7l0.6-0.4c-0.1-0.3,0.1-0.7-0.1-0.9c-0.2-0.3-0.6-0.4-0.8-0.6
				c0.2-0.4-0.3-0.6-0.4-0.9l0,0l0.8,0.1c0.2,0.2,0.4,0.5,0.5,0.8c0.6,0.1,0.8,0.8,1,1.3c0.1-0.3,0.2-0.7,0.3-0.9
				c0.1-0.3-0.3-0.3-0.5-0.4c0-0.4-0.2-0.8-0.6-1c-0.7-0.3-1.4-0.5-2.1-0.6l-0.6,0.2c-0.4,0.1-0.7,0-1,0.2
				C185.5,85.9,185.5,86.3,185.4,86.6z"/>
			<path id="path221" fill="#FFFFFF" d="M185.8,83.4l0.1,0.1c0.3-0.1,0.6-0.3,0.9-0.4c0.5-0.1,0.9,0.4,1.4,0.1
				c0.2-0.1,0.3,0.1,0.4,0.1c0.2,0.3,0.6,0.3,0.9,0.4c-0.2-0.4-0.4-1-0.9-1.1c-0.2-0.1-0.5-0.1-0.7-0.2c-0.6-0.7-1,0.5-1.6,0.3
				C186.1,82.8,185.9,83.1,185.8,83.4z"/>
			<path id="path223" fill="#FFFFFF" d="M185.9,87.2c0.3,0.2,0.5,0.6,0.9,0.5c0.5,0.2,0.3,0.9,0.5,1.2l0.3-0.3l0,0l0,0l0,0
				c0-0.3,0-0.6-0.2-0.9c-0.2-0.1-0.4,0-0.6-0.1c0-0.2-0.2-0.4-0.4-0.5c-0.1-0.1-0.3,0-0.4,0L185.9,87.2z"/>
			<path id="path225" fill="#FFFFFF" d="M186.9,77.7c0.3,0.4,0.7,0.7,1.2,1c0.3,0.1,0.7,0.2,1.1,0.1c-0.3-0.3-0.6-0.6-0.9-0.9
				c-0.1-0.2-0.1-0.4-0.3-0.5C187.6,77.4,187.2,77.5,186.9,77.7L186.9,77.7z"/>
			<path id="path227" fill="#FFFFFF" d="M187.3,74.9c0.4,0.4,0.9,0.3,1.4,0.3v-0.1l-0.8-0.6C187.8,74.6,187.5,74.8,187.3,74.9z"/>
			<path id="path229" fill="#FFFFFF" d="M173,67.6l0.5,1.4c0-0.8,0.4-1.5,0.3-2.3l0.3-0.5l-0.7,0.2C173.2,66.8,173.1,67.2,173,67.6z
				"/>
			<path id="path231" fill="#FFFFFF" d="M173.3,65.2l0.6-0.4v-0.9c-0.2,0.2-0.4,0.4-0.6,0.6L173.3,65.2z"/>
			<path id="path233" fill="#FFFFFF" d="M185.9,66.6c-0.1,0.2-0.3,0.3-0.6,0.3c0.4-0.6,0.4-1.4,0.2-2.1c0.2,0,0.4-0.1,0.5-0.2l0,0
				l0.4-0.4c0.6-0.4,0.4-1.1,0.6-1.7c-0.3-0.4-0.4-0.9-0.8-1.3l0,0c-0.3-0.4-0.9-0.4-1.3-0.6c-0.6-0.2-1,0.2-1.4,0.5
				c-0.2,0-0.1,0.3-0.3,0.3c-0.1,0.3-0.2,0.6-0.3,0.9c-0.8-0.1-1.6,0-2.2,0.4c-0.3-0.2-0.7-0.3-1.1-0.4c-0.3-0.1-0.6,0-0.8-0.1
				c-0.3-0.3-0.4-0.9-0.9-1c-0.2-0.1-0.2-0.3-0.2-0.4c-0.3-0.1-0.6-0.2-0.9-0.3c-0.5-0.2-0.9,0.1-1.3,0.4c-0.2,0-0.3,0.1-0.5,0.2
				c-0.3,0.4-0.5,0.9-0.7,1.4c0.1,0.4,0.2,0.8,0.4,1.1c0.2,0.5,0.7,0.9,1.2,1.1c-0.2,0.8-0.2,1.7,0,2.5l0,0l0,0c-0.1,0-0.1,0-0.2,0
				l0,0c0.1,0.7,0.5,1.4,1,1.9c0.2,0.1,0.2,0.3,0.2,0.5c0,0.1,0,0.2,0,0.3c-1.1,0-2.3,0.2-3.3,0.8c-0.3,0.1-0.1,0.5-0.2,0.7
				c0.7-0.5,1.4-0.8,2.2-0.9c0.4-0.1,0.7-0.1,1.1,0V71c-1,0.4-1.9,0.9-2.7,1.6c0,0.2,0,0.5,0,0.7l0.7-0.6c0.7-0.5,1.4-0.9,2.2-1.3
				c0.2,0.3,0.4,0.5,0.7,0.7c0.5-0.3,1-0.5,1.5-0.7c0.3-0.2,0.8,0,0.9-0.4l0.1-0.7c0,0,0,0-0.1,0c-0.4-0.2-0.6-0.6-0.6-1
				c-0.1,0.1-0.3,0.1-0.4,0.1c-0.1,0-0.2-0.1-0.3-0.2c-0.1-0.1-0.1-0.4,0.1-0.5c0.6-0.3,1.2-0.4,1.8-0.3c0.5,0.1,1.2,0,1.3,0.6
				c0,0.2,0,0.3-0.2,0.5c-0.2,0.1-0.4,0-0.5-0.1c-0.1,0.4-0.4,0.8-0.8,0.9l0.1,0.5c0.1,0.2,0.1,0.5,0.4,0.5c0.7,0.2,1.4,0.5,2,0.9
				c0.2-0.2,0.4-0.4,0.5-0.7c1.1,0.5,2.2,1.2,3.1,2V73c-0.9-0.8-1.9-1.4-2.9-1.9c0-0.2,0.1-0.4,0.1-0.6c1.2,0.1,2.4,0.4,3.4,1V71
				c-1.1-0.6-2.3-0.9-3.5-0.9c0-0.1-0.1-0.2-0.1-0.2c0.7-0.2,1.2-0.7,1.3-1.4c0.3-0.4,0.8-0.8,0.7-1.3V67
				C185.9,66.9,185.9,66.7,185.9,66.6L185.9,66.6z"/>
			<path id="path235" fill="#FFFFFF" d="M187.1,68.6l0.6-0.2l0.1-0.4c0.2-0.5-0.2-0.9-0.4-1.3L187.1,68.6z"/>
			<path id="path237" fill="#FFFFFF" d="M188.6,71.1c0.3,0.3,0.6,0.9,1.1,0.7c-0.1-0.2-0.1-0.4-0.2-0.6c-0.1-0.2-0.2-0.6-0.5-0.5
				c-0.2-0.1-0.3-0.4-0.4-0.6C188.6,70.4,188.6,70.7,188.6,71.1L188.6,71.1z"/>
			<path id="path239" fill="#FFFFFF" d="M188.7,73.3c0.1,0.2,0.1,0.4,0.3,0.5c0.2,0.1,0.5,0.1,0.8,0.1c0.2-0.1,0.4,0.2,0.6,0.1
				c-0.3-0.2-0.4-0.5-0.7-0.7C189.5,73.1,189.1,73.3,188.7,73.3z"/>
			<path id="path241" fill="#FFFFFF" d="M189.2,77c0.6,0.4,1.3,0.6,1.9,0.5c0.1,0,0.2,0,0.2-0.1c-0.4-0.3-0.9-0.5-1.4-0.7
				c-0.3-0.4-0.6,0.1-0.9,0.1C189,76.9,189.1,76.9,189.2,77z"/>
			<path id="path243" fill="#FFFFFF" d="M190.8,83.8l0.1,0.3c0.1,0.8,0.6,1.6,0.4,2.4c0.2,0.2,0.3,0.4,0.5,0.6l0,0
				c0.1-0.7,0.1-1.4,0-2C191.8,84.5,191.2,84.2,190.8,83.8L190.8,83.8z"/>
			<path id="path245" fill="#FFFFFF" d="M190.9,75.9c0.5,0.3,1,0.4,1.5,0.2c-0.3-0.2-0.6-0.3-0.9-0.6L190.9,75.9z"/>
			<path id="path247" fill="#FFFFFF" d="M192.8,78.2c0,0.3,0.1,0.6,0.4,0.8c0.1-0.2,0.2-0.4,0.2-0.6c-0.1-0.3-0.3-0.7-0.6-0.9
				C192.9,77.8,192.8,78,192.8,78.2L192.8,78.2z"/>
			<path id="path249" fill="#FFFFFF" d="M192.8,81.8c-0.1,0.4,0.4,0.4,0.5,0.6c0.2,0.2-0.1,0.3-0.1,0.5c0.3,0.4,0.5,0.8,0.5,1.3
				c0.1-0.5,0.3-0.9,0.4-1.4c0-0.3-0.6-0.3-0.5-0.6c0.1-0.4,0-0.8-0.1-1.1c0-0.1-0.1-0.2-0.2-0.1C193.2,81.2,192.8,81.4,192.8,81.8z
				"/>
			<path id="path251" fill="#FFFFFF" d="M193.9,79.9l0.4,0.8c0.2,0,0.3-0.2,0.4-0.3c0.1-0.3-0.2-0.5-0.3-0.8s0-0.4-0.1-0.6
				s-0.2-0.2-0.3-0.1L193.9,79.9L193.9,79.9z"/>
			<path id="path253" fill="#FFFFFF" d="M194.4,77.9c0.4,0.2,0.6,0.5,0.9,0.8c0.3,0.8,0.7,1.5,1,2.3c0.1,0.5,0.2,1,0.4,1.5
				c0.1,0.1,0,0.4,0.2,0.4c0.1-0.6,0.2-1.2,0.2-1.8c-0.2-0.2-0.4-0.4-0.7-0.5v0c0-0.1,0.1-0.3,0.3-0.3c0.2,0,0.3-0.2,0.2-0.3
				c-0.4-0.4-0.4-1.1-1-1.2c-0.2-0.1-0.3-0.3-0.3-0.5C195.2,78,194.8,77.9,194.4,77.9L194.4,77.9z"/>
			<path id="path255" fill="#FFFFFF" d="M194.8,82.1c0.4,0.4,0.3,0.9,0.2,1.4c-0.1,0.3,0.3,0.1,0.4,0.3c0.2,0.4,0.2,0.9,0,1.3
				c0.2-0.3,0.4-0.6,0.6-0.9c0-0.1,0.2-0.2,0.2-0.4c0-0.2-0.2-0.1-0.3-0.1s-0.2-0.1-0.2-0.2c0.1-0.4,0.1-0.8-0.1-1.2
				c-0.1-0.3,0-0.8-0.1-1C195.4,81.4,194.6,81.5,194.8,82.1z"/>
			<path id="path257" fill="#FFFFFF" d="M195.5,76.6c0.7,0.7,1.2,1.4,1.9,2.1c0-0.3,0-0.6,0-0.9c-0.1-0.2-0.3-0.4-0.5-0.5
				C196.4,77.2,196.2,76.4,195.5,76.6L195.5,76.6z"/>
			<path id="path259" fill="#FFFFFF" d="M197.3,80.3c0,0.1,0,0.1,0.1,0.2c0.3,0.5,0.6,1,0.8,1.5c-0.1-0.6,0.3-1.3-0.2-1.7
				c-0.1-0.2-0.3-0.1-0.5-0.1C197.6,80.2,197.3,80.3,197.3,80.3z"/>
			<path id="path261" fill="#FFFFFF" d="M199.2,85.9c0.2,0.1,0.5-0.1,0.7-0.2c0.2,0,0.4,0,0.5,0.2c0.1,0.1,0,0.2,0,0.4
				c0.5,0.1,0.9,0.3,1.3,0.6l0.1-0.1c0-0.3-0.2-0.6-0.5-0.8c-0.2-0.1-0.4,0-0.5-0.2c0.1-0.1,0.1-0.3,0.1-0.5c-0.2,0-0.4-0.1-0.6-0.2
				c-0.1,0-0.3-0.1-0.4,0C199.6,85.4,199.6,85.8,199.2,85.9L199.2,85.9z"/>
			<path id="path263" fill="#FFFFFF" d="M199.8,76.2c0.2,0,0.4-0.1,0.6-0.3c0.5-0.5,1.3-0.2,1.9-0.2c-0.1-0.2-0.3-0.4-0.4-0.6
				c-0.2-0.1-0.4-0.2-0.7-0.2c-0.5-0.3-0.9,0.2-1.3,0.5C199.7,75.6,199.6,75.9,199.8,76.2L199.8,76.2z"/>
			<path id="path265" fill="#FFFFFF" d="M199.8,77.8C199.8,77.8,199.8,77.7,199.8,77.8c0-0.1,0,0.2,0.1,0.2c0.2-0.1,0.4-0.2,0.6-0.4
				c0.5,0,0.8-0.5,1.3-0.5c0.9,0.1,1.7,0.4,2.4,0.7c-0.1-0.5-0.4-1-0.9-1.2c-0.2-0.1-0.5,0-0.6,0.2c-0.5,0.3-0.3-0.5-0.6-0.5
				c-0.5,0.2-1,0.3-1.5,0.3c-0.3,0.1-0.5,0.4-0.9,0.4C199.7,77.2,199.7,77.5,199.8,77.8z"/>
			<path id="path267" fill="#FFFFFF" d="M200.1,79.5c0.2,0.2,0.4,0.1,0.7,0.2l0.7-0.3c0-0.1-0.2-0.2-0.2-0.3
				c0.2-0.2,0.4-0.1,0.7-0.1s0.7-0.4,1-0.1c0,0,0,0.1,0,0.1c-0.1,0.2,0.1,0.4,0.3,0.5c0.4,0.1,0.7,0.4,1.1,0.3
				c0-0.3-0.1-0.6-0.2-0.9c-0.3-0.1-0.5-0.3-0.8-0.4c-0.1,0.1-0.3,0.2-0.5,0.2c-0.6-0.1-1.3-0.5-1.9-0.1c-0.2,0.3-0.6,0.2-0.9,0.3
				C200,79,200.1,79.2,200.1,79.5z"/>
			<path id="path269" fill="#FFFFFF" d="M200.4,84.1c0,0.1-0.2,0.4,0.1,0.4c0.5,0,1.1-0.2,1.5,0.1c0.1,0.1,0.1,0.3,0.1,0.4l0.6,0.5
				c0.1-0.3,0.1-0.6,0.2-0.9c-0.1-0.3-0.2-0.5-0.4-0.6c-0.4,0-0.7-0.5-1.1-0.4c-0.2-0.1-0.5,0.2-0.7,0.2
				C200.5,83.9,200.5,84,200.4,84.1L200.4,84.1z"/>
			<path id="path271" fill="#FFFFFF" d="M200.6,80.4c0.1,0.2,0.2,0.6,0.4,0.6c0.5-0.2,1.1-0.3,1.6-0.1c0.2,0,0.2,0.2,0.1,0.4
				c0.3,0.2,0.6,0.3,0.9,0.5l-0.1-0.5c0-0.5-0.6-0.5-0.7-1c-0.5-0.2-1.1-0.2-1.7-0.1c-0.2,0.2-0.4,0.1-0.6,0.2
				C200.5,80.4,200.5,80.4,200.6,80.4L200.6,80.4z"/>
			<path id="path273" fill="#FFFFFF" d="M200.7,83c0.3-0.1,0.5-0.4,0.8-0.5c0.5,0,1,0.2,1.3,0.6c0.2,0.1,0.1,0.4,0.4,0.4
				c0-0.4,0-0.7,0-1.1c-0.3-0.5-1.1-0.1-1.4-0.8h-0.6c-0.4,0.1-0.3,0.6-0.4,0.9C200.8,82.7,200.7,82.8,200.7,83L200.7,83z"/>
			<path id="path275" fill="#FFFFFF" d="M203.6,86.4c0.2,0.5,0.8,0.8,0.8,1.4c0.1-0.1,0.2-0.3,0.3-0.5c0-0.2-0.2-0.2-0.3-0.3
				s0-0.4,0.1-0.6c-0.1-0.3-0.3-0.6-0.6-0.7L203.6,86.4L203.6,86.4z"/>
			<path id="path277" fill="#FFFFFF" d="M204.5,85.1l0.6,0.8c0.2-0.4,0.3-0.9,0.1-1.4c-0.1-0.1-0.2-0.2-0.3-0.2
				C204.7,84.6,204.7,84.9,204.5,85.1z"/>
			<path id="path279" fill="#FFFFFF" d="M202.2,63.9c0.2,0.1,0.4,0.2,0.6,0.2c0.2-0.1,0.4-0.1,0.6-0.1c0.3,0.2,0.6,0,0.9,0
				c-0.3-0.3-0.6-0.5-0.9-0.6C203,63.4,202.7,63.8,202.2,63.9z"/>
			<path id="path281" fill="#FFFFFF" d="M205.3,64.6c0.4,0,0.7,0.4,1,0.7c0.3,0.1,0.6,0.3,0.8,0.6l-0.1-0.4
				c-0.1-0.4-0.3-0.8-0.6-1.1C206,64.4,205.6,64.5,205.3,64.6z"/>
			<path id="path283" fill="#FF6600" d="M176.3,61.2h0.2c0.6,0.3,1.6,0.5,1.6,1.3c-0.6,0.2-1.2,0.6-1.7,1.1
				c-0.4-0.4-1.1-0.2-1.3-0.8C175.3,62.1,175.5,61.4,176.3,61.2z"/>
			<path id="path285" fill="#FF6600" d="M176.9,65.1c0.7-0.1,1.4,0,2.1,0c0.2,0.1,0.4,0.2,0.5,0.4c0,0.8-0.3,1.6-0.3,2.5
				c-0.3,0.1-0.6,0.4-0.7,0.7c-0.3,0.1-0.6,0.2-0.8,0.4c-0.1-0.3-0.1-0.6,0.1-0.9c0.3-0.4,1.1-0.3,1-1c0.2-0.3,0-0.7,0-1.1
				c0-0.3-0.2,0.1-0.3,0.1c-0.2,0.1-0.5,0.1-0.7-0.1c-0.2-0.2-0.4-0.3-0.4-0.5c-0.2-0.1-0.4-0.3-0.6-0.5L176.9,65.1L176.9,65.1z"/>
			<path id="path287" fill="#FF6600" d="M177.7,70.2c0.3,0,0.7-0.1,0.9,0.1c-0.1,0.1-0.2,0.2-0.4,0.2l-0.5,0.2
				C177.6,70.6,177.7,70.4,177.7,70.2z"/>
			<path id="path289" fill="#FF6600" d="M179.1,63.7c0.3-0.1,0.7-0.3,1-0.2c-0.3,0.3-0.5,0.6-0.6,0.9h-1.1
				C178.5,64.1,178.8,63.9,179.1,63.7z"/>
			<path id="path291" fill="#FF6600" d="M182.2,63.5c0.4-0.1,0.4,0.5,0.8,0.5c0.1,0.1,0.2,0.2,0.1,0.3c-0.3,0.1-0.6,0.1-0.8,0.1
				c-0.4-0.2-0.1-0.8-0.7-0.8c0,0-0.1-0.1,0-0.2C181.8,63.4,182,63.4,182.2,63.5z"/>
			<path id="path293" fill="#FF6600" d="M181.9,65.5c0.2-0.2,0.5-0.3,0.8-0.4h2c0.1,0.1-0.1,0.1-0.1,0.2c0,0.1-0.3,0.1-0.4,0.3
				c-0.3,0-0.2,0.3-0.4,0.5c-0.3,0.3-0.7,0.2-1,0.1c-0.1-0.1-0.2-0.2-0.3-0.3l-0.1,0.1c0.1,0.4,0.1,0.9,0.2,1.4l0.5,0.3
				c0,0.7,0.8,0.5,1.2,0.9c-0.1,0.3-0.3,0.5-0.4,0.7c-0.3-0.3-0.6-0.5-1-0.6c0-0.4-0.5-0.7-0.7-0.9
				C181.9,67.1,181.9,66.3,181.9,65.5L181.9,65.5z"/>
			<path id="path295" fill="#FF6600" d="M182.6,70.4h0.9l-0.1,0.5l-0.9-0.4C182.5,70.4,182.6,70.4,182.6,70.4z"/>
			<path id="path297" fill="#FF6600" d="M184.3,61.5l0.7-0.2c0.4,0.2,0.8,0.4,1.2,0.7c0.2,0.6,0.3,1.2,0.1,1.9
				c-0.2,0.2-0.7,0-0.8,0.4l0,0c-0.3-0.8-0.9-1.4-1.7-1.7C183.8,62.2,184,61.8,184.3,61.5L184.3,61.5z"/>
		</g>
	</g>
</g>
</svg>
