<?xml version="1.0" encoding="utf-8"?>
<!-- Generator: Adobe Illustrator 21.0.2, SVG Export Plug-In . SVG Version: 6.00 Build 0)  -->
<svg version="1.1" id="Layer_1" xmlns="http://www.w3.org/2000/svg" xmlns:xlink="http://www.w3.org/1999/xlink" x="0px" y="0px"
	 viewBox="0 0 82 41" style="enable-background:new 0 0 82 41;" xml:space="preserve">
<style type="text/css">
	.st0{display:none;}
	.st1{display:inline;fill:#DEDEDE;}
	.st2{display:inline;}
	.st3{fill:#DEDEDE;}
</style>
<g id="coda_1_" xmlns:cc="http://creativecommons.org/ns#" xmlns:dc="http://purl.org/dc/elements/1.1/" xmlns:rdf="http://www.w3.org/1999/02/22-rdf-syntax-ns#" class="st0">
	<path class="st1" d="M55.3,15.5c0-2.7,0-5.3,0-8c1.9,0,3.7,0,5.6,0c0,0.1,0,0.2,0,0.3c0,8.3,0,16.5,0,24.8c0,0.2,0,0.2-0.3,0.2
		c-1.7,0-3.4,0-5.1,0c-0.2,0-0.2,0-0.2-0.2c0-0.4,0-0.8,0-1.3c-0.1,0-0.1,0.1-0.1,0.1c-1.3,1.2-2.8,1.7-4.6,1.8
		c-1.8,0-3.5-0.3-5.1-1.2c-2-1.1-3.4-2.8-4.3-5c-0.5-1.4-0.7-2.9-0.6-4.4c0.2-3.1,1.6-5.6,4.1-7.4c1.8-1.3,3.8-1.8,5.9-1.7
		c1.7,0.1,3.2,0.7,4.5,1.9C55.2,15.4,55.2,15.4,55.3,15.5z M50.9,28.1c0.2,0,0.3,0,0.4,0c1.3-0.1,2.4-0.7,3.2-1.8
		c1.1-1.5,1.2-3.1,0.6-4.8c-0.6-1.7-1.9-2.7-3.7-2.9c-1.9-0.2-3.3,0.6-4.3,2.1c-1.1,1.7-1,3.9,0.3,5.5
		C48.3,27.5,49.4,28.1,50.9,28.1z"/>
	<path class="st1" d="M76.6,15.1c0-0.5,0-1,0-1.5c1.8,0,3.6,0,5.4,0c0,6.4,0,12.8,0,19.2c-1.8,0-3.6,0-5.4,0c0-0.5,0-0.9,0-1.4
		c0,0,0,0-0.1,0c-0.1,0.1-0.2,0.1-0.2,0.2c-0.8,0.7-1.7,1.3-2.8,1.6c-0.8,0.2-1.6,0.2-2.4,0.2c-1.4-0.1-2.8-0.4-4.1-1.1
		c-1.9-1-3.3-2.5-4.2-4.4c-0.6-1.3-0.9-2.6-1-4c-0.1-1.7,0.1-3.3,0.8-4.8c1.2-2.7,3.1-4.6,5.9-5.5c1.3-0.4,2.6-0.6,4-0.4
		C74.1,13.4,75.4,14,76.6,15.1C76.5,15,76.5,15,76.6,15.1z M71.9,18.5c-1.2,0-2.2,0.4-3,1.3c-1.6,1.6-2,4.5-0.4,6.5
		c1.8,2.2,4.5,2.1,6.3,0.7c1.4-1.1,2-2.7,1.7-4.4C76.2,20.2,74.2,18.5,71.9,18.5z"/>
	<path class="st1" d="M19.5,21.1c-0.1,0-0.2,0-0.2,0c-1.8,0-3.7,0-5.5,0c-0.1,0-0.2,0-0.3-0.2c-0.4-1-1.1-1.8-2.2-2
		c-1.8-0.4-3.4-0.1-4.6,1.3C6,21,5.7,21.9,5.6,23c-0.1,0.8,0,1.7,0.4,2.4c0.6,1.5,1.8,2.3,3.4,2.5c0.9,0.1,1.7,0.1,2.5-0.3
		s1.4-1,1.8-1.8c0.1-0.2,0.2-0.3,0.5-0.3c1.7,0,3.4,0,5.1,0c0.1,0,0.1,0,0.2,0c0,0.2-0.1,0.5-0.1,0.7c-0.5,2.2-1.7,3.9-3.4,5.2
		c-1.5,1.1-3.2,1.8-5.1,2C8,33.7,5.5,32.9,3.4,31c-1.8-1.6-2.9-3.5-3.2-5.9c-0.6-4.1,0.6-7.5,3.9-10C5.4,14,7,13.4,8.7,13.2
		c2.5-0.3,4.7,0.3,6.8,1.7c1.3,0.9,2.4,2,3.2,3.4c0.4,0.8,0.7,1.6,0.8,2.5C19.5,20.9,19.5,21,19.5,21.1z"/>
	<path class="st1" d="M25.4,22.9c0-1.3,0.6-2.6,2-3.5c1.4-1,3.4-0.9,4.9,0.1c1.2,0.8,1.8,1.9,2,3.3c0.2,2-0.8,4-2.7,4.8
		c-2,0.8-4.4,0.1-5.5-1.9C25.6,24.9,25.4,24.1,25.4,22.9z"/>
	<path class="st1" d="M39.9,21.7c-4.6-2.6-9.3-5.1-13.9-7.7c0,0,0,0,0-0.1c2.8-1.1,5.5-1.1,8.2,0.2C37.7,15.7,39.6,19,39.9,21.7z"/>
	<path class="st1" d="M39.9,24.8c-0.6,3-2.1,5.3-4.7,6.9c-2.9,1.8-6,1.9-9.1,0.7c0,0,0,0,0-0.1C30.7,29.9,35.3,27.3,39.9,24.8
		L39.9,24.8z"/>
	<path class="st1" d="M23.5,30.9c-2.4-2.2-3.7-4.9-3.6-8.1c0.1-3.3,1.9-5.9,3.6-7.2C23.6,20.6,23.6,25.7,23.5,30.9L23.5,30.9z"/>
</g>
<g id="nike" class="st0">
	<g class="st2">
		<path class="st3" d="M11.5,6.1c-0.6,1.4-1.2,2.7-1.7,4.1C9.1,12,8.8,14,9,15.9c0.4,3.6,3,6.1,6.6,6.5c2.5,0.3,4.9,0,7.3-0.6
			C42.4,16.6,62,11.4,81.5,6.3c0.2,0,0.4-0.1,0.6,0c-0.7,0.3-1.5,0.6-2.2,1c-19.3,8.3-38.7,16.5-58,24.8c-3.6,1.5-7.3,2.7-11.3,2.9
			c-2.7,0.1-5.3-0.3-7.4-2.1c-2.8-2.3-3.6-5.4-2.8-8.9c0.4-2,1.1-4,2-5.8C4.5,13.5,8,9.8,11.5,6.1z"/>
	</g>
</g>
<g id="technorama" class="st0">
	<path class="st1" d="M50.7,28.8c-0.6-0.6-1.3-1.2-1.9-1.7c-1.8,1.8-3.9,2.7-6.4,2.7s-4.7-1-6.5-2.8c-0.6,0.6-1.3,1.2-1.9,1.8
		C38.3,33.6,46.3,33.7,50.7,28.8z"/>
	<path class="st1" d="M68.5,19.7c0,1.9,0,3.8,0,5.7c-0.7,0-1.3,0-2,0c0-3,0-6.1,0-9.1c0.1,0,0.2,0,0.2,0c0.7,0,1.4,0,2.1,0
		c0.2,0,0.2,0.1,0.3,0.2c0.7,1.8,1.4,3.5,2.2,5.3c0,0.1,0.1,0.1,0.1,0.3c0.2-0.6,0.4-1.1,0.7-1.6c0.5-1.3,1.1-2.6,1.6-3.9
		c0.1-0.1,0.1-0.2,0.3-0.2c0.7,0,1.4,0,2.1,0c0.1,0,0.1,0,0.2,0c0,3,0,6.1,0,9.1c-0.6,0-1.3,0-1.9,0c0-1.9,0-3.8,0-5.7l0,0
		c0,0.1-0.1,0.1-0.1,0.2c-0.6,1.5-1.2,3-1.9,4.5c-0.1,0.2-0.2,0.2-0.3,0.2c-0.4,0-0.9,0-1.3,0c-0.2,0-0.2-0.1-0.3-0.2
		c-0.6-1.5-1.2-3-1.9-4.5C68.6,19.8,68.6,19.8,68.5,19.7L68.5,19.7z"/>
	<path class="st1" d="M35.4,25.4c-0.8,0-1.6,0-2.4,0c-0.1,0-0.1-0.1-0.2-0.2c-0.9-1.9-1.8-3.7-2.8-5.6c0-0.1-0.1-0.1-0.1-0.2
		c0,2,0,4,0,6c-0.7,0-1.3,0-1.9,0c0-3,0-6.1,0-9.1c0.1,0,0.2,0,0.2,0c0.7,0,1.3,0,2,0c0.2,0,0.3,0.1,0.4,0.2c0.9,2,1.9,3.9,2.8,5.9
		c0,0.1,0.1,0.1,0.1,0.2c0-2.1,0-4.2,0-6.3c0.7,0,1.3,0,1.9,0C35.4,19.3,35.4,22.4,35.4,25.4z"/>
	<path class="st1" d="M56.4,25.4c-0.8,0-1.5,0-2.2,0c-0.1,0-0.2-0.1-0.2-0.2c-0.5-0.9-0.9-1.8-1.4-2.7c-0.1-0.2-0.2-0.3-0.4-0.2
		c-0.3,0-0.6,0-0.9,0c0,1,0,2,0,3.1c-0.7,0-1.4,0-2,0c0-3,0-6.1,0-9.1h0.1c1.4,0,2.9,0,4.3,0c0.5,0,0.9,0.1,1.3,0.4
		c0.6,0.4,0.9,1,1,1.6s0.1,1.3,0,2c-0.1,0.8-0.6,1.5-1.4,1.8C55.3,23.2,55.8,24.3,56.4,25.4z M51.3,20.6
		C51.3,20.6,51.4,20.6,51.3,20.6c0.8,0,1.4,0,2.1,0c0.3,0,0.5-0.2,0.6-0.6c0-0.4,0-0.9,0-1.3c0-0.5-0.2-0.7-0.7-0.7
		c-0.6,0-1.2,0-1.8,0c-0.1,0-0.1,0-0.2,0C51.3,19,51.3,19.8,51.3,20.6z"/>
	<path class="st1" d="M47.7,20.9c0,2.8-2.1,5.1-4.9,5.3c-2.8,0.3-5.3-1.6-5.8-4.3c-0.4-1.8,0.1-3.4,1.4-4.8c0.3-0.3,0.6-0.5,1-0.4
		s0.6,0.3,0.7,0.7c0.1,0.4,0,0.7-0.3,1c-0.6,0.7-1,1.5-1,2.4c0,1.7,1.3,3.1,3,3.4c1.6,0.2,3.3-0.9,3.6-2.6c0.3-1.2,0-2.2-0.8-3.1
		c-0.3-0.3-0.4-0.7-0.3-1.1c0.2-0.7,1.1-0.9,1.7-0.4c0.7,0.7,1.2,1.6,1.4,2.7C47.6,20.1,47.7,20.5,47.7,20.9z"/>
	<path class="st1" d="M50.7,13.1c-0.6,0.6-1.3,1.2-1.9,1.7c-1.8-1.8-3.9-2.7-6.4-2.7s-4.7,1-6.5,2.8c-0.6-0.6-1.3-1.2-1.9-1.8
		C38.2,8.3,46.3,8.2,50.7,13.1z"/>
	<path class="st1" d="M20.9,16.3c0,1.2,0,2.4,0,3.6c1,0,2,0,3,0c0-1.2,0-2.4,0-3.6c0.7,0,1.4,0,2,0c0,3,0,6.1,0,9.1
		c-0.7,0-1.3,0-2,0c0-1.2,0-2.4,0-3.6c-1,0-2,0-3,0c0,1.2,0,2.4,0,3.6c-0.7,0-1.3,0-2,0c0-0.1,0-0.1,0-0.2c0-2.9,0-5.8,0-8.7
		c0-0.2,0-0.2,0.2-0.2C19.7,16.3,20.3,16.3,20.9,16.3z"/>
	<path class="st1" d="M65.4,25.4c-0.7,0-1.3,0-2,0c-0.1,0-0.2-0.1-0.2-0.2c-0.1-0.5-0.3-0.9-0.4-1.4c0-0.1-0.1-0.2-0.3-0.2
		c-0.9,0-1.8,0-2.7,0c-0.2,0-0.2,0-0.3,0.2c-0.1,0.5-0.3,0.9-0.4,1.4c0,0.1-0.1,0.2-0.2,0.2c-0.7,0-1.3,0-2,0
		c0.1-0.4,0.2-0.7,0.3-1.1c0.8-2.6,1.6-5.2,2.4-7.8c0.1-0.2,0.1-0.2,0.3-0.2c0.8,0,1.5,0,2.3,0c0.2,0,0.2,0,0.3,0.2
		c0.9,2.9,1.8,5.8,2.7,8.8C65.4,25.3,65.4,25.3,65.4,25.4z M61.3,18.2C61.3,18.2,61.2,18.2,61.3,18.2c-0.4,1.2-0.7,2.5-1.1,3.7
		c0.7,0,1.4,0,2.1,0C61.9,20.7,61.6,19.4,61.3,18.2z"/>
	<path class="st1" d="M77.5,25.4c0.1-0.3,0.1-0.5,0.2-0.8c0.8-2.7,1.7-5.4,2.5-8.1c0.1-0.2,0.2-0.3,0.4-0.3c0.8,0,1.5,0,2.3,0
		c0.1,0,0.2,0,0.2,0.2c0.9,2.9,1.8,5.9,2.7,8.8c0,0,0,0.1,0,0.2c-0.7,0-1.3,0-2,0c-0.1,0-0.1-0.1-0.2-0.2c-0.1-0.5-0.3-0.9-0.4-1.4
		c0-0.1-0.1-0.2-0.3-0.2c-0.9,0-1.8,0-2.7,0c-0.1,0-0.2,0-0.2,0.2c-0.1,0.5-0.3,1-0.4,1.4c0,0.1-0.1,0.2-0.1,0.2
		C78.8,25.4,78.2,25.4,77.5,25.4z M82.7,21.9c-0.3-1.3-0.7-2.5-1-3.7l0,0c-0.3,1.2-0.7,2.5-1,3.7C81.3,21.9,82,21.9,82.7,21.9z"/>
	<path class="st1" d="M10.1,25.4c-1.9,0-3.8,0-5.7,0c0-3,0-6.1,0-9.1c0.1,0,0.1,0,0.2,0c1.8,0,3.5,0,5.3,0c0.2,0,0.2,0,0.2,0.2
		c0,0.5,0,1,0,1.6c-1.2,0-2.5,0-3.7,0c0,0.6,0,1.2,0,1.8c1.1,0,2.2,0,3.4,0c0,0.6,0,1.2,0,1.8c-1.1,0-2.2,0-3.4,0c0,0.7,0,1.3,0,1.9
		c1.2,0,2.4,0,3.7,0C10.1,24.2,10.1,24.8,10.1,25.4z"/>
	<path class="st1" d="M17.1,18.2c-0.5-0.1-0.9-0.1-1.4-0.2c-0.4,0-0.8,0-1.2,0c-0.6,0-1,0.4-1,1c0,1.2,0,2.5,0,3.7
		c0,0.6,0.3,0.9,0.9,0.9c0.8,0.1,1.5,0,2.3-0.1c0.1,0,0.3,0,0.4-0.1c0.1,0.6,0.2,1.2,0.3,1.8c-0.3,0.1-0.6,0.1-0.9,0.2
		c-0.9,0.1-1.8,0.2-2.8,0s-1.8-0.7-2.1-1.7c-0.1-0.3-0.1-0.6-0.1-0.8c0-1.3,0-2.7,0-4c0-1.4,0.8-2.3,2.2-2.6c1-0.2,1.9-0.1,2.9,0
		c0.2,0,0.5,0.1,0.7,0.1c0.1,0,0.2,0.1,0.1,0.2C17.3,17.1,17.2,17.6,17.1,18.2z"/>
	<path class="st1" d="M3.2,18.1c-0.8,0-1.6,0-2.5,0c0,2.4,0,4.9,0,7.3c-0.7,0-1.3,0-2,0c0-2.4,0-4.9,0-7.3c-0.8,0-1.6,0-2.5,0
		c0-0.6,0-1.2,0-1.8c0.1,0,0.1,0,0.2,0c2.2,0,4.3,0,6.5,0c0.2,0,0.3,0.1,0.3,0.3C3.2,17,3.2,17.6,3.2,18.1z"/>
	<path class="st1" d="M43.3,18.7c0,0.7,0,1.4,0,2.1c0,0.6-0.4,1-1,1s-1-0.4-1-1c0-1.4,0-2.9,0-4.3c0-0.6,0.4-1,1-1s1,0.4,1,1
		C43.3,17.2,43.3,18,43.3,18.7z"/>
</g>
<g id="Layer_5">
</g>
<g id="Layer_2">
</g>
<path class="st3" d="M52.9,4.6V2.9h2.5V1.1H51v5.2h4.3V4.6H52.9z M59.7,2.9h1.7V1.1h-4.3v1.8c0.6,0.6,0.9,0.8,1.7,1.7
	c-0.5,0-1.7,0-1.7,0v1.7h4.3V4.6L59.7,2.9L59.7,2.9z M65.8,2.9h1.7V1.1h-4.3v1.8c0.6,0.6,0.9,0.8,1.7,1.7c-0.5,0-1.7,0-1.7,0v1.7
	h4.3V4.6L65.8,2.9L65.8,2.9z"/>
<g>
	<polygon class="st3" points="59.3,21.4 59.3,21.4 59.2,21.4 59.3,21.4 59.3,21.4 	"/>
	<path class="st3" d="M45.4,8.7L48,36.9l11.3,3l11.3-3l2.6-28.2H45.4z M68.4,35.1l-9.1,2.5l0,0v-3.5L52.2,32l-0.5-5.3h3.5l0.2,2.8
		l3.8,1l0,0v-5.6l-7.8,0l0,0l0,0l-0.3-3.3l8.1-3.4v0l0,0v-0.2h-8.4l-0.4-3.4h8.8V11v0h11.3L68.4,35.1z"/>
</g>
<polygon class="st3" points="59.2,14.5 59.2,17.9 59.8,17.9 59.3,18.1 59.3,18.1 59.2,18.1 59.2,24.8 63.5,24.8 63.2,29.3 
	59.3,30.4 59.2,30.4 59.2,34.1 59.3,34.1 66.4,32 67.3,21.5 59.3,21.5 59.3,21.5 59.3,21.5 67.6,17.9 67.6,17.9 67.9,14.5 "/>
<g>
	<polygon class="st3" points="18.5,21.5 23,21.5 23,18 18.1,18 	"/>
	<path class="st3" d="M9.2,8.7l2.5,28.2L23,40.1l11.3-3.1l2.5-28.2H9.2z M32.2,35.1L23,37.7v-7.2l0,3.6l0,0l-7.1-2l-0.5-5.4h3.5
		l0.2,2.8l3.9,1l0,0V25h-7.7l-0.9-9.5l-0.1-0.9H23V11h11.3L32.2,35.1z"/>
</g>
<path class="st3" d="M11.8,1.1h1.8v1.7h1.6V1.1h1.8v5.3h-1.8V4.6h-1.6v1.8h-1.8L11.8,1.1L11.8,1.1z M19.2,2.8h-1.5V1.1h4.9v1.7H21
	v3.5h-1.8L19.2,2.8z M23.3,1.1h1.8l1.1,1.8l1.1-1.8h1.8v5.3h-1.8V3.7l-1.2,1.9h0L25,3.7v2.6h-1.7L23.3,1.1L23.3,1.1z M30.1,1.1h1.8
	v3.5h2.5v1.7h-4.2V1.1z"/>
<g>
	<path class="st3" d="M23,21.5V25h4.3l-0.4,4.5l-3.9,1v3.6l7.1-2l0.1-0.6l0.8-9.1l0.1-0.9h-0.9L23,21.5z M23,14.5V18h8.4l0.1-0.8
		l0.2-1.8l0.1-0.9L23,14.5z"/>
</g>
</svg>
